#
# Generated On: 2012-02-09T14:31:09.122761
#           By: cwa.analyze.statistics
#      Version: 11.11.23
#       Author: Thomas A. de Ruiter <thomas@de-ruiter.cx>
#
#  Commandline: /home/af10028/bin/cwa analyze
#     Work Dir: /scratch/af10028/var/thesis-project/result/workload-analyses/workload-06h-06180l-1s
#

Value	PDF	CDF
2.0	0.00244498777506	0.00285248573757
4.0	0.00285248573757	0.00570497147514
6.0	0.00285248573757	0.00855745721271
8.0	0.00244498777506	0.0110024449878
10.0	0.00244498777506	0.0134474327628
12.0	0.00244498777506	0.0158924205379
14.0	0.00285248573757	0.0187449062755
16.0	0.00122249388753	0.019967400163
18.0	0.00203748981255	0.0220048899756
20.0	0.00203748981255	0.0240423797881
22.0	0.00122249388753	0.0252648736756
24.0	0.00325998370008	0.0285248573757
26.0	0.00040749796251	0.0289323553382
28.0	0.00081499592502	0.0297473512632
30.0	0.00325998370008	0.0330073349633
33.0	0.00285248573757	0.0358598207009
35.0	0.00162999185004	0.0374898125509
38.0	0.00203748981255	0.0395273023635
40.0	0.00203748981255	0.041564792176
42.0	0.00162999185004	0.0431947840261
44.0	0.00122249388753	0.0444172779136
46.0	0.00162999185004	0.0460472697637
48.0	0.00081499592502	0.0468622656887
50.0	0.00081499592502	0.0476772616137
52.0	0.00203748981255	0.0497147514262
54.0	0.00162999185004	0.0513447432763
57.0	0.00203748981255	0.0533822330888
59.0	0.00122249388753	0.0546047269764
62.0	0.00122249388753	0.0558272208639
64.0	0.00203748981255	0.0578647106764
66.0	0.00081499592502	0.0586797066015
69.0	0.00122249388753	0.059902200489
71.0	0.00244498777506	0.0623471882641
73.0	0.00122249388753	0.0635696821516
75.0	0.00122249388753	0.0647921760391
77.0	0.00162999185004	0.0664221678892
79.0	0.00122249388753	0.0676446617767
81.0	0.00081499592502	0.0684596577017
83.0	0.00203748981255	0.0704971475143
85.0	0.00081499592502	0.0713121434393
87.0	0.00122249388753	0.0725346373268
90.0	0.00366748166259	0.0762021189894
92.0	0.00122249388753	0.0774246128769
94.0	0.00203748981255	0.0794621026895
96.0	0.00040749796251	0.079869600652
98.0	0.00122249388753	0.0810920945395
101.0	0.00122249388753	0.0823145884271
103.0	0.00122249388753	0.0835370823146
105.0	0.00122249388753	0.0847595762021
107.0	0.00122249388753	0.0859820700896
109.0	0.00122249388753	0.0872045639772
112.0	0.00162999185004	0.0888345558272
114.0	0.00081499592502	0.0896495517522
116.0	0.00162999185004	0.0912795436023
118.0	0.00081499592502	0.0920945395273
120.0	0.00081499592502	0.0929095354523
122.0	0.00040749796251	0.0933170334148
124.0	0.00040749796251	0.0937245313773
128.0	0.00081499592502	0.0945395273024
130.0	0.00162999185004	0.0961695191524
132.0	0.00162999185004	0.0977995110024
134.0	0.00162999185004	0.0994295028525
136.0	0.00081499592502	0.100244498778
139.0	0.00162999185004	0.101874490628
145.0	0.00081499592502	0.102689486553
147.0	0.00081499592502	0.103504482478
150.0	0.00040749796251	0.10391198044
152.0	0.00040749796251	0.104319478403
157.0	0.00040749796251	0.104726976365
160.0	0.00081499592502	0.10554197229
162.0	0.00081499592502	0.106356968215
167.0	0.00081499592502	0.10717196414
169.0	0.00040749796251	0.107579462103
172.0	0.00122249388753	0.10880195599
174.0	0.00040749796251	0.109209453953
177.0	0.00244498777506	0.111654441728
179.0	0.00081499592502	0.112469437653
181.0	0.00040749796251	0.112876935615
185.0	0.00040749796251	0.113284433578
187.0	0.00040749796251	0.11369193154
191.0	0.00040749796251	0.114099429503
193.0	0.00162999185004	0.115729421353
196.0	0.00122249388753	0.11695191524
198.0	0.00040749796251	0.117359413203
200.0	0.00040749796251	0.117766911165
204.0	0.00162999185004	0.119396903015
206.0	0.00162999185004	0.121026894866
209.0	0.00040749796251	0.121434392828
214.0	0.00122249388753	0.122656886716
217.0	0.00040749796251	0.123064384678
220.0	0.00203748981255	0.125101874491
227.0	0.00081499592502	0.125916870416
229.0	0.00040749796251	0.126324368378
232.0	0.00040749796251	0.126731866341
242.0	0.00040749796251	0.127139364303
245.0	0.00081499592502	0.127954360228
247.0	0.00081499592502	0.128769356153
249.0	0.00081499592502	0.129584352078
251.0	0.00081499592502	0.130399348003
253.0	0.00040749796251	0.130806845966
258.0	0.00040749796251	0.131214343928
263.0	0.00081499592502	0.132029339853
266.0	0.00122249388753	0.133251833741
268.0	0.00040749796251	0.133659331703
270.0	0.00040749796251	0.134066829666
275.0	0.00081499592502	0.134881825591
278.0	0.00040749796251	0.135289323553
282.0	0.00040749796251	0.135696821516
284.0	0.00040749796251	0.136104319478
286.0	0.00122249388753	0.137326813366
288.0	0.00081499592502	0.138141809291
293.0	0.00040749796251	0.138549307253
295.0	0.00040749796251	0.138956805216
300.0	0.00081499592502	0.139771801141
302.0	0.00081499592502	0.140586797066
311.0	0.00040749796251	0.140994295029
315.0	0.00040749796251	0.141401792991
317.0	0.00122249388753	0.142624286879
326.0	0.00040749796251	0.143031784841
328.0	0.00162999185004	0.144661776691
330.0	0.00040749796251	0.145069274654
335.0	0.00040749796251	0.145476772616
339.0	0.00081499592502	0.146291768541
341.0	0.00040749796251	0.146699266504
344.0	0.00162999185004	0.148329258354
346.0	0.00040749796251	0.148736756316
350.0	0.00081499592502	0.149551752241
353.0	0.00040749796251	0.149959250204
356.0	0.00081499592502	0.150774246129
358.0	0.00081499592502	0.151589242054
361.0	0.00081499592502	0.152404237979
363.0	0.00081499592502	0.153219233904
366.0	0.00081499592502	0.154034229829
369.0	0.00081499592502	0.154849225754
371.0	0.00040749796251	0.155256723716
373.0	0.00081499592502	0.156071719641
375.0	0.00040749796251	0.156479217604
379.0	0.00040749796251	0.156886715566
381.0	0.00081499592502	0.157701711491
383.0	0.00081499592502	0.158516707416
385.0	0.00040749796251	0.158924205379
387.0	0.00081499592502	0.159739201304
390.0	0.00081499592502	0.160554197229
393.0	0.00040749796251	0.160961695192
395.0	0.00081499592502	0.161776691117
399.0	0.00040749796251	0.162184189079
402.0	0.00122249388753	0.163406682967
404.0	0.00081499592502	0.164221678892
406.0	0.00081499592502	0.165036674817
411.0	0.00040749796251	0.165444172779
414.0	0.00040749796251	0.165851670742
416.0	0.00081499592502	0.166666666667
421.0	0.00122249388753	0.167889160554
425.0	0.00040749796251	0.168296658517
434.0	0.00040749796251	0.168704156479
436.0	0.00040749796251	0.169111654442
451.0	0.00040749796251	0.169519152404
454.0	0.00040749796251	0.169926650367
456.0	0.00040749796251	0.170334148329
458.0	0.00081499592502	0.171149144254
461.0	0.00040749796251	0.171556642217
463.0	0.00081499592502	0.172371638142
465.0	0.00040749796251	0.172779136104
467.0	0.00040749796251	0.173186634067
470.0	0.00081499592502	0.174001629992
472.0	0.00040749796251	0.174409127954
475.0	0.00081499592502	0.175224123879
479.0	0.00040749796251	0.175631621842
484.0	0.00122249388753	0.176854115729
488.0	0.00040749796251	0.177261613692
490.0	0.00040749796251	0.177669111654
493.0	0.00081499592502	0.178484107579
497.0	0.00040749796251	0.178891605542
499.0	0.00122249388753	0.18011409943
507.0	0.00122249388753	0.181336593317
510.0	0.00081499592502	0.182151589242
518.0	0.00081499592502	0.182966585167
521.0	0.00040749796251	0.18337408313
523.0	0.00040749796251	0.183781581092
528.0	0.00081499592502	0.184596577017
530.0	0.00081499592502	0.185411572942
534.0	0.00081499592502	0.186226568867
536.0	0.00081499592502	0.187041564792
543.0	0.00122249388753	0.18826405868
545.0	0.00081499592502	0.189079054605
548.0	0.00122249388753	0.190301548492
550.0	0.00040749796251	0.190709046455
552.0	0.00122249388753	0.191931540342
555.0	0.00040749796251	0.192339038305
558.0	0.00081499592502	0.19315403423
563.0	0.00040749796251	0.193561532192
567.0	0.00040749796251	0.193969030155
571.0	0.00081499592502	0.19478402608
578.0	0.00040749796251	0.195191524042
582.0	0.00081499592502	0.196006519967
584.0	0.00040749796251	0.19641401793
587.0	0.00040749796251	0.196821515892
589.0	0.00081499592502	0.197636511817
591.0	0.00081499592502	0.198451507742
593.0	0.00081499592502	0.199266503667
597.0	0.00040749796251	0.19967400163
600.0	0.00122249388753	0.200896495518
602.0	0.00040749796251	0.20130399348
608.0	0.00081499592502	0.202118989405
611.0	0.00040749796251	0.202526487368
614.0	0.00040749796251	0.20293398533
616.0	0.00040749796251	0.203341483293
618.0	0.00040749796251	0.203748981255
621.0	0.00081499592502	0.20456397718
623.0	0.00040749796251	0.204971475143
631.0	0.00040749796251	0.205378973105
633.0	0.00040749796251	0.205786471068
635.0	0.00122249388753	0.207008964955
639.0	0.00081499592502	0.20782396088
641.0	0.00040749796251	0.208231458843
648.0	0.00081499592502	0.209046454768
650.0	0.00040749796251	0.20945395273
652.0	0.00162999185004	0.21108394458
655.0	0.00122249388753	0.212306438468
661.0	0.00040749796251	0.21271393643
663.0	0.00122249388753	0.213936430318
667.0	0.00081499592502	0.214751426243
671.0	0.00040749796251	0.215158924205
675.0	0.00040749796251	0.215566422168
678.0	0.00040749796251	0.21597392013
680.0	0.00081499592502	0.216788916055
682.0	0.00081499592502	0.21760391198
691.0	0.00040749796251	0.218011409943
693.0	0.00040749796251	0.218418907905
695.0	0.00040749796251	0.218826405868
697.0	0.00040749796251	0.21923390383
701.0	0.00081499592502	0.220048899756
703.0	0.00040749796251	0.220456397718
705.0	0.00040749796251	0.220863895681
708.0	0.00081499592502	0.221678891606
712.0	0.00122249388753	0.222901385493
714.0	0.00040749796251	0.223308883456
719.0	0.00040749796251	0.223716381418
726.0	0.00040749796251	0.224123879381
728.0	0.00081499592502	0.224938875306
730.0	0.00122249388753	0.226161369193
734.0	0.00040749796251	0.226568867156
740.0	0.00081499592502	0.227383863081
742.0	0.00081499592502	0.228198859006
746.0	0.00040749796251	0.228606356968
748.0	0.00040749796251	0.229013854931
752.0	0.00040749796251	0.229421352893
754.0	0.00040749796251	0.229828850856
756.0	0.00040749796251	0.230236348818
760.0	0.00040749796251	0.230643846781
763.0	0.00081499592502	0.231458842706
767.0	0.00122249388753	0.232681336593
773.0	0.00040749796251	0.233088834556
782.0	0.00122249388753	0.234311328443
787.0	0.00162999185004	0.235941320293
792.0	0.00081499592502	0.236756316218
794.0	0.00081499592502	0.237571312143
799.0	0.00081499592502	0.238386308068
802.0	0.00081499592502	0.239201303993
804.0	0.00081499592502	0.240016299919
811.0	0.00081499592502	0.240831295844
813.0	0.00040749796251	0.241238793806
816.0	0.00081499592502	0.242053789731
822.0	0.00162999185004	0.243683781581
824.0	0.00040749796251	0.244091279544
826.0	0.00081499592502	0.244906275469
833.0	0.00040749796251	0.245313773431
837.0	0.00040749796251	0.245721271394
840.0	0.00081499592502	0.246536267319
842.0	0.00040749796251	0.246943765281
844.0	0.00162999185004	0.248573757131
847.0	0.00040749796251	0.248981255094
853.0	0.00122249388753	0.250203748981
857.0	0.00040749796251	0.250611246944
859.0	0.00203748981255	0.252648736756
863.0	0.00040749796251	0.253056234719
867.0	0.00040749796251	0.253463732681
870.0	0.00040749796251	0.253871230644
874.0	0.00122249388753	0.255093724531
879.0	0.00081499592502	0.255908720456
883.0	0.00081499592502	0.256723716381
891.0	0.00081499592502	0.257538712306
894.0	0.00081499592502	0.258353708231
896.0	0.00040749796251	0.258761206194
898.0	0.00081499592502	0.259576202119
900.0	0.00081499592502	0.260391198044
902.0	0.00040749796251	0.260798696007
911.0	0.00081499592502	0.261613691932
915.0	0.00040749796251	0.262021189894
917.0	0.00081499592502	0.262836185819
919.0	0.00081499592502	0.263651181744
921.0	0.00040749796251	0.264058679707
923.0	0.00081499592502	0.264873675632
933.0	0.00081499592502	0.265688671557
941.0	0.00122249388753	0.266911165444
943.0	0.00040749796251	0.267318663407
947.0	0.00040749796251	0.267726161369
950.0	0.00040749796251	0.268133659332
952.0	0.00040749796251	0.268541157294
956.0	0.00040749796251	0.268948655257
958.0	0.00040749796251	0.269356153219
967.0	0.00081499592502	0.270171149144
969.0	0.00081499592502	0.270986145069
972.0	0.00081499592502	0.271801140994
978.0	0.00040749796251	0.272208638957
980.0	0.00081499592502	0.273023634882
982.0	0.00040749796251	0.273431132844
984.0	0.00040749796251	0.273838630807
988.0	0.00122249388753	0.275061124694
990.0	0.00040749796251	0.275468622657
996.0	0.00040749796251	0.275876120619
1004.0	0.00081499592502	0.276691116544
1008.0	0.00122249388753	0.277913610432
1013.0	0.00122249388753	0.279136104319
1017.0	0.00081499592502	0.279951100244
1032.0	0.00081499592502	0.28076609617
1039.0	0.00122249388753	0.281988590057
1041.0	0.00040749796251	0.28239608802
1048.0	0.00040749796251	0.282803585982
1055.0	0.00040749796251	0.283211083945
1058.0	0.00040749796251	0.283618581907
1061.0	0.00040749796251	0.28402607987
1065.0	0.00122249388753	0.285248573757
1069.0	0.00081499592502	0.286063569682
1071.0	0.00040749796251	0.286471067645
1074.0	0.00081499592502	0.28728606357
1077.0	0.00040749796251	0.287693561532
1080.0	0.00122249388753	0.28891605542
1082.0	0.00122249388753	0.290138549307
1086.0	0.00081499592502	0.290953545232
1088.0	0.00040749796251	0.291361043195
1092.0	0.00081499592502	0.29217603912
1098.0	0.00040749796251	0.292583537082
1100.0	0.00081499592502	0.293398533007
1102.0	0.00040749796251	0.29380603097
1106.0	0.00040749796251	0.294213528932
1111.0	0.00081499592502	0.295028524857
1113.0	0.00040749796251	0.29543602282
1115.0	0.00040749796251	0.295843520782
1117.0	0.00081499592502	0.296658516707
1120.0	0.00081499592502	0.297473512632
1125.0	0.00040749796251	0.297881010595
1142.0	0.00040749796251	0.298288508557
1147.0	0.00040749796251	0.29869600652
1153.0	0.00040749796251	0.299103504482
1167.0	0.00040749796251	0.299511002445
1170.0	0.00040749796251	0.299918500407
1175.0	0.00081499592502	0.300733496333
1181.0	0.00040749796251	0.301140994295
1183.0	0.00081499592502	0.30195599022
1188.0	0.00081499592502	0.302770986145
1190.0	0.00081499592502	0.30358598207
1192.0	0.00040749796251	0.303993480033
1194.0	0.00040749796251	0.304400977995
1200.0	0.00081499592502	0.30521597392
1205.0	0.00040749796251	0.305623471883
1215.0	0.00040749796251	0.306030969845
1217.0	0.00081499592502	0.30684596577
1219.0	0.00040749796251	0.307253463733
1223.0	0.00040749796251	0.307660961695
1225.0	0.00122249388753	0.308883455583
1227.0	0.00081499592502	0.309698451508
1229.0	0.00040749796251	0.31010594947
1232.0	0.00122249388753	0.311328443358
1235.0	0.00040749796251	0.31173594132
1237.0	0.00122249388753	0.312958435208
1240.0	0.00081499592502	0.313773431133
1242.0	0.00081499592502	0.314588427058
1250.0	0.00040749796251	0.31499592502
1252.0	0.00040749796251	0.315403422983
1256.0	0.00081499592502	0.316218418908
1263.0	0.00081499592502	0.317033414833
1265.0	0.00081499592502	0.317848410758
1269.0	0.00040749796251	0.31825590872
1271.0	0.00040749796251	0.318663406683
1273.0	0.00040749796251	0.319070904645
1280.0	0.00162999185004	0.320700896496
1286.0	0.00040749796251	0.321108394458
1293.0	0.00040749796251	0.321515892421
1295.0	0.00081499592502	0.322330888346
1298.0	0.00081499592502	0.323145884271
1304.0	0.00122249388753	0.324368378158
1306.0	0.00040749796251	0.324775876121
1309.0	0.00040749796251	0.325183374083
1315.0	0.00081499592502	0.325998370008
1318.0	0.00081499592502	0.326813365933
1321.0	0.00040749796251	0.327220863896
1327.0	0.00040749796251	0.327628361858
1330.0	0.00040749796251	0.328035859821
1333.0	0.00122249388753	0.329258353708
1340.0	0.00162999185004	0.330888345558
1342.0	0.00040749796251	0.331295843521
1353.0	0.00040749796251	0.331703341483
1355.0	0.00040749796251	0.332110839446
1359.0	0.00040749796251	0.332518337408
1363.0	0.00081499592502	0.333333333333
1370.0	0.00122249388753	0.334555827221
1372.0	0.00081499592502	0.335370823146
1378.0	0.00081499592502	0.336185819071
1383.0	0.00040749796251	0.336593317033
1390.0	0.00040749796251	0.337000814996
1394.0	0.00040749796251	0.337408312958
1399.0	0.00081499592502	0.338223308883
1404.0	0.00040749796251	0.338630806846
1406.0	0.00040749796251	0.339038304808
1411.0	0.00081499592502	0.339853300733
1413.0	0.00081499592502	0.340668296659
1418.0	0.00040749796251	0.341075794621
1423.0	0.00040749796251	0.341483292584
1425.0	0.00040749796251	0.341890790546
1427.0	0.00081499592502	0.342705786471
1431.0	0.00040749796251	0.343113284434
1434.0	0.00040749796251	0.343520782396
1436.0	0.00040749796251	0.343928280359
1438.0	0.00081499592502	0.344743276284
1440.0	0.00040749796251	0.345150774246
1442.0	0.00040749796251	0.345558272209
1455.0	0.00122249388753	0.346780766096
1458.0	0.00040749796251	0.347188264059
1461.0	0.00040749796251	0.347595762021
1464.0	0.00040749796251	0.348003259984
1469.0	0.00081499592502	0.348818255909
1471.0	0.00040749796251	0.349225753871
1476.0	0.00081499592502	0.350040749796
1480.0	0.00081499592502	0.350855745721
1482.0	0.00040749796251	0.351263243684
1490.0	0.00040749796251	0.351670741646
1492.0	0.00122249388753	0.352893235534
1497.0	0.00081499592502	0.353708231459
1500.0	0.00040749796251	0.354115729421
1503.0	0.00040749796251	0.354523227384
1510.0	0.00040749796251	0.354930725346
1514.0	0.00081499592502	0.355745721271
1517.0	0.00122249388753	0.356968215159
1520.0	0.00081499592502	0.357783211084
1524.0	0.00040749796251	0.358190709046
1534.0	0.00081499592502	0.359005704971
1536.0	0.00081499592502	0.359820700896
1540.0	0.00081499592502	0.360635696822
1563.0	0.00040749796251	0.361043194784
1565.0	0.00040749796251	0.361450692747
1567.0	0.00040749796251	0.361858190709
1571.0	0.00081499592502	0.362673186634
1574.0	0.00081499592502	0.363488182559
1576.0	0.00081499592502	0.364303178484
1581.0	0.00081499592502	0.365118174409
1586.0	0.00081499592502	0.365933170334
1588.0	0.00040749796251	0.366340668297
1592.0	0.00040749796251	0.366748166259
1595.0	0.00040749796251	0.367155664222
1597.0	0.00040749796251	0.367563162184
1605.0	0.00040749796251	0.367970660147
1608.0	0.00081499592502	0.368785656072
1610.0	0.00040749796251	0.369193154034
1612.0	0.00081499592502	0.370008149959
1621.0	0.00040749796251	0.370415647922
1623.0	0.00040749796251	0.370823145884
1625.0	0.00040749796251	0.371230643847
1632.0	0.00081499592502	0.372045639772
1634.0	0.00122249388753	0.373268133659
1636.0	0.00081499592502	0.374083129584
1639.0	0.00040749796251	0.374490627547
1644.0	0.00040749796251	0.374898125509
1646.0	0.00040749796251	0.375305623472
1648.0	0.00081499592502	0.376120619397
1650.0	0.00040749796251	0.376528117359
1656.0	0.00081499592502	0.377343113284
1678.0	0.00040749796251	0.377750611247
1680.0	0.00040749796251	0.378158109209
1682.0	0.00081499592502	0.378973105134
1684.0	0.00040749796251	0.379380603097
1689.0	0.00040749796251	0.379788101059
1692.0	0.00040749796251	0.380195599022
1696.0	0.00040749796251	0.380603096985
1701.0	0.00040749796251	0.381010594947
1704.0	0.00040749796251	0.38141809291
1707.0	0.00040749796251	0.381825590872
1710.0	0.00081499592502	0.382640586797
1722.0	0.00081499592502	0.383455582722
1724.0	0.00040749796251	0.383863080685
1727.0	0.00081499592502	0.38467807661
1729.0	0.00122249388753	0.385900570497
1733.0	0.00040749796251	0.38630806846
1735.0	0.00081499592502	0.387123064385
1737.0	0.00040749796251	0.387530562347
1742.0	0.00040749796251	0.38793806031
1747.0	0.00081499592502	0.388753056235
1754.0	0.00162999185004	0.390383048085
1768.0	0.00040749796251	0.390790546047
1770.0	0.00040749796251	0.39119804401
1772.0	0.00081499592502	0.392013039935
1774.0	0.00040749796251	0.392420537897
1782.0	0.00040749796251	0.39282803586
1786.0	0.00081499592502	0.393643031785
1788.0	0.00040749796251	0.394050529747
1793.0	0.00040749796251	0.39445802771
1797.0	0.00162999185004	0.39608801956
1800.0	0.00122249388753	0.397310513447
1803.0	0.00081499592502	0.398125509372
1813.0	0.00040749796251	0.398533007335
1816.0	0.00040749796251	0.398940505297
1819.0	0.00081499592502	0.399755501222
1827.0	0.00040749796251	0.400162999185
1837.0	0.00040749796251	0.400570497148
1840.0	0.00040749796251	0.40097799511
1843.0	0.00122249388753	0.402200488998
1851.0	0.00040749796251	0.40260798696
1853.0	0.00040749796251	0.403015484923
1857.0	0.00040749796251	0.403422982885
1860.0	0.00081499592502	0.40423797881
1862.0	0.00040749796251	0.404645476773
1864.0	0.00040749796251	0.405052974735
1869.0	0.00040749796251	0.405460472698
1873.0	0.00081499592502	0.406275468623
1875.0	0.00081499592502	0.407090464548
1884.0	0.00040749796251	0.40749796251
1890.0	0.00081499592502	0.408312958435
1894.0	0.00040749796251	0.408720456398
1897.0	0.00081499592502	0.409535452323
1899.0	0.00040749796251	0.409942950285
1903.0	0.00040749796251	0.410350448248
1909.0	0.00040749796251	0.41075794621
1913.0	0.00040749796251	0.411165444173
1915.0	0.00040749796251	0.411572942135
1919.0	0.00081499592502	0.41238793806
1922.0	0.00040749796251	0.412795436023
1929.0	0.00040749796251	0.413202933985
1933.0	0.00040749796251	0.413610431948
1936.0	0.00040749796251	0.41401792991
1939.0	0.00040749796251	0.414425427873
1941.0	0.00081499592502	0.415240423798
1945.0	0.00040749796251	0.41564792176
1950.0	0.00040749796251	0.416055419723
1952.0	0.00040749796251	0.416462917685
1955.0	0.00040749796251	0.416870415648
1959.0	0.00040749796251	0.41727791361
1962.0	0.00040749796251	0.417685411573
1966.0	0.00081499592502	0.418500407498
1970.0	0.00040749796251	0.41890790546
1972.0	0.00040749796251	0.419315403423
1976.0	0.00081499592502	0.420130399348
1995.0	0.00040749796251	0.420537897311
1997.0	0.00081499592502	0.421352893236
2003.0	0.00040749796251	0.421760391198
2007.0	0.00040749796251	0.422167889161
2009.0	0.00040749796251	0.422575387123
2013.0	0.00040749796251	0.422982885086
2019.0	0.00040749796251	0.423390383048
2027.0	0.00040749796251	0.423797881011
2029.0	0.00040749796251	0.424205378973
2031.0	0.00081499592502	0.425020374898
2035.0	0.00081499592502	0.425835370823
2038.0	0.00040749796251	0.426242868786
2041.0	0.00081499592502	0.427057864711
2043.0	0.00040749796251	0.427465362673
2049.0	0.00122249388753	0.428687856561
2052.0	0.00040749796251	0.429095354523
2057.0	0.00081499592502	0.429910350448
2064.0	0.00081499592502	0.430725346373
2067.0	0.00040749796251	0.431132844336
2071.0	0.00040749796251	0.431540342298
2080.0	0.00040749796251	0.431947840261
2085.0	0.00040749796251	0.432355338223
2093.0	0.00040749796251	0.432762836186
2096.0	0.00081499592502	0.433577832111
2099.0	0.00040749796251	0.433985330073
2101.0	0.00040749796251	0.434392828036
2103.0	0.00081499592502	0.435207823961
2106.0	0.00040749796251	0.435615321923
2116.0	0.00040749796251	0.436022819886
2120.0	0.00040749796251	0.436430317848
2122.0	0.00081499592502	0.437245313773
2126.0	0.00040749796251	0.437652811736
2129.0	0.00040749796251	0.438060309698
2132.0	0.00081499592502	0.438875305623
2136.0	0.00040749796251	0.439282803586
2147.0	0.00040749796251	0.439690301548
2150.0	0.00040749796251	0.440097799511
2163.0	0.00040749796251	0.440505297474
2167.0	0.00040749796251	0.440912795436
2178.0	0.00040749796251	0.441320293399
2180.0	0.00081499592502	0.442135289324
2182.0	0.00040749796251	0.442542787286
2184.0	0.00040749796251	0.442950285249
2186.0	0.00122249388753	0.444172779136
2192.0	0.00040749796251	0.444580277099
2194.0	0.00040749796251	0.444987775061
2207.0	0.00040749796251	0.445395273024
2215.0	0.00081499592502	0.446210268949
2219.0	0.00040749796251	0.446617766911
2222.0	0.00081499592502	0.447432762836
2239.0	0.00040749796251	0.447840260799
2242.0	0.00040749796251	0.448247758761
2245.0	0.00081499592502	0.449062754686
2249.0	0.00040749796251	0.449470252649
2251.0	0.00040749796251	0.449877750611
2256.0	0.00040749796251	0.450285248574
2266.0	0.00040749796251	0.450692746536
2269.0	0.00040749796251	0.451100244499
2274.0	0.00040749796251	0.451507742461
2278.0	0.00040749796251	0.451915240424
2284.0	0.00081499592502	0.452730236349
2287.0	0.00081499592502	0.453545232274
2290.0	0.00040749796251	0.453952730236
2293.0	0.00122249388753	0.455175224124
2301.0	0.00040749796251	0.455582722086
2308.0	0.00040749796251	0.455990220049
2311.0	0.00040749796251	0.456397718011
2313.0	0.00040749796251	0.456805215974
2323.0	0.00040749796251	0.457212713936
2325.0	0.00040749796251	0.457620211899
2330.0	0.00040749796251	0.458027709861
2334.0	0.00040749796251	0.458435207824
2336.0	0.00081499592502	0.459250203749
2338.0	0.00040749796251	0.459657701711
2341.0	0.00040749796251	0.460065199674
2354.0	0.00040749796251	0.460472697637
2368.0	0.00040749796251	0.460880195599
2372.0	0.00081499592502	0.461695191524
2377.0	0.00040749796251	0.462102689487
2385.0	0.00040749796251	0.462510187449
2395.0	0.00040749796251	0.462917685412
2398.0	0.00081499592502	0.463732681337
2400.0	0.00040749796251	0.464140179299
2405.0	0.00040749796251	0.464547677262
2407.0	0.00040749796251	0.464955175224
2421.0	0.00040749796251	0.465362673187
2424.0	0.00040749796251	0.465770171149
2434.0	0.00040749796251	0.466177669112
2437.0	0.00040749796251	0.466585167074
2443.0	0.00081499592502	0.467400162999
2445.0	0.00040749796251	0.467807660962
2447.0	0.00040749796251	0.468215158924
2449.0	0.00081499592502	0.469030154849
2451.0	0.00081499592502	0.469845150774
2456.0	0.00081499592502	0.470660146699
2460.0	0.00081499592502	0.471475142624
2462.0	0.00122249388753	0.472697636512
2471.0	0.00081499592502	0.473512632437
2473.0	0.00081499592502	0.474327628362
2478.0	0.00040749796251	0.474735126324
2480.0	0.00122249388753	0.475957620212
2486.0	0.00081499592502	0.476772616137
2489.0	0.00040749796251	0.477180114099
2492.0	0.00040749796251	0.477587612062
2496.0	0.00081499592502	0.478402607987
2501.0	0.00040749796251	0.478810105949
2504.0	0.00081499592502	0.479625101874
2506.0	0.00081499592502	0.4804400978
2508.0	0.00040749796251	0.480847595762
2511.0	0.00081499592502	0.481662591687
2520.0	0.00040749796251	0.48207008965
2527.0	0.00040749796251	0.482477587612
2529.0	0.00040749796251	0.482885085575
2533.0	0.00040749796251	0.483292583537
2536.0	0.00040749796251	0.4837000815
2539.0	0.00122249388753	0.484922575387
2542.0	0.00040749796251	0.48533007335
2544.0	0.00081499592502	0.486145069275
2547.0	0.00081499592502	0.4869600652
2550.0	0.00040749796251	0.487367563162
2558.0	0.00081499592502	0.488182559087
2563.0	0.00081499592502	0.488997555012
2570.0	0.00040749796251	0.489405052975
2573.0	0.00040749796251	0.489812550937
2576.0	0.00162999185004	0.491442542787
2578.0	0.00040749796251	0.49185004075
2581.0	0.00040749796251	0.492257538712
2590.0	0.00081499592502	0.493072534637
2592.0	0.00040749796251	0.4934800326
2594.0	0.00081499592502	0.494295028525
2596.0	0.00081499592502	0.49511002445
2598.0	0.00040749796251	0.495517522412
2600.0	0.00040749796251	0.495925020375
2602.0	0.00040749796251	0.496332518337
2607.0	0.00040749796251	0.4967400163
2609.0	0.00040749796251	0.497147514262
2611.0	0.00122249388753	0.49837000815
2614.0	0.00040749796251	0.498777506112
2620.0	0.00040749796251	0.499185004075
2622.0	0.00040749796251	0.499592502037
2624.0	0.00040749796251	0.5
2632.0	0.00081499592502	0.500814995925
2635.0	0.00040749796251	0.501222493888
2637.0	0.00040749796251	0.50162999185
2642.0	0.00040749796251	0.502037489813
2654.0	0.00040749796251	0.502444987775
2660.0	0.00040749796251	0.502852485738
2666.0	0.00122249388753	0.504074979625
2670.0	0.00040749796251	0.504482477588
2681.0	0.00040749796251	0.50488997555
2687.0	0.00040749796251	0.505297473513
2689.0	0.00040749796251	0.505704971475
2693.0	0.00040749796251	0.506112469438
2695.0	0.00081499592502	0.506927465363
2697.0	0.00081499592502	0.507742461288
2701.0	0.00040749796251	0.50814995925
2705.0	0.00040749796251	0.508557457213
2713.0	0.00081499592502	0.509372453138
2716.0	0.00040749796251	0.5097799511
2718.0	0.00040749796251	0.510187449063
2721.0	0.00040749796251	0.510594947025
2723.0	0.00040749796251	0.511002444988
2726.0	0.00040749796251	0.51140994295
2737.0	0.00040749796251	0.511817440913
2739.0	0.00040749796251	0.512224938875
2744.0	0.00081499592502	0.5130399348
2746.0	0.00040749796251	0.513447432763
2749.0	0.00040749796251	0.513854930725
2752.0	0.00040749796251	0.514262428688
2775.0	0.00040749796251	0.51466992665
2779.0	0.00081499592502	0.515484922575
2788.0	0.00081499592502	0.5162999185
2799.0	0.00040749796251	0.516707416463
2813.0	0.00040749796251	0.517114914425
2816.0	0.00081499592502	0.51792991035
2821.0	0.00040749796251	0.518337408313
2824.0	0.00040749796251	0.518744906275
2828.0	0.00081499592502	0.5195599022
2831.0	0.00040749796251	0.519967400163
2839.0	0.00040749796251	0.520374898126
2842.0	0.00040749796251	0.520782396088
2844.0	0.00040749796251	0.521189894051
2856.0	0.00081499592502	0.522004889976
2858.0	0.00040749796251	0.522412387938
2870.0	0.00081499592502	0.523227383863
2875.0	0.00040749796251	0.523634881826
2880.0	0.00040749796251	0.524042379788
2884.0	0.00122249388753	0.525264873676
2889.0	0.00081499592502	0.526079869601
2891.0	0.00040749796251	0.526487367563
2897.0	0.00081499592502	0.527302363488
2903.0	0.00040749796251	0.527709861451
2907.0	0.00081499592502	0.528524857376
2911.0	0.00040749796251	0.528932355338
2917.0	0.00040749796251	0.529339853301
2929.0	0.00040749796251	0.529747351263
2932.0	0.00040749796251	0.530154849226
2939.0	0.00040749796251	0.530562347188
2943.0	0.00040749796251	0.530969845151
2945.0	0.00040749796251	0.531377343113
2947.0	0.00040749796251	0.531784841076
2949.0	0.00040749796251	0.532192339038
2951.0	0.00122249388753	0.533414832926
2954.0	0.00040749796251	0.533822330888
2957.0	0.00040749796251	0.534229828851
2960.0	0.00040749796251	0.534637326813
2967.0	0.00081499592502	0.535452322738
2976.0	0.00040749796251	0.535859820701
2979.0	0.00040749796251	0.536267318663
2985.0	0.00081499592502	0.537082314588
2990.0	0.00040749796251	0.537489812551
2992.0	0.00040749796251	0.537897310513
2995.0	0.00040749796251	0.538304808476
2998.0	0.00040749796251	0.538712306438
3000.0	0.00040749796251	0.539119804401
3004.0	0.00040749796251	0.539527302363
3006.0	0.00081499592502	0.540342298289
3010.0	0.00040749796251	0.540749796251
3012.0	0.00040749796251	0.541157294214
3015.0	0.00081499592502	0.541972290139
3018.0	0.00040749796251	0.542379788101
3021.0	0.00081499592502	0.543194784026
3025.0	0.00040749796251	0.543602281989
3061.0	0.00040749796251	0.544009779951
3068.0	0.00040749796251	0.544417277914
3075.0	0.00040749796251	0.544824775876
3078.0	0.00040749796251	0.545232273839
3082.0	0.00040749796251	0.545639771801
3087.0	0.00040749796251	0.546047269764
3095.0	0.00040749796251	0.546454767726
3097.0	0.00040749796251	0.546862265689
3099.0	0.00040749796251	0.547269763651
3101.0	0.00040749796251	0.547677261614
3104.0	0.00040749796251	0.548084759576
3107.0	0.00081499592502	0.548899755501
3116.0	0.00040749796251	0.549307253464
3128.0	0.00081499592502	0.550122249389
3132.0	0.00040749796251	0.550529747351
3140.0	0.00081499592502	0.551344743276
3146.0	0.00040749796251	0.551752241239
3149.0	0.00040749796251	0.552159739201
3156.0	0.00081499592502	0.552974735126
3158.0	0.00040749796251	0.553382233089
3171.0	0.00040749796251	0.553789731051
3174.0	0.00040749796251	0.554197229014
3176.0	0.00040749796251	0.554604726976
3182.0	0.00040749796251	0.555012224939
3185.0	0.00040749796251	0.555419722901
3192.0	0.00040749796251	0.555827220864
3198.0	0.00040749796251	0.556234718826
3201.0	0.00040749796251	0.556642216789
3205.0	0.00040749796251	0.557049714751
3208.0	0.00040749796251	0.557457212714
3215.0	0.00040749796251	0.557864710676
3219.0	0.00040749796251	0.558272208639
3229.0	0.00081499592502	0.559087204564
3236.0	0.00040749796251	0.559494702526
3240.0	0.00081499592502	0.560309698452
3245.0	0.00040749796251	0.560717196414
3249.0	0.00040749796251	0.561124694377
3255.0	0.00040749796251	0.561532192339
3258.0	0.00040749796251	0.561939690302
3263.0	0.00040749796251	0.562347188264
3267.0	0.00081499592502	0.563162184189
3269.0	0.00040749796251	0.563569682152
3273.0	0.00081499592502	0.564384678077
3276.0	0.00040749796251	0.564792176039
3279.0	0.00040749796251	0.565199674002
3293.0	0.00081499592502	0.566014669927
3295.0	0.00040749796251	0.566422167889
3297.0	0.00081499592502	0.567237163814
3302.0	0.00040749796251	0.567644661777
3307.0	0.00040749796251	0.568052159739
3311.0	0.00040749796251	0.568459657702
3319.0	0.00040749796251	0.568867155664
3327.0	0.00081499592502	0.569682151589
3333.0	0.00040749796251	0.570089649552
3337.0	0.00040749796251	0.570497147514
3346.0	0.00081499592502	0.571312143439
3351.0	0.00040749796251	0.571719641402
3353.0	0.00040749796251	0.572127139364
3356.0	0.00040749796251	0.572534637327
3363.0	0.00040749796251	0.572942135289
3369.0	0.00040749796251	0.573349633252
3383.0	0.00040749796251	0.573757131214
3390.0	0.00040749796251	0.574164629177
3410.0	0.00081499592502	0.574979625102
3415.0	0.00040749796251	0.575387123064
3417.0	0.00040749796251	0.575794621027
3420.0	0.00081499592502	0.576609616952
3429.0	0.00081499592502	0.577424612877
3431.0	0.00040749796251	0.577832110839
3434.0	0.00040749796251	0.578239608802
3443.0	0.00081499592502	0.579054604727
3446.0	0.00081499592502	0.579869600652
3450.0	0.00040749796251	0.580277098615
3453.0	0.00040749796251	0.580684596577
3458.0	0.00040749796251	0.58109209454
3461.0	0.00081499592502	0.581907090465
3463.0	0.00040749796251	0.582314588427
3473.0	0.00081499592502	0.583129584352
3476.0	0.00040749796251	0.583537082315
3478.0	0.00081499592502	0.58435207824
3482.0	0.00040749796251	0.584759576202
3487.0	0.00081499592502	0.585574572127
3489.0	0.00040749796251	0.58598207009
3499.0	0.00040749796251	0.586389568052
3506.0	0.00122249388753	0.58761206194
3512.0	0.00040749796251	0.588019559902
3532.0	0.00081499592502	0.588834555827
3535.0	0.00122249388753	0.590057049715
3547.0	0.00040749796251	0.590464547677
3550.0	0.00040749796251	0.59087204564
3554.0	0.00040749796251	0.591279543602
3558.0	0.00040749796251	0.591687041565
3561.0	0.00081499592502	0.59250203749
3567.0	0.00040749796251	0.592909535452
3569.0	0.00081499592502	0.593724531377
3577.0	0.00081499592502	0.594539527302
3580.0	0.00040749796251	0.594947025265
3585.0	0.00040749796251	0.595354523227
3592.0	0.00040749796251	0.59576202119
3594.0	0.00040749796251	0.596169519152
3603.0	0.00081499592502	0.596984515077
3605.0	0.00040749796251	0.59739201304
3609.0	0.00040749796251	0.597799511002
3612.0	0.00040749796251	0.598207008965
3615.0	0.00040749796251	0.598614506927
3621.0	0.00122249388753	0.599837000815
3625.0	0.00040749796251	0.600244498778
3637.0	0.00040749796251	0.60065199674
3643.0	0.00040749796251	0.601059494703
3653.0	0.00081499592502	0.601874490628
3662.0	0.00040749796251	0.60228198859
3666.0	0.00040749796251	0.602689486553
3677.0	0.00081499592502	0.603504482478
3680.0	0.00081499592502	0.604319478403
3693.0	0.00081499592502	0.605134474328
3719.0	0.00040749796251	0.60554197229
3730.0	0.00040749796251	0.605949470253
3736.0	0.00040749796251	0.606356968215
3739.0	0.00081499592502	0.60717196414
3743.0	0.00040749796251	0.607579462103
3746.0	0.00040749796251	0.607986960065
3751.0	0.00081499592502	0.60880195599
3756.0	0.00040749796251	0.609209453953
3761.0	0.00081499592502	0.610024449878
3765.0	0.00081499592502	0.610839445803
3767.0	0.00040749796251	0.611246943765
3776.0	0.00040749796251	0.611654441728
3780.0	0.00040749796251	0.61206193969
3784.0	0.00040749796251	0.612469437653
3786.0	0.00040749796251	0.612876935615
3789.0	0.00081499592502	0.61369193154
3794.0	0.00122249388753	0.614914425428
3805.0	0.00040749796251	0.61532192339
3809.0	0.00040749796251	0.615729421353
3812.0	0.00040749796251	0.616136919315
3815.0	0.00040749796251	0.616544417278
3817.0	0.00040749796251	0.61695191524
3827.0	0.00081499592502	0.617766911165
3831.0	0.00040749796251	0.618174409128
3834.0	0.00040749796251	0.61858190709
3838.0	0.00040749796251	0.618989405053
3841.0	0.00040749796251	0.619396903015
3859.0	0.00040749796251	0.619804400978
3863.0	0.00081499592502	0.620619396903
3869.0	0.00081499592502	0.621434392828
3873.0	0.00040749796251	0.621841890791
3877.0	0.00081499592502	0.622656886716
3882.0	0.00081499592502	0.623471882641
3887.0	0.00081499592502	0.624286878566
3891.0	0.00040749796251	0.624694376528
3893.0	0.00122249388753	0.625916870416
3895.0	0.00081499592502	0.626731866341
3908.0	0.00040749796251	0.627139364303
3910.0	0.00040749796251	0.627546862266
3916.0	0.00040749796251	0.627954360228
3920.0	0.00081499592502	0.628769356153
3934.0	0.00040749796251	0.629176854116
3941.0	0.00081499592502	0.629991850041
3950.0	0.00081499592502	0.630806845966
3954.0	0.00040749796251	0.631214343928
3956.0	0.00040749796251	0.631621841891
3964.0	0.00040749796251	0.632029339853
3967.0	0.00040749796251	0.632436837816
4011.0	0.00040749796251	0.632844335778
4017.0	0.00040749796251	0.633251833741
4020.0	0.00040749796251	0.633659331703
4027.0	0.00040749796251	0.634066829666
4031.0	0.00040749796251	0.634474327628
4035.0	0.00040749796251	0.634881825591
4040.0	0.00040749796251	0.635289323553
4043.0	0.00081499592502	0.636104319478
4051.0	0.00040749796251	0.636511817441
4056.0	0.00040749796251	0.636919315403
4065.0	0.00081499592502	0.637734311328
4067.0	0.00040749796251	0.638141809291
4069.0	0.00040749796251	0.638549307253
4073.0	0.00040749796251	0.638956805216
4076.0	0.00081499592502	0.639771801141
4079.0	0.00040749796251	0.640179299104
4082.0	0.00081499592502	0.640994295029
4086.0	0.00040749796251	0.641401792991
4089.0	0.00040749796251	0.641809290954
4092.0	0.00040749796251	0.642216788916
4096.0	0.00040749796251	0.642624286879
4098.0	0.00040749796251	0.643031784841
4104.0	0.00081499592502	0.643846780766
4118.0	0.00040749796251	0.644254278729
4138.0	0.00040749796251	0.644661776691
4143.0	0.00040749796251	0.645069274654
4149.0	0.00040749796251	0.645476772616
4152.0	0.00081499592502	0.646291768541
4160.0	0.00081499592502	0.647106764466
4168.0	0.00081499592502	0.647921760391
4173.0	0.00040749796251	0.648329258354
4177.0	0.00040749796251	0.648736756316
4179.0	0.00040749796251	0.649144254279
4184.0	0.00040749796251	0.649551752241
4188.0	0.00081499592502	0.650366748166
4192.0	0.00040749796251	0.650774246129
4210.0	0.00040749796251	0.651181744091
4214.0	0.00081499592502	0.651996740016
4218.0	0.00040749796251	0.652404237979
4225.0	0.00040749796251	0.652811735941
4227.0	0.00081499592502	0.653626731866
4235.0	0.00081499592502	0.654441727791
4240.0	0.00040749796251	0.654849225754
4247.0	0.00040749796251	0.655256723716
4272.0	0.00040749796251	0.655664221679
4279.0	0.00081499592502	0.656479217604
4287.0	0.00040749796251	0.656886715566
4291.0	0.00040749796251	0.657294213529
4294.0	0.00040749796251	0.657701711491
4296.0	0.00040749796251	0.658109209454
4308.0	0.00040749796251	0.658516707416
4314.0	0.00081499592502	0.659331703341
4323.0	0.00040749796251	0.659739201304
4326.0	0.00040749796251	0.660146699267
4335.0	0.00040749796251	0.660554197229
4341.0	0.00040749796251	0.660961695192
4351.0	0.00040749796251	0.661369193154
4361.0	0.00040749796251	0.661776691117
4364.0	0.00081499592502	0.662591687042
4377.0	0.00040749796251	0.662999185004
4383.0	0.00081499592502	0.663814180929
4387.0	0.00040749796251	0.664221678892
4395.0	0.00040749796251	0.664629176854
4397.0	0.00040749796251	0.665036674817
4399.0	0.00040749796251	0.665444172779
4411.0	0.00040749796251	0.665851670742
4420.0	0.00081499592502	0.666666666667
4423.0	0.00081499592502	0.667481662592
4427.0	0.00040749796251	0.667889160554
4431.0	0.00040749796251	0.668296658517
4439.0	0.00081499592502	0.669111654442
4452.0	0.00040749796251	0.669519152404
4462.0	0.00040749796251	0.669926650367
4466.0	0.00040749796251	0.670334148329
4469.0	0.00040749796251	0.670741646292
4474.0	0.00122249388753	0.671964140179
4478.0	0.00040749796251	0.672371638142
4484.0	0.00081499592502	0.673186634067
4488.0	0.00081499592502	0.674001629992
4499.0	0.00040749796251	0.674409127954
4507.0	0.00040749796251	0.674816625917
4517.0	0.00040749796251	0.675224123879
4524.0	0.00040749796251	0.675631621842
4542.0	0.00040749796251	0.676039119804
4562.0	0.00081499592502	0.676854115729
4564.0	0.00040749796251	0.677261613692
4566.0	0.00040749796251	0.677669111654
4576.0	0.00040749796251	0.678076609617
4580.0	0.00040749796251	0.678484107579
4584.0	0.00081499592502	0.679299103504
4587.0	0.00040749796251	0.679706601467
4594.0	0.00040749796251	0.68011409943
4625.0	0.00040749796251	0.680521597392
4632.0	0.00040749796251	0.680929095355
4641.0	0.00081499592502	0.68174409128
4643.0	0.00040749796251	0.682151589242
4655.0	0.00040749796251	0.682559087205
4664.0	0.00040749796251	0.682966585167
4668.0	0.00040749796251	0.68337408313
4677.0	0.00081499592502	0.684189079055
4682.0	0.00040749796251	0.684596577017
4684.0	0.00162999185004	0.686226568867
4701.0	0.00040749796251	0.68663406683
4713.0	0.00081499592502	0.687449062755
4715.0	0.00040749796251	0.687856560717
4719.0	0.00040749796251	0.68826405868
4723.0	0.00040749796251	0.688671556642
4725.0	0.00040749796251	0.689079054605
4727.0	0.00040749796251	0.689486552567
4730.0	0.00040749796251	0.68989405053
4733.0	0.00040749796251	0.690301548492
4742.0	0.00040749796251	0.690709046455
4746.0	0.00040749796251	0.691116544417
4769.0	0.00040749796251	0.69152404238
4784.0	0.00040749796251	0.691931540342
4790.0	0.00040749796251	0.692339038305
4793.0	0.00040749796251	0.692746536267
4798.0	0.00040749796251	0.69315403423
4801.0	0.00040749796251	0.693561532192
4803.0	0.00040749796251	0.693969030155
4811.0	0.00040749796251	0.694376528117
4813.0	0.00081499592502	0.695191524042
4815.0	0.00040749796251	0.695599022005
4825.0	0.00081499592502	0.69641401793
4828.0	0.00122249388753	0.697636511817
4838.0	0.00081499592502	0.698451507742
4864.0	0.00040749796251	0.698859005705
4871.0	0.00040749796251	0.699266503667
4874.0	0.00040749796251	0.69967400163
4879.0	0.00040749796251	0.700081499593
4896.0	0.00081499592502	0.700896495518
4898.0	0.00040749796251	0.70130399348
4905.0	0.00040749796251	0.701711491443
4909.0	0.00040749796251	0.702118989405
4913.0	0.00040749796251	0.702526487368
4915.0	0.00081499592502	0.703341483293
4917.0	0.00040749796251	0.703748981255
4931.0	0.00081499592502	0.70456397718
4957.0	0.00040749796251	0.704971475143
4973.0	0.00040749796251	0.705378973105
4978.0	0.00081499592502	0.70619396903
4986.0	0.00040749796251	0.706601466993
4989.0	0.00040749796251	0.707008964955
5006.0	0.00040749796251	0.707416462918
5025.0	0.00040749796251	0.70782396088
5027.0	0.00040749796251	0.708231458843
5037.0	0.00040749796251	0.708638956805
5065.0	0.00081499592502	0.70945395273
5068.0	0.00040749796251	0.709861450693
5072.0	0.00122249388753	0.71108394458
5082.0	0.00040749796251	0.711491442543
5088.0	0.00040749796251	0.711898940505
5101.0	0.00040749796251	0.712306438468
5106.0	0.00040749796251	0.71271393643
5109.0	0.00040749796251	0.713121434393
5111.0	0.00040749796251	0.713528932355
5121.0	0.00040749796251	0.713936430318
5150.0	0.00040749796251	0.71434392828
5160.0	0.00040749796251	0.714751426243
5168.0	0.00122249388753	0.71597392013
5175.0	0.00040749796251	0.716381418093
5181.0	0.00081499592502	0.717196414018
5193.0	0.00040749796251	0.71760391198
5219.0	0.00040749796251	0.718011409943
5227.0	0.00081499592502	0.718826405868
5231.0	0.00040749796251	0.71923390383
5237.0	0.00081499592502	0.720048899756
5239.0	0.00040749796251	0.720456397718
5243.0	0.00040749796251	0.720863895681
5253.0	0.00040749796251	0.721271393643
5262.0	0.00081499592502	0.722086389568
5267.0	0.00040749796251	0.722493887531
5288.0	0.00040749796251	0.722901385493
5296.0	0.00040749796251	0.723308883456
5308.0	0.00040749796251	0.723716381418
5326.0	0.00040749796251	0.724123879381
5330.0	0.00040749796251	0.724531377343
5338.0	0.00040749796251	0.724938875306
5343.0	0.00081499592502	0.725753871231
5345.0	0.00040749796251	0.726161369193
5351.0	0.00040749796251	0.726568867156
5361.0	0.00081499592502	0.727383863081
5363.0	0.00040749796251	0.727791361043
5366.0	0.00162999185004	0.729421352893
5369.0	0.00040749796251	0.729828850856
5372.0	0.00040749796251	0.730236348818
5374.0	0.00040749796251	0.730643846781
5379.0	0.00040749796251	0.731051344743
5382.0	0.00122249388753	0.732273838631
5390.0	0.00081499592502	0.733088834556
5395.0	0.00040749796251	0.733496332518
5397.0	0.00040749796251	0.733903830481
5403.0	0.00040749796251	0.734311328443
5405.0	0.00040749796251	0.734718826406
5408.0	0.00040749796251	0.735126324368
5412.0	0.00081499592502	0.735941320293
5423.0	0.00040749796251	0.736348818256
5437.0	0.00040749796251	0.736756316218
5462.0	0.00040749796251	0.737163814181
5473.0	0.00040749796251	0.737571312143
5484.0	0.00040749796251	0.737978810106
5504.0	0.00040749796251	0.738386308068
5517.0	0.00040749796251	0.738793806031
5528.0	0.00040749796251	0.739201303993
5534.0	0.00040749796251	0.739608801956
5536.0	0.00040749796251	0.740016299919
5545.0	0.00040749796251	0.740423797881
5548.0	0.00040749796251	0.740831295844
5553.0	0.00040749796251	0.741238793806
5564.0	0.00040749796251	0.741646291769
5571.0	0.00040749796251	0.742053789731
5598.0	0.00081499592502	0.742868785656
5604.0	0.00040749796251	0.743276283619
5610.0	0.00040749796251	0.743683781581
5630.0	0.00081499592502	0.744498777506
5632.0	0.00040749796251	0.744906275469
5634.0	0.00040749796251	0.745313773431
5639.0	0.00122249388753	0.746536267319
5648.0	0.00081499592502	0.747351263244
5655.0	0.00040749796251	0.747758761206
5657.0	0.00040749796251	0.748166259169
5664.0	0.00040749796251	0.748573757131
5670.0	0.00040749796251	0.748981255094
5680.0	0.00040749796251	0.749388753056
5692.0	0.00040749796251	0.749796251019
5715.0	0.00040749796251	0.750203748981
5735.0	0.00040749796251	0.750611246944
5746.0	0.00081499592502	0.751426242869
5759.0	0.00040749796251	0.751833740831
5777.0	0.00040749796251	0.752241238794
5781.0	0.00040749796251	0.752648736756
5795.0	0.00040749796251	0.753056234719
5815.0	0.00040749796251	0.753463732681
5819.0	0.00040749796251	0.753871230644
5821.0	0.00040749796251	0.754278728606
5843.0	0.00040749796251	0.754686226569
5866.0	0.00040749796251	0.755093724531
5868.0	0.00040749796251	0.755501222494
5877.0	0.00040749796251	0.755908720456
5880.0	0.00122249388753	0.757131214344
5887.0	0.00040749796251	0.757538712306
5907.0	0.00081499592502	0.758353708231
5913.0	0.00040749796251	0.758761206194
5915.0	0.00040749796251	0.759168704156
5920.0	0.00040749796251	0.759576202119
5926.0	0.00040749796251	0.759983700081
5932.0	0.00040749796251	0.760391198044
5934.0	0.00081499592502	0.761206193969
5941.0	0.00040749796251	0.761613691932
5955.0	0.00081499592502	0.762428687857
5960.0	0.00040749796251	0.762836185819
5966.0	0.00040749796251	0.763243683782
5971.0	0.00040749796251	0.763651181744
5977.0	0.00081499592502	0.764466177669
5999.0	0.00040749796251	0.764873675632
6011.0	0.00040749796251	0.765281173594
6027.0	0.00040749796251	0.765688671557
6041.0	0.00040749796251	0.766096169519
6057.0	0.00040749796251	0.766503667482
6067.0	0.00081499592502	0.767318663407
6072.0	0.00040749796251	0.767726161369
6088.0	0.00040749796251	0.768133659332
6101.0	0.00040749796251	0.768541157294
6119.0	0.00040749796251	0.768948655257
6127.0	0.00040749796251	0.769356153219
6131.0	0.00040749796251	0.769763651182
6134.0	0.00040749796251	0.770171149144
6139.0	0.00081499592502	0.770986145069
6141.0	0.00040749796251	0.771393643032
6154.0	0.00040749796251	0.771801140994
6163.0	0.00040749796251	0.772208638957
6169.0	0.00040749796251	0.772616136919
6177.0	0.00081499592502	0.773431132844
6179.0	0.00040749796251	0.773838630807
6199.0	0.00040749796251	0.774246128769
6214.0	0.00081499592502	0.775061124694
6221.0	0.00081499592502	0.775876120619
6223.0	0.00040749796251	0.776283618582
6233.0	0.00040749796251	0.776691116544
6243.0	0.00081499592502	0.777506112469
6253.0	0.00040749796251	0.777913610432
6264.0	0.00040749796251	0.778321108394
6280.0	0.00081499592502	0.779136104319
6302.0	0.00040749796251	0.779543602282
6309.0	0.00040749796251	0.779951100244
6319.0	0.00040749796251	0.780358598207
6324.0	0.00040749796251	0.78076609617
6336.0	0.00040749796251	0.781173594132
6346.0	0.00040749796251	0.781581092095
6356.0	0.00040749796251	0.781988590057
6364.0	0.00040749796251	0.78239608802
6367.0	0.00040749796251	0.782803585982
6376.0	0.00040749796251	0.783211083945
6379.0	0.00040749796251	0.783618581907
6396.0	0.00040749796251	0.78402607987
6411.0	0.00081499592502	0.784841075795
6435.0	0.00040749796251	0.785248573757
6447.0	0.00040749796251	0.78565607172
6452.0	0.00081499592502	0.786471067645
6458.0	0.00081499592502	0.78728606357
6475.0	0.00081499592502	0.788101059495
6519.0	0.00040749796251	0.788508557457
6530.0	0.00081499592502	0.789323553382
6546.0	0.00040749796251	0.789731051345
6552.0	0.00040749796251	0.790138549307
6560.0	0.00040749796251	0.79054604727
6562.0	0.00081499592502	0.791361043195
6569.0	0.00040749796251	0.791768541157
6585.0	0.00040749796251	0.79217603912
6587.0	0.00040749796251	0.792583537082
6590.0	0.00040749796251	0.792991035045
6594.0	0.00040749796251	0.793398533007
6596.0	0.00040749796251	0.79380603097
6602.0	0.00040749796251	0.794213528932
6628.0	0.00081499592502	0.795028524857
6635.0	0.00040749796251	0.79543602282
6667.0	0.00040749796251	0.795843520782
6672.0	0.00040749796251	0.796251018745
6682.0	0.00040749796251	0.796658516707
6684.0	0.00040749796251	0.79706601467
6694.0	0.00040749796251	0.797473512632
6699.0	0.00040749796251	0.797881010595
6707.0	0.00040749796251	0.798288508557
6716.0	0.00040749796251	0.79869600652
6726.0	0.00040749796251	0.799103504482
6731.0	0.00040749796251	0.799511002445
6745.0	0.00040749796251	0.799918500407
6752.0	0.00040749796251	0.80032599837
6769.0	0.00040749796251	0.800733496333
6772.0	0.00040749796251	0.801140994295
6779.0	0.00040749796251	0.801548492258
6800.0	0.00040749796251	0.80195599022
6806.0	0.00040749796251	0.802363488183
6808.0	0.00040749796251	0.802770986145
6822.0	0.00040749796251	0.803178484108
6844.0	0.00040749796251	0.80358598207
6846.0	0.00040749796251	0.803993480033
6854.0	0.00040749796251	0.804400977995
6863.0	0.00040749796251	0.804808475958
6867.0	0.00040749796251	0.80521597392
6874.0	0.00040749796251	0.805623471883
6899.0	0.00040749796251	0.806030969845
6903.0	0.00040749796251	0.806438467808
6949.0	0.00040749796251	0.80684596577
6962.0	0.00040749796251	0.807253463733
6965.0	0.00040749796251	0.807660961695
6972.0	0.00040749796251	0.808068459658
6980.0	0.00040749796251	0.80847595762
6993.0	0.00040749796251	0.808883455583
6998.0	0.00040749796251	0.809290953545
7002.0	0.00081499592502	0.81010594947
7004.0	0.00040749796251	0.810513447433
7015.0	0.00040749796251	0.810920945395
7022.0	0.00040749796251	0.811328443358
7030.0	0.00040749796251	0.81173594132
7034.0	0.00040749796251	0.812143439283
7038.0	0.00040749796251	0.812550937245
7047.0	0.00040749796251	0.812958435208
7051.0	0.00040749796251	0.81336593317
7054.0	0.00040749796251	0.813773431133
7058.0	0.00081499592502	0.814588427058
7065.0	0.00040749796251	0.81499592502
7068.0	0.00081499592502	0.815810920945
7084.0	0.00040749796251	0.816218418908
7101.0	0.00040749796251	0.81662591687
7106.0	0.00081499592502	0.817440912795
7109.0	0.00040749796251	0.817848410758
7118.0	0.00040749796251	0.81825590872
7136.0	0.00040749796251	0.818663406683
7142.0	0.00040749796251	0.819070904645
7148.0	0.00040749796251	0.819478402608
7161.0	0.00040749796251	0.81988590057
7173.0	0.00040749796251	0.820293398533
7180.0	0.00040749796251	0.820700896496
7195.0	0.00040749796251	0.821108394458
7223.0	0.00040749796251	0.821515892421
7249.0	0.00081499592502	0.822330888346
7257.0	0.00162999185004	0.823960880196
7274.0	0.00040749796251	0.824368378158
7278.0	0.00040749796251	0.824775876121
7286.0	0.00040749796251	0.825183374083
7294.0	0.00081499592502	0.825998370008
7298.0	0.00040749796251	0.826405867971
7301.0	0.00040749796251	0.826813365933
7330.0	0.00040749796251	0.827220863896
7334.0	0.00081499592502	0.828035859821
7364.0	0.00040749796251	0.828443357783
7388.0	0.00081499592502	0.829258353708
7403.0	0.00040749796251	0.829665851671
7410.0	0.00040749796251	0.830073349633
7417.0	0.00040749796251	0.830480847596
7453.0	0.00040749796251	0.830888345558
7482.0	0.00081499592502	0.831703341483
7516.0	0.00040749796251	0.832110839446
7521.0	0.00040749796251	0.832518337408
7525.0	0.00040749796251	0.832925835371
7547.0	0.00040749796251	0.833333333333
7552.0	0.00040749796251	0.833740831296
7554.0	0.00040749796251	0.834148329258
7562.0	0.00040749796251	0.834555827221
7579.0	0.00040749796251	0.834963325183
7593.0	0.00040749796251	0.835370823146
7609.0	0.00081499592502	0.836185819071
7626.0	0.00081499592502	0.837000814996
7634.0	0.00040749796251	0.837408312958
7648.0	0.00040749796251	0.837815810921
7654.0	0.00040749796251	0.838223308883
7662.0	0.00040749796251	0.838630806846
7672.0	0.00040749796251	0.839038304808
7711.0	0.00040749796251	0.839445802771
7718.0	0.00040749796251	0.839853300733
7727.0	0.00040749796251	0.840260798696
7765.0	0.00040749796251	0.840668296659
7814.0	0.00040749796251	0.841075794621
7823.0	0.00040749796251	0.841483292584
7847.0	0.00040749796251	0.841890790546
7852.0	0.00040749796251	0.842298288509
7868.0	0.00040749796251	0.842705786471
7875.0	0.00081499592502	0.843520782396
7882.0	0.00040749796251	0.843928280359
7896.0	0.00040749796251	0.844335778321
7915.0	0.00040749796251	0.844743276284
7918.0	0.00040749796251	0.845150774246
7922.0	0.00040749796251	0.845558272209
7938.0	0.00040749796251	0.845965770171
7943.0	0.00040749796251	0.846373268134
7976.0	0.00040749796251	0.846780766096
7985.0	0.00040749796251	0.847188264059
8013.0	0.00081499592502	0.848003259984
8046.0	0.00040749796251	0.848410757946
8056.0	0.00040749796251	0.848818255909
8064.0	0.00040749796251	0.849225753871
8089.0	0.00040749796251	0.849633251834
8124.0	0.00040749796251	0.850040749796
8126.0	0.00040749796251	0.850448247759
8157.0	0.00040749796251	0.850855745721
8171.0	0.00040749796251	0.851263243684
8206.0	0.00081499592502	0.852078239609
8224.0	0.00040749796251	0.852485737571
8252.0	0.00040749796251	0.852893235534
8264.0	0.00040749796251	0.853300733496
8291.0	0.00040749796251	0.853708231459
8298.0	0.00040749796251	0.854115729421
8317.0	0.00040749796251	0.854523227384
8324.0	0.00040749796251	0.854930725346
8327.0	0.00040749796251	0.855338223309
8332.0	0.00040749796251	0.855745721271
8334.0	0.00040749796251	0.856153219234
8359.0	0.00040749796251	0.856560717196
8365.0	0.00040749796251	0.856968215159
8375.0	0.00040749796251	0.857375713121
8426.0	0.00040749796251	0.857783211084
8432.0	0.00040749796251	0.858190709046
8435.0	0.00081499592502	0.859005704971
8439.0	0.00081499592502	0.859820700896
8458.0	0.00040749796251	0.860228198859
8468.0	0.00040749796251	0.860635696822
8487.0	0.00040749796251	0.861043194784
8494.0	0.00040749796251	0.861450692747
8500.0	0.00040749796251	0.861858190709
8510.0	0.00040749796251	0.862265688672
8520.0	0.00040749796251	0.862673186634
8548.0	0.00040749796251	0.863080684597
8550.0	0.00040749796251	0.863488182559
8561.0	0.00040749796251	0.863895680522
8593.0	0.00040749796251	0.864303178484
8601.0	0.00040749796251	0.864710676447
8608.0	0.00040749796251	0.865118174409
8627.0	0.00040749796251	0.865525672372
8677.0	0.00040749796251	0.865933170334
8734.0	0.00040749796251	0.866340668297
8766.0	0.00040749796251	0.866748166259
8774.0	0.00040749796251	0.867155664222
8779.0	0.00040749796251	0.867563162184
8781.0	0.00040749796251	0.867970660147
8803.0	0.00040749796251	0.868378158109
8832.0	0.00040749796251	0.868785656072
8839.0	0.00040749796251	0.869193154034
8844.0	0.00040749796251	0.869600651997
8862.0	0.00040749796251	0.870008149959
8871.0	0.00040749796251	0.870415647922
8895.0	0.00040749796251	0.870823145884
8900.0	0.00040749796251	0.871230643847
8921.0	0.00040749796251	0.871638141809
8953.0	0.00040749796251	0.872045639772
8957.0	0.00040749796251	0.872453137734
8966.0	0.00081499592502	0.873268133659
8969.0	0.00040749796251	0.873675631622
8971.0	0.00040749796251	0.874083129584
8973.0	0.00040749796251	0.874490627547
8984.0	0.00040749796251	0.874898125509
8997.0	0.00040749796251	0.875305623472
9016.0	0.00040749796251	0.875713121434
9018.0	0.00040749796251	0.876120619397
9037.0	0.00040749796251	0.876528117359
9074.0	0.00040749796251	0.876935615322
9103.0	0.00040749796251	0.877343113284
9126.0	0.00081499592502	0.878158109209
9132.0	0.00040749796251	0.878565607172
9192.0	0.00040749796251	0.878973105134
9226.0	0.00040749796251	0.879380603097
9236.0	0.00040749796251	0.879788101059
9270.0	0.00040749796251	0.880195599022
9300.0	0.00040749796251	0.880603096985
9317.0	0.00040749796251	0.881010594947
9330.0	0.00040749796251	0.88141809291
9369.0	0.00081499592502	0.882233088835
9386.0	0.00040749796251	0.882640586797
9398.0	0.00040749796251	0.88304808476
9402.0	0.00040749796251	0.883455582722
9439.0	0.00040749796251	0.883863080685
9460.0	0.00040749796251	0.884270578647
9467.0	0.00040749796251	0.88467807661
9476.0	0.00081499592502	0.885493072535
9522.0	0.00040749796251	0.885900570497
9543.0	0.00040749796251	0.88630806846
9546.0	0.00040749796251	0.886715566422
9558.0	0.00040749796251	0.887123064385
9563.0	0.00040749796251	0.887530562347
9577.0	0.00040749796251	0.88793806031
9621.0	0.00040749796251	0.888345558272
9628.0	0.00040749796251	0.888753056235
9630.0	0.00040749796251	0.889160554197
9692.0	0.00040749796251	0.88956805216
9779.0	0.00081499592502	0.890383048085
9819.0	0.00040749796251	0.890790546047
9838.0	0.00081499592502	0.891605541972
9847.0	0.00040749796251	0.892013039935
9858.0	0.00040749796251	0.892420537897
9873.0	0.00040749796251	0.89282803586
9948.0	0.00040749796251	0.893235533822
9963.0	0.00040749796251	0.893643031785
9978.0	0.00081499592502	0.89445802771
10012.0	0.00040749796251	0.894865525672
10017.0	0.00040749796251	0.895273023635
10024.0	0.00040749796251	0.895680521597
10036.0	0.00040749796251	0.89608801956
10038.0	0.00081499592502	0.896903015485
10131.0	0.00040749796251	0.897310513447
10196.0	0.00040749796251	0.89771801141
10202.0	0.00040749796251	0.898125509372
10228.0	0.00081499592502	0.898940505297
10245.0	0.00040749796251	0.89934800326
10259.0	0.00040749796251	0.899755501222
10264.0	0.00040749796251	0.900162999185
10284.0	0.00040749796251	0.900570497148
10319.0	0.00040749796251	0.90097799511
10333.0	0.00040749796251	0.901385493073
10347.0	0.00040749796251	0.901792991035
10361.0	0.00040749796251	0.902200488998
10366.0	0.00040749796251	0.90260798696
10370.0	0.00040749796251	0.903015484923
10378.0	0.00040749796251	0.903422982885
10391.0	0.00040749796251	0.903830480848
10396.0	0.00040749796251	0.90423797881
10399.0	0.00040749796251	0.904645476773
10403.0	0.00040749796251	0.905052974735
10407.0	0.00040749796251	0.905460472698
10456.0	0.00040749796251	0.90586797066
10474.0	0.00040749796251	0.906275468623
10503.0	0.00040749796251	0.906682966585
10516.0	0.00040749796251	0.907090464548
10555.0	0.00040749796251	0.90749796251
10587.0	0.00081499592502	0.908312958435
10601.0	0.00040749796251	0.908720456398
10659.0	0.00040749796251	0.90912795436
10710.0	0.00040749796251	0.909535452323
10736.0	0.00040749796251	0.909942950285
10819.0	0.00040749796251	0.910350448248
10835.0	0.00081499592502	0.911165444173
10840.0	0.00040749796251	0.911572942135
10880.0	0.00040749796251	0.911980440098
10887.0	0.00040749796251	0.91238793806
10963.0	0.00040749796251	0.912795436023
10997.0	0.00081499592502	0.913610431948
11023.0	0.00040749796251	0.91401792991
11037.0	0.00040749796251	0.914425427873
11052.0	0.00040749796251	0.914832925835
11104.0	0.00040749796251	0.915240423798
11135.0	0.00040749796251	0.91564792176
11161.0	0.00040749796251	0.916055419723
11169.0	0.00040749796251	0.916462917685
11198.0	0.00040749796251	0.916870415648
11221.0	0.00040749796251	0.91727791361
11257.0	0.00040749796251	0.917685411573
11261.0	0.00040749796251	0.918092909535
11294.0	0.00040749796251	0.918500407498
11326.0	0.00040749796251	0.91890790546
11331.0	0.00040749796251	0.919315403423
11424.0	0.00040749796251	0.919722901385
11443.0	0.00040749796251	0.920130399348
11459.0	0.00081499592502	0.920945395273
11513.0	0.00040749796251	0.921352893236
11593.0	0.00081499592502	0.922167889161
11735.0	0.00040749796251	0.922575387123
11743.0	0.00040749796251	0.922982885086
11795.0	0.00040749796251	0.923390383048
11798.0	0.00040749796251	0.923797881011
11800.0	0.00040749796251	0.924205378973
11805.0	0.00040749796251	0.924612876936
11868.0	0.00040749796251	0.925020374898
11899.0	0.00040749796251	0.925427872861
11906.0	0.00081499592502	0.926242868786
11969.0	0.00040749796251	0.926650366748
11980.0	0.00040749796251	0.927057864711
12002.0	0.00040749796251	0.927465362673
12016.0	0.00040749796251	0.927872860636
12041.0	0.00040749796251	0.928280358598
12057.0	0.00040749796251	0.928687856561
12067.0	0.00040749796251	0.929095354523
12078.0	0.00040749796251	0.929502852486
12087.0	0.00040749796251	0.929910350448
12103.0	0.00040749796251	0.930317848411
12115.0	0.00040749796251	0.930725346373
12132.0	0.00040749796251	0.931132844336
12134.0	0.00040749796251	0.931540342298
12168.0	0.00040749796251	0.931947840261
12195.0	0.00040749796251	0.932355338223
12223.0	0.00040749796251	0.932762836186
12243.0	0.00040749796251	0.933170334148
12292.0	0.00040749796251	0.933577832111
12338.0	0.00040749796251	0.933985330073
12424.0	0.00040749796251	0.934392828036
12449.0	0.00040749796251	0.934800325998
12529.0	0.00040749796251	0.935207823961
12590.0	0.00040749796251	0.935615321923
12595.0	0.00040749796251	0.936022819886
12621.0	0.00040749796251	0.936430317848
12714.0	0.00040749796251	0.936837815811
12753.0	0.00040749796251	0.937245313773
12764.0	0.00040749796251	0.937652811736
12768.0	0.00081499592502	0.938467807661
12779.0	0.00040749796251	0.938875305623
12788.0	0.00040749796251	0.939282803586
12831.0	0.00040749796251	0.939690301548
12846.0	0.00040749796251	0.940097799511
12886.0	0.00040749796251	0.940505297474
12916.0	0.00040749796251	0.940912795436
12923.0	0.00040749796251	0.941320293399
12935.0	0.00040749796251	0.941727791361
13002.0	0.00040749796251	0.942135289324
13100.0	0.00040749796251	0.942542787286
13150.0	0.00040749796251	0.942950285249
13220.0	0.00040749796251	0.943357783211
13286.0	0.00040749796251	0.943765281174
13305.0	0.00040749796251	0.944172779136
13340.0	0.00040749796251	0.944580277099
13346.0	0.00040749796251	0.944987775061
13374.0	0.00040749796251	0.945395273024
13396.0	0.00040749796251	0.945802770986
13435.0	0.00040749796251	0.946210268949
13527.0	0.00040749796251	0.946617766911
13531.0	0.00040749796251	0.947025264874
13595.0	0.00040749796251	0.947432762836
13799.0	0.00040749796251	0.947840260799
13827.0	0.00040749796251	0.948247758761
13912.0	0.00040749796251	0.948655256724
13949.0	0.00040749796251	0.949062754686
13979.0	0.00040749796251	0.949470252649
14013.0	0.00040749796251	0.949877750611
14018.0	0.00040749796251	0.950285248574
14074.0	0.00040749796251	0.950692746536
14083.0	0.00040749796251	0.951100244499
14120.0	0.00040749796251	0.951507742461
14140.0	0.00040749796251	0.951915240424
14162.0	0.00040749796251	0.952322738386
14166.0	0.00040749796251	0.952730236349
14180.0	0.00040749796251	0.953137734311
14208.0	0.00040749796251	0.953545232274
14224.0	0.00040749796251	0.953952730236
14371.0	0.00040749796251	0.954360228199
14427.0	0.00040749796251	0.954767726161
14466.0	0.00040749796251	0.955175224124
14570.0	0.00040749796251	0.955582722086
14659.0	0.00040749796251	0.955990220049
14672.0	0.00040749796251	0.956397718011
14701.0	0.00040749796251	0.956805215974
14745.0	0.00040749796251	0.957212713936
14887.0	0.00040749796251	0.957620211899
14939.0	0.00040749796251	0.958027709861
14975.0	0.00040749796251	0.958435207824
15036.0	0.00040749796251	0.958842705786
15049.0	0.00040749796251	0.959250203749
15110.0	0.00040749796251	0.959657701711
15187.0	0.00040749796251	0.960065199674
15233.0	0.00040749796251	0.960472697637
15246.0	0.00040749796251	0.960880195599
15354.0	0.00040749796251	0.961287693562
15373.0	0.00040749796251	0.961695191524
15411.0	0.00040749796251	0.962102689487
15418.0	0.00040749796251	0.962510187449
15515.0	0.00040749796251	0.962917685412
15606.0	0.00040749796251	0.963325183374
15638.0	0.00040749796251	0.963732681337
15710.0	0.00040749796251	0.964140179299
15785.0	0.00040749796251	0.964547677262
15811.0	0.00040749796251	0.964955175224
15842.0	0.00040749796251	0.965362673187
16056.0	0.00040749796251	0.965770171149
16068.0	0.00040749796251	0.966177669112
16198.0	0.00040749796251	0.966585167074
16203.0	0.00040749796251	0.966992665037
16390.0	0.00040749796251	0.967400162999
16397.0	0.00040749796251	0.967807660962
16422.0	0.00040749796251	0.968215158924
16625.0	0.00040749796251	0.968622656887
16900.0	0.00040749796251	0.969030154849
17080.0	0.00040749796251	0.969437652812
17087.0	0.00040749796251	0.969845150774
17101.0	0.00040749796251	0.970252648737
17148.0	0.00040749796251	0.970660146699
17206.0	0.00081499592502	0.971475142624
17341.0	0.00040749796251	0.971882640587
17362.0	0.00040749796251	0.972290138549
17381.0	0.00040749796251	0.972697636512
17742.0	0.00040749796251	0.973105134474
17799.0	0.00040749796251	0.973512632437
17926.0	0.00040749796251	0.973920130399
18044.0	0.00040749796251	0.974327628362
18258.0	0.00040749796251	0.974735126324
18523.0	0.00040749796251	0.975142624287
18627.0	0.00040749796251	0.975550122249
18646.0	0.00040749796251	0.975957620212
18787.0	0.00040749796251	0.976365118174
18889.0	0.00040749796251	0.976772616137
18930.0	0.00040749796251	0.977180114099
19074.0	0.00040749796251	0.977587612062
19242.0	0.00040749796251	0.977995110024
19452.0	0.00040749796251	0.978402607987
19491.0	0.00040749796251	0.978810105949
19653.0	0.00040749796251	0.979217603912
19706.0	0.00040749796251	0.979625101874
19896.0	0.00040749796251	0.980032599837
20090.0	0.00040749796251	0.9804400978
20180.0	0.00040749796251	0.980847595762
20268.0	0.00040749796251	0.981255093725
20325.0	0.00040749796251	0.981662591687
20416.0	0.00040749796251	0.98207008965
20473.0	0.00040749796251	0.982477587612
20614.0	0.00040749796251	0.982885085575
20874.0	0.00040749796251	0.983292583537
21179.0	0.00040749796251	0.9837000815
21485.0	0.00040749796251	0.984107579462
21590.0	0.00040749796251	0.984515077425
21605.0	0.00040749796251	0.984922575387
21756.0	0.00040749796251	0.98533007335
22061.0	0.00040749796251	0.985737571312
22445.0	0.00040749796251	0.986145069275
22821.0	0.00040749796251	0.986552567237
23193.0	0.00040749796251	0.9869600652
23316.0	0.00040749796251	0.987367563162
23499.0	0.00040749796251	0.987775061125
23792.0	0.00040749796251	0.988182559087
23821.0	0.00040749796251	0.98859005705
24084.0	0.00040749796251	0.988997555012
24461.0	0.00040749796251	0.989405052975
24961.0	0.00040749796251	0.989812550937
25096.0	0.00040749796251	0.9902200489
25283.0	0.00040749796251	0.990627546862
25637.0	0.00040749796251	0.991035044825
25677.0	0.00040749796251	0.991442542787
25852.0	0.00040749796251	0.99185004075
26041.0	0.00040749796251	0.992257538712
26248.0	0.00040749796251	0.992665036675
26352.0	0.00040749796251	0.993072534637
26408.0	0.00040749796251	0.9934800326
27850.0	0.00040749796251	0.993887530562
27938.0	0.00040749796251	0.994295028525
30201.0	0.00040749796251	0.994702526487
30407.0	0.00040749796251	0.99511002445
31194.0	0.00040749796251	0.995517522412
31536.0	0.00040749796251	0.995925020375
31916.0	0.00040749796251	0.996332518337
32969.0	0.00040749796251	0.9967400163
33042.0	0.00040749796251	0.997147514262
33584.0	0.00040749796251	0.997555012225
37251.0	0.00040749796251	0.997962510187
38068.0	0.00040749796251	0.99837000815
38300.0	0.00040749796251	0.998777506112
38833.0	0.00040749796251	0.999185004075
39343.0	0.00040749796251	0.999592502037
44720.0	0.00040749796251	1.0
50722.0	0.00040749796251	1.0
