#
# Generated On: 2012-02-05T20:25:03.977430
#           By: cwa.analyze.statistics
#      Version: 11.11.23
#       Author: Thomas A. de Ruiter <thomas@de-ruiter.cx>
#
#  Commandline: /home/af10028/bin/cwa analyze
#     Work Dir: /scratch/af10028/var/thesis-project/result/analyses/workload-06h-09888l-0s-fair
#

Time	Sum	Avg	StdDev	CoV	0.000000-Pct	0.010000-Pct	0.100000-Pct	1.000000-Pct	2.000000-Pct	5.000000-Pct	25.000000-Pct	50.000000-Pct	75.000000-Pct	95.000000-Pct	98.000000-Pct	99.000000-Pct	99.900000-Pct	99.990000-Pct	100.000000-Pct
1327106400	103211.0	1053.17346939	1871.29355461	1.77681418019	3.0	3.0	3.0	3.0	3.0	3.0	10.0	282.5	1142.0	5863.0	7347.0	10247.0	10247.0	10247.0	10247.0
1327107000	317217.0	958.359516616	1692.27498501	1.76580391353	3.0	3.0	3.0	3.0	3.0	3.0	10.0	292.0	888.0	4719.0	6811.0	7247.0	13355.0	13355.0	13355.0
1327107600	456197.0	1009.28539823	1629.22781771	1.61423896607	3.0	3.0	3.0	3.0	3.0	3.0	11.0	303.0	1369.0	4756.0	6169.0	8170.0	11317.0	11317.0	11317.0
1327108200	473609.0	1149.53640777	2410.44194717	2.0968817785	2.0	2.0	2.0	3.0	3.0	3.0	11.0	320.5	1087.0	4988.0	7511.0	9594.0	32280.0	32280.0	32280.0
1327108800	418185.0	1048.08270677	2440.34943759	2.32839395387	3.0	3.0	3.0	3.0	3.0	3.0	5.0	285.0	902.0	4860.0	7763.0	9309.0	31239.0	31239.0	31239.0
1327109400	315274.0	765.22815534	1555.63539139	2.03290401762	3.0	3.0	3.0	3.0	3.0	3.0	9.0	267.0	901.0	3751.0	5817.0	6579.0	14959.0	14959.0	14959.0
1327110000	484466.0	1258.35324675	2887.61312908	2.29475557561	3.0	3.0	3.0	3.0	3.0	3.0	12.0	382.0	1028.0	5056.0	11851.0	15796.0	27340.0	27340.0	27340.0
1327110600	514424.0	1401.70027248	2845.60714806	2.03011100442	2.0	2.0	2.0	3.0	3.0	3.0	11.0	305.0	1512.0	6218.0	9999.0	11431.0	31075.0	31075.0	31075.0
1327111200	526343.0	1286.90220049	2943.06580434	2.28693820184	3.0	3.0	3.0	3.0	3.0	3.0	9.0	299.0	1137.0	6775.0	9775.0	11713.0	30804.0	30804.0	30804.0
1327111800	570812.0	1260.07064018	2993.16614699	2.37539551479	2.0	2.0	2.0	3.0	3.0	3.0	9.0	309.0	1120.0	5365.0	8301.0	12432.0	33875.0	33875.0	33875.0
1327112400	604934.0	1207.45309381	2652.65153691	2.19689820707	3.0	3.0	3.0	3.0	3.0	3.0	9.0	312.0	1077.0	5797.0	8630.0	11762.0	24968.0	24968.0	24968.0
1327113000	503114.0	1260.93734336	2563.81040005	2.03325757109	3.0	3.0	3.0	3.0	3.0	3.0	9.0	340.0	1016.0	7236.0	9920.0	11152.0	25498.0	25498.0	25498.0
1327113600	289913.0	762.928947368	2140.17030928	2.80520265571	3.0	3.0	3.0	3.0	3.0	3.0	4.0	187.0	662.0	3859.0	6492.0	10811.0	26495.0	26495.0	26495.0
1327114200	630279.0	1397.51441242	3344.92960386	2.39348487153	2.0	2.0	2.0	3.0	3.0	3.0	9.0	300.0	1236.0	6214.0	9189.0	23603.0	27090.0	27090.0	27090.0
1327114800	536216.0	1288.98076923	3179.64194614	2.46678773031	3.0	3.0	3.0	3.0	3.0	3.0	9.0	252.0	962.0	6326.0	11224.0	17489.0	29661.0	29661.0	29661.0
1327115400	450739.0	1179.94502618	2930.59625576	2.48367185822	3.0	3.0	3.0	3.0	3.0	3.0	9.0	257.5	816.0	5950.0	14083.0	16328.0	26981.0	26981.0	26981.0
1327116000	652505.0	1496.57110092	3633.1645276	2.42765915055	3.0	3.0	3.0	3.0	3.0	3.0	11.0	336.0	1156.0	7006.0	12124.0	21300.0	34752.0	34752.0	34752.0
1327116600	752030.0	1693.76126126	3602.12994449	2.12670464656	2.0	2.0	2.0	3.0	3.0	3.0	12.0	386.5	1399.0	10499.0	15225.0	18623.0	24536.0	24536.0	24536.0
1327117200	555983.0	1383.04228856	3348.93430784	2.42142582012	3.0	3.0	3.0	3.0	3.0	3.0	9.0	284.0	1080.0	6661.0	11744.0	17752.0	29445.0	29445.0	29445.0
1327117800	414064.0	1143.82320442	2534.54310475	2.21585214826	3.0	3.0	3.0	3.0	3.0	3.0	13.0	284.0	1023.0	4468.0	9665.0	13449.0	21832.0	21832.0	21832.0
1327118400	509281.0	1391.47814208	3058.50794465	2.19802801939	3.0	3.0	3.0	3.0	3.0	3.0	9.0	287.5	1089.0	7583.0	14892.0	16767.0	20992.0	20992.0	20992.0
1327119000	682252.0	1714.20100503	3798.50936093	2.21590662343	2.0	2.0	2.0	3.0	3.0	3.0	9.0	294.5	1263.0	9209.0	15609.0	21894.0	25488.0	25488.0	25488.0
1327119600	647708.0	1423.53406593	3011.30542229	2.11537292598	3.0	3.0	3.0	3.0	3.0	3.0	9.0	336.0	1091.0	7611.0	12186.0	16057.0	21626.0	21626.0	21626.0
1327120200	575964.0	1321.01834862	3187.58210166	2.4129733739	2.0	2.0	2.0	3.0	3.0	3.0	10.0	248.0	855.0	7440.0	14430.0	18310.0	24781.0	24781.0	24781.0
1327120800	328235.0	954.171511628	2264.50460082	2.37326788027	3.0	3.0	3.0	3.0	3.0	3.0	10.0	273.5	777.0	4493.0	8725.0	12269.0	18022.0	18022.0	18022.0
1327121400	554769.0	1444.7109375	3333.68066877	2.30750704673	3.0	3.0	3.0	3.0	3.0	3.0	4.0	275.0	854.0	8667.0	14826.0	16757.0	25013.0	25013.0	25013.0
1327122000	834084.0	2024.47572816	4331.11596088	2.13937658063	2.0	2.0	2.0	3.0	3.0	3.0	9.0	300.0	1199.0	12356.0	18533.0	19771.0	24587.0	24587.0	24587.0
1327122600	744520.0	1692.09090909	3244.12461399	1.91722832181	3.0	3.0	3.0	3.0	3.0	3.0	11.0	351.0	1452.0	9585.0	12720.0	14976.0	25291.0	25291.0	25291.0
1327123200	632590.0	1527.99516908	3464.37867067	2.26727069612	2.0	2.0	2.0	3.0	3.0	3.0	4.0	228.0	929.0	9812.0	13556.0	14956.0	23515.0	23515.0	23515.0
1327123800	652631.0	1712.94225722	3637.71394839	2.12366408328	2.0	2.0	2.0	3.0	3.0	3.0	9.0	319.0	1142.0	10768.0	15318.0	17546.0	20857.0	20857.0	20857.0
1327124400	784828.0	1721.11403509	3351.99690789	1.94757397799	3.0	3.0	3.0	3.0	3.0	3.0	12.0	405.0	1434.0	9778.0	14350.0	16105.0	18607.0	18607.0	18607.0
1327125000	500034.0	1128.74492099	2394.37056229	2.12126807196	2.0	2.0	2.0	3.0	3.0	3.0	9.0	276.0	849.0	5762.0	9031.0	11788.0	18749.0	18749.0	18749.0
1327125600	517330.0	1181.11872146	2674.33696987	2.2642406062	3.0	3.0	3.0	3.0	3.0	3.0	9.0	251.5	794.0	6595.0	12179.0	14175.0	21552.0	21552.0	21552.0
1327126200	618648.0	1362.66079295	2813.12644287	2.06443632738	2.0	2.0	2.0	3.0	3.0	3.0	10.0	308.5	1019.0	7857.0	11801.0	14196.0	18012.0	18012.0	18012.0
1327126800	639561.0	1332.41875	2881.10829943	2.16231443713	2.0	2.0	2.0	3.0	3.0	3.0	9.0	313.5	953.0	7842.0	12684.0	14764.0	20525.0	20525.0	20525.0
1327127400	622393.0	1341.36422414	2703.11333719	2.01519713181	2.0	2.0	2.0	3.0	3.0	3.0	9.0	310.5	938.0	7827.0	10646.0	12540.0	16622.0	16622.0	16622.0
1327128000	350002.0	1190.4829932	2658.22768295	2.23289849426	2.0	2.0	2.0	3.0	3.0	3.0	9.0	254.0	843.0	6643.0	12130.0	14251.0	18323.0	18323.0	18323.0
