#
# Generated On: 2012-02-09T13:16:12.972496
#           By: cwa.analyze.statistics
#      Version: 11.11.23
#       Author: Thomas A. de Ruiter <thomas@de-ruiter.cx>
#
#  Commandline: /home/af10028/bin/cwa analyze
#     Work Dir: /scratch/af10028/var/thesis-project/result/workload-analyses/workload-06h-04944l-0s
#

Value	PDF	CDF
0.0	0.152592294234	0.152604881242
2.0	0.056641534608	0.20924641585
4.0	0.0391581809256	0.248404596775
6.0	0.0318954774881	0.280300074263
8.0	0.0278802220348	0.308180296298
10.0	0.0239908366584	0.332171132957
12.0	0.0206175185973	0.352788651554
14.0	0.0190944906667	0.371883142221
16.0	0.0167910682593	0.38867421048
18.0	0.0157211726056	0.404395383086
20.0	0.0147016249827	0.419097008068
22.0	0.0141981446751	0.433295152743
24.0	0.0122345714753	0.445529724219
26.0	0.01204576636	0.457575490579
28.0	0.010862587637	0.468438078216
30.0	0.0101451281987	0.478583206414
32.0	0.0100947801679	0.488677986582
34.0	0.00949060379876	0.498168590381
36.0	0.00937732072954	0.507545911111
38.0	0.00803051090664	0.515576422017
40.0	0.00842070814505	0.523997130162
42.0	0.0078165317759	0.531813661938
44.0	0.00762772666054	0.539441388599
46.0	0.00769066169899	0.547132050298
48.0	0.00688509320679	0.554017143504
50.0	0.00677181013758	0.560788953642
52.0	0.00636902589147	0.567157979534
54.0	0.00621798179919	0.573375961333
56.0	0.00634385187609	0.579719813209
58.0	0.00563897944542	0.585358792654
60.0	0.0058026105454	0.5911614032
62.0	0.00555087039158	0.596712273591
64.0	0.00523619519932	0.601948468791
66.0	0.00523619519932	0.60718466399
68.0	0.00479564993014	0.61198031392
70.0	0.00487117197629	0.616851485896
72.0	0.00427958261482	0.621131068511
74.0	0.00474530189938	0.62587637041
76.0	0.00422923458406	0.630105604995
78.0	0.00434251765328	0.634448122648
80.0	0.00429216962252	0.63874029227
82.0	0.00401525545332	0.642755547724
84.0	0.00405301647639	0.6468085642
86.0	0.00419147356099	0.651000037761
88.0	0.00375092829182	0.654750966053
90.0	0.00381386333027	0.658564829383
92.0	0.00362505821491	0.662189887598
94.0	0.00352436215339	0.665714249751
96.0	0.00334814404572	0.669062393797
98.0	0.00354953616877	0.672611929966
100.0	0.002970533815	0.675582463781
102.0	0.00293277279192	0.678515236573
104.0	0.00339849207648	0.681913728649
106.0	0.00312157790728	0.685035306557
108.0	0.00313416491497	0.688169471472
110.0	0.00315933893036	0.691328810402
112.0	0.00266844563042	0.693997256032
114.0	0.00304605586114	0.697043311893
116.0	0.00293277279192	0.699976084685
118.0	0.00295794680731	0.702934031493
120.0	0.00276914169195	0.705703173185
122.0	0.00303346885345	0.708736642038
124.0	0.00280690271502	0.711543544753
126.0	0.00278172869964	0.714325273453
128.0	0.00239153146123	0.716716804914
130.0	0.00220272634587	0.71891953126
132.0	0.0024292924843	0.721348823744
134.0	0.00237894445354	0.723727768198
136.0	0.00271879366118	0.726446561859
138.0	0.00225307437663	0.728699636235
140.0	0.00206426926127	0.730763905497
142.0	0.00236635744584	0.733130262943
144.0	0.00224048736894	0.735370750312
146.0	0.00232859642277	0.737699346734
148.0	0.00183770312284	0.739537049857
150.0	0.00237894445354	0.741915994311
152.0	0.00225307437663	0.744169068687
154.0	0.0020265082382	0.746195576925
156.0	0.00220272634587	0.748398303271
158.0	0.00203909524589	0.750437398517
160.0	0.00217755233048	0.752614950848
162.0	0.00198874721512	0.754603698063
164.0	0.00181252910746	0.75641622717
166.0	0.00196357319974	0.75837980037
168.0	0.00158596296902	0.759965763339
170.0	0.0020265082382	0.761992271577
172.0	0.00195098619205	0.763943257769
174.0	0.00182511611515	0.765768373884
176.0	0.00166148501517	0.7674298589
178.0	0.00173700706131	0.769166865961
180.0	0.00172442005362	0.770891286015
182.0	0.00193839918436	0.772829685199
184.0	0.00163631099979	0.774465996199
186.0	0.00169924603824	0.776165242237
188.0	0.00147267989981	0.777637922137
190.0	0.001749594069	0.779387516206
192.0	0.00158596296902	0.780973479175
194.0	0.00181252910746	0.782786008282
196.0	0.00185029013053	0.784636298413
198.0	0.00142233186904	0.786058630282
200.0	0.00153561493826	0.78759424522
202.0	0.0016111369844	0.789205382204
204.0	0.00152302793057	0.790728410135
206.0	0.00123352675368	0.791961936889
208.0	0.00138457084597	0.793346507735
210.0	0.0014852669075	0.794831774642
212.0	0.00138457084597	0.796216345488
214.0	0.00151044092288	0.797726786411
216.0	0.00144750588443	0.799174292295
218.0	0.0012083527383	0.800382645034
220.0	0.00119576573061	0.801578410764
222.0	0.00149785391519	0.80307626468
224.0	0.00142233186904	0.804498596549
226.0	0.00135939683059	0.805857993379
228.0	0.00133422281521	0.807192216194
230.0	0.00112024368447	0.808312459879
232.0	0.00125870076907	0.809571160648
234.0	0.00127128777676	0.810842448425
236.0	0.00115800470754	0.812000453132
238.0	0.00106989565371	0.813070348786
240.0	0.00130904879983	0.814379397586
242.0	0.00106989565371	0.81544929324
244.0	0.0009440255768	0.816393318816
246.0	0.000969199592181	0.817362518408
248.0	0.00109506966909	0.818457588078
250.0	0.00101954762294	0.819477135701
252.0	0.0010824826614	0.820559618362
254.0	0.00124611376138	0.821805732123
256.0	0.0010824826614	0.822888214785
258.0	0.00104472163832	0.823932936423
260.0	0.00105730864602	0.824990245069
262.0	0.00117059171523	0.826160836784
264.0	0.000830742507584	0.826991579292
266.0	0.00109506966909	0.828086648961
268.0	0.000893677546037	0.828980326507
270.0	0.00105730864602	0.830037635153
272.0	0.000881090538346	0.830918725691
274.0	0.00100696061525	0.831925686307
276.0	0.000918851561418	0.832844537868
278.0	0.00109506966909	0.833939607537
280.0	0.00100696061525	0.834946568152
282.0	0.00100696061525	0.835953528768
284.0	0.000981786599872	0.836935315367
286.0	0.00095661258449	0.837891927952
288.0	0.000792981484512	0.838684909436
290.0	0.000893677546037	0.839578586983
292.0	0.00115800470754	0.84073659169
294.0	0.00075522046144	0.841491812151
296.0	0.000805568492202	0.842297380644
298.0	0.000906264553728	0.843203645197
300.0	0.00095661258449	0.844160257782
302.0	0.000931438569109	0.845091696351
304.0	0.00075522046144	0.845846916812
306.0	0.00112024368447	0.846967160497
308.0	0.000780394476821	0.847747554974
310.0	0.000843329515274	0.848590884489
312.0	0.000830742507584	0.849421626997
314.0	0.000742633453749	0.85016426045
316.0	0.000818155499893	0.85098241595
318.0	0.000969199592181	0.851951615542
320.0	0.000918851561418	0.852870467104
322.0	0.000792981484512	0.853663448588
324.0	0.000931438569109	0.854594887157
326.0	0.000893677546037	0.855488564704
328.0	0.000780394476821	0.85626895918
330.0	0.00075522046144	0.857024179642
332.0	0.00075522046144	0.857779400103
334.0	0.000830742507584	0.858610142611
336.0	0.000742633453749	0.859352776065
338.0	0.000918851561418	0.860271627626
340.0	0.000654524399914	0.860926152026
342.0	0.000704872430677	0.861631024457
344.0	0.000704872430677	0.862335896887
346.0	0.000868503530656	0.863204400418
348.0	0.000730046446058	0.863934446864
350.0	0.000641937392224	0.864576384256
352.0	0.000679698415296	0.865256082671
354.0	0.000830742507584	0.866086825179
356.0	0.000641937392224	0.866728762571
358.0	0.000805568492202	0.867534331063
360.0	0.00076780746913	0.868302138533
362.0	0.000742633453749	0.869044771986
364.0	0.000717459438368	0.869762231425
366.0	0.000780394476821	0.870542625902
368.0	0.000541241330698	0.871083867232
370.0	0.000591589361461	0.871675456594
372.0	0.000692285422986	0.872367742017
374.0	0.000553828338389	0.872921570355
376.0	0.000704872430677	0.873626442786
378.0	0.00057900235377	0.87420544514
380.0	0.000616763376842	0.874822208516
382.0	0.000604176369152	0.875426384886
384.0	0.000478306292245	0.875904691178
386.0	0.000516067315317	0.876420758493
388.0	0.000704872430677	0.877125630924
390.0	0.000528654323008	0.877654285247
392.0	0.000616763376842	0.878271048624
394.0	0.000528654323008	0.878799702947
396.0	0.000641937392224	0.879441640339
398.0	0.000402784246101	0.879844424585
400.0	0.000654524399914	0.880498948985
402.0	0.000503480307626	0.881002429292
404.0	0.000440545269173	0.881442974562
406.0	0.000629350384533	0.882072324946
408.0	0.000692285422986	0.882764610369
410.0	0.000490893299936	0.883255503669
412.0	0.000604176369152	0.883859680038
414.0	0.000528654323008	0.884388334361
416.0	0.000553828338389	0.8849421627
418.0	0.000352436215339	0.885294598915
420.0	0.000629350384533	0.8859239493
422.0	0.000667111407605	0.886591060707
424.0	0.000503480307626	0.887094541015
426.0	0.000427958261482	0.887522499276
428.0	0.000490893299936	0.888013392576
430.0	0.000591589361461	0.888604981938
432.0	0.000503480307626	0.889108462245
434.0	0.000390197238411	0.889498659484
436.0	0.000490893299936	0.889989552784
438.0	0.000465719284554	0.890455272068
440.0	0.000478306292245	0.89093357836
442.0	0.000478306292245	0.891411884653
444.0	0.000440545269173	0.891852429922
446.0	0.000503480307626	0.892355910229
448.0	0.000553828338389	0.892909738568
450.0	0.000427958261482	0.893337696829
452.0	0.000465719284554	0.893803416114
454.0	0.000440545269173	0.894243961383
456.0	0.000679698415296	0.894923659798
458.0	0.000427958261482	0.89535161806
460.0	0.000490893299936	0.89584251136
462.0	0.000528654323008	0.896371165683
464.0	0.00057900235377	0.896950168037
466.0	0.000591589361461	0.897541757398
468.0	0.000465719284554	0.898007476683
470.0	0.000427958261482	0.898435434944
472.0	0.000453132276864	0.898888567221
474.0	0.000503480307626	0.899392047529
476.0	0.00057900235377	0.899971049882
478.0	0.000503480307626	0.90047453019
480.0	0.000327262199957	0.90080179239
482.0	0.000516067315317	0.901317859705
484.0	0.000465719284554	0.90178357899
486.0	0.000264327161504	0.902047906151
488.0	0.000365023223029	0.902412929374
490.0	0.000302088184576	0.902715017559
492.0	0.000314675192267	0.903029692751
494.0	0.000339849207648	0.903369541959
496.0	0.000440545269173	0.903810087228
498.0	0.000327262199957	0.904137349428
500.0	0.000453132276864	0.904590481705
502.0	0.000402784246101	0.904993265951
504.0	0.00037761023072	0.905370876182
506.0	0.000339849207648	0.905710725389
508.0	0.000327262199957	0.906037987589
510.0	0.000365023223029	0.906403010812
512.0	0.000427958261482	0.906830969074
514.0	0.000465719284554	0.907296688358
516.0	0.000365023223029	0.907661711581
518.0	0.000314675192267	0.907976386774
520.0	0.000415371253792	0.908391758027
522.0	0.000390197238411	0.908781955266
524.0	0.000365023223029	0.909146978489
526.0	0.000465719284554	0.909612697773
528.0	0.000327262199957	0.909939959973
530.0	0.00037761023072	0.910317570204
532.0	0.000239153146123	0.91055672335
534.0	0.000440545269173	0.910997268619
536.0	0.000415371253792	0.911412639873
538.0	0.000251740153813	0.911664380027
540.0	0.000302088184576	0.911966468212
542.0	0.000415371253792	0.912381839465
544.0	0.000402784246101	0.912784623711
546.0	0.000503480307626	0.913288104019
548.0	0.000478306292245	0.913766410311
550.0	0.000289501176885	0.914055911488
552.0	0.000453132276864	0.914509043765
554.0	0.000415371253792	0.914924415019
556.0	0.00037761023072	0.91530202525
558.0	0.000478306292245	0.915780331542
560.0	0.000427958261482	0.916208289803
562.0	0.000339849207648	0.916548139011
564.0	0.000365023223029	0.916913162234
566.0	0.000251740153813	0.917164902388
568.0	0.000352436215339	0.917517338603
570.0	0.00037761023072	0.917894948834
572.0	0.000176218107669	0.918071166941
574.0	0.000365023223029	0.918436190165
576.0	0.000302088184576	0.918738278349
578.0	0.000365023223029	0.919103301572
580.0	0.000339849207648	0.91944315078
582.0	0.000302088184576	0.919745238964
584.0	0.000264327161504	0.920009566126
586.0	0.000327262199957	0.920336828326
588.0	0.000314675192267	0.920651503518
590.0	0.000289501176885	0.920941004695
592.0	0.000365023223029	0.921306027918
594.0	0.000289501176885	0.921595529095
596.0	0.00018880511536	0.92178433421
598.0	0.000151044092288	0.921935378303
600.0	0.000276914169195	0.922212292472
602.0	0.000289501176885	0.922501793649
604.0	0.00037761023072	0.922879403879
606.0	0.000339849207648	0.923219253087
608.0	0.000251740153813	0.923470993241
610.0	0.000289501176885	0.923760494418
612.0	0.000251740153813	0.924012234571
614.0	0.000289501176885	0.924301735748
616.0	0.000264327161504	0.92456606291
618.0	0.000251740153813	0.924817803064
620.0	0.000327262199957	0.925145065264
622.0	0.000339849207648	0.925484914471
624.0	0.000113283069216	0.92559819754
626.0	0.000251740153813	0.925849937694
628.0	0.000302088184576	0.926152025879
630.0	0.000226566138432	0.926378592017
632.0	0.000251740153813	0.926630332171
634.0	0.000213979130741	0.926844311302
636.0	0.000264327161504	0.927108638463
638.0	0.000415371253792	0.927524009717
640.0	0.000251740153813	0.927775749871
642.0	0.000276914169195	0.92805266404
644.0	0.000226566138432	0.928279230179
646.0	0.000276914169195	0.928556144348
648.0	0.000327262199957	0.928883406548
650.0	0.000365023223029	0.929248429771
652.0	0.000251740153813	0.929500169925
654.0	0.000289501176885	0.929789671101
656.0	0.000264327161504	0.930053998263
658.0	0.000239153146123	0.930293151409
660.0	0.000264327161504	0.930557478571
662.0	0.00018880511536	0.930746283686
664.0	0.000226566138432	0.930972849824
666.0	0.000213979130741	0.931186828955
668.0	0.000239153146123	0.931425982101
670.0	0.000251740153813	0.931677722255
672.0	0.000251740153813	0.931929462409
674.0	0.000276914169195	0.932206376578
676.0	0.000251740153813	0.932458116732
678.0	0.000176218107669	0.93263433484
680.0	0.000264327161504	0.932898662001
682.0	0.000125870076907	0.933024532078
684.0	0.000201392123051	0.933225924201
686.0	0.000239153146123	0.933465077347
688.0	0.000201392123051	0.93366646947
690.0	0.000276914169195	0.933943383639
692.0	0.000201392123051	0.934144775762
694.0	0.00018880511536	0.934333580878
696.0	0.000201392123051	0.934534973001
698.0	0.000264327161504	0.934799300162
700.0	0.000226566138432	0.935025866301
702.0	0.00018880511536	0.935214671416
704.0	0.000276914169195	0.935491585585
706.0	0.000314675192267	0.935806260778
708.0	0.000264327161504	0.936070587939
710.0	0.000239153146123	0.936309741085
712.0	0.00018880511536	0.936498546201
714.0	0.000213979130741	0.936712525331
716.0	0.000251740153813	0.936964265485
718.0	0.000226566138432	0.937190831624
720.0	0.000125870076907	0.937316701701
722.0	0.000226566138432	0.937543267839
724.0	0.000289501176885	0.937832769016
726.0	0.000314675192267	0.938147444208
728.0	0.000226566138432	0.938374010347
730.0	0.000113283069216	0.938487293416
732.0	0.000213979130741	0.938701272546
734.0	0.000239153146123	0.938940425693
736.0	0.000239153146123	0.939179578839
738.0	0.000176218107669	0.939355796946
740.0	0.000251740153813	0.9396075371
742.0	0.000163631099979	0.9397711682
744.0	0.000251740153813	0.940022908354
746.0	0.00018880511536	0.940211713469
748.0	0.000163631099979	0.940375344569
750.0	0.000201392123051	0.940576736692
752.0	0.000176218107669	0.9407529548
754.0	0.00018880511536	0.940941759915
756.0	0.000163631099979	0.941105391015
758.0	0.000213979130741	0.941319370146
760.0	0.000201392123051	0.941520762269
762.0	0.000264327161504	0.941785089431
764.0	0.000226566138432	0.942011655569
766.0	0.00018880511536	0.942200460684
768.0	0.000201392123051	0.942401852808
770.0	0.000226566138432	0.942628418946
772.0	0.00018880511536	0.942817224061
774.0	0.000264327161504	0.943081551223
776.0	0.000213979130741	0.943295530354
778.0	0.000239153146123	0.9435346835
780.0	0.000213979130741	0.94374866263
782.0	0.000201392123051	0.943950054753
784.0	0.00018880511536	0.944138859869
786.0	0.000176218107669	0.944315077977
788.0	0.000163631099979	0.944478709076
790.0	0.000125870076907	0.944604579153
792.0	0.000213979130741	0.944818558284
794.0	8.81090538346e-05	0.944906667338
796.0	0.000239153146123	0.945145820484
798.0	0.000113283069216	0.945259103553
800.0	0.000251740153813	0.945510843707
802.0	0.000151044092288	0.945661887799
804.0	0.000176218107669	0.945838105907
806.0	0.000251740153813	0.946089846061
808.0	0.000201392123051	0.946291238184
810.0	0.000113283069216	0.946404521253
812.0	0.00018880511536	0.946593326369
814.0	0.000239153146123	0.946832479515
816.0	0.000201392123051	0.947033871638
818.0	0.000113283069216	0.947147154707
820.0	0.000125870076907	0.947273024784
822.0	0.000113283069216	0.947386307853
824.0	0.000264327161504	0.947650635015
826.0	0.000138457084597	0.947789092099
828.0	0.000201392123051	0.947990484222
830.0	0.000151044092288	0.948141528314
832.0	0.00018880511536	0.94833033343
834.0	0.000138457084597	0.948468790514
836.0	0.000113283069216	0.948582073584
838.0	0.00018880511536	0.948770878699
840.0	0.000113283069216	0.948884161768
842.0	0.000163631099979	0.949047792868
844.0	0.000125870076907	0.949173662945
846.0	0.000226566138432	0.949400229084
848.0	0.000213979130741	0.949614208214
850.0	0.00018880511536	0.94980301333
852.0	0.000163631099979	0.94996664443
854.0	0.000251740153813	0.950218384583
856.0	0.000125870076907	0.95034425466
858.0	0.000151044092288	0.950495298753
860.0	8.81090538346e-05	0.950583407806
862.0	0.000226566138432	0.950809973945
864.0	0.000213979130741	0.951023953076
866.0	0.000201392123051	0.951225345199
868.0	0.000251740153813	0.951477085352
870.0	0.000125870076907	0.951602955429
872.0	0.000151044092288	0.951753999522
874.0	0.000138457084597	0.951892456606
876.0	0.000163631099979	0.952056087706
878.0	0.000239153146123	0.952295240852
880.0	0.000100696061525	0.952395936914
882.0	0.000100696061525	0.952496632975
884.0	0.00018880511536	0.952685438091
886.0	0.000100696061525	0.952786134152
888.0	0.000302088184576	0.953088222337
890.0	0.000113283069216	0.953201505406
892.0	0.000113283069216	0.953314788475
894.0	0.000125870076907	0.953440658552
896.0	0.000138457084597	0.953579115637
898.0	0.000125870076907	0.953704985714
900.0	0.000176218107669	0.953881203821
902.0	0.000125870076907	0.954007073898
904.0	0.000138457084597	0.954145530983
906.0	8.81090538346e-05	0.954233640037
908.0	2.51740153813e-05	0.954258814052
910.0	0.000276914169195	0.954535728221
912.0	0.000113283069216	0.954649011291
914.0	0.000113283069216	0.95476229436
916.0	0.000125870076907	0.954888164437
918.0	0.000125870076907	0.955014034514
920.0	0.000125870076907	0.95513990459
922.0	0.00018880511536	0.955328709706
924.0	0.000138457084597	0.95546716679
926.0	7.5522046144e-05	0.955542688837
928.0	7.5522046144e-05	0.955618210883
930.0	0.00018880511536	0.955807015998
932.0	0.000125870076907	0.955932886075
934.0	0.000100696061525	0.956033582137
936.0	0.000113283069216	0.956146865206
938.0	0.000138457084597	0.95628532229
940.0	0.000100696061525	0.956386018352
942.0	0.000201392123051	0.956587410475
944.0	0.000113283069216	0.956700693544
946.0	0.000100696061525	0.956801389606
948.0	0.000163631099979	0.956965020706
950.0	0.000151044092288	0.957116064798
952.0	0.000138457084597	0.957254521883
954.0	8.81090538346e-05	0.957342630936
956.0	8.81090538346e-05	0.95743073999
958.0	0.000151044092288	0.957581784082
960.0	0.000100696061525	0.957682480144
962.0	0.000151044092288	0.957833524236
964.0	0.000138457084597	0.957971981321
966.0	0.000113283069216	0.95808526439
968.0	0.000125870076907	0.958211134467
970.0	0.000138457084597	0.958349591552
972.0	0.000163631099979	0.958513222652
974.0	0.000138457084597	0.958651679736
976.0	0.000138457084597	0.958790136821
978.0	0.000151044092288	0.958941180913
980.0	0.000125870076907	0.95906705099
982.0	0.000113283069216	0.959180334059
984.0	0.000100696061525	0.959281030121
986.0	0.000125870076907	0.959406900198
988.0	0.000100696061525	0.959507596259
990.0	0.000113283069216	0.959620879328
992.0	0.000113283069216	0.959734162398
994.0	0.000113283069216	0.959847445467
996.0	0.000138457084597	0.959985902551
998.0	3.7761023072e-05	0.960023663574
1000.0	0.000125870076907	0.960149533651
1002.0	6.29350384533e-05	0.96021246869
1004.0	0.000125870076907	0.960338338767
1006.0	0.000100696061525	0.960439034828
1008.0	8.81090538346e-05	0.960527143882
1010.0	0.000151044092288	0.960678187974
1012.0	0.000163631099979	0.960841819074
1014.0	0.000151044092288	0.960992863167
1016.0	0.000100696061525	0.961093559228
1018.0	8.81090538346e-05	0.961181668282
1020.0	0.000113283069216	0.961294951351
1022.0	0.000201392123051	0.961496343474
1024.0	0.000113283069216	0.961609626543
1026.0	7.5522046144e-05	0.96168514859
1029.0	5.03480307626e-05	0.96173549662
1031.0	0.000138457084597	0.961873953705
1033.0	7.5522046144e-05	0.961949475751
1035.0	8.81090538346e-05	0.962037584805
1037.0	0.000125870076907	0.962163454882
1039.0	0.000125870076907	0.962289324959
1041.0	0.000163631099979	0.962452956059
1043.0	0.000125870076907	0.962578826136
1045.0	0.000151044092288	0.962729870228
1047.0	0.000100696061525	0.962830566289
1049.0	0.000151044092288	0.962981610382
1051.0	0.000138457084597	0.963120067466
1053.0	0.000100696061525	0.963220763528
1055.0	6.29350384533e-05	0.963283698566
1057.0	0.000100696061525	0.963384394628
1059.0	7.5522046144e-05	0.963459916674
1061.0	0.000125870076907	0.963585786751
1063.0	3.7761023072e-05	0.963623547774
1065.0	0.000125870076907	0.963749417851
1067.0	5.03480307626e-05	0.963799765882
1069.0	8.81090538346e-05	0.963887874935
1071.0	5.03480307626e-05	0.963938222966
1073.0	8.81090538346e-05	0.96402633202
1075.0	3.7761023072e-05	0.964064093043
1077.0	0.000125870076907	0.96418996312
1079.0	0.000100696061525	0.964290659182
1081.0	6.29350384533e-05	0.96435359422
1083.0	0.000138457084597	0.964492051305
1085.0	5.03480307626e-05	0.964542399335
1087.0	0.000113283069216	0.964655682405
1089.0	8.81090538346e-05	0.964743791458
1091.0	0.000113283069216	0.964857074528
1093.0	8.81090538346e-05	0.964945183582
1095.0	7.5522046144e-05	0.965020705628
1097.0	0.000163631099979	0.965184336728
1099.0	0.000100696061525	0.965285032789
1101.0	0.000100696061525	0.965385728851
1103.0	0.000151044092288	0.965536772943
1105.0	0.000100696061525	0.965637469004
1107.0	6.29350384533e-05	0.965700404043
1109.0	8.81090538346e-05	0.965788513097
1111.0	7.5522046144e-05	0.965864035143
1113.0	7.5522046144e-05	0.965939557189
1116.0	0.000100696061525	0.966040253251
1118.0	6.29350384533e-05	0.966103188289
1120.0	0.000163631099979	0.966266819389
1122.0	5.03480307626e-05	0.96631716742
1124.0	0.000113283069216	0.966430450489
1126.0	0.000113283069216	0.966543733558
1128.0	0.000100696061525	0.96664442962
1130.0	0.000125870076907	0.966770299697
1132.0	6.29350384533e-05	0.966833234735
1134.0	0.000113283069216	0.966946517804
1136.0	0.000100696061525	0.967047213866
1138.0	0.000100696061525	0.967147909927
1140.0	8.81090538346e-05	0.967236018981
1142.0	0.000100696061525	0.967336715043
1144.0	0.000125870076907	0.96746258512
1146.0	0.000125870076907	0.967588455197
1148.0	8.81090538346e-05	0.96767656425
1150.0	6.29350384533e-05	0.967739499289
1152.0	0.000113283069216	0.967852782358
1154.0	7.5522046144e-05	0.967928304404
1156.0	2.51740153813e-05	0.96795347842
1158.0	0.000138457084597	0.968091935504
1160.0	7.5522046144e-05	0.96816745755
1162.0	0.000125870076907	0.968293327627
1164.0	8.81090538346e-05	0.968381436681
1166.0	7.5522046144e-05	0.968456958727
1168.0	5.03480307626e-05	0.968507306758
1170.0	7.5522046144e-05	0.968582828804
1172.0	0.000125870076907	0.968708698881
1174.0	6.29350384533e-05	0.968771633919
1176.0	0.000138457084597	0.968910091004
1178.0	3.7761023072e-05	0.968947852027
1180.0	6.29350384533e-05	0.969010787066
1182.0	0.000100696061525	0.969111483127
1185.0	0.000125870076907	0.969237353204
1187.0	8.81090538346e-05	0.969325462258
1189.0	8.81090538346e-05	0.969413571312
1191.0	0.000113283069216	0.969526854381
1193.0	3.7761023072e-05	0.969564615404
1195.0	3.7761023072e-05	0.969602376427
1197.0	0.000113283069216	0.969715659496
1199.0	0.000113283069216	0.969828942565
1201.0	0.000113283069216	0.969942225635
1203.0	6.29350384533e-05	0.970005160673
1205.0	5.03480307626e-05	0.970055508704
1207.0	0.000100696061525	0.970156204765
1209.0	6.29350384533e-05	0.970219139804
1211.0	1.25870076907e-05	0.970231726812
1213.0	8.81090538346e-05	0.970319835865
1215.0	8.81090538346e-05	0.970407944919
1217.0	0.000100696061525	0.970508640981
1219.0	0.000100696061525	0.970609337042
1221.0	6.29350384533e-05	0.970672272081
1223.0	7.5522046144e-05	0.970747794127
1225.0	8.81090538346e-05	0.970835903181
1227.0	7.5522046144e-05	0.970911425227
1229.0	0.000176218107669	0.971087643335
1231.0	8.81090538346e-05	0.971175752388
1233.0	0.000100696061525	0.97127644845
1235.0	5.03480307626e-05	0.971326796481
1237.0	5.03480307626e-05	0.971377144511
1239.0	0.000113283069216	0.971490427581
1241.0	3.7761023072e-05	0.971528188604
1243.0	0.000113283069216	0.971641471673
1245.0	6.29350384533e-05	0.971704406711
1247.0	6.29350384533e-05	0.97176734175
1249.0	0.000113283069216	0.971880624819
1251.0	8.81090538346e-05	0.971968733873
1253.0	8.81090538346e-05	0.972056842927
1255.0	7.5522046144e-05	0.972132364973
1257.0	7.5522046144e-05	0.972207887019
1259.0	6.29350384533e-05	0.972270822057
1261.0	6.29350384533e-05	0.972333757096
1263.0	5.03480307626e-05	0.972384105127
1265.0	6.29350384533e-05	0.972447040165
1267.0	3.7761023072e-05	0.972484801188
1269.0	7.5522046144e-05	0.972560323234
1271.0	5.03480307626e-05	0.972610671265
1273.0	8.81090538346e-05	0.972698780319
1275.0	8.81090538346e-05	0.972786889373
1277.0	7.5522046144e-05	0.972862411419
1279.0	0.000113283069216	0.972975694488
1281.0	5.03480307626e-05	0.973026042519
1283.0	0.000125870076907	0.973151912596
1285.0	3.7761023072e-05	0.973189673619
1287.0	5.03480307626e-05	0.97324002165
1289.0	3.7761023072e-05	0.973277782673
1291.0	7.5522046144e-05	0.973353304719
1293.0	3.7761023072e-05	0.973391065742
1295.0	5.03480307626e-05	0.973441413773
1297.0	7.5522046144e-05	0.973516935819
1299.0	6.29350384533e-05	0.973579870857
1301.0	0.000113283069216	0.973693153927
1303.0	7.5522046144e-05	0.973768675973
1305.0	6.29350384533e-05	0.973831611011
1307.0	0.000125870076907	0.973957481088
1309.0	0.000100696061525	0.97405817715
1311.0	5.03480307626e-05	0.97410852518
1313.0	8.81090538346e-05	0.974196634234
1315.0	3.7761023072e-05	0.974234395257
1318.0	6.29350384533e-05	0.974297330296
1320.0	0.000125870076907	0.974423200373
1322.0	3.7761023072e-05	0.974460961396
1324.0	0.000113283069216	0.974574244465
1327.0	6.29350384533e-05	0.974637179503
1329.0	6.29350384533e-05	0.974700114542
1331.0	3.7761023072e-05	0.974737875565
1333.0	0.000100696061525	0.974838571626
1335.0	7.5522046144e-05	0.974914093673
1337.0	7.5522046144e-05	0.974989615719
1339.0	5.03480307626e-05	0.975039963749
1341.0	3.7761023072e-05	0.975077724772
1343.0	0.000100696061525	0.975178420834
1345.0	8.81090538346e-05	0.975266529888
1347.0	5.03480307626e-05	0.975316877919
1349.0	7.5522046144e-05	0.975392399965
1351.0	3.7761023072e-05	0.975430160988
1353.0	2.51740153813e-05	0.975455335003
1355.0	8.81090538346e-05	0.975543444057
1358.0	0.000113283069216	0.975656727126
1360.0	6.29350384533e-05	0.975719662165
1362.0	6.29350384533e-05	0.975782597203
1364.0	7.5522046144e-05	0.975858119249
1366.0	3.7761023072e-05	0.975895880272
1368.0	3.7761023072e-05	0.975933641295
1370.0	3.7761023072e-05	0.975971402319
1372.0	3.7761023072e-05	0.976009163342
1374.0	7.5522046144e-05	0.976084685388
1376.0	2.51740153813e-05	0.976109859403
1378.0	7.5522046144e-05	0.976185381449
1380.0	6.29350384533e-05	0.976248316488
1383.0	0.000100696061525	0.976349012549
1385.0	0.000100696061525	0.976449708611
1387.0	0.000113283069216	0.97656299168
1389.0	8.81090538346e-05	0.976651100734
1391.0	8.81090538346e-05	0.976739209788
1393.0	6.29350384533e-05	0.976802144826
1395.0	6.29350384533e-05	0.976865079865
1397.0	3.7761023072e-05	0.976902840888
1399.0	5.03480307626e-05	0.976953188918
1401.0	8.81090538346e-05	0.977041297972
1403.0	5.03480307626e-05	0.977091646003
1405.0	8.81090538346e-05	0.977179755057
1407.0	8.81090538346e-05	0.977267864111
1410.0	7.5522046144e-05	0.977343386157
1412.0	5.03480307626e-05	0.977393734188
1414.0	0.000113283069216	0.977507017257
1416.0	6.29350384533e-05	0.977569952295
1418.0	5.03480307626e-05	0.977620300326
1420.0	6.29350384533e-05	0.977683235364
1422.0	6.29350384533e-05	0.977746170403
1424.0	6.29350384533e-05	0.977809105441
1426.0	3.7761023072e-05	0.977846866464
1428.0	7.5522046144e-05	0.977922388511
1430.0	0.000138457084597	0.978060845595
1432.0	6.29350384533e-05	0.978123780634
1434.0	0.000100696061525	0.978224476695
1436.0	0.000100696061525	0.978325172757
1438.0	5.03480307626e-05	0.978375520787
1440.0	5.03480307626e-05	0.978425868818
1442.0	7.5522046144e-05	0.978501390864
1445.0	3.7761023072e-05	0.978539151887
1447.0	5.03480307626e-05	0.978589499918
1449.0	8.81090538346e-05	0.978677608972
1451.0	8.81090538346e-05	0.978765718026
1454.0	7.5522046144e-05	0.978841240072
1456.0	6.29350384533e-05	0.97890417511
1458.0	7.5522046144e-05	0.978979697157
1460.0	5.03480307626e-05	0.979030045187
1462.0	3.7761023072e-05	0.97906780621
1464.0	8.81090538346e-05	0.979155915264
1466.0	6.29350384533e-05	0.979218850303
1468.0	2.51740153813e-05	0.979244024318
1470.0	2.51740153813e-05	0.979269198333
1472.0	1.25870076907e-05	0.979281785341
1474.0	5.03480307626e-05	0.979332133372
1476.0	8.81090538346e-05	0.979420242426
1478.0	5.03480307626e-05	0.979470590457
1480.0	3.7761023072e-05	0.97950835148
1482.0	3.7761023072e-05	0.979546112503
1484.0	0.000100696061525	0.979646808564
1486.0	3.7761023072e-05	0.979684569587
1488.0	5.03480307626e-05	0.979734917618
1490.0	3.7761023072e-05	0.979772678641
1492.0	6.29350384533e-05	0.97983561368
1494.0	2.51740153813e-05	0.979860787695
1497.0	6.29350384533e-05	0.979923722733
1499.0	3.7761023072e-05	0.979961483756
1501.0	7.5522046144e-05	0.980037005803
1503.0	8.81090538346e-05	0.980125114856
1505.0	2.51740153813e-05	0.980150288872
1507.0	0.000100696061525	0.980250984933
1509.0	5.03480307626e-05	0.980301332964
1511.0	0.000100696061525	0.980402029026
1513.0	3.7761023072e-05	0.980439790049
1515.0	8.81090538346e-05	0.980527899103
1517.0	3.7761023072e-05	0.980565660126
1520.0	3.7761023072e-05	0.980603421149
1522.0	0.000113283069216	0.980716704218
1524.0	6.29350384533e-05	0.980779639256
1526.0	3.7761023072e-05	0.980817400279
1528.0	8.81090538346e-05	0.980905509333
1530.0	0.000113283069216	0.981018792402
1532.0	2.51740153813e-05	0.981043966418
1535.0	2.51740153813e-05	0.981069140433
1538.0	3.7761023072e-05	0.981106901456
1540.0	1.25870076907e-05	0.981119488464
1543.0	2.51740153813e-05	0.981144662479
1547.0	0.000100696061525	0.981245358541
1549.0	2.51740153813e-05	0.981270532556
1552.0	7.5522046144e-05	0.981346054602
1554.0	2.51740153813e-05	0.981371228618
1556.0	6.29350384533e-05	0.981434163656
1558.0	6.29350384533e-05	0.981497098695
1560.0	3.7761023072e-05	0.981534859718
1563.0	1.25870076907e-05	0.981547446725
1565.0	5.03480307626e-05	0.981597794756
1567.0	1.25870076907e-05	0.981610381764
1569.0	6.29350384533e-05	0.981673316802
1571.0	6.29350384533e-05	0.981736251841
1573.0	2.51740153813e-05	0.981761425856
1575.0	8.81090538346e-05	0.98184953491
1577.0	7.5522046144e-05	0.981925056956
1579.0	1.25870076907e-05	0.981937643964
1582.0	2.51740153813e-05	0.981962817979
1584.0	3.7761023072e-05	0.982000579002
1586.0	5.03480307626e-05	0.982050927033
1588.0	6.29350384533e-05	0.982113862072
1590.0	6.29350384533e-05	0.98217679711
1592.0	3.7761023072e-05	0.982214558133
1596.0	7.5522046144e-05	0.982290080179
1599.0	5.03480307626e-05	0.98234042821
1602.0	5.03480307626e-05	0.982390776241
1605.0	3.7761023072e-05	0.982428537264
1607.0	3.7761023072e-05	0.982466298287
1609.0	3.7761023072e-05	0.98250405931
1611.0	2.51740153813e-05	0.982529233325
1613.0	6.29350384533e-05	0.982592168364
1615.0	5.03480307626e-05	0.982642516395
1617.0	5.03480307626e-05	0.982692864425
1619.0	3.7761023072e-05	0.982730625448
1621.0	2.51740153813e-05	0.982755799464
1623.0	6.29350384533e-05	0.982818734502
1625.0	6.29350384533e-05	0.982881669541
1628.0	5.03480307626e-05	0.982932017571
1630.0	7.5522046144e-05	0.983007539618
1632.0	7.5522046144e-05	0.983083061664
1635.0	1.25870076907e-05	0.983095648671
1637.0	5.03480307626e-05	0.983145996702
1639.0	5.03480307626e-05	0.983196344733
1642.0	1.25870076907e-05	0.983208931741
1644.0	2.51740153813e-05	0.983234105756
1646.0	5.03480307626e-05	0.983284453787
1648.0	5.03480307626e-05	0.983334801818
1650.0	5.03480307626e-05	0.983385149848
1652.0	1.25870076907e-05	0.983397736856
1654.0	7.5522046144e-05	0.983473258902
1656.0	3.7761023072e-05	0.983511019925
1658.0	3.7761023072e-05	0.983548780948
1660.0	6.29350384533e-05	0.983611715987
1662.0	1.25870076907e-05	0.983624302994
1664.0	5.03480307626e-05	0.983674651025
1666.0	3.7761023072e-05	0.983712412048
1669.0	2.51740153813e-05	0.983737586064
1671.0	2.51740153813e-05	0.983762760079
1675.0	3.7761023072e-05	0.983800521102
1678.0	3.7761023072e-05	0.983838282125
1680.0	3.7761023072e-05	0.983876043148
1682.0	7.5522046144e-05	0.983951565194
1685.0	5.03480307626e-05	0.984001913225
1687.0	2.51740153813e-05	0.984027087241
1689.0	5.03480307626e-05	0.984077435271
1692.0	3.7761023072e-05	0.984115196294
1694.0	6.29350384533e-05	0.984178131333
1696.0	2.51740153813e-05	0.984203305348
1698.0	1.25870076907e-05	0.984215892356
1700.0	2.51740153813e-05	0.984241066371
1703.0	6.29350384533e-05	0.98430400141
1705.0	5.03480307626e-05	0.984354349441
1707.0	3.7761023072e-05	0.984392110464
1709.0	2.51740153813e-05	0.984417284479
1712.0	0.000100696061525	0.98451798054
1714.0	6.29350384533e-05	0.984580915579
1716.0	3.7761023072e-05	0.984618676602
1718.0	7.5522046144e-05	0.984694198648
1720.0	2.51740153813e-05	0.984719372664
1723.0	3.7761023072e-05	0.984757133687
1725.0	2.51740153813e-05	0.984782307702
1727.0	3.7761023072e-05	0.984820068725
1730.0	3.7761023072e-05	0.984857829748
1732.0	6.29350384533e-05	0.984920764787
1734.0	5.03480307626e-05	0.984971112817
1736.0	3.7761023072e-05	0.98500887384
1739.0	5.03480307626e-05	0.985059221871
1742.0	8.81090538346e-05	0.985147330925
1744.0	7.5522046144e-05	0.985222852971
1746.0	3.7761023072e-05	0.985260613994
1748.0	2.51740153813e-05	0.98528578801
1750.0	8.81090538346e-05	0.985373897063
1753.0	6.29350384533e-05	0.985436832102
1755.0	2.51740153813e-05	0.985462006117
1758.0	2.51740153813e-05	0.985487180133
1762.0	5.03480307626e-05	0.985537528163
1764.0	6.29350384533e-05	0.985600463202
1766.0	2.51740153813e-05	0.985625637217
1768.0	1.25870076907e-05	0.985638224225
1771.0	3.7761023072e-05	0.985675985248
1773.0	2.51740153813e-05	0.985701159263
1776.0	3.7761023072e-05	0.985738920286
1778.0	3.7761023072e-05	0.98577668131
1782.0	6.29350384533e-05	0.985839616348
1785.0	3.7761023072e-05	0.985877377371
1787.0	5.03480307626e-05	0.985927725402
1789.0	3.7761023072e-05	0.985965486425
1792.0	7.5522046144e-05	0.986041008471
1794.0	1.25870076907e-05	0.986053595479
1796.0	5.03480307626e-05	0.98610394351
1798.0	3.7761023072e-05	0.986141704533
1800.0	1.25870076907e-05	0.98615429154
1803.0	6.29350384533e-05	0.986217226579
1805.0	3.7761023072e-05	0.986254987602
1808.0	3.7761023072e-05	0.986292748625
1810.0	5.03480307626e-05	0.986343096656
1812.0	2.51740153813e-05	0.986368270671
1814.0	2.51740153813e-05	0.986393444686
1816.0	7.5522046144e-05	0.986468966733
1819.0	1.25870076907e-05	0.98648155374
1821.0	3.7761023072e-05	0.986519314763
1824.0	2.51740153813e-05	0.986544488779
1827.0	5.03480307626e-05	0.986594836809
1829.0	2.51740153813e-05	0.986620010825
1831.0	3.7761023072e-05	0.986657771848
1833.0	5.03480307626e-05	0.986708119879
1835.0	2.51740153813e-05	0.986733293894
1837.0	1.25870076907e-05	0.986745880902
1839.0	5.03480307626e-05	0.986796228932
1841.0	2.51740153813e-05	0.986821402948
1845.0	2.51740153813e-05	0.986846576963
1847.0	7.5522046144e-05	0.986922099009
1849.0	3.7761023072e-05	0.986959860032
1853.0	1.25870076907e-05	0.98697244704
1858.0	1.25870076907e-05	0.986985034048
1860.0	6.29350384533e-05	0.987047969086
1863.0	2.51740153813e-05	0.987073143102
1865.0	1.25870076907e-05	0.987085730109
1867.0	5.03480307626e-05	0.98713607814
1869.0	5.03480307626e-05	0.987186426171
1871.0	2.51740153813e-05	0.987211600186
1873.0	5.03480307626e-05	0.987261948217
1875.0	3.7761023072e-05	0.98729970924
1877.0	5.03480307626e-05	0.987350057271
1879.0	2.51740153813e-05	0.987375231286
1881.0	1.25870076907e-05	0.987387818294
1883.0	3.7761023072e-05	0.987425579317
1887.0	2.51740153813e-05	0.987450753332
1890.0	3.7761023072e-05	0.987488514355
1893.0	3.7761023072e-05	0.987526275379
1897.0	2.51740153813e-05	0.987551449394
1899.0	1.25870076907e-05	0.987564036402
1901.0	5.03480307626e-05	0.987614384432
1903.0	2.51740153813e-05	0.987639558448
1906.0	2.51740153813e-05	0.987664732463
1908.0	1.25870076907e-05	0.987677319471
1913.0	1.25870076907e-05	0.987689906479
1915.0	1.25870076907e-05	0.987702493486
1917.0	2.51740153813e-05	0.987727667502
1919.0	2.51740153813e-05	0.987752841517
1921.0	1.25870076907e-05	0.987765428525
1923.0	3.7761023072e-05	0.987803189548
1925.0	2.51740153813e-05	0.987828363563
1928.0	2.51740153813e-05	0.987853537579
1930.0	1.25870076907e-05	0.987866124586
1932.0	5.03480307626e-05	0.987916472617
1936.0	5.03480307626e-05	0.987966820648
1938.0	1.25870076907e-05	0.987979407655
1941.0	2.51740153813e-05	0.988004581671
1944.0	3.7761023072e-05	0.988042342694
1946.0	1.25870076907e-05	0.988054929702
1948.0	3.7761023072e-05	0.988092690725
1950.0	3.7761023072e-05	0.988130451748
1952.0	2.51740153813e-05	0.988155625763
1955.0	2.51740153813e-05	0.988180799778
1957.0	2.51740153813e-05	0.988205973794
1960.0	1.25870076907e-05	0.988218560802
1962.0	5.03480307626e-05	0.988268908832
1964.0	7.5522046144e-05	0.988344430878
1966.0	1.25870076907e-05	0.988357017886
1969.0	7.5522046144e-05	0.988432539932
1973.0	3.7761023072e-05	0.988470300955
1977.0	2.51740153813e-05	0.988495474971
1984.0	2.51740153813e-05	0.988520648986
1989.0	1.25870076907e-05	0.988533235994
1991.0	2.51740153813e-05	0.988558410009
1993.0	5.03480307626e-05	0.98860875804
1995.0	3.7761023072e-05	0.988646519063
1997.0	2.51740153813e-05	0.988671693078
1999.0	2.51740153813e-05	0.988696867094
2003.0	3.7761023072e-05	0.988734628117
2005.0	1.25870076907e-05	0.988747215125
2007.0	3.7761023072e-05	0.988784976148
2009.0	3.7761023072e-05	0.988822737171
2013.0	3.7761023072e-05	0.988860498194
2016.0	2.51740153813e-05	0.988885672209
2018.0	2.51740153813e-05	0.988910846225
2020.0	2.51740153813e-05	0.98893602024
2022.0	3.7761023072e-05	0.988973781263
2027.0	2.51740153813e-05	0.988998955278
2031.0	3.7761023072e-05	0.989036716301
2033.0	2.51740153813e-05	0.989061890317
2035.0	2.51740153813e-05	0.989087064332
2037.0	5.03480307626e-05	0.989137412363
2039.0	3.7761023072e-05	0.989175173386
2041.0	6.29350384533e-05	0.989238108424
2043.0	5.03480307626e-05	0.989288456455
2045.0	2.51740153813e-05	0.989313630471
2047.0	2.51740153813e-05	0.989338804486
2049.0	2.51740153813e-05	0.989363978501
2052.0	2.51740153813e-05	0.989389152517
2054.0	1.25870076907e-05	0.989401739524
2057.0	2.51740153813e-05	0.98942691354
2060.0	1.25870076907e-05	0.989439500548
2062.0	3.7761023072e-05	0.989477261571
2064.0	3.7761023072e-05	0.989515022594
2066.0	3.7761023072e-05	0.989552783617
2069.0	3.7761023072e-05	0.98959054464
2071.0	2.51740153813e-05	0.989615718655
2073.0	1.25870076907e-05	0.989628305663
2075.0	1.25870076907e-05	0.989640892671
2079.0	3.7761023072e-05	0.989678653694
2082.0	3.7761023072e-05	0.989716414717
2086.0	1.25870076907e-05	0.989729001724
2088.0	2.51740153813e-05	0.98975417574
2091.0	1.25870076907e-05	0.989766762747
2093.0	1.25870076907e-05	0.989779349755
2095.0	3.7761023072e-05	0.989817110778
2098.0	2.51740153813e-05	0.989842284794
2101.0	3.7761023072e-05	0.989880045817
2106.0	1.25870076907e-05	0.989892632824
2108.0	2.51740153813e-05	0.98991780684
2110.0	2.51740153813e-05	0.989942980855
2112.0	6.29350384533e-05	0.990005915894
2114.0	1.25870076907e-05	0.990018502901
2116.0	3.7761023072e-05	0.990056263924
2118.0	1.25870076907e-05	0.990068850932
2120.0	5.03480307626e-05	0.990119198963
2122.0	3.7761023072e-05	0.990156959986
2126.0	1.25870076907e-05	0.990169546994
2128.0	1.25870076907e-05	0.990182134001
2131.0	5.03480307626e-05	0.990232482032
2133.0	2.51740153813e-05	0.990257656047
2136.0	5.03480307626e-05	0.990308004078
2138.0	2.51740153813e-05	0.990333178094
2141.0	2.51740153813e-05	0.990358352109
2143.0	3.7761023072e-05	0.990396113132
2154.0	1.25870076907e-05	0.99040870014
2156.0	3.7761023072e-05	0.990446461163
2159.0	2.51740153813e-05	0.990471635178
2161.0	7.5522046144e-05	0.990547157224
2163.0	3.7761023072e-05	0.990584918247
2167.0	5.03480307626e-05	0.990635266278
2169.0	2.51740153813e-05	0.990660440294
2171.0	1.25870076907e-05	0.990673027301
2176.0	2.51740153813e-05	0.990698201317
2180.0	1.25870076907e-05	0.990710788324
2184.0	2.51740153813e-05	0.99073596234
2186.0	1.25870076907e-05	0.990748549347
2188.0	2.51740153813e-05	0.990773723363
2190.0	1.25870076907e-05	0.99078631037
2192.0	2.51740153813e-05	0.990811484386
2195.0	2.51740153813e-05	0.990836658401
2198.0	1.25870076907e-05	0.990849245409
2202.0	2.51740153813e-05	0.990874419424
2204.0	5.03480307626e-05	0.990924767455
2206.0	1.25870076907e-05	0.990937354463
2211.0	3.7761023072e-05	0.990975115486
2213.0	3.7761023072e-05	0.991012876509
2215.0	2.51740153813e-05	0.991038050524
2217.0	3.7761023072e-05	0.991075811547
2220.0	1.25870076907e-05	0.991088398555
2222.0	1.25870076907e-05	0.991100985563
2224.0	1.25870076907e-05	0.99111357257
2227.0	1.25870076907e-05	0.991126159578
2229.0	2.51740153813e-05	0.991151333593
2231.0	2.51740153813e-05	0.991176507609
2233.0	1.25870076907e-05	0.991189094617
2235.0	3.7761023072e-05	0.99122685564
2238.0	1.25870076907e-05	0.991239442647
2249.0	1.25870076907e-05	0.991252029655
2251.0	2.51740153813e-05	0.99127720367
2253.0	3.7761023072e-05	0.991314964693
2255.0	2.51740153813e-05	0.991340138709
2259.0	2.51740153813e-05	0.991365312724
2262.0	1.25870076907e-05	0.991377899732
2264.0	1.25870076907e-05	0.99139048674
2266.0	5.03480307626e-05	0.99144083477
2274.0	2.51740153813e-05	0.991466008786
2277.0	1.25870076907e-05	0.991478595793
2280.0	2.51740153813e-05	0.991503769809
2282.0	1.25870076907e-05	0.991516356816
2285.0	2.51740153813e-05	0.991541530832
2287.0	1.25870076907e-05	0.99155411784
2289.0	1.25870076907e-05	0.991566704847
2293.0	5.03480307626e-05	0.991617052878
2295.0	2.51740153813e-05	0.991642226893
2301.0	3.7761023072e-05	0.991679987916
2304.0	1.25870076907e-05	0.991692574924
2306.0	3.7761023072e-05	0.991730335947
2311.0	1.25870076907e-05	0.991742922955
2313.0	1.25870076907e-05	0.991755509963
2316.0	1.25870076907e-05	0.99176809697
2325.0	1.25870076907e-05	0.991780683978
2327.0	1.25870076907e-05	0.991793270986
2329.0	3.7761023072e-05	0.991831032009
2333.0	2.51740153813e-05	0.991856206024
2335.0	2.51740153813e-05	0.99188138004
2338.0	1.25870076907e-05	0.991893967047
2344.0	1.25870076907e-05	0.991906554055
2348.0	2.51740153813e-05	0.99193172807
2350.0	2.51740153813e-05	0.991956902086
2352.0	2.51740153813e-05	0.991982076101
2356.0	1.25870076907e-05	0.991994663109
2358.0	2.51740153813e-05	0.992019837124
2363.0	1.25870076907e-05	0.992032424132
2365.0	2.51740153813e-05	0.992057598147
2367.0	2.51740153813e-05	0.992082772163
2370.0	2.51740153813e-05	0.992107946178
2376.0	1.25870076907e-05	0.992120533186
2381.0	1.25870076907e-05	0.992133120193
2386.0	1.25870076907e-05	0.992145707201
2389.0	8.81090538346e-05	0.992233816255
2392.0	1.25870076907e-05	0.992246403263
2394.0	2.51740153813e-05	0.992271577278
2396.0	1.25870076907e-05	0.992284164286
2400.0	2.51740153813e-05	0.992309338301
2402.0	1.25870076907e-05	0.992321925309
2404.0	1.25870076907e-05	0.992334512316
2408.0	5.03480307626e-05	0.992384860347
2411.0	1.25870076907e-05	0.992397447355
2413.0	1.25870076907e-05	0.992410034363
2415.0	1.25870076907e-05	0.99242262137
2417.0	2.51740153813e-05	0.992447795386
2419.0	2.51740153813e-05	0.992472969401
2424.0	1.25870076907e-05	0.992485556409
2429.0	3.7761023072e-05	0.992523317432
2431.0	1.25870076907e-05	0.992535904439
2434.0	1.25870076907e-05	0.992548491447
2436.0	1.25870076907e-05	0.992561078455
2441.0	5.03480307626e-05	0.992611426486
2443.0	1.25870076907e-05	0.992624013493
2446.0	2.51740153813e-05	0.992649187509
2449.0	1.25870076907e-05	0.992661774516
2451.0	2.51740153813e-05	0.992686948532
2458.0	2.51740153813e-05	0.992712122547
2460.0	1.25870076907e-05	0.992724709555
2464.0	1.25870076907e-05	0.992737296562
2467.0	2.51740153813e-05	0.992762470578
2472.0	1.25870076907e-05	0.992775057586
2477.0	1.25870076907e-05	0.992787644593
2480.0	1.25870076907e-05	0.992800231601
2484.0	1.25870076907e-05	0.992812818609
2488.0	2.51740153813e-05	0.992837992624
2490.0	2.51740153813e-05	0.992863166639
2496.0	3.7761023072e-05	0.992900927662
2498.0	1.25870076907e-05	0.99291351467
2503.0	2.51740153813e-05	0.992938688686
2506.0	2.51740153813e-05	0.992963862701
2509.0	1.25870076907e-05	0.992976449709
2511.0	2.51740153813e-05	0.993001623724
2513.0	6.29350384533e-05	0.993064558762
2518.0	2.51740153813e-05	0.993089732778
2523.0	1.25870076907e-05	0.993102319786
2526.0	1.25870076907e-05	0.993114906793
2528.0	1.25870076907e-05	0.993127493801
2531.0	2.51740153813e-05	0.993152667816
2533.0	3.7761023072e-05	0.993190428839
2537.0	1.25870076907e-05	0.993203015847
2540.0	5.03480307626e-05	0.993253363878
2542.0	2.51740153813e-05	0.993278537893
2544.0	1.25870076907e-05	0.993291124901
2546.0	1.25870076907e-05	0.993303711909
2548.0	2.51740153813e-05	0.993328885924
2550.0	2.51740153813e-05	0.993354059939
2552.0	5.03480307626e-05	0.99340440797
2554.0	2.51740153813e-05	0.993429581985
2568.0	2.51740153813e-05	0.993454756001
2570.0	1.25870076907e-05	0.993467343009
2577.0	2.51740153813e-05	0.993492517024
2581.0	1.25870076907e-05	0.993505104032
2585.0	1.25870076907e-05	0.993517691039
2589.0	1.25870076907e-05	0.993530278047
2597.0	2.51740153813e-05	0.993555452062
2599.0	1.25870076907e-05	0.99356803907
2604.0	2.51740153813e-05	0.993593213085
2608.0	1.25870076907e-05	0.993605800093
2612.0	1.25870076907e-05	0.993618387101
2617.0	2.51740153813e-05	0.993643561116
2621.0	1.25870076907e-05	0.993656148124
2624.0	2.51740153813e-05	0.993681322139
2627.0	1.25870076907e-05	0.993693909147
2632.0	2.51740153813e-05	0.993719083162
2635.0	1.25870076907e-05	0.99373167017
2639.0	3.7761023072e-05	0.993769431193
2641.0	1.25870076907e-05	0.993782018201
2643.0	1.25870076907e-05	0.993794605209
2646.0	1.25870076907e-05	0.993807192216
2648.0	2.51740153813e-05	0.993832366232
2650.0	1.25870076907e-05	0.993844953239
2654.0	3.7761023072e-05	0.993882714262
2659.0	1.25870076907e-05	0.99389530127
2662.0	1.25870076907e-05	0.993907888278
2664.0	3.7761023072e-05	0.993945649301
2667.0	1.25870076907e-05	0.993958236308
2672.0	2.51740153813e-05	0.993983410324
2674.0	1.25870076907e-05	0.993995997332
2679.0	1.25870076907e-05	0.994008584339
2681.0	1.25870076907e-05	0.994021171347
2686.0	2.51740153813e-05	0.994046345362
2691.0	5.03480307626e-05	0.994096693393
2695.0	2.51740153813e-05	0.994121867408
2698.0	1.25870076907e-05	0.994134454416
2700.0	1.25870076907e-05	0.994147041424
2704.0	2.51740153813e-05	0.994172215439
2711.0	2.51740153813e-05	0.994197389455
2713.0	3.7761023072e-05	0.994235150478
2718.0	1.25870076907e-05	0.994247737485
2721.0	1.25870076907e-05	0.994260324493
2725.0	2.51740153813e-05	0.994285498508
2727.0	1.25870076907e-05	0.994298085516
2730.0	2.51740153813e-05	0.994323259532
2742.0	2.51740153813e-05	0.994348433547
2754.0	1.25870076907e-05	0.994361020555
2761.0	1.25870076907e-05	0.994373607562
2764.0	1.25870076907e-05	0.99438619457
2768.0	2.51740153813e-05	0.994411368585
2770.0	1.25870076907e-05	0.994423955593
2777.0	1.25870076907e-05	0.994436542601
2782.0	2.51740153813e-05	0.994461716616
2784.0	2.51740153813e-05	0.994486890631
2788.0	2.51740153813e-05	0.994512064647
2796.0	1.25870076907e-05	0.994524651655
2799.0	2.51740153813e-05	0.99454982567
2803.0	2.51740153813e-05	0.994574999685
2809.0	1.25870076907e-05	0.994587586693
2811.0	1.25870076907e-05	0.994600173701
2816.0	1.25870076907e-05	0.994612760708
2818.0	1.25870076907e-05	0.994625347716
2821.0	1.25870076907e-05	0.994637934724
2823.0	1.25870076907e-05	0.994650521731
2825.0	2.51740153813e-05	0.994675695747
2829.0	1.25870076907e-05	0.994688282755
2849.0	2.51740153813e-05	0.99471345677
2855.0	1.25870076907e-05	0.994726043778
2862.0	1.25870076907e-05	0.994738630785
2869.0	2.51740153813e-05	0.994763804801
2871.0	1.25870076907e-05	0.994776391808
2876.0	2.51740153813e-05	0.994801565824
2879.0	2.51740153813e-05	0.994826739839
2881.0	2.51740153813e-05	0.994851913855
2885.0	1.25870076907e-05	0.994864500862
2892.0	2.51740153813e-05	0.994889674878
2896.0	3.7761023072e-05	0.994927435901
2899.0	2.51740153813e-05	0.994952609916
2904.0	1.25870076907e-05	0.994965196924
2906.0	1.25870076907e-05	0.994977783931
2909.0	2.51740153813e-05	0.995002957947
2912.0	1.25870076907e-05	0.995015544954
2920.0	2.51740153813e-05	0.99504071897
2923.0	1.25870076907e-05	0.995053305978
2925.0	1.25870076907e-05	0.995065892985
2932.0	2.51740153813e-05	0.995091067001
2935.0	6.29350384533e-05	0.995154002039
2938.0	1.25870076907e-05	0.995166589047
2940.0	1.25870076907e-05	0.995179176054
2943.0	2.51740153813e-05	0.99520435007
2945.0	1.25870076907e-05	0.995216937078
2950.0	3.7761023072e-05	0.995254698101
2955.0	3.7761023072e-05	0.995292459124
2958.0	1.25870076907e-05	0.995305046131
2961.0	1.25870076907e-05	0.995317633139
2966.0	1.25870076907e-05	0.995330220147
2969.0	6.29350384533e-05	0.995393155185
2975.0	1.25870076907e-05	0.995405742193
2983.0	1.25870076907e-05	0.995418329201
2985.0	1.25870076907e-05	0.995430916208
2991.0	3.7761023072e-05	0.995468677231
2993.0	1.25870076907e-05	0.995481264239
2996.0	3.7761023072e-05	0.995519025262
2998.0	2.51740153813e-05	0.995544199278
3004.0	2.51740153813e-05	0.995569373293
3006.0	1.25870076907e-05	0.995581960301
3011.0	1.25870076907e-05	0.995594547308
3014.0	1.25870076907e-05	0.995607134316
3017.0	1.25870076907e-05	0.995619721324
3020.0	1.25870076907e-05	0.995632308331
3026.0	1.25870076907e-05	0.995644895339
3030.0	1.25870076907e-05	0.995657482347
3034.0	1.25870076907e-05	0.995670069354
3041.0	1.25870076907e-05	0.995682656362
3053.0	1.25870076907e-05	0.99569524337
3057.0	1.25870076907e-05	0.995707830377
3060.0	1.25870076907e-05	0.995720417385
3067.0	1.25870076907e-05	0.995733004393
3069.0	1.25870076907e-05	0.995745591401
3071.0	1.25870076907e-05	0.995758178408
3075.0	1.25870076907e-05	0.995770765416
3081.0	1.25870076907e-05	0.995783352424
3084.0	2.51740153813e-05	0.995808526439
3088.0	3.7761023072e-05	0.995846287462
3094.0	1.25870076907e-05	0.99585887447
3100.0	1.25870076907e-05	0.995871461477
3102.0	1.25870076907e-05	0.995884048485
3104.0	2.51740153813e-05	0.995909222501
3110.0	1.25870076907e-05	0.995921809508
3112.0	1.25870076907e-05	0.995934396516
3114.0	2.51740153813e-05	0.995959570531
3116.0	1.25870076907e-05	0.995972157539
3118.0	2.51740153813e-05	0.995997331554
3121.0	1.25870076907e-05	0.996009918562
3128.0	1.25870076907e-05	0.99602250557
3136.0	3.7761023072e-05	0.996060266593
3140.0	2.51740153813e-05	0.996085440608
3148.0	1.25870076907e-05	0.996098027616
3150.0	1.25870076907e-05	0.996110614624
3153.0	3.7761023072e-05	0.996148375647
3163.0	1.25870076907e-05	0.996160962654
3165.0	1.25870076907e-05	0.996173549662
3168.0	1.25870076907e-05	0.99618613667
3173.0	1.25870076907e-05	0.996198723677
3175.0	2.51740153813e-05	0.996223897693
3196.0	1.25870076907e-05	0.9962364847
3202.0	7.5522046144e-05	0.996312006747
3215.0	2.51740153813e-05	0.996337180762
3223.0	1.25870076907e-05	0.99634976777
3228.0	2.51740153813e-05	0.996374941785
3230.0	1.25870076907e-05	0.996387528793
3232.0	2.51740153813e-05	0.996412702808
3234.0	1.25870076907e-05	0.996425289816
3236.0	1.25870076907e-05	0.996437876824
3242.0	2.51740153813e-05	0.996463050839
3247.0	2.51740153813e-05	0.996488224854
3250.0	1.25870076907e-05	0.996500811862
3254.0	1.25870076907e-05	0.99651339887
3266.0	2.51740153813e-05	0.996538572885
3273.0	1.25870076907e-05	0.996551159893
3275.0	2.51740153813e-05	0.996576333908
3280.0	1.25870076907e-05	0.996588920916
3285.0	2.51740153813e-05	0.996614094931
3289.0	1.25870076907e-05	0.996626681939
3297.0	1.25870076907e-05	0.996639268947
3299.0	2.51740153813e-05	0.996664442962
3306.0	1.25870076907e-05	0.99667702997
3308.0	1.25870076907e-05	0.996689616977
3310.0	1.25870076907e-05	0.996702203985
3312.0	1.25870076907e-05	0.996714790993
3319.0	2.51740153813e-05	0.996739965008
3323.0	2.51740153813e-05	0.996765139023
3326.0	1.25870076907e-05	0.996777726031
3338.0	2.51740153813e-05	0.996802900047
3344.0	1.25870076907e-05	0.996815487054
3348.0	2.51740153813e-05	0.99684066107
3350.0	1.25870076907e-05	0.996853248077
3356.0	1.25870076907e-05	0.996865835085
3365.0	1.25870076907e-05	0.996878422093
3369.0	1.25870076907e-05	0.9968910091
3376.0	2.51740153813e-05	0.996916183116
3378.0	1.25870076907e-05	0.996928770123
3381.0	1.25870076907e-05	0.996941357131
3383.0	1.25870076907e-05	0.996953944139
3392.0	1.25870076907e-05	0.996966531147
3394.0	1.25870076907e-05	0.996979118154
3397.0	1.25870076907e-05	0.996991705162
3408.0	1.25870076907e-05	0.99700429217
3410.0	1.25870076907e-05	0.997016879177
3412.0	1.25870076907e-05	0.997029466185
3422.0	1.25870076907e-05	0.997042053193
3435.0	1.25870076907e-05	0.9970546402
3447.0	1.25870076907e-05	0.997067227208
3451.0	1.25870076907e-05	0.997079814216
3460.0	1.25870076907e-05	0.997092401223
3463.0	1.25870076907e-05	0.997104988231
3468.0	1.25870076907e-05	0.997117575239
3470.0	1.25870076907e-05	0.997130162247
3497.0	1.25870076907e-05	0.997142749254
3516.0	1.25870076907e-05	0.997155336262
3521.0	1.25870076907e-05	0.99716792327
3538.0	1.25870076907e-05	0.997180510277
3550.0	1.25870076907e-05	0.997193097285
3556.0	2.51740153813e-05	0.9972182713
3566.0	1.25870076907e-05	0.997230858308
3572.0	1.25870076907e-05	0.997243445316
3581.0	2.51740153813e-05	0.997268619331
3587.0	1.25870076907e-05	0.997281206339
3594.0	1.25870076907e-05	0.997293793347
3596.0	1.25870076907e-05	0.997306380354
3618.0	1.25870076907e-05	0.997318967362
3624.0	2.51740153813e-05	0.997344141377
3626.0	1.25870076907e-05	0.997356728385
3632.0	2.51740153813e-05	0.9973819024
3640.0	1.25870076907e-05	0.997394489408
3642.0	1.25870076907e-05	0.997407076416
3644.0	1.25870076907e-05	0.997419663423
3662.0	2.51740153813e-05	0.997444837439
3665.0	1.25870076907e-05	0.997457424446
3681.0	2.51740153813e-05	0.997482598462
3691.0	3.7761023072e-05	0.997520359485
3693.0	1.25870076907e-05	0.997532946493
3695.0	1.25870076907e-05	0.9975455335
3702.0	1.25870076907e-05	0.997558120508
3719.0	1.25870076907e-05	0.997570707516
3722.0	1.25870076907e-05	0.997583294523
3735.0	1.25870076907e-05	0.997595881531
3749.0	2.51740153813e-05	0.997621055546
3757.0	1.25870076907e-05	0.997633642554
3759.0	1.25870076907e-05	0.997646229562
3761.0	1.25870076907e-05	0.99765881657
3782.0	2.51740153813e-05	0.997683990585
3791.0	2.51740153813e-05	0.9977091646
3845.0	1.25870076907e-05	0.997721751608
3869.0	1.25870076907e-05	0.997734338616
3879.0	1.25870076907e-05	0.997746925623
3885.0	3.7761023072e-05	0.997784686646
3894.0	1.25870076907e-05	0.997797273654
3897.0	1.25870076907e-05	0.997809860662
3918.0	1.25870076907e-05	0.99782244767
3928.0	2.51740153813e-05	0.997847621685
3935.0	1.25870076907e-05	0.997860208693
3938.0	1.25870076907e-05	0.9978727957
3943.0	1.25870076907e-05	0.997885382708
3959.0	2.51740153813e-05	0.997910556723
3967.0	1.25870076907e-05	0.997923143731
3969.0	2.51740153813e-05	0.997948317746
3972.0	1.25870076907e-05	0.997960904754
3986.0	1.25870076907e-05	0.997973491762
4002.0	1.25870076907e-05	0.997986078769
4005.0	1.25870076907e-05	0.997998665777
4025.0	1.25870076907e-05	0.998011252785
4041.0	1.25870076907e-05	0.998023839793
4059.0	3.7761023072e-05	0.998061600816
4061.0	1.25870076907e-05	0.998074187823
4068.0	2.51740153813e-05	0.998099361839
4077.0	1.25870076907e-05	0.998111948846
4088.0	1.25870076907e-05	0.998124535854
4097.0	2.51740153813e-05	0.998149709869
4099.0	1.25870076907e-05	0.998162296877
4104.0	1.25870076907e-05	0.998174883885
4115.0	1.25870076907e-05	0.998187470893
4131.0	1.25870076907e-05	0.9982000579
4144.0	1.25870076907e-05	0.998212644908
4174.0	1.25870076907e-05	0.998225231916
4201.0	1.25870076907e-05	0.998237818923
4219.0	1.25870076907e-05	0.998250405931
4225.0	2.51740153813e-05	0.998275579946
4250.0	1.25870076907e-05	0.998288166954
4253.0	1.25870076907e-05	0.998300753962
4255.0	1.25870076907e-05	0.998313340969
4257.0	1.25870076907e-05	0.998325927977
4262.0	1.25870076907e-05	0.998338514985
4267.0	1.25870076907e-05	0.998351101993
4275.0	1.25870076907e-05	0.998363689
4282.0	1.25870076907e-05	0.998376276008
4289.0	1.25870076907e-05	0.998388863016
4296.0	1.25870076907e-05	0.998401450023
4300.0	2.51740153813e-05	0.998426624039
4338.0	1.25870076907e-05	0.998439211046
4359.0	1.25870076907e-05	0.998451798054
4370.0	2.51740153813e-05	0.998476972069
4375.0	1.25870076907e-05	0.998489559077
4389.0	1.25870076907e-05	0.998502146085
4406.0	1.25870076907e-05	0.998514733093
4412.0	1.25870076907e-05	0.9985273201
4419.0	1.25870076907e-05	0.998539907108
4439.0	1.25870076907e-05	0.998552494116
4450.0	1.25870076907e-05	0.998565081123
4470.0	2.51740153813e-05	0.998590255139
4473.0	1.25870076907e-05	0.998602842146
4477.0	1.25870076907e-05	0.998615429154
4553.0	1.25870076907e-05	0.998628016162
4557.0	1.25870076907e-05	0.998640603169
4569.0	1.25870076907e-05	0.998653190177
4574.0	1.25870076907e-05	0.998665777185
4588.0	1.25870076907e-05	0.998678364192
4608.0	1.25870076907e-05	0.9986909512
4623.0	1.25870076907e-05	0.998703538208
4657.0	1.25870076907e-05	0.998716125216
4660.0	1.25870076907e-05	0.998728712223
4664.0	1.25870076907e-05	0.998741299231
4666.0	1.25870076907e-05	0.998753886239
4669.0	1.25870076907e-05	0.998766473246
4718.0	1.25870076907e-05	0.998779060254
4737.0	1.25870076907e-05	0.998791647262
4795.0	1.25870076907e-05	0.998804234269
4798.0	1.25870076907e-05	0.998816821277
4805.0	1.25870076907e-05	0.998829408285
4807.0	1.25870076907e-05	0.998841995292
4824.0	1.25870076907e-05	0.9988545823
4828.0	1.25870076907e-05	0.998867169308
4831.0	1.25870076907e-05	0.998879756316
4836.0	1.25870076907e-05	0.998892343323
4861.0	1.25870076907e-05	0.998904930331
4871.0	1.25870076907e-05	0.998917517339
4909.0	1.25870076907e-05	0.998930104346
4918.0	1.25870076907e-05	0.998942691354
4932.0	1.25870076907e-05	0.998955278362
4941.0	1.25870076907e-05	0.998967865369
5014.0	1.25870076907e-05	0.998980452377
5060.0	2.51740153813e-05	0.999005626392
5075.0	1.25870076907e-05	0.9990182134
5095.0	1.25870076907e-05	0.999030800408
5119.0	1.25870076907e-05	0.999043387416
5129.0	1.25870076907e-05	0.999055974423
5158.0	1.25870076907e-05	0.999068561431
5161.0	1.25870076907e-05	0.999081148439
5169.0	1.25870076907e-05	0.999093735446
5173.0	1.25870076907e-05	0.999106322454
5181.0	1.25870076907e-05	0.999118909462
5197.0	1.25870076907e-05	0.999131496469
5208.0	1.25870076907e-05	0.999144083477
5222.0	1.25870076907e-05	0.999156670485
5227.0	1.25870076907e-05	0.999169257492
5242.0	1.25870076907e-05	0.9991818445
5305.0	1.25870076907e-05	0.999194431508
5380.0	1.25870076907e-05	0.999207018515
5382.0	1.25870076907e-05	0.999219605523
5454.0	1.25870076907e-05	0.999232192531
5486.0	1.25870076907e-05	0.999244779539
5499.0	1.25870076907e-05	0.999257366546
5506.0	1.25870076907e-05	0.999269953554
5508.0	1.25870076907e-05	0.999282540562
5520.0	1.25870076907e-05	0.999295127569
5523.0	1.25870076907e-05	0.999307714577
5590.0	1.25870076907e-05	0.999320301585
5648.0	1.25870076907e-05	0.999332888592
5682.0	1.25870076907e-05	0.9993454756
5702.0	1.25870076907e-05	0.999358062608
5710.0	1.25870076907e-05	0.999370649615
5730.0	1.25870076907e-05	0.999383236623
5771.0	1.25870076907e-05	0.999395823631
5784.0	1.25870076907e-05	0.999408410639
5810.0	1.25870076907e-05	0.999420997646
5847.0	1.25870076907e-05	0.999433584654
5897.0	1.25870076907e-05	0.999446171662
5899.0	1.25870076907e-05	0.999458758669
5905.0	1.25870076907e-05	0.999471345677
5945.0	1.25870076907e-05	0.999483932685
5989.0	1.25870076907e-05	0.999496519692
6012.0	1.25870076907e-05	0.9995091067
6129.0	1.25870076907e-05	0.999521693708
6162.0	1.25870076907e-05	0.999534280715
6242.0	1.25870076907e-05	0.999546867723
6246.0	1.25870076907e-05	0.999559454731
6302.0	1.25870076907e-05	0.999572041739
6426.0	1.25870076907e-05	0.999584628746
6542.0	1.25870076907e-05	0.999597215754
6659.0	1.25870076907e-05	0.999609802762
6668.0	1.25870076907e-05	0.999622389769
6704.0	1.25870076907e-05	0.999634976777
6780.0	1.25870076907e-05	0.999647563785
6798.0	1.25870076907e-05	0.999660150792
6857.0	1.25870076907e-05	0.9996727378
6951.0	1.25870076907e-05	0.999685324808
6966.0	1.25870076907e-05	0.999697911815
7024.0	1.25870076907e-05	0.999710498823
7060.0	1.25870076907e-05	0.999723085831
7194.0	1.25870076907e-05	0.999735672838
7232.0	1.25870076907e-05	0.999748259846
7259.0	1.25870076907e-05	0.999760846854
7265.0	1.25870076907e-05	0.999773433862
7424.0	1.25870076907e-05	0.999786020869
7576.0	1.25870076907e-05	0.999798607877
7588.0	1.25870076907e-05	0.999811194885
7734.0	1.25870076907e-05	0.999823781892
7788.0	1.25870076907e-05	0.9998363689
7822.0	1.25870076907e-05	0.999848955908
8001.0	1.25870076907e-05	0.999861542915
8058.0	1.25870076907e-05	0.999874129923
8079.0	1.25870076907e-05	0.999886716931
8509.0	1.25870076907e-05	0.999899303938
8628.0	1.25870076907e-05	0.999911890946
8952.0	1.25870076907e-05	0.999924477954
9254.0	1.25870076907e-05	0.999937064962
9336.0	1.25870076907e-05	0.999949651969
10165.0	1.25870076907e-05	0.999962238977
10369.0	1.25870076907e-05	0.999974825985
10664.0	1.25870076907e-05	0.999987412992
12299.0	1.25870076907e-05	1.0
15198.0	1.25870076907e-05	1.0
