#
# Generated On: 2012-02-09T13:14:54.205661
#           By: cwa.analyze.statistics
#      Version: 11.11.23
#       Author: Thomas A. de Ruiter <thomas@de-ruiter.cx>
#
#  Commandline: /home/af10028/bin/cwa analyze
#     Work Dir: /scratch/af10028/var/thesis-project/result/workload-analyses/workload-06h-04944l-0s
#

Time	Sum	Avg	StdDev	CoV	0.000000-Pct	0.010000-Pct	0.100000-Pct	1.000000-Pct	2.000000-Pct	5.000000-Pct	25.000000-Pct	50.000000-Pct	75.000000-Pct	95.000000-Pct	98.000000-Pct	99.000000-Pct	99.900000-Pct	99.990000-Pct	100.000000-Pct
1326804600	10728961.0	1396.81825283	2947.62090238	2.11023939328	0.0	0.0	0.0	2.0	3.0	8.0	92.0	404.0	1194.0	6709.0	10463.0	13841.0	30333.0	48072.0	48072.0
