#
# Generated On: 2012-02-09T13:14:54.202172
#           By: cwa.analyze.statistics
#      Version: 11.11.23
#       Author: Thomas A. de Ruiter <thomas@de-ruiter.cx>
#
#  Commandline: /home/af10028/bin/cwa analyze
#     Work Dir: /scratch/af10028/var/thesis-project/result/workload-analyses/workload-06h-04944l-0s
#

Time	Sum	Avg	StdDev	CoV	0.000000-Pct	0.010000-Pct	0.100000-Pct	1.000000-Pct	2.000000-Pct	5.000000-Pct	25.000000-Pct	50.000000-Pct	75.000000-Pct	95.000000-Pct	98.000000-Pct	99.000000-Pct	99.900000-Pct	99.990000-Pct	100.000000-Pct
1326804600	1286733.0	4274.86046512	4851.43607198	1.1348758893	0.0	0.0	0.0	4.0	11.0	43.0	1012.0	3154.0	5309.0	13206.0	19481.0	22294.0	32084.0	32084.0	32084.0
1326808200	1505337.0	3920.1484375	4549.85604757	1.16063361378	1.0	1.0	1.0	5.0	9.0	50.0	943.0	2782.5	5441.0	11317.0	14922.0	23009.0	40280.0	40280.0	40280.0
1326811800	1241360.0	4208.0	4546.36283722	1.08040941949	1.0	1.0	1.0	9.0	14.0	36.0	858.0	2878.0	6002.0	14184.0	17191.0	22275.0	26600.0	26600.0	26600.0
1326815400	1274392.0	3815.54491018	4296.78251119	1.12612552396	5.0	5.0	5.0	12.0	13.0	50.0	818.0	2286.5	5742.0	11088.0	14107.0	20640.0	29974.0	29974.0	29974.0
1326819000	1674763.0	4125.0320197	5387.98134594	1.30616715705	0.0	0.0	0.0	8.0	14.0	31.0	754.0	2312.0	5403.0	14228.0	18807.0	22084.0	43540.0	43540.0	43540.0
1326822600	1219796.0	3696.35151515	4499.27314536	1.21722004169	1.0	1.0	1.0	4.0	9.0	31.0	901.0	2535.0	4973.0	10375.0	13088.0	19124.0	48072.0	48072.0	48072.0
1326826200	88488.0	4213.71428571	3384.31352187	0.803166349778	19.0	19.0	19.0	19.0	19.0	21.0	2554.0	3669.0	5268.0	9734.0	14524.0	14524.0	14524.0	14524.0	14524.0
