#
# Generated On: 2012-02-05T16:43:43.032060
#           By: cwa.analyze.statistics
#      Version: 11.11.23
#       Author: Thomas A. de Ruiter <thomas@de-ruiter.cx>
#
#  Commandline: /home/af10028/bin/cwa analyze
#     Work Dir: /scratch/af10028/var/thesis-project/result/analyses/workload-01h-03708l-1s-fair
#

Time	Sum	Avg	StdDev	CoV	0.000000-Pct	0.010000-Pct	0.100000-Pct	1.000000-Pct	2.000000-Pct	5.000000-Pct	25.000000-Pct	50.000000-Pct	75.000000-Pct	95.000000-Pct	98.000000-Pct	99.000000-Pct	99.900000-Pct	99.990000-Pct	100.000000-Pct
1326941400	56562.0	808.028571429	1374.22954405	1.7007190001	3.0	3.0	3.0	3.0	3.0	4.0	16.0	359.0	1032.0	3729.0	6950.0	7413.0	7413.0	7413.0	7413.0
1326942000	143285.0	1069.29104478	1668.4932414	1.56037334228	3.0	3.0	3.0	3.0	3.0	3.0	8.0	339.5	1233.0	4450.0	6893.0	7263.0	7458.0	7458.0	7458.0
1326942600	84493.0	603.521428571	1068.63602614	1.7706679093	3.0	3.0	3.0	3.0	3.0	3.0	5.0	220.0	672.0	3083.0	4432.0	6109.0	6999.0	6999.0	6999.0
1326943200	186724.0	1287.75172414	2068.73921122	1.60647364895	3.0	3.0	3.0	3.0	3.0	3.0	10.0	363.0	1474.0	6143.0	8289.0	8458.0	9054.0	9054.0	9054.0
1326943800	107724.0	897.7	1511.43188051	1.6836714721	3.0	3.0	3.0	3.0	3.0	3.0	10.0	271.0	901.0	4594.0	5776.0	6528.0	6827.0	6827.0	6827.0
1326944400	90553.0	696.561538462	1301.72111473	1.86878121006	3.0	3.0	3.0	3.0	3.0	3.0	10.0	218.5	575.0	3793.0	4556.0	7092.0	7926.0	7926.0	7926.0
1326945000	109300.0	1270.93023256	2000.38262099	1.57395155906	3.0	3.0	3.0	3.0	3.0	3.0	11.0	335.5	1346.0	5375.0	8131.0	8793.0	8793.0	8793.0	8793.0
