#
# Generated On: 2012-02-05T16:43:53.445507
#           By: cwa.analyze.statistics
#      Version: 11.11.23
#       Author: Thomas A. de Ruiter <thomas@de-ruiter.cx>
#
#  Commandline: /home/af10028/bin/cwa analyze
#     Work Dir: /scratch/af10028/var/thesis-project/result/analyses/workload-01h-03708l-1s-fair
#

Time	Sum	Avg	StdDev	CoV	0.000000-Pct	0.010000-Pct	0.100000-Pct	1.000000-Pct	2.000000-Pct	5.000000-Pct	25.000000-Pct	50.000000-Pct	75.000000-Pct	95.000000-Pct	98.000000-Pct	99.000000-Pct	99.900000-Pct	99.990000-Pct	100.000000-Pct
1326941400	3315674.0	155.906992053	351.859669648	2.25685625137	2.0	2.0	2.0	2.0	2.0	2.0	3.0	20.0	107.0	962.0	1214.0	1763.0	2222.0	3968.0	3970.0
1326945000	247180.0	143.542392567	317.501798213	2.21190264796	2.0	2.0	2.0	2.0	2.0	2.0	5.0	20.0	95.0	869.0	1022.0	1769.0	2540.0	2540.0	2540.0
