#
# Generated On: 2012-02-09T16:03:27.974137
#           By: cwa.analyze.statistics
#      Version: 11.11.23
#       Author: Thomas A. de Ruiter <thomas@de-ruiter.cx>
#
#  Commandline: /home/af10028/bin/cwa analyze
#     Work Dir: /scratch/af10028/var/thesis-project/result/workload-analyses/workload-06h-09888l-1s
#

Time	Sum	Avg	StdDev	CoV	0.000000-Pct	0.010000-Pct	0.100000-Pct	1.000000-Pct	2.000000-Pct	5.000000-Pct	25.000000-Pct	50.000000-Pct	75.000000-Pct	95.000000-Pct	98.000000-Pct	99.000000-Pct	99.900000-Pct	99.990000-Pct	100.000000-Pct
1326890400	8987588.0	243.572671346	544.992855633	2.2374959088	0.0	0.0	0.0	0.0	0.0	0.0	9.0	57.0	231.0	1114.0	1921.0	2611.0	5919.0	8887.0	13775.0
1326894000	17692106.0	241.983039952	553.482108251	2.28727644863	0.0	0.0	0.0	0.0	0.0	0.0	9.0	58.0	232.0	1083.0	1835.0	2552.0	5943.0	11386.0	25026.0
1326897600	23789499.0	241.21409596	543.259566931	2.25218830918	0.0	0.0	0.0	0.0	0.0	0.0	10.0	57.0	231.0	1082.0	1850.0	2543.0	5997.0	10287.0	18340.0
1326901200	27234315.0	236.919018373	530.053099319	2.23727543259	0.0	0.0	0.0	0.0	0.0	0.0	10.0	57.0	227.0	1067.0	1792.0	2517.0	5811.0	9774.0	14217.0
1326904800	29806739.0	239.457718757	528.366541512	2.20651288359	0.0	0.0	0.0	0.0	0.0	0.0	10.0	58.0	231.0	1079.0	1830.0	2508.0	5703.0	9369.0	16347.0
1326908400	31484382.0	240.903353661	542.079236067	2.25019381353	0.0	0.0	0.0	0.0	0.0	0.0	9.0	57.0	232.0	1077.0	1841.0	2574.0	5733.0	9671.0	17653.0
1326912000	21016158.0	239.334001435	535.957688134	2.23937127579	0.0	0.0	0.0	0.0	0.0	0.0	9.0	57.0	229.0	1079.0	1829.0	2566.0	5790.0	9984.0	18671.0
1326915600	10524054.0	239.291814461	543.63197894	2.27183692081	0.0	0.0	0.0	0.0	0.0	0.0	9.0	56.0	226.0	1072.0	1863.0	2599.0	5865.0	10864.0	14820.0
1326919200	6182373.0	243.486786657	541.900484249	2.2255847707	0.0	0.0	0.0	0.0	0.0	0.0	10.0	57.0	237.0	1093.0	1880.0	2620.0	5664.0	9501.0	12477.0
1326922800	4567443.0	236.962023346	530.267908807	2.23777591581	0.0	0.0	0.0	0.0	0.0	0.0	9.0	57.0	229.0	1065.0	1799.0	2531.0	5525.0	12005.0	14151.0
1326926400	3230924.0	241.185727083	517.708753604	2.14651488654	0.0	0.0	0.0	0.0	0.0	0.0	10.0	59.0	244.0	1072.0	1804.0	2460.0	5659.0	9949.0	10217.0
1326930000	1880313.0	247.60508296	556.028955138	2.24562819346	0.0	0.0	0.0	0.0	0.0	0.0	10.0	57.0	233.0	1136.0	1865.0	2655.0	6733.0	10236.0	10236.0
1326933600	1469035.0	244.106846128	542.02918839	2.22045877445	0.0	0.0	0.0	0.0	0.0	0.0	9.0	58.0	240.0	1106.0	1808.0	2491.0	5492.0	9668.0	9668.0
1326937200	1082186.0	250.564019449	573.129483475	2.28735747748	0.0	0.0	0.0	0.0	0.0	0.0	9.0	57.0	232.0	1167.0	2036.0	2787.0	6241.0	8983.0	8983.0
1326940800	864973.0	233.587091547	505.898321009	2.16578029915	0.0	0.0	0.0	0.0	0.0	0.0	9.0	59.0	227.0	1027.0	1819.0	2619.0	5356.0	7405.0	7405.0
1326944400	603140.0	228.808801214	491.875637865	2.14972341648	0.0	0.0	0.0	0.0	0.0	0.0	9.0	56.0	224.0	1060.0	1657.0	2331.0	5464.0	7320.0	7320.0
1326948000	352751.0	234.230411687	529.975544504	2.26262482608	0.0	0.0	0.0	0.0	0.0	0.0	8.0	56.0	235.0	1040.0	1673.0	2408.0	6229.0	9844.0	9844.0
1326951600	302244.0	237.426551453	503.197044147	2.11937982954	0.0	0.0	0.0	0.0	0.0	0.0	9.0	59.0	217.0	1074.0	1671.0	2425.0	5153.0	6838.0	6838.0
1326955200	149548.0	225.222891566	447.72424888	1.98791626271	0.0	0.0	0.0	0.0	0.0	0.0	9.0	57.0	226.0	1118.0	1711.0	2190.0	3942.0	3942.0	3942.0
1326958800	104457.0	248.116389549	547.738670085	2.2075876208	0.0	0.0	0.0	0.0	0.0	0.0	7.0	53.0	226.0	1276.0	1935.0	2502.0	5672.0	5672.0	5672.0
1326962400	18531.0	268.565217391	430.955282185	1.60465784203	0.0	0.0	0.0	0.0	0.0	0.0	12.0	77.0	275.0	1369.0	1793.0	1892.0	1892.0	1892.0	1892.0
