#
# Generated On: 2012-02-05T23:00:07.816410
#           By: cwa.analyze.statistics
#      Version: 11.11.23
#       Author: Thomas A. de Ruiter <thomas@de-ruiter.cx>
#
#  Commandline: /home/af10028/bin/cwa analyze
#     Work Dir: /scratch/af10028/var/thesis-project/result/analyses/workload-24h-06180l-0s-default
#

Time	Sum	Avg	StdDev	CoV	0.000000-Pct	0.010000-Pct	0.100000-Pct	1.000000-Pct	2.000000-Pct	5.000000-Pct	25.000000-Pct	50.000000-Pct	75.000000-Pct	95.000000-Pct	98.000000-Pct	99.000000-Pct	99.900000-Pct	99.990000-Pct	100.000000-Pct
1327423200	467860849.0	179.677585967	451.34181108	2.51195389037	2.0	2.0	2.0	2.0	2.0	2.0	6.0	35.0	152.0	827.0	1484.0	2117.0	5053.0	9213.0	28409.0
1327509600	5159519.0	190.444374723	451.61354419	2.37136720287	2.0	2.0	2.0	2.0	2.0	2.0	6.0	38.0	168.0	887.0	1535.0	2180.0	4834.0	9120.0	11384.0
