#
# Generated On: 2012-02-05T16:52:05.324508
#           By: cwa.analyze.node_utilization
#      Version: 12.1.1
#       Author: Thomas A. de Ruiter <thomas@de-ruiter.cx>
#
#  Commandline: /home/af10028/bin/cwa analyze
#     Work Dir: /scratch/af10028/var/thesis-project/result/analyses/workload-01h-06180l-2s-fair
#

Time	HostCount
