#
# Generated On: 2012-02-05T16:43:21.289276
#           By: cwa.analyze.statistics
#      Version: 11.11.23
#       Author: Thomas A. de Ruiter <thomas@de-ruiter.cx>
#
#  Commandline: /home/af10028/bin/cwa analyze
#     Work Dir: /scratch/af10028/var/thesis-project/result/analyses/workload-01h-00123l-3s-fair
#

Value	PDF	CDF
8.0	0.0769230769231	0.153846153846
28.0	0.0769230769231	0.230769230769
147.0	0.0769230769231	0.307692307692
277.0	0.0769230769231	0.384615384615
654.0	0.0769230769231	0.461538461538
1454.0	0.0769230769231	0.538461538462
1762.0	0.0769230769231	0.615384615385
2202.0	0.0769230769231	0.692307692308
2571.0	0.0769230769231	0.769230769231
3801.0	0.0769230769231	0.846153846154
4012.0	0.0769230769231	0.923076923077
4414.0	0.0769230769231	1.0
6046.0	0.0769230769231	1.0
