#
# Generated On: 2012-02-05T20:40:03.221373
#           By: cwa.analyze.statistics
#      Version: 11.11.23
#       Author: Thomas A. de Ruiter <thomas@de-ruiter.cx>
#
#  Commandline: /home/af10028/bin/cwa analyze
#     Work Dir: /scratch/af10028/var/thesis-project/result/analyses/workload-06h-09888l-2s-default
#

Time	Sum	Avg	StdDev	CoV	0.000000-Pct	0.010000-Pct	0.100000-Pct	1.000000-Pct	2.000000-Pct	5.000000-Pct	25.000000-Pct	50.000000-Pct	75.000000-Pct	95.000000-Pct	98.000000-Pct	99.000000-Pct	99.900000-Pct	99.990000-Pct	100.000000-Pct
all	-1290499226.0	-318877.990116	20861726.0575	-65.4222828296	-1327131235.0	-1327131235.0	2.0	9.0	194.0	1900.0	7454.0	9522.0	11547.0	13752.0	15462.0	17401.0	21995.0	23188.0	23188.0
