#
# Generated On: 2012-02-09T16:31:15.710832
#           By: cwa.analyze.statistics
#      Version: 11.11.23
#       Author: Thomas A. de Ruiter <thomas@de-ruiter.cx>
#
#  Commandline: /home/af10028/bin/cwa analyze
#     Work Dir: /scratch/af10028/var/thesis-project/result/workload-analyses/workload-06h-09888l-5s
#

Time	Sum	Avg	StdDev	CoV	0.000000-Pct	0.010000-Pct	0.100000-Pct	1.000000-Pct	2.000000-Pct	5.000000-Pct	25.000000-Pct	50.000000-Pct	75.000000-Pct	95.000000-Pct	98.000000-Pct	99.000000-Pct	99.900000-Pct	99.990000-Pct	100.000000-Pct
1326898800	3391469.0	1395.09214315	2906.95581721	2.08370166191	0.0	0.0	0.0	2.0	4.0	9.0	86.0	393.0	1209.0	6524.0	11319.0	14430.0	26316.0	32631.0	32631.0
1326902400	3919764.0	1546.86819258	3918.19127312	2.5329832832	0.0	0.0	0.0	2.0	4.0	9.0	92.0	418.5	1198.0	6917.0	12071.0	18639.0	43840.0	94494.0	94494.0
1326906000	3823520.0	1517.8721715	3303.92588791	2.17668256257	0.0	0.0	0.0	2.0	4.0	9.0	94.0	409.0	1209.0	7226.0	12061.0	15904.0	35993.0	48052.0	48052.0
1326909600	3726678.0	1547.62375415	3415.90651693	2.20719442162	0.0	0.0	1.0	2.0	4.0	10.0	97.0	399.0	1264.0	7755.0	11560.0	15023.0	37899.0	57758.0	57758.0
1326913200	4034117.0	1652.64932405	3613.59166033	2.18654472413	0.0	0.0	0.0	3.0	5.0	10.0	108.0	448.0	1291.0	7582.0	14269.0	18325.0	40934.0	50276.0	50276.0
1326916800	3368473.0	1311.20007785	2827.57244627	2.15647672238	0.0	0.0	0.0	2.0	4.0	8.0	86.0	388.0	1101.0	6148.0	11051.0	14743.0	28122.0	29606.0	29606.0
1326920400	338127.0	1610.12857143	2978.43481867	1.84981179237	0.0	0.0	0.0	3.0	4.0	7.0	100.0	423.0	1659.0	8406.0	11475.0	12967.0	19688.0	19688.0	19688.0
