#
# Generated On: 2012-02-05T16:56:47.673294
#           By: cwa.analyze.statistics
#      Version: 11.11.23
#       Author: Thomas A. de Ruiter <thomas@de-ruiter.cx>
#
#  Commandline: /home/af10028/bin/cwa analyze
#     Work Dir: /scratch/af10028/var/thesis-project/result/analyses/workload-01h-07416l-2s-default
#

Value	PDF	CDF
2.0	0.0111524163569	0.0130111524164
5.0	0.00371747211896	0.0167286245353
8.0	0.00743494423792	0.0241635687732
21.0	0.00185873605948	0.0260223048327
24.0	0.00185873605948	0.0278810408922
27.0	0.00185873605948	0.0297397769517
29.0	0.00185873605948	0.0315985130112
31.0	0.00185873605948	0.0334572490706
39.0	0.00371747211896	0.0371747211896
41.0	0.00185873605948	0.0390334572491
43.0	0.00371747211896	0.042750929368
47.0	0.00557620817844	0.0483271375465
57.0	0.00185873605948	0.0501858736059
63.0	0.00371747211896	0.0539033457249
66.0	0.00185873605948	0.0557620817844
69.0	0.00371747211896	0.0594795539033
71.0	0.00185873605948	0.0613382899628
73.0	0.00185873605948	0.0631970260223
80.0	0.00185873605948	0.0650557620818
83.0	0.00185873605948	0.0669144981413
86.0	0.00185873605948	0.0687732342007
95.0	0.00185873605948	0.0706319702602
100.0	0.00557620817844	0.0762081784387
102.0	0.00185873605948	0.0780669144981
107.0	0.00185873605948	0.0799256505576
113.0	0.00371747211896	0.0836431226766
115.0	0.00185873605948	0.0855018587361
118.0	0.00557620817844	0.0910780669145
121.0	0.00557620817844	0.0966542750929
124.0	0.00371747211896	0.100371747212
127.0	0.00371747211896	0.104089219331
139.0	0.00185873605948	0.10594795539
145.0	0.00371747211896	0.109665427509
149.0	0.00185873605948	0.111524163569
154.0	0.00557620817844	0.117100371747
157.0	0.00371747211896	0.120817843866
159.0	0.00557620817844	0.126394052045
165.0	0.00371747211896	0.130111524164
167.0	0.00371747211896	0.133828996283
175.0	0.00371747211896	0.137546468401
178.0	0.00185873605948	0.139405204461
180.0	0.00185873605948	0.14126394052
183.0	0.00185873605948	0.14312267658
186.0	0.00185873605948	0.144981412639
196.0	0.00371747211896	0.148698884758
202.0	0.00185873605948	0.150557620818
211.0	0.00371747211896	0.154275092937
213.0	0.00185873605948	0.156133828996
218.0	0.00185873605948	0.157992565056
220.0	0.00185873605948	0.159851301115
224.0	0.00557620817844	0.165427509294
247.0	0.00185873605948	0.167286245353
325.0	0.00185873605948	0.169144981413
365.0	0.00185873605948	0.171003717472
448.0	0.00185873605948	0.172862453532
474.0	0.00185873605948	0.174721189591
483.0	0.00185873605948	0.176579925651
567.0	0.00185873605948	0.17843866171
638.0	0.00185873605948	0.18029739777
824.0	0.00185873605948	0.182156133829
827.0	0.00185873605948	0.184014869888
840.0	0.00185873605948	0.185873605948
875.0	0.00185873605948	0.187732342007
931.0	0.00185873605948	0.189591078067
953.0	0.00185873605948	0.191449814126
998.0	0.00185873605948	0.193308550186
1030.0	0.00185873605948	0.195167286245
1122.0	0.00185873605948	0.197026022305
1172.0	0.00185873605948	0.198884758364
1175.0	0.00185873605948	0.200743494424
1217.0	0.00185873605948	0.202602230483
1226.0	0.00185873605948	0.204460966543
1265.0	0.00185873605948	0.206319702602
1286.0	0.00185873605948	0.208178438662
1314.0	0.00185873605948	0.210037174721
1322.0	0.00185873605948	0.211895910781
1329.0	0.00185873605948	0.21375464684
1376.0	0.00371747211896	0.217472118959
1418.0	0.00185873605948	0.219330855019
1463.0	0.00185873605948	0.221189591078
1473.0	0.00185873605948	0.223048327138
1519.0	0.00185873605948	0.224907063197
1525.0	0.00185873605948	0.226765799257
1588.0	0.00185873605948	0.228624535316
1601.0	0.00185873605948	0.230483271375
1640.0	0.00185873605948	0.232342007435
1703.0	0.00185873605948	0.234200743494
1709.0	0.00185873605948	0.236059479554
1727.0	0.00185873605948	0.237918215613
1735.0	0.00185873605948	0.239776951673
1739.0	0.00185873605948	0.241635687732
1757.0	0.00185873605948	0.243494423792
1778.0	0.00185873605948	0.245353159851
1786.0	0.00185873605948	0.247211895911
1799.0	0.00185873605948	0.24907063197
1814.0	0.00185873605948	0.25092936803
1845.0	0.00185873605948	0.252788104089
1862.0	0.00185873605948	0.254646840149
1880.0	0.00185873605948	0.256505576208
1888.0	0.00185873605948	0.258364312268
1920.0	0.00185873605948	0.260223048327
1973.0	0.00185873605948	0.262081784387
1995.0	0.00185873605948	0.263940520446
2100.0	0.00185873605948	0.265799256506
2374.0	0.00185873605948	0.267657992565
2381.0	0.00185873605948	0.269516728625
2396.0	0.00185873605948	0.271375464684
2457.0	0.00371747211896	0.275092936803
2481.0	0.00185873605948	0.276951672862
2504.0	0.00185873605948	0.278810408922
2507.0	0.00185873605948	0.280669144981
2520.0	0.00185873605948	0.282527881041
2571.0	0.00185873605948	0.2843866171
2606.0	0.00185873605948	0.28624535316
2621.0	0.00185873605948	0.288104089219
2670.0	0.00185873605948	0.289962825279
2685.0	0.00371747211896	0.293680297398
2695.0	0.00185873605948	0.295539033457
2799.0	0.00185873605948	0.297397769517
2849.0	0.00185873605948	0.299256505576
2852.0	0.00185873605948	0.301115241636
2855.0	0.00371747211896	0.304832713755
2863.0	0.00185873605948	0.306691449814
2912.0	0.00185873605948	0.308550185874
2937.0	0.00185873605948	0.310408921933
2976.0	0.00185873605948	0.312267657993
3022.0	0.00185873605948	0.314126394052
3045.0	0.00371747211896	0.317843866171
3062.0	0.00185873605948	0.31970260223
3084.0	0.00185873605948	0.32156133829
3159.0	0.00185873605948	0.323420074349
3195.0	0.00185873605948	0.325278810409
3203.0	0.00185873605948	0.327137546468
3227.0	0.00185873605948	0.328996282528
3240.0	0.00371747211896	0.332713754647
3278.0	0.00185873605948	0.334572490706
3339.0	0.0092936802974	0.343866171004
3343.0	0.00371747211896	0.347583643123
3351.0	0.00185873605948	0.349442379182
3368.0	0.00185873605948	0.351301115242
3412.0	0.00185873605948	0.353159851301
3440.0	0.00185873605948	0.355018587361
3470.0	0.00185873605948	0.35687732342
3494.0	0.00185873605948	0.35873605948
3533.0	0.00185873605948	0.360594795539
3571.0	0.00185873605948	0.362453531599
3617.0	0.00185873605948	0.364312267658
3639.0	0.00185873605948	0.366171003717
3653.0	0.00185873605948	0.368029739777
3671.0	0.00185873605948	0.369888475836
3695.0	0.00185873605948	0.371747211896
3716.0	0.00185873605948	0.373605947955
3718.0	0.00185873605948	0.375464684015
3720.0	0.00185873605948	0.377323420074
3723.0	0.00185873605948	0.379182156134
3729.0	0.00557620817844	0.384758364312
3735.0	0.00743494423792	0.39219330855
3760.0	0.00185873605948	0.39405204461
3769.0	0.00371747211896	0.397769516729
3776.0	0.00371747211896	0.401486988848
3778.0	0.00185873605948	0.403345724907
3784.0	0.00557620817844	0.408921933086
3807.0	0.00185873605948	0.410780669145
3810.0	0.00371747211896	0.414498141264
3813.0	0.00185873605948	0.416356877323
3818.0	0.00557620817844	0.421933085502
3825.0	0.00557620817844	0.42750929368
3828.0	0.00185873605948	0.42936802974
3830.0	0.00185873605948	0.431226765799
3833.0	0.00185873605948	0.433085501859
3836.0	0.00185873605948	0.434944237918
3852.0	0.00185873605948	0.436802973978
3854.0	0.00743494423792	0.444237918216
3869.0	0.00185873605948	0.446096654275
3872.0	0.00185873605948	0.447955390335
3874.0	0.00185873605948	0.449814126394
3925.0	0.00185873605948	0.451672862454
3957.0	0.00185873605948	0.453531598513
3959.0	0.00371747211896	0.457249070632
3970.0	0.00185873605948	0.459107806691
3974.0	0.00371747211896	0.46282527881
3984.0	0.00185873605948	0.46468401487
4001.0	0.00185873605948	0.466542750929
4005.0	0.00371747211896	0.470260223048
4008.0	0.00185873605948	0.472118959108
4012.0	0.00185873605948	0.473977695167
4034.0	0.00185873605948	0.475836431227
4093.0	0.00185873605948	0.477695167286
4108.0	0.00185873605948	0.479553903346
4126.0	0.00185873605948	0.481412639405
4190.0	0.00185873605948	0.483271375465
4262.0	0.00185873605948	0.485130111524
4275.0	0.00185873605948	0.486988847584
4279.0	0.00185873605948	0.488847583643
4320.0	0.00185873605948	0.490706319703
4324.0	0.00371747211896	0.494423791822
4327.0	0.00185873605948	0.496282527881
4329.0	0.00185873605948	0.498141263941
4331.0	0.00371747211896	0.501858736059
4350.0	0.00371747211896	0.505576208178
4352.0	0.00557620817844	0.511152416357
4356.0	0.00185873605948	0.513011152416
4363.0	0.00371747211896	0.516728624535
4365.0	0.0111524163569	0.527881040892
4367.0	0.00185873605948	0.529739776952
4369.0	0.00371747211896	0.533457249071
4378.0	0.00185873605948	0.53531598513
4382.0	0.00185873605948	0.53717472119
4397.0	0.00185873605948	0.539033457249
4399.0	0.00185873605948	0.540892193309
4439.0	0.00557620817844	0.546468401487
4451.0	0.00371747211896	0.550185873606
4455.0	0.00371747211896	0.553903345725
4473.0	0.00185873605948	0.555762081784
4477.0	0.00185873605948	0.557620817844
4488.0	0.00185873605948	0.559479553903
4491.0	0.00557620817844	0.565055762082
4505.0	0.00185873605948	0.566914498141
4517.0	0.00185873605948	0.568773234201
4523.0	0.00371747211896	0.57249070632
4525.0	0.00185873605948	0.574349442379
4528.0	0.00185873605948	0.576208178439
4530.0	0.00557620817844	0.581784386617
4536.0	0.00185873605948	0.583643122677
4546.0	0.00185873605948	0.585501858736
4559.0	0.00185873605948	0.587360594796
4568.0	0.00185873605948	0.589219330855
4583.0	0.00185873605948	0.591078066914
4585.0	0.00371747211896	0.594795539033
4587.0	0.00743494423792	0.602230483271
4593.0	0.00371747211896	0.60594795539
4598.0	0.00557620817844	0.611524163569
4607.0	0.00185873605948	0.613382899628
4669.0	0.00185873605948	0.615241635688
4753.0	0.00185873605948	0.617100371747
4779.0	0.00185873605948	0.618959107807
4803.0	0.00185873605948	0.620817843866
4808.0	0.00371747211896	0.624535315985
4811.0	0.00185873605948	0.626394052045
4823.0	0.00185873605948	0.628252788104
4855.0	0.00185873605948	0.630111524164
4867.0	0.00185873605948	0.631970260223
4893.0	0.00185873605948	0.633828996283
4900.0	0.00185873605948	0.635687732342
4916.0	0.00185873605948	0.637546468401
4923.0	0.00185873605948	0.639405204461
4966.0	0.00185873605948	0.64126394052
4971.0	0.00185873605948	0.64312267658
4989.0	0.00185873605948	0.644981412639
5004.0	0.00557620817844	0.650557620818
5007.0	0.00185873605948	0.652416356877
5011.0	0.00185873605948	0.654275092937
5017.0	0.00185873605948	0.656133828996
5051.0	0.00185873605948	0.657992565056
5102.0	0.00185873605948	0.659851301115
5104.0	0.00185873605948	0.661710037175
5161.0	0.00185873605948	0.663568773234
5166.0	0.00185873605948	0.665427509294
5200.0	0.00185873605948	0.667286245353
5219.0	0.00185873605948	0.669144981413
5236.0	0.00185873605948	0.671003717472
5239.0	0.00743494423792	0.67843866171
5243.0	0.00185873605948	0.68029739777
5246.0	0.00185873605948	0.682156133829
5258.0	0.00371747211896	0.685873605948
5264.0	0.00371747211896	0.689591078067
5266.0	0.00371747211896	0.693308550186
5271.0	0.00185873605948	0.695167286245
5281.0	0.00185873605948	0.697026022305
5284.0	0.00557620817844	0.702602230483
5287.0	0.00185873605948	0.704460966543
5289.0	0.00185873605948	0.706319702602
5294.0	0.00743494423792	0.71375464684
5296.0	0.00371747211896	0.717472118959
5298.0	0.00371747211896	0.721189591078
5300.0	0.00557620817844	0.726765799257
5302.0	0.00185873605948	0.728624535316
5307.0	0.00371747211896	0.732342007435
5309.0	0.00185873605948	0.734200743494
5311.0	0.00743494423792	0.741635687732
5314.0	0.00185873605948	0.743494423792
5322.0	0.00185873605948	0.745353159851
5327.0	0.00371747211896	0.74907063197
5329.0	0.00371747211896	0.752788104089
5336.0	0.00371747211896	0.756505576208
5338.0	0.00557620817844	0.762081784387
5344.0	0.00185873605948	0.763940520446
5347.0	0.00185873605948	0.765799256506
5351.0	0.00185873605948	0.767657992565
5354.0	0.00185873605948	0.769516728625
5360.0	0.00371747211896	0.773234200743
5363.0	0.00371747211896	0.776951672862
5365.0	0.00557620817844	0.782527881041
5367.0	0.00743494423792	0.789962825279
5369.0	0.00743494423792	0.797397769517
5371.0	0.00371747211896	0.801115241636
5373.0	0.00371747211896	0.804832713755
5379.0	0.00185873605948	0.806691449814
5386.0	0.00185873605948	0.808550185874
5389.0	0.00185873605948	0.810408921933
5396.0	0.00185873605948	0.812267657993
5407.0	0.00185873605948	0.814126394052
5420.0	0.00743494423792	0.82156133829
5422.0	0.00557620817844	0.827137546468
5442.0	0.00371747211896	0.830855018587
5446.0	0.00371747211896	0.834572490706
5456.0	0.00185873605948	0.836431226766
5458.0	0.00185873605948	0.838289962825
5460.0	0.0111524163569	0.849442379182
5462.0	0.00557620817844	0.855018587361
5465.0	0.00371747211896	0.85873605948
5530.0	0.00185873605948	0.860594795539
5555.0	0.00185873605948	0.862453531599
5575.0	0.00185873605948	0.864312267658
5582.0	0.00185873605948	0.866171003717
5665.0	0.00185873605948	0.868029739777
5720.0	0.00185873605948	0.869888475836
5774.0	0.00185873605948	0.871747211896
5785.0	0.00185873605948	0.873605947955
5826.0	0.00185873605948	0.875464684015
5831.0	0.00185873605948	0.877323420074
5849.0	0.00185873605948	0.879182156134
5913.0	0.00185873605948	0.881040892193
5924.0	0.00185873605948	0.882899628253
5927.0	0.00185873605948	0.884758364312
5947.0	0.00185873605948	0.886617100372
5963.0	0.00185873605948	0.888475836431
5986.0	0.00185873605948	0.890334572491
6036.0	0.00185873605948	0.89219330855
6044.0	0.00371747211896	0.895910780669
6046.0	0.00185873605948	0.897769516729
6074.0	0.00185873605948	0.899628252788
6082.0	0.00185873605948	0.901486988848
6227.0	0.00185873605948	0.903345724907
6324.0	0.00185873605948	0.905204460967
6453.0	0.00185873605948	0.907063197026
6493.0	0.00185873605948	0.908921933086
6518.0	0.00185873605948	0.910780669145
6700.0	0.00185873605948	0.912639405204
6702.0	0.00185873605948	0.914498141264
6709.0	0.00185873605948	0.916356877323
6715.0	0.00185873605948	0.918215613383
6817.0	0.00185873605948	0.920074349442
6839.0	0.00185873605948	0.921933085502
6932.0	0.00185873605948	0.923791821561
6937.0	0.00185873605948	0.925650557621
7121.0	0.00185873605948	0.92750929368
7153.0	0.00185873605948	0.92936802974
7245.0	0.00185873605948	0.931226765799
7247.0	0.00185873605948	0.933085501859
7310.0	0.00185873605948	0.934944237918
7527.0	0.00185873605948	0.936802973978
7580.0	0.00185873605948	0.938661710037
7591.0	0.00185873605948	0.940520446097
7639.0	0.00185873605948	0.942379182156
7748.0	0.00185873605948	0.944237918216
7818.0	0.00185873605948	0.946096654275
7832.0	0.00185873605948	0.947955390335
7839.0	0.00185873605948	0.949814126394
7901.0	0.00185873605948	0.951672862454
7919.0	0.00185873605948	0.953531598513
8102.0	0.00185873605948	0.955390334572
8330.0	0.00185873605948	0.957249070632
8466.0	0.00185873605948	0.959107806691
8615.0	0.00185873605948	0.960966542751
8685.0	0.00185873605948	0.96282527881
8757.0	0.00185873605948	0.96468401487
8805.0	0.00185873605948	0.966542750929
8813.0	0.00185873605948	0.968401486989
8872.0	0.00185873605948	0.970260223048
8885.0	0.00185873605948	0.972118959108
9034.0	0.00185873605948	0.973977695167
9045.0	0.00185873605948	0.975836431227
9078.0	0.00185873605948	0.977695167286
9252.0	0.00185873605948	0.979553903346
9647.0	0.00185873605948	0.981412639405
9718.0	0.00185873605948	0.983271375465
10021.0	0.00185873605948	0.985130111524
10152.0	0.00185873605948	0.986988847584
10268.0	0.00185873605948	0.988847583643
10676.0	0.00185873605948	0.990706319703
10704.0	0.00185873605948	0.992565055762
11090.0	0.00185873605948	0.994423791822
12339.0	0.00185873605948	0.996282527881
12433.0	0.00185873605948	0.998141263941
12968.0	0.00185873605948	1.0
13360.0	0.00185873605948	1.0
