#
# Generated On: 2012-01-25T15:47:24.788673
#           By: cwa.analyze.jobs_per_executableid
#      Version: 11.3.16
#       Author: Thomas A. de Ruiter <thomas@de-ruiter.cx>
#
#  Commandline: /home/af10028/bin/cwa analyze
#     Work Dir: /scratch/af10028/var/thesis-project/result/analyses/workload-01h-07416l-0s-default
#

Time	ID_-1
0	26069
600	33278
1200	29746
1800	31121
2400	32097
3000	27816
3600	28040
4200	12008
4800	8935
5400	8329
6000	6902
6600	8058
7200	7727
7800	6724
8400	7005
9000	7310
9600	6321
10200	4170
10800	2648
11400	2239
12000	2055
12600	1826
13200	1670
13800	1158
14400	1130
15000	1110
15600	353
16200	353
16800	29
17400	18
18000	18
