#
# Generated On: 2012-02-05T17:08:04.072217
#           By: cwa.analyze.statistics
#      Version: 11.11.23
#       Author: Thomas A. de Ruiter <thomas@de-ruiter.cx>
#
#  Commandline: /home/af10028/bin/cwa analyze
#     Work Dir: /scratch/af10028/var/thesis-project/result/analyses/workload-01h-09888l-1s-default
#

Value	PDF	CDF
2.0	0.126864419978	0.126870410083
5.0	0.0796024966755	0.206472906758
8.0	0.0323884942076	0.238861400966
11.0	0.0259611122426	0.264822513208
14.0	0.0223910100514	0.28721352326
17.0	0.0190724922428	0.306286015502
20.0	0.0173952630255	0.323681278528
23.0	0.0155443207821	0.33922559931
26.0	0.0140827353212	0.353308334631
29.0	0.0125432785039	0.365851613135
32.0	0.0120041691126	0.377855782248
35.0	0.0115249607648	0.389380743013
38.0	0.0112074852344	0.400588228247
41.0	0.00965604820836	0.410244276455
44.0	0.00951827580836	0.419762552264
47.0	0.00919481017359	0.428957362437
50.0	0.00867367109535	0.437631033533
53.0	0.00779312575625	0.445424159289
56.0	0.00810461118233	0.453528770471
59.0	0.00733188772148	0.460860658193
62.0	0.00746966012148	0.468330318314
65.0	0.00702639239976	0.475356710714
68.0	0.00657713457368	0.481933845288
71.0	0.00633753039978	0.488271375687
74.0	0.00623569862587	0.494507074313
77.0	0.00582238142588	0.500329455739
80.0	0.00573851996502	0.506067975704
83.0	0.00541505433025	0.511483030034
86.0	0.00538510380851	0.516868133843
89.0	0.00483401420853	0.521702148051
92.0	0.00498975692157	0.526691904973
95.0	0.00486396473027	0.531555869703
98.0	0.00488792514766	0.536443794851
101.0	0.00447460794767	0.540918402799
104.0	0.00455247930419	0.545470882103
107.0	0.00428292460855	0.549753806711
110.0	0.00437277617376	0.554126582885
113.0	0.00414515220855	0.558271735094
116.0	0.00436678606941	0.562638521163
119.0	0.00384564699117	0.566484168154
122.0	0.00427094439985	0.570755112554
125.0	0.00379772615639	0.57455283871
128.0	0.00360005271292	0.578152891423
131.0	0.00410322147812	0.582256112901
134.0	0.00444465742593	0.586700770327
137.0	0.00379173605204	0.590492506379
140.0	0.00340237926945	0.593894885649
143.0	0.00307891363468	0.596973799284
146.0	0.00316876519989	0.600142564483
149.0	0.00301302248685	0.60315558697
152.0	0.00307891363468	0.606234500605
155.0	0.00289921050425	0.609133711109
158.0	0.00285727977381	0.611990990883
161.0	0.00282732925208	0.614818320135
164.0	0.00279737873034	0.617615698865
167.0	0.00274346779121	0.620359166657
170.0	0.00277940841729	0.623138575074
173.0	0.0026416360173	0.625780211091
176.0	0.00243797246948	0.628218183561
179.0	0.00245594278252	0.630674126343
182.0	0.00267757664339	0.633351702987
185.0	0.00225826933905	0.635609972326
188.0	0.00242599226079	0.638035964587
191.0	0.00224029902601	0.640276263613
194.0	0.00244995267818	0.642726216291
197.0	0.00215643756514	0.644882653856
200.0	0.00223430892166	0.647116962777
203.0	0.00215643756514	0.649273400343
206.0	0.00245594278252	0.651729343125
209.0	0.00214445735645	0.653873800482
212.0	0.00255777455643	0.656431575038
215.0	0.00195277401732	0.658384349055
218.0	0.00185094224341	0.660235291299
221.0	0.00195277401732	0.662188065316
224.0	0.00202465526949	0.664212720586
227.0	0.00232416048688	0.666536881072
230.0	0.00228222975644	0.668819110829
233.0	0.0018868828695	0.670705993698
236.0	0.00176708078255	0.672473074481
239.0	0.00191084328689	0.674383917768
242.0	0.00164128859125	0.676025206359
245.0	0.00170118963472	0.677726395994
248.0	0.00181500161733	0.679541397611
251.0	0.00171316984342	0.681254567455
254.0	0.00167722921733	0.682931796672
257.0	0.00165925890429	0.684591055576
260.0	0.00166524900864	0.686256304585
263.0	0.00151549639995	0.687771800985
266.0	0.00171915994777	0.689490960933
269.0	0.00148554587821	0.690976506811
272.0	0.00216841777384	0.693144924585
275.0	0.00176708078255	0.694912005367
278.0	0.00161133806951	0.696523343437
281.0	0.00183297193037	0.698356315367
284.0	0.00236609121731	0.700722406584
287.0	0.00238406153035	0.703106468115
290.0	0.00205460579123	0.705161073906
293.0	0.00149153598256	0.706652609888
296.0	0.00146757556517	0.708120185454
299.0	0.00152148650429	0.709641671958
302.0	0.00141366462604	0.711055336584
305.0	0.0016233182782	0.712678654862
308.0	0.00178505109559	0.714463705958
311.0	0.00301302248685	0.717476728445
314.0	0.00126990212169	0.718746630566
317.0	0.00130584274778	0.720052473314
320.0	0.0012459417043	0.721298415018
323.0	0.00125193180865	0.722550346827
326.0	0.0013717338956	0.723922080723
329.0	0.00107821878257	0.725000299505
332.0	0.00122198128691	0.726222280792
335.0	0.00155742713038	0.727779707923
338.0	0.0012459417043	0.729025649627
341.0	0.00115010003474	0.730175749662
344.0	0.00125193180865	0.73142768147
347.0	0.00115609013909	0.732583771609
350.0	0.0011321297217	0.733715901331
353.0	0.00114410993039	0.734860011261
356.0	0.000982377113009	0.735842388374
359.0	0.000964406799966	0.736806795174
362.0	0.00107821878257	0.737885013957
365.0	0.00109618909561	0.738981203053
368.0	0.00106623857388	0.740047441626
371.0	0.00108420888692	0.741131650513
374.0	0.00107821878257	0.742209869296
377.0	0.000988367217357	0.743198236513
380.0	0.000994357321705	0.744192593835
383.0	0.000946436486924	0.745139030322
386.0	0.000988367217357	0.746127397539
389.0	0.000940446382576	0.747067843922
392.0	0.000916485965186	0.747984329887
395.0	0.000952426591271	0.748936756478
398.0	0.00115609013909	0.750092846617
401.0	0.000964406799966	0.751057253417
404.0	0.00104227815649	0.752099531574
407.0	0.000934456278228	0.753033987852
410.0	0.000886535443447	0.753920523296
413.0	0.00103029794779	0.754950821243
416.0	0.000850594817362	0.755801416061
419.0	0.000946436486924	0.756747852548
422.0	0.000868565130405	0.757616417678
425.0	0.000844604713014	0.758461022391
428.0	0.000892525547795	0.759353547939
431.0	0.000850594817362	0.760204142756
434.0	0.000760743252147	0.760964886008
437.0	0.000802673982581	0.761767559991
440.0	0.000850594817362	0.762618154808
443.0	0.000898515652143	0.76351667046
446.0	0.000874555234752	0.764391225695
449.0	0.000802673982581	0.765193899678
452.0	0.000820644295624	0.766014543973
455.0	0.000664901582586	0.766679445556
458.0	0.000898515652143	0.767577961208
461.0	0.000802673982581	0.768380635191
464.0	0.000748763043452	0.769129398234
467.0	0.000844604713014	0.769974002947
470.0	0.000688861999976	0.770662864947
473.0	0.000736782834757	0.771399647782
476.0	0.000784703669538	0.772184351451
479.0	0.000742772939105	0.772927124391
482.0	0.000676881791281	0.773604006182
485.0	0.000736782834757	0.774340789017
488.0	0.000712822417367	0.775053611434
491.0	0.000634951060847	0.775688562495
494.0	0.000634951060847	0.776323513556
497.0	0.000850594817362	0.777174108373
500.0	0.000676881791281	0.777850990164
503.0	0.000646931269543	0.778497921434
506.0	0.000664901582586	0.779162823016
509.0	0.00052712918259	0.779689952199
512.0	0.000616980747805	0.780306932947
515.0	0.0006289609565	0.780935893903
518.0	0.000622970852152	0.781558864755
521.0	0.000634951060847	0.782193815816
524.0	0.000634951060847	0.782828766877
527.0	0.000605000539109	0.783433767416
530.0	0.000682871895628	0.784116639312
533.0	0.000581040121719	0.784697679434
536.0	0.000515148973895	0.785212828407
539.0	0.000575050017371	0.785787878425
542.0	0.000634951060847	0.786422829486
545.0	0.000557079704328	0.78697990919
548.0	0.000581040121719	0.787560949312
551.0	0.000605000539109	0.788165949851
554.0	0.000593020330414	0.788758970181
557.0	0.000587030226067	0.789346000407
560.0	0.000593020330414	0.789939020738
563.0	0.000694852104324	0.790633872842
566.0	0.000616980747805	0.79125085359
569.0	0.000491188556505	0.791742042146
572.0	0.000551089599981	0.792293131746
575.0	0.000700842208671	0.792993973955
578.0	0.000551089599981	0.793545063555
581.0	0.000485198452157	0.794030262007
584.0	0.000473218243462	0.794503480251
587.0	0.000359406260857	0.794862886511
590.0	0.000563069808676	0.79542595632
593.0	0.000539109391286	0.795965065711
596.0	0.000587030226067	0.796552095938
599.0	0.000479208347809	0.797031304285
602.0	0.000551089599981	0.797582393885
605.0	0.000593020330414	0.798175414216
608.0	0.000473218243462	0.798648632459
611.0	0.000610990643457	0.799259623103
614.0	0.0005031687652	0.799762791868
617.0	0.000521139078243	0.800283930946
620.0	0.0005031687652	0.800787099711
623.0	0.000539109391286	0.801326209103
626.0	0.000533119286938	0.80185932839
629.0	0.000461238034767	0.802320566424
632.0	0.000694852104324	0.803015418529
635.0	0.000419307304333	0.803434725833
638.0	0.000419307304333	0.803854033137
641.0	0.000736782834757	0.804590815972
644.0	0.000599010434762	0.805189826407
647.0	0.000443267721724	0.805633094128
650.0	0.000473218243462	0.806106312372
653.0	0.000431287513028	0.806537599885
656.0	0.000431287513028	0.806968887398
659.0	0.000551089599981	0.807519976998
662.0	0.000353416156509	0.807873393155
665.0	0.000736782834757	0.808610175989
668.0	0.000395346886943	0.809005522876
671.0	0.000371386469552	0.809376909346
674.0	0.000443267721724	0.809820177067
677.0	0.000479208347809	0.810299385415
680.0	0.000329455739119	0.810628841154
683.0	0.000383366678248	0.811012207833
686.0	0.000371386469552	0.811383594302
689.0	0.000646931269543	0.812030525572
692.0	0.000431287513028	0.812461813085
695.0	0.000383366678248	0.812845179763
698.0	0.000341435947814	0.813186615711
701.0	0.000473218243462	0.813659833954
704.0	0.000443267721724	0.814103101676
707.0	0.000509158869548	0.814612260546
710.0	0.000383366678248	0.814995627224
713.0	0.000455247930419	0.815450875154
716.0	0.000551089599981	0.816001964754
719.0	0.000425297408681	0.816427262163
722.0	0.00040133699129	0.816828599154
725.0	0.000419307304333	0.817247906459
728.0	0.000479208347809	0.817727114806
731.0	0.000449257826071	0.818176372632
734.0	0.0003773765739	0.818553749206
737.0	0.000233614069557	0.818787363276
740.0	0.000485198452157	0.819272561728
743.0	0.000311485426076	0.819584047154
746.0	0.0003773765739	0.819961423728
749.0	0.000365396365205	0.820326820093
752.0	0.000299505217381	0.820626325311
755.0	0.000365396365205	0.820991721676
758.0	0.000371386469552	0.821363108145
761.0	0.000353416156509	0.821716524302
764.0	0.000317475530424	0.822033999832
767.0	0.000179703130429	0.822213702963
770.0	0.0003773765739	0.822591079537
773.0	0.000383366678248	0.822974446215
776.0	0.000359406260857	0.823333852476
779.0	0.000287525008686	0.823621377484
782.0	0.000329455739119	0.823950833224
785.0	0.000335445843467	0.824286279067
788.0	0.000269554695643	0.824555833763
791.0	0.000335445843467	0.824891279606
794.0	0.00027554479999	0.825166824406
797.0	0.000335445843467	0.82550227025
800.0	0.000353416156509	0.825855686406
803.0	0.000293515113033	0.826149201519
806.0	0.000371386469552	0.826520587989
809.0	0.000575050017371	0.827095638006
812.0	0.000257574486948	0.827353212493
815.0	0.000323465634771	0.827676678128
818.0	0.000664901582586	0.82834157971
821.0	0.000323465634771	0.828665045345
824.0	0.000257574486948	0.828922619832
827.0	0.000299505217381	0.829222125049
830.0	0.000299505217381	0.829521630267
833.0	0.000257574486948	0.829779204754
836.0	0.000299505217381	0.830078709971
839.0	0.000509158869548	0.830587868841
842.0	0.000335445843467	0.830923314684
845.0	0.000269554695643	0.83119286938
848.0	0.000287525008686	0.831480394388
851.0	0.000323465634771	0.831803860023
854.0	0.000407327095638	0.832211187119
857.0	0.000467228139114	0.832678415258
860.0	0.000215643756514	0.832894059015
863.0	0.000305495321729	0.833199554336
866.0	0.000209653652167	0.833409207988
869.0	0.000269554695643	0.833678762684
872.0	0.000227623965209	0.833906386649
875.0	0.000299505217381	0.834205891867
878.0	0.000437277617376	0.834643169484
881.0	0.000203663547819	0.834846833032
884.0	0.000257574486948	0.835104407519
887.0	0.00027554479999	0.835379952319
890.0	0.000221633860862	0.83560158618
893.0	0.000305495321729	0.835907081501
896.0	0.000473218243462	0.836380299745
899.0	0.000233614069557	0.836613913814
902.0	0.000197673443471	0.836811587258
905.0	0.000215643756514	0.837027231014
908.0	0.000215643756514	0.837242874771
911.0	0.000221633860862	0.837464508632
914.0	0.000227623965209	0.837692132597
917.0	0.000227623965209	0.837919756562
920.0	0.000179703130429	0.838099459693
923.0	0.000233614069557	0.838333073762
926.0	0.000209653652167	0.838542727414
929.0	0.000185693234776	0.838728420649
932.0	0.000197673443471	0.838926094093
935.0	0.000179703130429	0.839105797223
938.0	0.000233614069557	0.839339411293
941.0	0.000287525008686	0.839626936301
944.0	0.000263564591295	0.839890500893
947.0	0.000179703130429	0.840070204023
950.0	0.000185693234776	0.840255897258
953.0	0.000191683339124	0.840447580597
956.0	0.000215643756514	0.840663224353
959.0	0.000305495321729	0.840968719675
962.0	0.000203663547819	0.841172383223
965.0	0.000233614069557	0.841405997292
968.0	0.000221633860862	0.841627631153
971.0	0.000221633860862	0.841849265014
974.0	0.000161732817386	0.842010997832
977.0	0.000215643756514	0.842226641588
980.0	0.000173713026081	0.842400354614
983.0	0.000209653652167	0.842610008266
986.0	0.000197673443471	0.84280768171
989.0	0.000191683339124	0.842999365049
992.0	0.000299505217381	0.843298870266
995.0	0.00027554479999	0.843574415066
998.0	0.000353416156509	0.843927831223
1001.0	0.000167722921733	0.844095554145
1004.0	0.000173713026081	0.844269267171
1007.0	0.000221633860862	0.844490901031
1010.0	0.000185693234776	0.844676594266
1013.0	0.0005031687652	0.845179763031
1016.0	0.000569059913024	0.845748822944
1019.0	0.000239604173905	0.845988427118
1022.0	0.000209653652167	0.846198080771
1025.0	0.000203663547819	0.846401744318
1028.0	0.000137772399995	0.846539516718
1031.0	0.000167722921733	0.84670723964
1034.0	0.0002515843826	0.846958824023
1037.0	0.000179703130429	0.847138527153
1040.0	0.000539109391286	0.847677636544
1043.0	0.000191683339124	0.847869319884
1046.0	0.000197673443471	0.848066993327
1049.0	0.000173713026081	0.848240706353
1052.0	0.000215643756514	0.84845635011
1055.0	0.000197673443471	0.848654023553
1058.0	0.0002515843826	0.848905607936
1061.0	0.000173713026081	0.849079320962
1064.0	0.000191683339124	0.849271004301
1067.0	0.000131782295648	0.849402786597
1070.0	0.000197673443471	0.84960046004
1073.0	0.000191683339124	0.849792143379
1076.0	0.000185693234776	0.849977836614
1079.0	0.000143762504343	0.850121599118
1082.0	0.000143762504343	0.850265361623
1085.0	0.000299505217381	0.85056486684
1088.0	0.000311485426076	0.850876352266
1091.0	0.000107821878257	0.850984174144
1094.0	0.000155742713038	0.851139916857
1097.0	0.000203663547819	0.851343580405
1100.0	0.000389356782595	0.851732937188
1103.0	0.000305495321729	0.852038432509
1106.0	0.000209653652167	0.852248086162
1109.0	0.000179703130429	0.852427789292
1112.0	0.000359406260857	0.852787195553
1115.0	0.000167722921733	0.852954918475
1118.0	0.000227623965209	0.85318254244
1121.0	0.000167722921733	0.853350265362
1124.0	0.000688861999976	0.854039127362
1127.0	0.000221633860862	0.854260761222
1130.0	0.000173713026081	0.854434474249
1133.0	0.000173713026081	0.854608187275
1136.0	0.000191683339124	0.854799870614
1139.0	0.000221633860862	0.855021504475
1142.0	0.0001257921913	0.855147296666
1145.0	0.000161732817386	0.855309029483
1148.0	0.000161732817386	0.855470762301
1151.0	0.000161732817386	0.855632495118
1154.0	0.000155742713038	0.855788237831
1157.0	0.00010183177391	0.855890069605
1160.0	0.000137772399995	0.856027842005
1163.0	0.000155742713038	0.856183584718
1166.0	0.000233614069557	0.856417198788
1169.0	0.000143762504343	0.856560961292
1172.0	0.000131782295648	0.856692743588
1175.0	9.58416695619e-05	0.856788585257
1178.0	0.000191683339124	0.856980268596
1181.0	0.000113811982605	0.857094080579
1184.0	6.58911478238e-05	0.857159971727
1187.0	0.000191683339124	0.857351655066
1190.0	0.000119802086952	0.857471457153
1193.0	0.00014975260869	0.857621209761
1196.0	0.000131782295648	0.857752992057
1199.0	0.000131782295648	0.857884774353
1202.0	0.000209653652167	0.858094428005
1205.0	0.000197673443471	0.858292101448
1208.0	0.000113811982605	0.858405913431
1211.0	0.000155742713038	0.858561656144
1214.0	0.00010183177391	0.858663487918
1217.0	0.000119802086952	0.858783290005
1220.0	0.00014975260869	0.858933042614
1223.0	0.0001257921913	0.859058834805
1226.0	0.000155742713038	0.859214577518
1229.0	0.000161732817386	0.859376310335
1232.0	0.000137772399995	0.859514082735
1235.0	0.000131782295648	0.859645865031
1238.0	0.000131782295648	0.859777647327
1241.0	0.000137772399995	0.859915419727
1244.0	0.000113811982605	0.860029231709
1247.0	7.7871356519e-05	0.860107103066
1250.0	0.000155742713038	0.860262845779
1253.0	0.00010183177391	0.860364677553
1256.0	0.000113811982605	0.860478489535
1259.0	8.38614608666e-05	0.860562350996
1262.0	0.00010183177391	0.86066418277
1265.0	0.000137772399995	0.86080195517
1268.0	0.000335445843467	0.861137401014
1271.0	0.000341435947814	0.861478836961
1274.0	0.00010183177391	0.861580668735
1277.0	0.000191683339124	0.861772352074
1280.0	9.58416695619e-05	0.861868193744
1283.0	0.00010183177391	0.861970025518
1286.0	7.18812521714e-05	0.86204190677
1289.0	0.000119802086952	0.862161708857
1292.0	0.000137772399995	0.862299481257
1295.0	9.58416695619e-05	0.862395322927
1298.0	0.00156940733908	0.863964730266
1301.0	0.00106024846953	0.865024978735
1304.0	0.000131782295648	0.865156761031
1307.0	8.38614608666e-05	0.865240622492
1310.0	0.000143762504343	0.865384384996
1313.0	0.000131782295648	0.865516167292
1316.0	9.58416695619e-05	0.865612008961
1319.0	0.000119802086952	0.865731811048
1322.0	7.18812521714e-05	0.8658036923
1325.0	8.38614608666e-05	0.865887553761
1328.0	0.0001257921913	0.866013345952
1331.0	0.0001257921913	0.866139138144
1334.0	0.000113811982605	0.866252950126
1337.0	0.000119802086952	0.866372752213
1340.0	0.000137772399995	0.866510524613
1343.0	8.98515652143e-05	0.866600376179
1346.0	0.000449257826071	0.867049634005
1349.0	0.000293515113033	0.867343149118
1352.0	0.000155742713038	0.867498891831
1355.0	0.00010183177391	0.867600723605
1358.0	0.000119802086952	0.867720525692
1361.0	0.00010183177391	0.867822357465
1364.0	0.000131782295648	0.867954139761
1367.0	9.58416695619e-05	0.868049981431
1370.0	0.000197673443471	0.868247654874
1373.0	0.0002515843826	0.868499239257
1376.0	0.000509158869548	0.869008398126
1379.0	8.98515652143e-05	0.869098249692
1382.0	0.000131782295648	0.869230031987
1385.0	9.58416695619e-05	0.869325873657
1388.0	9.58416695619e-05	0.869421715326
1391.0	0.00108420888692	0.870505924213
1394.0	0.00121000107822	0.871715925291
1397.0	0.000143762504343	0.871859687796
1400.0	0.000143762504343	0.8720034503
1403.0	8.98515652143e-05	0.872093301865
1406.0	5.39109391286e-05	0.872147212804
1409.0	0.000107821878257	0.872255034683
1412.0	0.00010183177391	0.872356866457
1415.0	0.000113811982605	0.872470678439
1418.0	6.58911478238e-05	0.872536569587
1421.0	0.00010183177391	0.872638401361
1424.0	7.18812521714e-05	0.872710282613
1427.0	0.000287525008686	0.872997807622
1430.0	0.000317475530424	0.873315283152
1433.0	0.000107821878257	0.87342310503
1436.0	7.18812521714e-05	0.873494986283
1439.0	0.000113811982605	0.873608798265
1442.0	7.18812521714e-05	0.873680679517
1445.0	8.98515652143e-05	0.873770531083
1448.0	0.00014975260869	0.873920283691
1451.0	8.38614608666e-05	0.874004145152
1454.0	0.000113811982605	0.874117957135
1457.0	7.18812521714e-05	0.874189838387
1460.0	7.7871356519e-05	0.874267709744
1463.0	0.000155742713038	0.874423452457
1466.0	0.0001257921913	0.874549244648
1469.0	0.000431287513028	0.874980532161
1472.0	8.38614608666e-05	0.875064393622
1475.0	9.58416695619e-05	0.875160235291
1478.0	9.58416695619e-05	0.875256076961
1481.0	7.7871356519e-05	0.875333948317
1484.0	4.79208347809e-05	0.875381869152
1487.0	7.7871356519e-05	0.875459740509
1490.0	7.18812521714e-05	0.875531621761
1493.0	7.18812521714e-05	0.875603503013
1496.0	0.000209653652167	0.875813156665
1499.0	9.58416695619e-05	0.875908998335
1502.0	8.98515652143e-05	0.8759988499
1505.0	7.7871356519e-05	0.876076721256
1508.0	0.000113811982605	0.876190533239
1511.0	0.00010183177391	0.876292365013
1514.0	5.39109391286e-05	0.876346275952
1517.0	7.7871356519e-05	0.876424147309
1520.0	6.58911478238e-05	0.876490038456
1523.0	9.58416695619e-05	0.876585880126
1526.0	5.99010434762e-05	0.87664578117
1529.0	6.58911478238e-05	0.876711672317
1532.0	0.000119802086952	0.876831474404
1535.0	8.98515652143e-05	0.876921325969
1538.0	5.99010434762e-05	0.876981227013
1541.0	0.000113811982605	0.877095038996
1544.0	0.000143762504343	0.8772388015
1547.0	7.7871356519e-05	0.877316672856
1550.0	8.38614608666e-05	0.877400534317
1553.0	6.58911478238e-05	0.877466425465
1556.0	8.98515652143e-05	0.87755627703
1559.0	8.98515652143e-05	0.877646128596
1562.0	6.58911478238e-05	0.877712019743
1565.0	7.18812521714e-05	0.877783900996
1568.0	6.58911478238e-05	0.877849792143
1571.0	0.00010183177391	0.877951623917
1574.0	6.58911478238e-05	0.878017515065
1577.0	0.000209653652167	0.878227168717
1580.0	8.38614608666e-05	0.878311030178
1583.0	0.000119802086952	0.878430832265
1586.0	7.18812521714e-05	0.878502713517
1589.0	2.99505217381e-05	0.878532664039
1592.0	6.58911478238e-05	0.878598555187
1595.0	9.58416695619e-05	0.878694396856
1598.0	0.000167722921733	0.878862119778
1601.0	5.39109391286e-05	0.878916030717
1604.0	8.98515652143e-05	0.879005882282
1607.0	4.19307304333e-05	0.879047813013
1610.0	8.38614608666e-05	0.879131674474
1613.0	7.7871356519e-05	0.87920954583
1616.0	7.7871356519e-05	0.879287417187
1619.0	0.000113811982605	0.879401229169
1622.0	4.19307304333e-05	0.8794431599
1625.0	0.000221633860862	0.879664793761
1628.0	3.59406260857e-05	0.879700734387
1631.0	5.39109391286e-05	0.879754645326
1634.0	6.58911478238e-05	0.879820536474
1637.0	0.000161732817386	0.879982269291
1640.0	4.79208347809e-05	0.880030190126
1643.0	5.39109391286e-05	0.880084101065
1646.0	5.99010434762e-05	0.880144002109
1649.0	7.7871356519e-05	0.880221873465
1652.0	9.58416695619e-05	0.880317715135
1655.0	8.38614608666e-05	0.880401576595
1658.0	8.98515652143e-05	0.880491428161
1661.0	6.58911478238e-05	0.880557319309
1664.0	0.000209653652167	0.880766972961
1667.0	7.18812521714e-05	0.880838854213
1670.0	8.98515652143e-05	0.880928705778
1673.0	6.58911478238e-05	0.880994596926
1676.0	0.000293515113033	0.881288112039
1679.0	8.38614608666e-05	0.8813719735
1682.0	8.98515652143e-05	0.881461825065
1685.0	1.19802086952e-05	0.881473805274
1688.0	3.59406260857e-05	0.8815097459
1691.0	0.000119802086952	0.881629547987
1694.0	0.00010183177391	0.881731379761
1697.0	0.000551089599981	0.882282469361
1700.0	9.58416695619e-05	0.88237831103
1703.0	7.18812521714e-05	0.882450192282
1706.0	0.000509158869548	0.882959351152
1709.0	3.59406260857e-05	0.882995291778
1712.0	0.000281534904338	0.883276826682
1715.0	0.00014975260869	0.883426579291
1718.0	0.0002515843826	0.883678163674
1721.0	0.000119802086952	0.883797965761
1724.0	2.39604173905e-05	0.883821926178
1727.0	4.79208347809e-05	0.883869847013
1730.0	0.000167722921733	0.884037569934
1733.0	0.00110816930431	0.885145739239
1736.0	0.000287525008686	0.885433264247
1738.0	7.7871356519e-05	0.885511135604
1742.0	5.39109391286e-05	0.885565046543
1745.0	5.39109391286e-05	0.885618957482
1748.0	5.99010434762e-05	0.885678858526
1751.0	5.39109391286e-05	0.885732769465
1754.0	4.19307304333e-05	0.885774700195
1757.0	7.18812521714e-05	0.885846581447
1760.0	7.18812521714e-05	0.8859184627
1763.0	8.38614608666e-05	0.88600232416
1766.0	0.000287525008686	0.886289849169
1769.0	4.79208347809e-05	0.886337770004
1772.0	5.39109391286e-05	0.886391680943
1775.0	7.18812521714e-05	0.886463562195
1778.0	7.18812521714e-05	0.886535443447
1781.0	0.0001257921913	0.886661235639
1784.0	0.00010183177391	0.886763067413
1787.0	5.99010434762e-05	0.886822968456
1790.0	5.99010434762e-05	0.8868828695
1793.0	0.00014975260869	0.887032622108
1796.0	4.19307304333e-05	0.887074552839
1799.0	6.58911478238e-05	0.887140443987
1802.0	7.18812521714e-05	0.887212325239
1805.0	0.000209653652167	0.887421978891
1807.0	6.58911478238e-05	0.887487870039
1810.0	0.000143762504343	0.887631632543
1814.0	5.39109391286e-05	0.887685543482
1817.0	7.7871356519e-05	0.887763414839
1820.0	2.99505217381e-05	0.88779336536
1823.0	0.000119802086952	0.887913167447
1826.0	2.99505217381e-05	0.887943117969
1829.0	2.99505217381e-05	0.887973068491
1832.0	3.59406260857e-05	0.888009009117
1835.0	8.98515652143e-05	0.888098860682
1838.0	6.58911478238e-05	0.88816475183
1841.0	6.58911478238e-05	0.888230642978
1844.0	6.58911478238e-05	0.888296534126
1847.0	3.59406260857e-05	0.888332474752
1850.0	5.39109391286e-05	0.888386385691
1853.0	0.000167722921733	0.888554108613
1856.0	7.18812521714e-05	0.888625989865
1859.0	5.39109391286e-05	0.888679900804
1862.0	5.39109391286e-05	0.888733811743
1865.0	4.19307304333e-05	0.888775742473
1868.0	3.59406260857e-05	0.8888116831
1871.0	0.000143762504343	0.888955445604
1874.0	6.58911478238e-05	0.889021336752
1877.0	0.0001257921913	0.889147128943
1880.0	2.39604173905e-05	0.88917108936
1883.0	5.39109391286e-05	0.8892250003
1886.0	6.58911478238e-05	0.889290891447
1889.0	0.000311485426076	0.889602376873
1892.0	5.99010434762e-05	0.889662277917
1895.0	5.39109391286e-05	0.889716188856
1897.0	5.39109391286e-05	0.889770099795
1901.0	5.39109391286e-05	0.889824010734
1904.0	0.000161732817386	0.889985743552
1906.0	0.0002515843826	0.890237327934
1910.0	9.58416695619e-05	0.890333169604
1913.0	3.59406260857e-05	0.89036911023
1916.0	4.79208347809e-05	0.890417031065
1919.0	4.19307304333e-05	0.890458961795
1922.0	0.000107821878257	0.890566783673
1925.0	0.000143762504343	0.890710546178
1928.0	0.000473218243462	0.891183764421
1931.0	0.00010183177391	0.891285596195
1934.0	0.00010183177391	0.891387427969
1937.0	0.000215643756514	0.891603071726
1940.0	2.99505217381e-05	0.891633022247
1942.0	7.7871356519e-05	0.891710893604
1946.0	3.59406260857e-05	0.89174683423
1949.0	3.59406260857e-05	0.891782774856
1952.0	5.39109391286e-05	0.891836685795
1955.0	4.19307304333e-05	0.891878616525
1958.0	6.58911478238e-05	0.891944507673
1961.0	7.7871356519e-05	0.89202237903
1964.0	0.000269554695643	0.892291933725
1967.0	8.38614608666e-05	0.892375795186
1970.0	7.18812521714e-05	0.892447676439
1973.0	5.99010434762e-05	0.892507577482
1976.0	3.59406260857e-05	0.892543518108
1979.0	3.59406260857e-05	0.892579458734
1982.0	2.39604173905e-05	0.892603419152
1985.0	4.19307304333e-05	0.892645349882
1988.0	6.58911478238e-05	0.89271124103
1991.0	3.59406260857e-05	0.892747181656
1994.0	0.000167722921733	0.892914904578
1996.0	0.000491188556505	0.893406093134
2000.0	4.19307304333e-05	0.893448023865
2003.0	4.79208347809e-05	0.893495944699
2006.0	2.99505217381e-05	0.893525895221
2009.0	3.59406260857e-05	0.893561835847
2012.0	2.39604173905e-05	0.893585796265
2015.0	3.59406260857e-05	0.893621736891
2017.0	0.00010183177391	0.893723568665
2021.0	1.79703130429e-05	0.893741538978
2024.0	0.000161732817386	0.893903271795
2027.0	4.19307304333e-05	0.893945202525
2030.0	7.7871356519e-05	0.894023073882
2033.0	1.79703130429e-05	0.894041044195
2036.0	4.19307304333e-05	0.894082974925
2039.0	7.18812521714e-05	0.894154856178
2041.0	6.58911478238e-05	0.894220747325
2045.0	7.7871356519e-05	0.894298618682
2048.0	4.19307304333e-05	0.894340549412
2050.0	3.59406260857e-05	0.894376490038
2054.0	2.99505217381e-05	0.89440644056
2057.0	4.19307304333e-05	0.894448371291
2060.0	0.000455247930419	0.894903619221
2062.0	0.000137772399995	0.895041391621
2066.0	7.7871356519e-05	0.895119262978
2068.0	0.000425297408681	0.895544560386
2071.0	0.00014975260869	0.895694312995
2075.0	4.19307304333e-05	0.895736243725
2078.0	9.58416695619e-05	0.895832085395
2080.0	0.000521139078243	0.896353224473
2084.0	4.19307304333e-05	0.896395155204
2087.0	4.79208347809e-05	0.896443076038
2090.0	1.79703130429e-05	0.896461046351
2092.0	5.39109391286e-05	0.896514957291
2096.0	4.79208347809e-05	0.896562878125
2098.0	4.19307304333e-05	0.896604808856
2102.0	4.19307304333e-05	0.896646739586
2105.0	5.99010434762e-05	0.89670664063
2108.0	5.39109391286e-05	0.896760551569
2111.0	7.7871356519e-05	0.896838422925
2113.0	0.000616980747805	0.897455403673
2117.0	7.7871356519e-05	0.89753327503
2120.0	6.58911478238e-05	0.897599166177
2122.0	0.000137772399995	0.897736938577
2125.0	6.58911478238e-05	0.897802829725
2128.0	5.39109391286e-05	0.897856740664
2131.0	3.59406260857e-05	0.897892681291
2134.0	3.59406260857e-05	0.897928621917
2138.0	7.7871356519e-05	0.898006493273
2141.0	5.99010434762e-05	0.898066394317
2143.0	1.79703130429e-05	0.89808436463
2146.0	5.99010434762e-05	0.898144265673
2150.0	7.7871356519e-05	0.89822213703
2152.0	0.000173713026081	0.898395850056
2155.0	0.0002515843826	0.898647434438
2158.0	1.19802086952e-05	0.898659414647
2162.0	5.39109391286e-05	0.898713325586
2165.0	3.59406260857e-05	0.898749266212
2168.0	2.39604173905e-05	0.89877322663
2171.0	5.99010434762e-05	0.898833127673
2173.0	1.79703130429e-05	0.898851097986
2176.0	0.000209653652167	0.899060751638
2179.0	4.79208347809e-05	0.899108672473
2183.0	2.39604173905e-05	0.89913263289
2186.0	4.19307304333e-05	0.899174563621
2189.0	4.79208347809e-05	0.899222484456
2191.0	5.99010434762e-05	0.899282385499
2195.0	4.19307304333e-05	0.89932431623
2198.0	3.59406260857e-05	0.899360256856
2201.0	2.99505217381e-05	0.899390207377
2204.0	1.79703130429e-05	0.89940817769
2207.0	4.19307304333e-05	0.899450108421
2210.0	2.39604173905e-05	0.899474068838
2213.0	5.39109391286e-05	0.899527979777
2216.0	3.59406260857e-05	0.899563920403
2219.0	5.39109391286e-05	0.899617831343
2222.0	5.39109391286e-05	0.899671742282
2224.0	2.39604173905e-05	0.899695702699
2227.0	0.000131782295648	0.899827484995
2231.0	5.39109391286e-05	0.899881395934
2234.0	0.000131782295648	0.90001317823
2236.0	9.58416695619e-05	0.900109019899
2240.0	2.39604173905e-05	0.900132980317
2243.0	0.000137772399995	0.900270752717
2245.0	0.000317475530424	0.900588228247
2248.0	0.000227623965209	0.900815852212
2251.0	5.99010434762e-05	0.900875753256
2255.0	4.19307304333e-05	0.900917683986
2258.0	2.99505217381e-05	0.900947634508
2261.0	2.39604173905e-05	0.900971594925
2263.0	8.38614608666e-05	0.901055456386
2266.0	8.98515652143e-05	0.901145307951
2269.0	5.39109391286e-05	0.90119921889
2272.0	1.79703130429e-05	0.901217189203
2276.0	3.59406260857e-05	0.90125312983
2278.0	2.99505217381e-05	0.901283080351
2281.0	5.39109391286e-05	0.90133699129
2285.0	5.39109391286e-05	0.90139090223
2287.0	0.000311485426076	0.901702387656
2291.0	1.79703130429e-05	0.901720357969
2294.0	1.19802086952e-05	0.901732338177
2296.0	0.000185693234776	0.901918031412
2299.0	0.000485198452157	0.902403229864
2302.0	0.000329455739119	0.902732685603
2305.0	3.59406260857e-05	0.902768626229
2309.0	4.19307304333e-05	0.90281055696
2312.0	4.19307304333e-05	0.90285248769
2315.0	1.79703130429e-05	0.902870458003
2318.0	2.99505217381e-05	0.902900408525
2321.0	2.39604173905e-05	0.902924368943
2324.0	0.000281534904338	0.903205903847
2327.0	1.79703130429e-05	0.90322387416
2329.0	4.79208347809e-05	0.903271794995
2332.0	0.00027554479999	0.903547339795
2335.0	3.59406260857e-05	0.903583280421
2339.0	2.39604173905e-05	0.903607240838
2341.0	0.000233614069557	0.903840854908
2344.0	0.000143762504343	0.903984617412
2348.0	2.39604173905e-05	0.904008577829
2351.0	3.59406260857e-05	0.904044518456
2354.0	2.99505217381e-05	0.904074468977
2356.0	0.000263564591295	0.904338033569
2359.0	1.79703130429e-05	0.904356003882
2363.0	7.7871356519e-05	0.904433875238
2366.0	4.79208347809e-05	0.904481796073
2368.0	5.99010434762e-05	0.904541697116
2371.0	9.58416695619e-05	0.904637538786
2374.0	0.000389356782595	0.905026895569
2377.0	2.99505217381e-05	0.90505684609
2380.0	1.19802086952e-05	0.905068826299
2384.0	5.99010434762e-06	0.905074816403
2387.0	1.19802086952e-05	0.905086796612
2389.0	4.19307304333e-05	0.905128727342
2393.0	2.39604173905e-05	0.90515268776
2396.0	1.79703130429e-05	0.905170658073
2399.0	5.99010434762e-05	0.905230559116
2401.0	1.79703130429e-05	0.905248529429
2405.0	2.39604173905e-05	0.905272489847
2407.0	0.000167722921733	0.905440212769
2410.0	0.000419307304333	0.905859520073
2413.0	0.000371386469552	0.906230906542
2416.0	0.000221633860862	0.906452540403
2419.0	0.000263564591295	0.906716104995
2423.0	3.59406260857e-05	0.906752045621
2426.0	1.79703130429e-05	0.906770015934
2429.0	2.39604173905e-05	0.906793976351
2431.0	2.99505217381e-05	0.906823926873
2434.0	3.59406260857e-05	0.906859867499
2438.0	4.79208347809e-05	0.906907788334
2440.0	0.000257574486948	0.907165362821
2444.0	2.39604173905e-05	0.907189323238
2447.0	3.59406260857e-05	0.907225263864
2452.0	2.99505217381e-05	0.907255214386
2456.0	2.39604173905e-05	0.907279174803
2459.0	2.99505217381e-05	0.907309125325
2462.0	1.19802086952e-05	0.907321105534
2464.0	4.19307304333e-05	0.907363036264
2467.0	4.79208347809e-05	0.907410957099
2470.0	4.19307304333e-05	0.907452887829
2473.0	7.7871356519e-05	0.907530759186
2476.0	0.000664901582586	0.908195660768
2479.0	1.79703130429e-05	0.908213631081
2483.0	2.99505217381e-05	0.908243581603
2486.0	4.79208347809e-05	0.908291502438
2489.0	2.99505217381e-05	0.90832145296
2491.0	7.18812521714e-05	0.908393334212
2495.0	1.79703130429e-05	0.908411304525
2497.0	0.000407327095638	0.908818631621
2500.0	4.79208347809e-05	0.908866552455
2504.0	1.79703130429e-05	0.908884522768
2506.0	5.39109391286e-05	0.908938433708
2510.0	1.79703130429e-05	0.908956404021
2512.0	2.99505217381e-05	0.908986354542
2516.0	2.39604173905e-05	0.90901031496
2518.0	1.19802086952e-05	0.909022295168
2522.0	1.19802086952e-05	0.909034275377
2524.0	0.0002515843826	0.90928585976
2527.0	5.99010434762e-05	0.909345760803
2530.0	0.000383366678248	0.909729127481
2533.0	4.19307304333e-05	0.909771058212
2536.0	7.7871356519e-05	0.909848929568
2539.0	0.000107821878257	0.909956751447
2542.0	0.00010183177391	0.910058583221
2546.0	5.99010434762e-06	0.910064573325
2549.0	2.99505217381e-05	0.910094523847
2551.0	2.99505217381e-05	0.910124474368
2554.0	8.38614608666e-05	0.910208335829
2557.0	2.99505217381e-05	0.910238286351
2560.0	0.00014975260869	0.91038803896
2563.0	0.000137772399995	0.91052581136
2566.0	0.000359406260857	0.91088521762
2569.0	0.000113811982605	0.910999029603
2572.0	4.19307304333e-05	0.911040960334
2575.0	4.79208347809e-05	0.911088881168
2578.0	2.99505217381e-05	0.91111883169
2582.0	4.19307304333e-05	0.91116076242
2585.0	1.19802086952e-05	0.911172742629
2590.0	3.59406260857e-05	0.911208683255
2594.0	3.59406260857e-05	0.911244623881
2596.0	1.79703130429e-05	0.911262594194
2599.0	0.000137772399995	0.911400366594
2602.0	0.000167722921733	0.911568089516
2605.0	5.99010434762e-06	0.91157407962
2608.0	3.59406260857e-05	0.911610020247
2611.0	0.00010183177391	0.91171185202
2614.0	1.79703130429e-05	0.911729822334
2618.0	1.79703130429e-05	0.911747792647
2621.0	1.79703130429e-05	0.91176576296
2624.0	1.79703130429e-05	0.911783733273
2626.0	0.000479208347809	0.91226294162
2629.0	3.59406260857e-05	0.912298882247
2632.0	5.39109391286e-05	0.912352793186
2635.0	0.000113811982605	0.912466605168
2638.0	1.79703130429e-05	0.912484575481
2641.0	7.7871356519e-05	0.912562446838
2644.0	0.000461238034767	0.913023684873
2647.0	1.19802086952e-05	0.913035665081
2650.0	0.000119802086952	0.913155467168
2653.0	2.39604173905e-05	0.913179427586
2657.0	1.79703130429e-05	0.913197397899
2659.0	1.79703130429e-05	0.913215368212
2662.0	3.59406260857e-05	0.913251308838
2665.0	1.79703130429e-05	0.913269279151
2668.0	2.99505217381e-05	0.913299229673
2671.0	3.59406260857e-05	0.913335170299
2674.0	1.79703130429e-05	0.913353140612
2677.0	2.39604173905e-05	0.913377101029
2683.0	3.59406260857e-05	0.913413041655
2687.0	1.19802086952e-05	0.913425021864
2690.0	5.99010434762e-06	0.913431011968
2692.0	0.0001257921913	0.91355680416
2695.0	2.99505217381e-05	0.913586754681
2699.0	5.99010434762e-06	0.913592744786
2701.0	2.39604173905e-05	0.913616705203
2704.0	1.79703130429e-05	0.913634675516
2708.0	1.19802086952e-05	0.913646655725
2711.0	1.79703130429e-05	0.913664626038
2713.0	2.39604173905e-05	0.913688586455
2717.0	5.99010434762e-06	0.91369457656
2719.0	3.59406260857e-05	0.913730517186
2722.0	1.19802086952e-05	0.913742497394
2728.0	1.19802086952e-05	0.913754477603
2731.0	1.19802086952e-05	0.913766457812
2734.0	2.39604173905e-05	0.913790418229
2741.0	1.79703130429e-05	0.913808388542
2743.0	1.79703130429e-05	0.913826358855
2747.0	2.39604173905e-05	0.913850319273
2749.0	1.19802086952e-05	0.913862299481
2752.0	1.79703130429e-05	0.913880269794
2756.0	5.99010434762e-06	0.913886259899
2758.0	4.19307304333e-05	0.913928190629
2761.0	5.99010434762e-05	0.913988091673
2764.0	2.39604173905e-05	0.91401205209
2767.0	2.39604173905e-05	0.914036012507
2770.0	2.99505217381e-05	0.914065963029
2774.0	1.19802086952e-05	0.914077943238
2776.0	3.59406260857e-05	0.914113883864
2779.0	1.79703130429e-05	0.914131854177
2783.0	1.19802086952e-05	0.914143834386
2785.0	3.59406260857e-05	0.914179775012
2788.0	0.00010183177391	0.914281606786
2791.0	4.19307304333e-05	0.914323537516
2794.0	0.000167722921733	0.914491260438
2797.0	1.19802086952e-05	0.914503240646
2800.0	3.59406260857e-05	0.914539181273
2803.0	0.000443267721724	0.914982448994
2806.0	2.39604173905e-05	0.915006409412
2809.0	0.000521139078243	0.91552754849
2812.0	2.99505217381e-05	0.915557499012
2815.0	0.000227623965209	0.915785122977
2818.0	0.0001257921913	0.915910915168
2822.0	1.79703130429e-05	0.915928885481
2825.0	1.79703130429e-05	0.915946855794
2827.0	2.39604173905e-05	0.915970816212
2830.0	5.99010434762e-06	0.915976806316
2833.0	2.99505217381e-05	0.916006756838
2836.0	0.000227623965209	0.916234380803
2839.0	4.19307304333e-05	0.916276311533
2842.0	3.59406260857e-05	0.916312252159
2845.0	7.7871356519e-05	0.916390123516
2848.0	5.39109391286e-05	0.916444034455
2851.0	2.99505217381e-05	0.916473984977
2854.0	2.99505217381e-05	0.916503935499
2858.0	1.79703130429e-05	0.916521905812
2860.0	0.000137772399995	0.916659678212
2863.0	1.79703130429e-05	0.916677648525
2866.0	0.0001257921913	0.916803440716
2870.0	2.99505217381e-05	0.916833391238
2872.0	2.39604173905e-05	0.916857351655
2875.0	1.19802086952e-05	0.916869331864
2878.0	5.39109391286e-05	0.916923242803
2881.0	0.000131782295648	0.917055025099
2884.0	0.00052712918259	0.917582154281
2887.0	2.99505217381e-05	0.917612104803
2891.0	5.99010434762e-06	0.917618094907
2893.0	3.59406260857e-05	0.917654035533
2897.0	1.19802086952e-05	0.917666015742
2900.0	1.79703130429e-05	0.917683986055
2905.0	4.79208347809e-05	0.91773190689
2908.0	0.000173713026081	0.917905619916
2911.0	1.19802086952e-05	0.917917600125
2914.0	1.79703130429e-05	0.917935570438
2917.0	2.39604173905e-05	0.917959530855
2921.0	5.99010434762e-06	0.917965520959
2923.0	1.79703130429e-05	0.917983491272
2926.0	1.79703130429e-05	0.918001461585
2930.0	1.79703130429e-05	0.918019431899
2933.0	5.99010434762e-06	0.918025422003
2938.0	0.000353416156509	0.918378838159
2941.0	0.000113811982605	0.918492650142
2944.0	2.39604173905e-05	0.918516610559
2948.0	2.39604173905e-05	0.918540570977
2954.0	1.19802086952e-05	0.918552551185
2956.0	3.59406260857e-05	0.918588491812
2959.0	1.79703130429e-05	0.918606462125
2963.0	1.79703130429e-05	0.918624432438
2966.0	1.19802086952e-05	0.918636412646
2968.0	0.000113811982605	0.918750224629
2971.0	0.000227623965209	0.918977848594
2974.0	5.99010434762e-06	0.918983838698
2981.0	5.99010434762e-06	0.918989828803
2984.0	1.79703130429e-05	0.919007799116
2986.0	1.79703130429e-05	0.919025769429
2989.0	2.39604173905e-05	0.919049729846
2992.0	4.19307304333e-05	0.919091660577
2996.0	5.99010434762e-06	0.919097650681
2998.0	0.000299505217381	0.919397155898
3001.0	0.000347426052162	0.919744581951
3004.0	6.58911478238e-05	0.919810473098
3007.0	0.000263564591295	0.92007403769
3010.0	8.98515652143e-05	0.920163889255
3013.0	1.79703130429e-05	0.920181859568
3016.0	1.19802086952e-05	0.920193839777
3019.0	1.79703130429e-05	0.92021181009
3022.0	1.79703130429e-05	0.920229780403
3025.0	5.99010434762e-06	0.920235770507
3028.0	5.99010434762e-06	0.920241760611
3031.0	1.79703130429e-05	0.920259730925
3034.0	2.39604173905e-05	0.920283691342
3038.0	5.99010434762e-06	0.920289681446
3040.0	1.19802086952e-05	0.920301661655
3046.0	1.19802086952e-05	0.920313641864
3049.0	2.99505217381e-05	0.920343592385
3052.0	2.39604173905e-05	0.920367552803
3055.0	5.99010434762e-06	0.920373542907
3059.0	5.99010434762e-06	0.920379533011
3062.0	5.99010434762e-06	0.920385523116
3064.0	5.99010434762e-06	0.92039151322
3068.0	1.19802086952e-05	0.920403493429
3070.0	1.79703130429e-05	0.920421463742
3073.0	9.58416695619e-05	0.920517305411
3076.0	0.000413317199986	0.920930622611
3080.0	5.99010434762e-06	0.920936612716
3082.0	3.59406260857e-05	0.920972553342
3085.0	7.18812521714e-05	0.921044434594
3088.0	2.99505217381e-05	0.921074385116
3091.0	1.19802086952e-05	0.921086365324
3094.0	1.79703130429e-05	0.921104335638
3097.0	0.000227623965209	0.921331959603
3100.0	0.00040133699129	0.921733296594
3103.0	2.99505217381e-05	0.921763247116
3106.0	0.00077871356519	0.922541960681
3109.0	0.000389356782595	0.922931317464
3112.0	0.000143762504343	0.923075079968
3115.0	4.19307304333e-05	0.923117010698
3118.0	0.000221633860862	0.923338644559
3121.0	4.19307304333e-05	0.92338057529
3124.0	2.99505217381e-05	0.923410525811
3127.0	2.39604173905e-05	0.923434486229
3130.0	6.58911478238e-05	0.923500377377
3134.0	2.39604173905e-05	0.923524337794
3136.0	2.39604173905e-05	0.923548298211
3139.0	0.000317475530424	0.923865773742
3142.0	5.99010434762e-06	0.923871763846
3148.0	1.19802086952e-05	0.923883744055
3151.0	1.79703130429e-05	0.923901714368
3154.0	1.79703130429e-05	0.923919684681
3158.0	5.99010434762e-06	0.923925674785
3160.0	1.79703130429e-05	0.923943645098
3164.0	1.19802086952e-05	0.923955625307
3166.0	1.19802086952e-05	0.923967605516
3169.0	1.79703130429e-05	0.923985575829
3172.0	1.79703130429e-05	0.924003546142
3175.0	2.39604173905e-05	0.924027506559
3178.0	1.19802086952e-05	0.924039486768
3181.0	0.000113811982605	0.92415329875
3184.0	4.79208347809e-05	0.924201219585
3188.0	5.99010434762e-06	0.92420720969
3190.0	0.00010183177391	0.924309041464
3193.0	1.19802086952e-05	0.924321021672
3196.0	4.79208347809e-05	0.924368942507
3199.0	5.99010434762e-06	0.924374932611
3202.0	5.99010434762e-06	0.924380922716
3205.0	0.000844604713014	0.925225527429
3208.0	2.99505217381e-05	0.92525547795
3211.0	2.39604173905e-05	0.925279438368
3214.0	5.99010434762e-06	0.925285428472
3217.0	5.99010434762e-06	0.925291418577
3223.0	8.38614608666e-05	0.925375280037
3226.0	9.58416695619e-05	0.925471121707
3232.0	0.000958416695619	0.926429538403
3235.0	3.59406260857e-05	0.926465479029
3238.0	1.79703130429e-05	0.926483449342
3241.0	1.19802086952e-05	0.92649542955
3244.0	1.19802086952e-05	0.926507409759
3247.0	0.000257574486948	0.926764984246
3250.0	2.99505217381e-05	0.926794934768
3253.0	2.39604173905e-05	0.926818895185
3256.0	2.39604173905e-05	0.926842855603
3259.0	8.98515652143e-05	0.926932707168
3262.0	2.39604173905e-05	0.926956667585
3265.0	5.39109391286e-05	0.927010578524
3268.0	1.19802086952e-05	0.927022558733
3271.0	0.000293515113033	0.927316073846
3277.0	2.39604173905e-05	0.927340034263
3280.0	1.19802086952e-05	0.927352014472
3283.0	1.79703130429e-05	0.927369984785
3287.0	5.99010434762e-06	0.927375974889
3289.0	1.19802086952e-05	0.927387955098
3295.0	5.99010434762e-06	0.927393945203
3298.0	1.19802086952e-05	0.927405925411
3301.0	1.79703130429e-05	0.927423895724
3304.0	1.79703130429e-05	0.927441866037
3307.0	1.19802086952e-05	0.927453846246
3310.0	0.00010183177391	0.92755567802
3313.0	0.000359406260857	0.927915084281
3319.0	2.39604173905e-05	0.927939044698
3322.0	1.19802086952e-05	0.927951024907
3325.0	1.19802086952e-05	0.927963005116
3331.0	1.19802086952e-05	0.927974985324
3337.0	0.000389356782595	0.928364342107
3340.0	0.000167722921733	0.928532065029
3343.0	2.39604173905e-05	0.928556025446
3349.0	2.39604173905e-05	0.928579985863
3352.0	5.39109391286e-05	0.928633896802
3355.0	0.000497178660852	0.929131075463
3361.0	3.59406260857e-05	0.929167016089
3364.0	2.99505217381e-05	0.929196966611
3367.0	0.000485198452157	0.929682165063
3370.0	4.79208347809e-05	0.929730085898
3373.0	0.000533119286938	0.930263205185
3376.0	5.99010434762e-06	0.930269195289
3380.0	5.99010434762e-06	0.930275185394
3382.0	0.000539109391286	0.930814294785
3388.0	1.79703130429e-05	0.930832265098
3391.0	1.79703130429e-05	0.930850235411
3394.0	1.19802086952e-05	0.93086221562
3397.0	2.99505217381e-05	0.930892166142
3400.0	7.18812521714e-05	0.930964047394
3403.0	0.000323465634771	0.931287513028
3406.0	3.59406260857e-05	0.931323453655
3409.0	2.99505217381e-05	0.931353404176
3412.0	1.19802086952e-05	0.931365384385
3416.0	5.99010434762e-06	0.931371374489
3418.0	1.19802086952e-05	0.931383354698
3421.0	0.000413317199986	0.931796671898
3424.0	0.000173713026081	0.931970384924
3427.0	4.79208347809e-05	0.932018305759
3430.0	0.000299505217381	0.932317810976
3433.0	1.79703130429e-05	0.932335781289
3439.0	5.99010434762e-06	0.932341771394
3442.0	5.99010434762e-06	0.932347761498
3445.0	0.000233614069557	0.932581375568
3448.0	0.00159336775647	0.934174743324
3451.0	1.19802086952e-05	0.934186723533
3454.0	2.99505217381e-05	0.934216674054
3457.0	0.000335445843467	0.934552119898
3460.0	5.39109391286e-05	0.934606030837
3463.0	5.99010434762e-06	0.934612020941
3466.0	2.39604173905e-05	0.934635981359
3469.0	5.99010434762e-06	0.934641971463
3475.0	5.99010434762e-05	0.934701872507
3481.0	0.000581040121719	0.935282912628
3484.0	0.000221633860862	0.935504546489
3487.0	1.19802086952e-05	0.935516526698
3490.0	1.79703130429e-05	0.935534497011
3493.0	1.79703130429e-05	0.935552467324
3496.0	0.000239604173905	0.935792071498
3499.0	7.7871356519e-05	0.935869942854
3502.0	0.000137772399995	0.936007715254
3506.0	1.19802086952e-05	0.936019695463
3508.0	0.000137772399995	0.936157467863
3511.0	0.000179703130429	0.936337170994
3514.0	8.38614608666e-05	0.936421032454
3517.0	0.000173713026081	0.93659474548
3520.0	1.19802086952e-05	0.936606725689
3523.0	2.99505217381e-05	0.936636676211
3526.0	6.58911478238e-05	0.936702567359
3529.0	2.99505217381e-05	0.93673251788
3532.0	5.99010434762e-06	0.936738507985
3538.0	1.19802086952e-05	0.936750488194
3544.0	1.19802086952e-05	0.936762468402
3547.0	6.58911478238e-05	0.93682835955
3550.0	0.000820644295624	0.937649003846
3553.0	0.000155742713038	0.937804746559
3556.0	5.99010434762e-05	0.937864647602
3559.0	1.19802086952e-05	0.937876627811
3562.0	5.99010434762e-06	0.937882617915
3565.0	1.19802086952e-05	0.937894598124
3568.0	1.19802086952e-05	0.937906578333
3572.0	5.99010434762e-06	0.937912568437
3574.0	5.99010434762e-06	0.937918558541
3577.0	4.79208347809e-05	0.937966479376
3580.0	0.000161732817386	0.938128212193
3583.0	0.000209653652167	0.938337865846
3586.0	0.000509158869548	0.938847024715
3589.0	6.58911478238e-05	0.938912915863
3592.0	9.58416695619e-05	0.939008757533
3595.0	1.19802086952e-05	0.939020737741
3598.0	0.000155742713038	0.939176480454
3601.0	1.79703130429e-05	0.939194450767
3604.0	3.59406260857e-05	0.939230391393
3607.0	6.58911478238e-05	0.939296282541
3610.0	2.99505217381e-05	0.939326233063
3613.0	3.59406260857e-05	0.939362173689
3616.0	4.19307304333e-05	0.939404104419
3619.0	1.79703130429e-05	0.939422074733
3622.0	1.19802086952e-05	0.939434054941
3625.0	0.000407327095638	0.939841382037
3628.0	6.58911478238e-05	0.939907273185
3631.0	8.98515652143e-05	0.93999712475
3634.0	4.79208347809e-05	0.940045045585
3637.0	1.19802086952e-05	0.940057025793
3640.0	5.99010434762e-06	0.940063015898
3643.0	1.19802086952e-05	0.940074996106
3646.0	5.99010434762e-06	0.940080986211
3649.0	1.79703130429e-05	0.940098956524
3652.0	1.19802086952e-05	0.940110936733
3655.0	1.19802086952e-05	0.940122916941
3658.0	2.39604173905e-05	0.940146877359
3661.0	1.79703130429e-05	0.940164847672
3664.0	2.39604173905e-05	0.940188808089
3667.0	5.99010434762e-06	0.940194798193
3673.0	2.39604173905e-05	0.940218758611
3677.0	5.99010434762e-06	0.940224748715
3679.0	4.79208347809e-05	0.94027266955
3682.0	0.000479208347809	0.940751877898
3685.0	0.000215643756514	0.940967521654
3688.0	4.79208347809e-05	0.941015442489
3691.0	1.19802086952e-05	0.941027422698
3694.0	1.79703130429e-05	0.941045393011
3706.0	2.39604173905e-05	0.941069353428
3712.0	3.59406260857e-05	0.941105294054
3715.0	5.99010434762e-06	0.941111284159
3718.0	1.19802086952e-05	0.941123264367
3721.0	0.000173713026081	0.941296977393
3724.0	0.000419307304333	0.941716284698
3727.0	9.58416695619e-05	0.941812126367
3733.0	5.99010434762e-06	0.941818116472
3742.0	5.99010434762e-06	0.941824106576
3745.0	5.99010434762e-06	0.94183009668
3751.0	5.99010434762e-06	0.941836086785
3754.0	0.000293515113033	0.942129601898
3757.0	0.000215643756514	0.942345245654
3760.0	6.58911478238e-05	0.942411136802
3763.0	2.39604173905e-05	0.942435097219
3766.0	5.99010434762e-06	0.942441087324
3769.0	1.79703130429e-05	0.942459057637
3772.0	5.39109391286e-05	0.942512968576
3775.0	0.000850594817362	0.943363563393
3778.0	0.00065292137389	0.944016484767
3784.0	5.99010434762e-06	0.944022474872
3787.0	2.39604173905e-05	0.944046435289
3790.0	1.19802086952e-05	0.944058415498
3793.0	5.99010434762e-06	0.944064405602
3796.0	0.000143762504343	0.944208168106
3799.0	0.000113811982605	0.944321980089
3802.0	0.00010183177391	0.944423811863
3805.0	5.99010434762e-06	0.944429801967
3808.0	1.79703130429e-05	0.94444777228
3814.0	5.99010434762e-06	0.944453762385
3817.0	1.19802086952e-05	0.944465742593
3826.0	5.99010434762e-06	0.944471732698
3829.0	0.000107821878257	0.944579554576
3832.0	0.000898515652143	0.945478070228
3835.0	5.99010434762e-06	0.945484060332
3838.0	5.99010434762e-06	0.945490050437
3844.0	5.99010434762e-06	0.945496040541
3847.0	5.99010434762e-06	0.945502030645
3850.0	1.19802086952e-05	0.945514010854
3856.0	5.99010434762e-06	0.945520000958
3859.0	1.19802086952e-05	0.945531981167
3865.0	2.39604173905e-05	0.945555941585
3868.0	1.79703130429e-05	0.945573911898
3877.0	1.19802086952e-05	0.945585892106
3880.0	0.000257574486948	0.945843466593
3883.0	0.000718812521714	0.946562279115
3886.0	0.000245594278252	0.946807873393
3889.0	1.19802086952e-05	0.946819853602
3895.0	5.99010434762e-06	0.946825843706
3898.0	8.98515652143e-05	0.946915695271
3901.0	1.19802086952e-05	0.94692767548
3907.0	0.000521139078243	0.947448814558
3910.0	0.000479208347809	0.947928022906
3916.0	2.39604173905e-05	0.947951983324
3919.0	5.99010434762e-05	0.948011884367
3922.0	0.000545099495633	0.948556983863
3925.0	0.0001257921913	0.948682776054
3927.0	0.000221633860862	0.948904409915
3929.0	4.19307304333e-05	0.948946340645
3931.0	1.19802086952e-05	0.948958320854
3937.0	4.79208347809e-05	0.949006241689
3940.0	0.000353416156509	0.949359657845
3943.0	2.39604173905e-05	0.949383618263
3946.0	7.18812521714e-05	0.949455499515
3958.0	2.39604173905e-05	0.949479459932
3961.0	2.99505217381e-05	0.949509410454
3964.0	1.19802086952e-05	0.949521390663
3967.0	5.99010434762e-06	0.949527380767
3970.0	5.99010434762e-06	0.949533370871
3973.0	1.19802086952e-05	0.94954535108
3976.0	2.99505217381e-05	0.949575301602
3979.0	7.18812521714e-05	0.949647182854
3985.0	3.59406260857e-05	0.94968312348
3988.0	1.19802086952e-05	0.949695103689
3991.0	5.99010434762e-06	0.949701093793
3994.0	1.19802086952e-05	0.949713074002
3996.0	1.19802086952e-05	0.94972505421
4000.0	5.99010434762e-06	0.949731044315
4003.0	5.99010434762e-06	0.949737034419
4012.0	1.19802086952e-05	0.949749014628
4015.0	5.99010434762e-06	0.949755004732
4018.0	4.79208347809e-05	0.949802925567
4021.0	3.59406260857e-05	0.949838866193
4024.0	5.99010434762e-05	0.949898767237
4028.0	1.79703130429e-05	0.94991673755
4030.0	0.0005031687652	0.950419906315
4033.0	2.39604173905e-05	0.950443866732
4039.0	1.79703130429e-05	0.950461837045
4045.0	1.79703130429e-05	0.950479807358
4048.0	5.99010434762e-06	0.950485797463
4051.0	1.19802086952e-05	0.950497777671
4060.0	5.99010434762e-06	0.950503767776
4063.0	2.99505217381e-05	0.950533718297
4066.0	2.39604173905e-05	0.950557678715
4069.0	5.99010434762e-05	0.950617579758
4072.0	0.000131782295648	0.950749362054
4075.0	0.000113811982605	0.950863174036
4078.0	0.00014975260869	0.951012926645
4081.0	0.000113811982605	0.951126738628
4084.0	0.000323465634771	0.951450204263
4087.0	5.99010434762e-06	0.951456194367
4090.0	5.99010434762e-06	0.951462184471
4093.0	5.99010434762e-06	0.951468174576
4096.0	5.99010434762e-06	0.95147416468
4105.0	5.99010434762e-06	0.951480154784
4108.0	5.99010434762e-06	0.951486144889
4111.0	1.19802086952e-05	0.951498125097
4114.0	1.79703130429e-05	0.95151609541
4129.0	5.99010434762e-06	0.951522085515
4132.0	1.19802086952e-05	0.951534065723
4135.0	5.99010434762e-06	0.951540055828
4138.0	1.19802086952e-05	0.951552036036
4141.0	5.99010434762e-06	0.951558026141
4144.0	5.99010434762e-06	0.951564016245
4147.0	5.99010434762e-06	0.95157000635
4156.0	5.99010434762e-06	0.951575996454
4162.0	1.19802086952e-05	0.951587976663
4165.0	2.99505217381e-05	0.951617927184
4168.0	5.99010434762e-05	0.951677828228
4171.0	5.99010434762e-06	0.951683818332
4174.0	1.79703130429e-05	0.951701788645
4186.0	0.000107821878257	0.951809610523
4189.0	5.99010434762e-06	0.951815600628
4198.0	5.99010434762e-06	0.951821590732
4204.0	5.99010434762e-06	0.951827580836
4207.0	5.99010434762e-06	0.951833570941
4213.0	5.99010434762e-06	0.951839561045
4225.0	1.19802086952e-05	0.951851541254
4228.0	0.000383366678248	0.952234907932
4234.0	4.79208347809e-05	0.952282828767
4237.0	4.79208347809e-05	0.952330749602
4240.0	0.000215643756514	0.952546393358
4243.0	1.19802086952e-05	0.952558373567
4246.0	1.19802086952e-05	0.952570353776
4249.0	1.19802086952e-05	0.952582333984
4258.0	5.99010434762e-06	0.952588324089
4261.0	1.19802086952e-05	0.952600304297
4264.0	0.000155742713038	0.95275604701
4267.0	5.99010434762e-06	0.952762037115
4276.0	5.99010434762e-06	0.952768027219
4279.0	5.99010434762e-06	0.952774017323
4282.0	5.99010434762e-06	0.952780007428
4285.0	1.19802086952e-05	0.952791987636
4291.0	4.19307304333e-05	0.952833918367
4294.0	0.00132980316517	0.954163721532
4297.0	2.99505217381e-05	0.954193672054
4300.0	3.59406260857e-05	0.95422961268
4306.0	1.19802086952e-05	0.954241592889
4308.0	0.000461238034767	0.954702830923
4310.0	5.99010434762e-06	0.954708821028
4315.0	5.99010434762e-06	0.954714811132
4321.0	5.99010434762e-06	0.954720801236
4324.0	1.19802086952e-05	0.954732781445
4326.0	0.000155742713038	0.954888524158
4328.0	4.79208347809e-05	0.954936444993
4330.0	0.00154544692169	0.956481891915
4333.0	0.000808664086928	0.957290556001
4335.0	0.00156341723473	0.958853973236
4337.0	2.99505217381e-05	0.958883923758
4342.0	5.99010434762e-06	0.958889913862
4354.0	5.99010434762e-06	0.958895903967
4366.0	1.19802086952e-05	0.958907884175
4369.0	5.99010434762e-06	0.95891387428
4375.0	5.99010434762e-06	0.958919864384
4378.0	5.99010434762e-06	0.958925854488
4384.0	1.19802086952e-05	0.958937834697
4390.0	5.99010434762e-06	0.958943824801
4393.0	5.99010434762e-06	0.958949814906
4399.0	5.99010434762e-06	0.95895580501
4405.0	5.99010434762e-06	0.958961795114
4408.0	5.39109391286e-05	0.959015706054
4410.0	0.000742772939105	0.959758478993
4412.0	1.19802086952e-05	0.959770459201
4414.0	1.19802086952e-05	0.95978243941
4420.0	5.99010434762e-06	0.959788429514
4426.0	0.00156940733908	0.961357836854
4428.0	5.99010434762e-06	0.961363826958
4435.0	1.19802086952e-05	0.961375807167
4438.0	1.19802086952e-05	0.961387787375
4441.0	5.99010434762e-06	0.96139377748
4447.0	5.99010434762e-06	0.961399767584
4456.0	1.79703130429e-05	0.961417737897
4465.0	1.79703130429e-05	0.96143570821
4474.0	3.59406260857e-05	0.961471648836
4477.0	0.000712822417367	0.962184471253
4479.0	0.00040133699129	0.962585808245
4489.0	5.99010434762e-06	0.962591798349
4504.0	1.19802086952e-05	0.962603778558
4506.0	1.79703130429e-05	0.962621748871
4510.0	5.99010434762e-06	0.962627738975
4513.0	4.19307304333e-05	0.962669669706
4516.0	4.19307304333e-05	0.962711600436
4519.0	2.39604173905e-05	0.962735560853
4522.0	1.79703130429e-05	0.962753531167
4524.0	0.000389356782595	0.963142887949
4526.0	5.99010434762e-06	0.963148878053
4528.0	2.99505217381e-05	0.963178828575
4531.0	1.19802086952e-05	0.963190808784
4537.0	5.99010434762e-06	0.963196798888
4546.0	5.99010434762e-06	0.963202788993
4552.0	2.99505217381e-05	0.963232739514
4555.0	0.000113811982605	0.963346551497
4564.0	1.19802086952e-05	0.963358531706
4567.0	5.99010434762e-06	0.96336452181
4576.0	5.99010434762e-06	0.963370511914
4588.0	1.19802086952e-05	0.963382492123
4594.0	5.99010434762e-06	0.963388482227
4603.0	4.19307304333e-05	0.963430412958
4605.0	0.000209653652167	0.96364006661
4612.0	2.39604173905e-05	0.963664027027
4614.0	0.000952426591271	0.964616453619
4616.0	1.19802086952e-05	0.964628433827
4618.0	0.000221633860862	0.964850067688
4620.0	0.000509158869548	0.965359226558
4624.0	9.58416695619e-05	0.965455068227
4630.0	5.99010434762e-06	0.965461058332
4636.0	5.99010434762e-06	0.965467048436
4639.0	5.99010434762e-06	0.96547303854
4642.0	1.19802086952e-05	0.965485018749
4648.0	1.19802086952e-05	0.965496998958
4657.0	2.39604173905e-05	0.965520959375
4660.0	4.19307304333e-05	0.965562890106
4666.0	5.99010434762e-06	0.96556888021
4675.0	1.19802086952e-05	0.965580860419
4693.0	1.19802086952e-05	0.965592840627
4695.0	0.000413317199986	0.966006157827
4697.0	5.99010434762e-06	0.966012147932
4702.0	2.39604173905e-05	0.966036108349
4705.0	2.39604173905e-05	0.966060068766
4708.0	5.99010434762e-06	0.966066058871
4711.0	0.00010183177391	0.966167890645
4714.0	0.000119802086952	0.966287692732
4717.0	4.19307304333e-05	0.966329623462
4723.0	5.99010434762e-06	0.966335613566
4726.0	1.19802086952e-05	0.966347593775
4732.0	5.99010434762e-06	0.966353583879
4742.0	5.99010434762e-06	0.966359573984
4744.0	5.99010434762e-06	0.966365564088
4747.0	1.19802086952e-05	0.966377544297
4750.0	5.99010434762e-06	0.966383534401
4753.0	5.99010434762e-06	0.966389524506
4756.0	5.99010434762e-06	0.96639551461
4765.0	5.99010434762e-06	0.966401504714
4767.0	0.000407327095638	0.96680883181
4771.0	5.99010434762e-06	0.966814821914
4774.0	1.19802086952e-05	0.966826802123
4786.0	5.99010434762e-06	0.966832792227
4795.0	5.99010434762e-06	0.966838782332
4810.0	1.19802086952e-05	0.96685076254
4813.0	5.99010434762e-06	0.966856752645
4824.0	2.39604173905e-05	0.966880713062
4828.0	1.79703130429e-05	0.966898683375
4834.0	2.39604173905e-05	0.966922643792
4837.0	5.39109391286e-05	0.966976554732
4846.0	5.99010434762e-06	0.966982544836
4855.0	5.99010434762e-06	0.96698853494
4864.0	5.99010434762e-06	0.966994525045
4866.0	1.19802086952e-05	0.967006505253
4878.0	0.000515148973895	0.967521654227
4880.0	5.99010434762e-06	0.967527644332
4882.0	5.99010434762e-06	0.967533634436
4885.0	1.19802086952e-05	0.967545614645
4887.0	0.000161732817386	0.967707347462
4891.0	5.99010434762e-06	0.967713337566
4894.0	2.99505217381e-05	0.967743288088
4902.0	1.19802086952e-05	0.967755268297
4909.0	2.99505217381e-05	0.967785218819
4912.0	6.58911478238e-05	0.967851109966
4918.0	5.99010434762e-06	0.967857100071
4930.0	5.99010434762e-06	0.967863090175
4933.0	1.19802086952e-05	0.967875070384
4954.0	5.99010434762e-06	0.967881060488
4957.0	1.79703130429e-05	0.967899030801
4960.0	0.000209653652167	0.968108684453
4965.0	0.0001257921913	0.968234476645
4969.0	1.19802086952e-05	0.968246456853
4972.0	3.59406260857e-05	0.968282397479
4975.0	5.99010434762e-06	0.968288387584
4987.0	1.79703130429e-05	0.968306357897
4989.0	0.0001257921913	0.968432150088
4999.0	5.99010434762e-06	0.968438140192
5002.0	5.99010434762e-06	0.968444130297
5008.0	1.19802086952e-05	0.968456110505
5011.0	5.99010434762e-06	0.96846210061
5020.0	2.99505217381e-05	0.968492051132
5022.0	0.000215643756514	0.968707694888
5026.0	5.99010434762e-06	0.968713684992
5029.0	2.39604173905e-05	0.96873764541
5031.0	0.000209653652167	0.968947299062
5047.0	5.99010434762e-06	0.968953289166
5052.0	0.00014975260869	0.969103041775
5055.0	0.000113811982605	0.969216853758
5058.0	0.000353416156509	0.969570269914
5061.0	5.39109391286e-05	0.969624180853
5064.0	0.000113811982605	0.969737992836
5067.0	0.000137772399995	0.969875765236
5074.0	5.99010434762e-06	0.96988175534
5077.0	0.000107821878257	0.969989577218
5086.0	5.99010434762e-06	0.969995567323
5092.0	5.99010434762e-06	0.970001557427
5104.0	5.99010434762e-06	0.970007547531
5106.0	0.00040133699129	0.970408884523
5110.0	1.19802086952e-05	0.970420864731
5113.0	1.19802086952e-05	0.97043284494
5115.0	4.79208347809e-05	0.970480765775
5119.0	1.79703130429e-05	0.970498736088
5122.0	5.39109391286e-05	0.970552647027
5124.0	4.19307304333e-05	0.970594577758
5127.0	0.00065292137389	0.971247499131
5129.0	4.79208347809e-05	0.971295419966
5131.0	0.00010183177391	0.97139725174
5133.0	5.39109391286e-05	0.971451162679
5137.0	5.99010434762e-06	0.971457152784
5140.0	1.79703130429e-05	0.971475123097
5142.0	0.00014975260869	0.971624875705
5144.0	5.99010434762e-06	0.97163086581
5146.0	1.79703130429e-05	0.971648836123
5152.0	1.79703130429e-05	0.971666806436
5154.0	0.000143762504343	0.97181056894
5157.0	0.000131782295648	0.971942351236
5160.0	0.000557079704328	0.97249943094
5163.0	0.00010183177391	0.972601262714
5166.0	8.38614608666e-05	0.972685124175
5172.0	5.99010434762e-06	0.972691114279
5179.0	5.99010434762e-06	0.972697104384
5182.0	2.39604173905e-05	0.972721064801
5184.0	3.59406260857e-05	0.972757005427
5191.0	1.19802086952e-05	0.972768985636
5206.0	5.99010434762e-06	0.97277497574
5221.0	5.99010434762e-06	0.972780965844
5239.0	5.99010434762e-06	0.972786955949
5242.0	5.99010434762e-06	0.972792946053
5244.0	1.79703130429e-05	0.972810916366
5247.0	7.7871356519e-05	0.972888787723
5249.0	5.99010434762e-05	0.972948688766
5251.0	0.000185693234776	0.973134382001
5257.0	5.99010434762e-06	0.973140372105
5278.0	5.99010434762e-06	0.97314636221
5299.0	5.99010434762e-06	0.973152352314
5304.0	0.000119802086952	0.973272154401
5307.0	0.000113811982605	0.973385966384
5317.0	5.99010434762e-06	0.973391956488
5337.0	5.99010434762e-06	0.973397946592
5355.0	0.000413317199986	0.973811263792
5358.0	0.000245594278252	0.97405685807
5365.0	5.99010434762e-06	0.974062848175
5374.0	5.99010434762e-06	0.974068838279
5383.0	5.99010434762e-06	0.974074828384
5385.0	0.000113811982605	0.974188640366
5388.0	0.000137772399995	0.974326412766
5395.0	5.99010434762e-06	0.97433240287
5406.0	5.99010434762e-05	0.974392303914
5413.0	5.99010434762e-06	0.974398294018
5421.0	2.39604173905e-05	0.974422254436
5424.0	0.000161732817386	0.974583987253
5428.0	1.19802086952e-05	0.974595967462
5430.0	0.000239604173905	0.974835571636
5439.0	0.000197673443471	0.975033245079
5452.0	4.19307304333e-05	0.97507517581
5454.0	2.99505217381e-05	0.975105126331
5458.0	1.19802086952e-05	0.97511710654
5460.0	1.19802086952e-05	0.975129086749
5472.0	5.99010434762e-06	0.975135076853
5484.0	2.99505217381e-05	0.975165027375
5487.0	2.99505217381e-05	0.975194977897
5491.0	5.39109391286e-05	0.975248888836
5493.0	2.99505217381e-05	0.975278839357
5500.0	5.99010434762e-06	0.975284829462
5503.0	2.39604173905e-05	0.975308789879
5505.0	0.000107821878257	0.975416611757
5517.0	7.7871356519e-05	0.975494483114
5520.0	0.00194678391298	0.977441267027
5523.0	1.19802086952e-05	0.977453247236
5526.0	5.99010434762e-06	0.97745923734
5536.0	5.99010434762e-06	0.977465227444
5541.0	0.000119802086952	0.977585029531
5544.0	0.000137772399995	0.977722801931
5557.0	1.79703130429e-05	0.977740772244
5559.0	7.18812521714e-05	0.977812653496
5562.0	7.18812521714e-05	0.977884534749
5574.0	2.39604173905e-05	0.977908495166
5578.0	1.79703130429e-05	0.977926465479
5580.0	2.99505217381e-05	0.977956416001
5584.0	1.19802086952e-05	0.977968396209
5599.0	2.99505217381e-05	0.977998346731
5602.0	2.39604173905e-05	0.978022307149
5604.0	1.79703130429e-05	0.978040277462
5607.0	5.99010434762e-06	0.978046267566
5610.0	0.000383366678248	0.978429634244
5613.0	1.19802086952e-05	0.978441614453
5616.0	0.000395346886943	0.97883696134
5619.0	1.19802086952e-05	0.978848941549
5626.0	5.99010434762e-06	0.978854931653
5640.0	0.000257574486948	0.97911250614
5656.0	5.99010434762e-06	0.979118496244
5662.0	5.99010434762e-06	0.979124486349
5668.0	5.99010434762e-06	0.979130476453
5715.0	5.99010434762e-06	0.979136466557
5728.0	5.99010434762e-06	0.979142456662
5761.0	5.99010434762e-06	0.979148446766
5764.0	5.99010434762e-06	0.97915443687
5766.0	5.99010434762e-06	0.979160426975
5770.0	5.99010434762e-06	0.979166417079
5781.0	0.000257574486948	0.979423991566
5784.0	4.19307304333e-05	0.979465922296
5787.0	5.99010434762e-06	0.979471912401
5812.0	5.99010434762e-06	0.979477902505
5835.0	5.99010434762e-06	0.979483892609
5838.0	5.99010434762e-06	0.979489882714
5847.0	5.99010434762e-06	0.979495872818
5851.0	5.99010434762e-06	0.979501862922
5889.0	5.99010434762e-06	0.979507853027
5916.0	5.99010434762e-06	0.979513843131
5922.0	0.00105425836518	0.980568101496
5955.0	8.98515652143e-05	0.980657953062
5958.0	0.000161732817386	0.980819685879
5964.0	5.99010434762e-06	0.980825675983
5988.0	5.99010434762e-06	0.980831666088
5992.0	5.99010434762e-06	0.980837656192
6009.0	1.79703130429e-05	0.980855626505
6012.0	0.000305495321729	0.981161121827
6015.0	4.19307304333e-05	0.981203052557
6042.0	5.99010434762e-06	0.981209042662
6048.0	2.39604173905e-05	0.981233003079
6051.0	0.000365396365205	0.981598399444
6054.0	4.19307304333e-05	0.981640330175
6057.0	0.000215643756514	0.981855973931
6075.0	5.99010434762e-06	0.981861964035
6082.0	5.99010434762e-06	0.98186795414
6121.0	5.99010434762e-06	0.981873944244
6132.0	5.99010434762e-06	0.981879934348
6136.0	1.19802086952e-05	0.981891914557
6138.0	0.000137772399995	0.982029686957
6144.0	5.99010434762e-06	0.982035677061
6187.0	5.99010434762e-06	0.982041667166
6195.0	5.99010434762e-06	0.98204765727
6231.0	5.99010434762e-06	0.982053647375
6258.0	1.19802086952e-05	0.982065627583
6282.0	5.99010434762e-06	0.982071617688
6286.0	5.99010434762e-06	0.982077607792
6300.0	5.99010434762e-06	0.982083597896
6307.0	5.99010434762e-06	0.982089588001
6327.0	5.99010434762e-06	0.982095578105
6373.0	5.99010434762e-06	0.982101568209
6375.0	5.99010434762e-06	0.982107558314
6385.0	2.99505217381e-05	0.982137508835
6387.0	0.0001257921913	0.982263301027
6420.0	5.99010434762e-06	0.982269291131
6423.0	0.00014975260869	0.98241904374
6426.0	7.7871356519e-05	0.982496915096
6438.0	5.99010434762e-06	0.982502905201
6444.0	1.79703130429e-05	0.982520875514
6447.0	0.00010183177391	0.982622707288
6450.0	6.58911478238e-05	0.982688598435
6453.0	7.18812521714e-05	0.982760479688
6456.0	5.99010434762e-06	0.982766469792
6474.0	5.99010434762e-06	0.982772459896
6501.0	1.19802086952e-05	0.982784440105
6504.0	0.000119802086952	0.982904242192
6519.0	2.99505217381e-05	0.982934192714
6543.0	5.99010434762e-06	0.982940182818
6555.0	1.19802086952e-05	0.982952163027
6558.0	1.19802086952e-05	0.982964143235
6565.0	5.99010434762e-06	0.98297013334
6615.0	5.99010434762e-06	0.982976123444
6634.0	5.99010434762e-06	0.982982113548
6655.0	5.99010434762e-06	0.982988103653
6663.0	3.59406260857e-05	0.983024044279
6666.0	5.99010434762e-06	0.983030034383
6669.0	1.79703130429e-05	0.983048004696
6690.0	5.99010434762e-06	0.983053994801
6708.0	5.99010434762e-06	0.983059984905
6756.0	5.99010434762e-06	0.983065975009
6810.0	5.99010434762e-06	0.983071965114
6820.0	1.19802086952e-05	0.983083945322
6822.0	0.000928466173881	0.984012411496
6864.0	0.000371386469552	0.984383797966
6866.0	0.000622970852152	0.985006768818
6936.0	2.99505217381e-05	0.98503671934
6938.0	0.000485198452157	0.985521917792
6940.0	7.7871356519e-05	0.985599789148
6984.0	0.00010183177391	0.985701620922
6987.0	1.19802086952e-05	0.985713601131
6993.0	1.19802086952e-05	0.98572558134
6996.0	0.000245594278252	0.985971175618
7000.0	5.99010434762e-06	0.985977165722
7041.0	5.99010434762e-06	0.985983155827
7095.0	5.99010434762e-06	0.985989145931
7116.0	1.19802086952e-05	0.98600112614
7144.0	5.99010434762e-06	0.986007116244
7164.0	5.99010434762e-06	0.986013106348
7242.0	5.99010434762e-06	0.986019096453
7257.0	5.99010434762e-06	0.986025086557
7291.0	5.99010434762e-06	0.986031076661
7305.0	5.99010434762e-06	0.986037066766
7323.0	5.99010434762e-06	0.98604305687
7332.0	5.99010434762e-06	0.986049046974
7341.0	5.99010434762e-06	0.986055037079
7362.0	5.99010434762e-06	0.986061027183
7398.0	5.99010434762e-06	0.986067017287
7404.0	5.99010434762e-06	0.986073007392
7406.0	0.00152747660864	0.987600484
7408.0	0.0001257921913	0.987726276192
7423.0	5.99010434762e-06	0.987732266296
7425.0	5.99010434762e-06	0.9877382564
7434.0	5.99010434762e-06	0.987744246505
7488.0	5.99010434762e-06	0.987750236609
7509.0	5.99010434762e-06	0.987756226713
7529.0	0.000197673443471	0.987953900157
7531.0	1.79703130429e-05	0.98797187047
7535.0	0.00244995267818	0.990421823148
7537.0	0.000137772399995	0.990559595548
7554.0	5.99010434762e-06	0.990565585653
7569.0	5.99010434762e-06	0.990571575757
7593.0	5.99010434762e-06	0.990577565861
7604.0	0.000209653652167	0.990787219513
7606.0	1.19802086952e-05	0.990799199722
7658.0	5.99010434762e-06	0.990805189826
7707.0	5.99010434762e-06	0.990811179931
7776.0	5.99010434762e-06	0.990817170035
7815.0	5.99010434762e-06	0.990823160139
7847.0	0.000389356782595	0.991212516922
7849.0	1.19802086952e-05	0.991224497131
7851.0	5.99010434762e-06	0.991230487235
7893.0	5.99010434762e-06	0.991236477339
7919.0	1.19802086952e-05	0.991248457548
7949.0	5.99010434762e-06	0.991254447652
8004.0	5.99010434762e-06	0.991260437757
8012.0	5.99010434762e-06	0.991266427861
8040.0	5.99010434762e-06	0.991272417966
8085.0	5.99010434762e-06	0.99127840807
8088.0	5.99010434762e-06	0.991284398174
8094.0	5.99010434762e-06	0.991290388279
8133.0	5.99010434762e-06	0.991296378383
8211.0	5.99010434762e-06	0.991302368487
8247.0	5.99010434762e-06	0.991308358592
8283.0	0.000155742713038	0.991464101305
8285.0	4.19307304333e-05	0.991506032035
8451.0	5.99010434762e-06	0.991512022139
8453.0	0.000197673443471	0.991709695583
8466.0	5.99010434762e-06	0.991715685687
8484.0	5.39109391286e-05	0.991769596626
8486.0	0.000431287513028	0.992200884139
8511.0	5.99010434762e-06	0.992206874244
8628.0	5.99010434762e-06	0.992212864348
8630.0	5.99010434762e-06	0.992218854452
8730.0	5.99010434762e-06	0.992224844557
8741.0	5.99010434762e-06	0.992230834661
8939.0	8.98515652143e-05	0.992320686226
8942.0	5.99010434762e-06	0.992326676331
8945.0	2.39604173905e-05	0.992350636748
8948.0	5.99010434762e-05	0.992410537792
8957.0	2.39604173905e-05	0.992434498209
8960.0	0.000227623965209	0.992662122174
8966.0	8.98515652143e-05	0.992751973739
8969.0	7.18812521714e-05	0.992823854992
8988.0	1.79703130429e-05	0.992841825305
8991.0	5.99010434762e-06	0.992847815409
8993.0	5.99010434762e-06	0.992853805513
8996.0	1.79703130429e-05	0.992871775826
9000.0	5.99010434762e-06	0.992877765931
9020.0	2.39604173905e-05	0.992901726348
9023.0	4.19307304333e-05	0.992943657079
9048.0	5.99010434762e-06	0.992949647183
9050.0	0.000323465634771	0.993273112818
9053.0	1.19802086952e-05	0.993285093026
9056.0	3.59406260857e-05	0.993321033652
9059.0	6.58911478238e-05	0.9933869248
9074.0	5.99010434762e-06	0.993392914905
9077.0	5.39109391286e-05	0.993446825844
9080.0	5.99010434762e-05	0.993506726887
9092.0	4.19307304333e-05	0.993548657618
9095.0	5.39109391286e-05	0.993602568557
9098.0	4.79208347809e-05	0.993650489392
9101.0	5.99010434762e-05	0.993710390435
9104.0	3.59406260857e-05	0.993746331061
9113.0	5.99010434762e-05	0.993806232105
9116.0	2.39604173905e-05	0.993830192522
9146.0	6.58911478238e-05	0.99389608367
9158.0	5.99010434762e-06	0.993902073774
9170.0	3.59406260857e-05	0.9939380144
9173.0	1.19802086952e-05	0.993949994609
9182.0	7.18812521714e-05	0.994021875861
9186.0	1.19802086952e-05	0.99403385607
9188.0	1.19802086952e-05	0.994045836278
9191.0	1.19802086952e-05	0.994057816487
9194.0	1.19802086952e-05	0.994069796696
9197.0	0.000335445843467	0.994405242539
9200.0	5.39109391286e-05	0.994459153478
9203.0	4.79208347809e-05	0.994507074313
9206.0	0.000143762504343	0.994650836818
9311.0	5.99010434762e-06	0.994656826922
9326.0	1.19802086952e-05	0.994668807131
9416.0	5.99010434762e-06	0.994674797235
9554.0	1.19802086952e-05	0.994686777444
9693.0	1.19802086952e-05	0.994698757652
9695.0	0.000593020330414	0.995291777983
9697.0	0.000245594278252	0.995537372261
9699.0	7.18812521714e-05	0.995609253513
9717.0	1.19802086952e-05	0.995621233722
9719.0	0.000143762504343	0.995764996226
9722.0	4.19307304333e-05	0.995806926957
9817.0	4.19307304333e-05	0.995848857687
9819.0	5.99010434762e-06	0.995854847791
9821.0	0.000263564591295	0.996118412383
9824.0	7.7871356519e-05	0.996196283739
9857.0	1.79703130429e-05	0.996214254052
9869.0	1.19802086952e-05	0.996226234261
9872.0	5.39109391286e-05	0.9962801452
9888.0	5.99010434762e-06	0.996286135304
9890.0	7.7871356519e-05	0.996364006661
9892.0	0.000161732817386	0.996525739478
9894.0	4.19307304333e-05	0.996567670209
9899.0	1.79703130429e-05	0.996585640522
9902.0	1.79703130429e-05	0.996603610835
9905.0	1.19802086952e-05	0.996615591044
9908.0	5.39109391286e-05	0.996669501983
9910.0	0.000197673443471	0.996867175426
9912.0	1.79703130429e-05	0.996885145739
9917.0	3.59406260857e-05	0.996921086365
9920.0	1.19802086952e-05	0.996933066574
9947.0	5.99010434762e-06	0.996939056678
9950.0	1.79703130429e-05	0.996957026991
9953.0	8.38614608666e-05	0.997040888452
9955.0	1.79703130429e-05	0.997058858765
9977.0	3.59406260857e-05	0.997094799391
9980.0	1.19802086952e-05	0.9971067796
9989.0	1.79703130429e-05	0.997124749913
9991.0	3.59406260857e-05	0.997160690539
9994.0	4.19307304333e-05	0.99720262127
9996.0	2.39604173905e-05	0.997226581687
9998.0	0.000179703130429	0.997406284817
10013.0	2.39604173905e-05	0.997430245235
10016.0	1.19802086952e-05	0.997442225444
10019.0	2.39604173905e-05	0.997466185861
10021.0	2.39604173905e-05	0.997490146278
10023.0	5.99010434762e-06	0.997496136383
10309.0	5.99010434762e-06	0.997502126487
10331.0	5.99010434762e-06	0.997508116591
10457.0	5.99010434762e-06	0.997514106696
10760.0	5.99010434762e-06	0.9975200968
11183.0	5.99010434762e-06	0.997526086904
12245.0	5.99010434762e-05	0.997585987948
12247.0	0.002378071426	0.999964059374
12249.0	3.59406260857e-05	1.0
14239.0	5.99010434762e-06	1.0
