#
# Generated On: 2012-02-05T17:07:29.586915
#           By: cwa.analyze.statistics
#      Version: 11.11.23
#       Author: Thomas A. de Ruiter <thomas@de-ruiter.cx>
#
#  Commandline: /home/af10028/bin/cwa analyze
#     Work Dir: /scratch/af10028/var/thesis-project/result/analyses/workload-01h-09888l-1s-default
#

Time	Sum	Avg	StdDev	CoV	0.000000-Pct	0.010000-Pct	0.100000-Pct	1.000000-Pct	2.000000-Pct	5.000000-Pct	25.000000-Pct	50.000000-Pct	75.000000-Pct	95.000000-Pct	98.000000-Pct	99.000000-Pct	99.900000-Pct	99.990000-Pct	100.000000-Pct
1326945000	3044063.0	4141.58231293	2653.00633151	0.640577955733	2.0	2.0	2.0	3.0	3.0	76.0	1547.0	4706.0	5847.0	8363.0	9943.0	11181.0	15692.0	15692.0	15692.0
1326948600	397053.0	6729.71186441	2437.42431926	0.362188510945	1901.0	1901.0	1901.0	1901.0	1913.0	1913.0	6786.0	7450.0	7532.0	10706.0	11174.0	11404.0	11404.0	11404.0	11404.0
