#
# Generated On: 2012-02-05T18:17:57.040935
#           By: cwa.analyze.statistics
#      Version: 11.11.23
#       Author: Thomas A. de Ruiter <thomas@de-ruiter.cx>
#
#  Commandline: /home/af10028/bin/cwa analyze
#     Work Dir: /scratch/af10028/var/thesis-project/result/analyses/workload-06h-04944l-5s-fair
#

Time	Sum	Avg	StdDev	CoV	0.000000-Pct	0.010000-Pct	0.100000-Pct	1.000000-Pct	2.000000-Pct	5.000000-Pct	25.000000-Pct	50.000000-Pct	75.000000-Pct	95.000000-Pct	98.000000-Pct	99.000000-Pct	99.900000-Pct	99.990000-Pct	100.000000-Pct
1327074000	8707781.0	3619.19409809	2596.02642933	0.717294060216	5.0	5.0	5.0	71.0	152.0	446.0	1103.0	3895.0	4846.0	8933.0	8936.0	11359.0	11360.0	11360.0	11360.0
1327074600	9449406.0	3391.74659009	2070.52020689	0.610458403036	5.0	5.0	5.0	92.0	164.0	377.0	1772.0	3068.0	4258.0	7161.0	8226.0	8226.0	8228.0	8228.0	8228.0
1327075200	13932788.0	6402.93566176	5062.20704704	0.79060720183	5.0	5.0	5.0	77.0	170.0	314.0	1403.0	6600.0	10041.0	13885.0	13885.0	13886.0	13888.0	13889.0	13889.0
1327075800	511587.0	810.755942948	974.465799456	1.2019224872	5.0	5.0	5.0	5.0	6.0	53.0	332.0	671.0	980.0	1793.0	4153.0	5467.0	14190.0	14190.0	14190.0
1327076400	679564.0	763.55505618	697.552168586	0.913558443416	5.0	5.0	5.0	5.0	6.0	95.0	359.0	638.0	959.0	1943.0	2159.0	3148.0	9399.0	9399.0	9399.0
1327077000	3264485.0	2507.28494624	2696.69754723	1.07554490417	5.0	5.0	5.0	5.0	5.0	6.0	494.0	1563.5	3823.0	7893.0	9908.0	12931.0	16659.0	16680.0	16680.0
1327077600	3160727.0	2260.89198856	2361.18448411	1.0443597023	5.0	5.0	5.0	5.0	6.0	83.0	791.0	1250.0	3278.0	7506.0	8619.0	9716.0	15657.0	16080.0	16080.0
1327078200	3808465.0	2492.45091623	2519.6195535	1.01090037003	5.0	5.0	5.0	5.0	5.0	6.0	833.0	1469.0	3925.0	7719.0	9201.0	10244.0	15414.0	15414.0	15414.0
1327078800	5516208.0	2681.67622752	2717.41921568	1.0133285994	5.0	5.0	5.0	5.0	5.0	6.0	752.0	1511.0	4048.0	7938.0	9851.0	12640.0	14827.0	14866.0	14866.0
1327079400	2393576.0	1858.36645963	2148.02937336	1.15586964145	5.0	5.0	5.0	5.0	5.0	5.0	461.0	815.0	2612.0	7752.0	8492.0	8493.0	10919.0	14233.0	14233.0
1327080000	2439518.0	1604.94605263	1918.85836999	1.19559057256	5.0	5.0	5.0	5.0	5.0	5.0	263.0	1334.0	1781.0	6183.0	7563.0	8340.0	13237.0	13243.0	13243.0
1327080600	2911774.0	2171.34526473	2561.76307921	1.17980457591	5.0	5.0	5.0	5.0	5.0	5.0	296.0	1115.0	3619.0	7485.0	11467.0	11468.0	12991.0	13030.0	13030.0
1327081200	1746736.0	1138.68057366	1934.94114682	1.69928353181	5.0	5.0	5.0	5.0	5.0	5.0	6.0	539.0	1043.0	5638.0	8816.0	10202.0	11395.0	11471.0	11471.0
1327081800	7077758.0	2755.06344881	2915.646089	1.05828636733	5.0	5.0	5.0	5.0	5.0	5.0	6.0	1991.0	4777.0	8862.0	10505.0	11965.0	12019.0	12041.0	12041.0
1327082400	3050080.0	1755.94703512	2694.03594638	1.53423531149	5.0	5.0	5.0	5.0	5.0	5.0	6.0	647.0	2725.0	7056.0	9386.0	13189.0	14259.0	14260.0	14260.0
1327083000	3029101.0	1763.15541327	2384.26108517	1.35226938432	5.0	5.0	5.0	5.0	5.0	5.0	251.0	920.0	2327.0	6441.0	9168.0	12299.0	14913.0	14914.0	14914.0
1327083600	4235902.0	2192.49585921	3069.0638734	1.3998037262	5.0	5.0	5.0	5.0	5.0	5.0	6.0	893.0	3274.0	7749.0	13231.0	16611.0	17124.0	17124.0	17124.0
1327084200	2602341.0	1789.78060523	2517.69726542	1.40670720091	5.0	5.0	5.0	5.0	5.0	5.0	8.0	962.0	2036.0	8058.0	9105.0	11930.0	13996.0	13999.0	13999.0
1327084800	3304952.0	1218.19093255	2122.24131858	1.74212536137	5.0	5.0	5.0	5.0	5.0	5.0	5.0	6.0	1133.0	5748.0	7590.0	9503.0	13021.0	13273.0	13273.0
1327085400	3871296.0	1865.68481928	2622.70655985	1.405760787	5.0	5.0	5.0	5.0	5.0	5.0	6.0	659.0	2696.0	7826.0	10031.0	11420.0	12959.0	15250.0	15250.0
1327086000	3253863.0	1249.08368522	2154.56900307	1.72491965796	5.0	5.0	5.0	5.0	5.0	5.0	6.0	503.0	1415.0	5461.0	7460.0	9453.0	17270.0	17289.0	17289.0
1327086600	2327000.0	996.573875803	2028.97696973	2.0359523955	5.0	5.0	5.0	5.0	5.0	5.0	5.0	6.0	1064.0	4492.0	6363.0	9254.0	16752.0	17010.0	17010.0
1327087200	3666194.0	1345.39229358	2164.86599305	1.609096472	5.0	5.0	5.0	5.0	5.0	5.0	6.0	410.0	1427.0	5470.0	7008.0	9074.0	16479.0	16482.0	16482.0
1327087800	3427918.0	1247.87695668	2069.56850343	1.6584716084	5.0	5.0	5.0	5.0	5.0	5.0	5.0	155.0	1577.0	5950.0	6382.0	10004.0	15507.0	15697.0	15697.0
1327088400	5883233.0	1873.04457179	2776.78099821	1.4824959534	5.0	5.0	5.0	5.0	5.0	5.0	5.0	413.0	2992.0	8328.0	9779.0	11812.0	14871.0	15294.0	15294.0
1327089000	3593960.0	1776.5496787	2316.52390285	1.30394546836	5.0	5.0	5.0	5.0	5.0	5.0	6.0	1079.0	2102.0	7714.0	8894.0	8895.0	14328.0	14770.0	14770.0
1327089600	3022412.0	1954.98835705	2442.76722676	1.24950474408	5.0	5.0	5.0	5.0	5.0	5.0	42.0	902.0	2849.0	6795.0	10655.0	11216.0	11477.0	11486.0	11486.0
1327090200	2385968.0	1498.72361809	2101.67371846	1.40230906692	5.0	5.0	5.0	5.0	5.0	5.0	119.0	791.0	1613.0	6150.0	7887.0	10657.0	13429.0	13523.0	13523.0
1327090800	3956923.0	1343.60713073	2091.67334689	1.55675963535	5.0	5.0	5.0	5.0	5.0	5.0	5.0	416.0	1706.0	5533.0	8838.0	9899.0	12482.0	12560.0	12560.0
1327091400	4360570.0	1839.90295359	2491.65891698	1.35423388072	5.0	5.0	5.0	5.0	5.0	5.0	6.0	822.5	2818.0	7321.0	9503.0	11515.0	11945.0	11948.0	11948.0
1327092000	4128642.0	1753.1388535	2437.50143948	1.39036416574	5.0	5.0	5.0	5.0	5.0	5.0	6.0	734.0	2740.0	7368.0	8340.0	11431.0	11705.0	11765.0	11765.0
1327092600	4089262.0	1885.32134624	2360.58045459	1.25208387381	5.0	5.0	5.0	5.0	5.0	5.0	6.0	947.0	3406.0	6972.0	7629.0	9099.0	11264.0	11399.0	11399.0
1327093200	3431360.0	1648.10758886	2997.03191825	1.81846861122	5.0	5.0	5.0	5.0	5.0	5.0	6.0	578.0	1655.0	7053.0	8550.0	19550.0	19701.0	19702.0	19702.0
1327093800	4871610.0	1667.78842862	2777.13240575	1.66515869645	5.0	5.0	5.0	5.0	5.0	5.0	5.0	140.0	1511.0	8865.0	9734.0	9868.0	10013.0	18554.0	18554.0
1327094400	4342024.0	1634.18291306	2506.71690609	1.53392676306	5.0	5.0	5.0	5.0	5.0	5.0	6.0	506.0	2381.0	6798.0	9216.0	11027.0	18192.0	18258.0	18258.0
1327095000	2490603.0	1134.15437158	1827.11642771	1.61099447613	5.0	5.0	5.0	5.0	5.0	5.0	5.0	203.0	1946.0	5077.0	5407.0	9999.0	10145.0	10148.0	10148.0
1327095600	4938651.0	2112.34003422	2792.35514422	1.32192502106	5.0	5.0	5.0	5.0	5.0	5.0	6.0	911.0	3769.0	7893.0	9416.0	9830.0	17239.0	17322.0	17322.0
1327096200	2617078.0	1976.64501511	2695.75260488	1.36380209106	5.0	5.0	5.0	5.0	5.0	5.0	6.0	668.0	3658.0	7297.0	7731.0	9216.0	16563.0	16647.0	16647.0
1327096800	3456384.0	1972.82191781	2537.44571114	1.28620109511	5.0	5.0	5.0	5.0	5.0	5.0	6.0	906.5	3419.0	6792.0	7215.0	8717.0	16110.0	16119.0	16119.0
1327097400	3465327.0	1734.3978979	2073.8857856	1.19573817987	5.0	5.0	5.0	5.0	5.0	5.0	6.0	740.0	2951.0	6252.0	6520.0	7812.0	8151.0	8169.0	8169.0
1327098000	3219281.0	2058.36381074	1968.60992426	0.95639551861	5.0	5.0	5.0	5.0	5.0	5.0	89.0	1916.0	3013.0	5784.0	7131.0	7341.0	7575.0	7578.0	7578.0
1327098600	1453961.0	1826.58417085	1882.80650461	1.03078003995	5.0	5.0	5.0	5.0	5.0	5.0	11.0	1589.0	1934.0	6705.0	6789.0	6972.0	6972.0	6972.0	6972.0
1327099200	1406897.0	2360.56543624	2142.19899053	0.9074940087	221.0	221.0	221.0	221.0	275.0	284.0	941.0	1145.0	4444.0	6058.0	6066.0	6069.0	6070.0	6070.0	6070.0
1327099800	1997572.0	2254.59593679	2113.13119139	0.93725494529	470.0	470.0	470.0	473.0	473.0	473.0	776.0	803.0	4225.0	5782.0	5784.0	5785.0	5785.0	5785.0	5785.0
