#
# Generated On: 2012-02-05T17:20:08.862507
#           By: cwa.analyze.statistics
#      Version: 11.11.23
#       Author: Thomas A. de Ruiter <thomas@de-ruiter.cx>
#
#  Commandline: /home/af10028/bin/cwa analyze
#     Work Dir: /scratch/af10028/var/thesis-project/result/analyses/workload-01h-11124l-3s-default
#

Time	Sum	Avg	StdDev	CoV	0.000000-Pct	0.010000-Pct	0.100000-Pct	1.000000-Pct	2.000000-Pct	5.000000-Pct	25.000000-Pct	50.000000-Pct	75.000000-Pct	95.000000-Pct	98.000000-Pct	99.000000-Pct	99.900000-Pct	99.990000-Pct	100.000000-Pct
1326906000	24109228.0	181.466136778	455.868065634	2.51213848341	2.0	2.0	2.0	2.0	2.0	2.0	6.0	35.0	152.0	836.0	1514.0	2117.0	5029.0	8555.0	18590.0
1326909600	14254815.0	178.004957481	446.866786429	2.51041764653	2.0	2.0	2.0	2.0	2.0	2.0	6.0	35.0	152.0	812.0	1475.0	2102.0	4885.0	9347.0	14168.0
1326913200	0	0	0	0															
