#
# Generated On: 2012-02-05T17:06:47.353669
#           By: cwa.analyze.statistics
#      Version: 11.11.23
#       Author: Thomas A. de Ruiter <thomas@de-ruiter.cx>
#
#  Commandline: /home/af10028/bin/cwa analyze
#     Work Dir: /scratch/af10028/var/thesis-project/result/analyses/workload-01h-08652l-5s-fair
#

Time	Sum	Avg	StdDev	CoV	0.000000-Pct	0.010000-Pct	0.100000-Pct	1.000000-Pct	2.000000-Pct	5.000000-Pct	25.000000-Pct	50.000000-Pct	75.000000-Pct	95.000000-Pct	98.000000-Pct	99.000000-Pct	99.900000-Pct	99.990000-Pct	100.000000-Pct
1326931200	1935491.0	2680.73545706	2427.99357886	0.905719201967	3.0	3.0	3.0	3.0	3.0	3.0	851.0	2178.5	3927.0	7545.0	8990.0	9812.0	15390.0	15390.0	15390.0
