#
# Generated On: 2012-02-05T20:08:07.763277
#           By: cwa.analyze.statistics
#      Version: 11.11.23
#       Author: Thomas A. de Ruiter <thomas@de-ruiter.cx>
#
#  Commandline: /home/af10028/bin/cwa analyze
#     Work Dir: /scratch/af10028/var/thesis-project/result/analyses/workload-06h-08652l-4s-default
#

Time	Sum	Avg	StdDev	CoV	0.000000-Pct	0.010000-Pct	0.100000-Pct	1.000000-Pct	2.000000-Pct	5.000000-Pct	25.000000-Pct	50.000000-Pct	75.000000-Pct	95.000000-Pct	98.000000-Pct	99.000000-Pct	99.900000-Pct	99.990000-Pct	100.000000-Pct
1327101000	2170011.0	4165.08829175	2827.69878984	0.678904885507	2.0	2.0	2.0	3.0	3.0	128.0	1759.0	4100.0	6623.0	8181.0	10065.0	11572.0	15457.0	15457.0	15457.0
1327104600	3593201.0	6142.22393162	2297.81756628	0.374101887502	772.0	772.0	772.0	822.0	878.0	1122.0	5959.0	6341.0	7195.0	8413.0	10654.0	11931.0	15755.0	15755.0	15755.0
1327108200	3771389.0	6722.61853832	2176.18019883	0.323710201081	1515.0	1515.0	1515.0	1571.0	1669.0	1790.0	6661.0	7418.0	7849.0	8446.0	9927.0	11001.0	13678.0	13678.0	13678.0
1327111800	2481834.0	6038.52554745	1767.55717504	0.292713372023	2164.0	2164.0	2164.0	2178.0	2204.0	2310.0	6375.0	6610.0	6976.0	7801.0	8388.0	8723.0	9208.0	9208.0	9208.0
1327115400	221563.0	3165.18571429	214.840371672	0.0678760714426	2777.0	2777.0	2777.0	2777.0	2797.0	2889.0	2962.0	3131.0	3394.0	3473.0	3589.0	3639.0	3639.0	3639.0	3639.0
