#
# Generated On: 2012-02-09T13:31:15.055856
#           By: cwa.analyze.statistics
#      Version: 11.11.23
#       Author: Thomas A. de Ruiter <thomas@de-ruiter.cx>
#
#  Commandline: /home/af10028/bin/cwa analyze
#     Work Dir: /scratch/af10028/var/thesis-project/result/workload-analyses/workload-06h-08652l-0s
#

Time	Sum	Avg	StdDev	CoV	0.000000-Pct	0.010000-Pct	0.100000-Pct	1.000000-Pct	2.000000-Pct	5.000000-Pct	25.000000-Pct	50.000000-Pct	75.000000-Pct	95.000000-Pct	98.000000-Pct	99.000000-Pct	99.900000-Pct	99.990000-Pct	100.000000-Pct
1326805800	15456713.0	4237.03755482	5496.09008946	1.29715397099	0.0	0.0	1.0	6.0	12.0	43.0	782.0	2576.5	5695.0	13683.0	19592.0	26401.0	47921.0	72748.0	72748.0
