#
# Generated On: 2012-02-05T17:03:48.554565
#           By: cwa.analyze.statistics
#      Version: 11.11.23
#       Author: Thomas A. de Ruiter <thomas@de-ruiter.cx>
#
#  Commandline: /home/af10028/bin/cwa analyze
#     Work Dir: /scratch/af10028/var/thesis-project/result/analyses/workload-01h-08652l-2s-fair
#

Value	PDF	CDF
5.0	0.119699972795	0.119738836423
8.0	0.000116590882593	0.119855427306
11.0	0.000505227157903	0.120360654463
14.0	0.000466363530372	0.120827017994
17.0	0.00077727255062	0.121604290544
20.0	0.000621818040496	0.122226108585
23.0	0.000427499902841	0.122653608488
26.0	0.00077727255062	0.123430881038
29.0	0.000854999805682	0.124285880844
32.0	0.000544090785434	0.12482997163
35.0	0.000660681668027	0.125490653298
38.0	0.000505227157903	0.125995880455
41.0	0.000699545295558	0.126695425751
44.0	0.000505227157903	0.127200652909
47.0	0.00151568147371	0.128716334383
50.0	0.00077727255062	0.129493606933
53.0	0.000816136178151	0.130309743111
56.0	0.000505227157903	0.130814970269
59.0	0.000816136178151	0.131631106447
62.0	0.00077727255062	0.132408378998
65.0	0.000544090785434	0.132952469784
68.0	0.000660681668027	0.133613151452
71.0	0.00038863627531	0.134001787727
74.0	0.00077727255062	0.134779060277
77.0	0.000738408923089	0.135517469201
80.0	0.000582954412965	0.136100423614
83.0	0.000349772647779	0.136450196261
86.0	0.000621818040496	0.137072014302
89.0	0.000466363530372	0.137538377832
92.0	0.000544090785434	0.138082468618
95.0	0.000349772647779	0.138432241265
98.0	0.00151568147371	0.139947922739
101.0	0.000971590688275	0.140919513427
104.0	0.00147681784618	0.142396331274
107.0	0.00124363608099	0.143639967355
110.0	0.000582954412965	0.144222921768
113.0	0.00038863627531	0.144611558043
116.0	0.00038863627531	0.145000194318
119.0	0.000466363530372	0.145466557849
122.0	0.00038863627531	0.145855194124
125.0	0.000544090785434	0.146399284909
128.0	0.000816136178151	0.147215421087
131.0	0.000699545295558	0.147914966383
134.0	0.000893863433213	0.148808829816
137.0	0.000660681668027	0.149469511484
140.0	0.000621818040496	0.150091329525
143.0	0.000621818040496	0.150713147565
146.0	0.000816136178151	0.151529283743
149.0	0.000582954412965	0.152112238156
152.0	0.000893863433213	0.15300610159
155.0	0.00038863627531	0.153394737865
158.0	0.000544090785434	0.15393882865
161.0	0.00116590882593	0.155104737476
164.0	0.000505227157903	0.155609964634
167.0	0.000854999805682	0.15646496444
170.0	0.000932727060744	0.157397691501
173.0	0.000466363530372	0.157864055031
176.0	0.000349772647779	0.158213827679
179.0	0.00101045431581	0.159224281994
182.0	0.000427499902841	0.159651781897
185.0	0.000582954412965	0.16023473631
188.0	0.000893863433213	0.161128599744
191.0	0.000505227157903	0.161633826901
194.0	0.000349772647779	0.161983599549
197.0	0.000893863433213	0.162877462982
200.0	0.000660681668027	0.16353814465
203.0	0.00143795421865	0.164976098869
206.0	0.000971590688275	0.165947689557
209.0	0.000971590688275	0.166919280246
212.0	0.00124363608099	0.168162916327
215.0	0.000427499902841	0.168590416229
218.0	0.00128249970852	0.169872915938
221.0	0.00101045431581	0.170883370254
224.0	0.000893863433213	0.171777233687
227.0	0.000427499902841	0.17220473359
230.0	0.00120477245346	0.173409506043
233.0	0.000466363530372	0.173875869574
236.0	0.000932727060744	0.174808596634
239.0	0.00128249970852	0.176091096343
242.0	0.000699545295558	0.176790641638
245.0	0.000621818040496	0.177412459679
248.0	0.00108818157087	0.17850064125
251.0	0.0011270451984	0.179627686448
254.0	0.00128249970852	0.180910186157
257.0	0.00104931794334	0.1819595041
260.0	0.000816136178151	0.182775640278
263.0	0.000660681668027	0.183436321946
266.0	0.00101045431581	0.184446776262
269.0	0.000854999805682	0.185301776068
272.0	0.00077727255062	0.186079048618
275.0	0.000893863433213	0.186972912052
278.0	0.00104931794334	0.188022229995
281.0	0.000505227157903	0.188527457153
284.0	0.000544090785434	0.189071547938
287.0	0.000854999805682	0.189926547744
290.0	0.000816136178151	0.190742683922
293.0	0.000816136178151	0.1915588201
296.0	0.00124363608099	0.192802456181
299.0	0.000854999805682	0.193657455987
302.0	0.00077727255062	0.194434728538
305.0	0.0011270451984	0.195561773736
308.0	0.00136022696358	0.1969220007
311.0	0.00101045431581	0.197932455015
314.0	0.000932727060744	0.198865182076
317.0	0.00077727255062	0.199642454627
320.0	0.000971590688275	0.200614045315
323.0	0.000971590688275	0.201585636003
326.0	0.000893863433213	0.202479499436
329.0	0.00077727255062	0.203256771987
332.0	0.000699545295558	0.203956317283
335.0	0.000738408923089	0.204694726206
338.0	0.00120477245346	0.205899498659
341.0	0.000971590688275	0.206871089347
344.0	0.000699545295558	0.207570634643
347.0	0.00139909059112	0.208969725234
350.0	0.000621818040496	0.209591543275
353.0	0.000699545295558	0.21029108857
356.0	0.000699545295558	0.210990633866
359.0	0.00077727255062	0.211767906416
362.0	0.000854999805682	0.212622906222
365.0	0.00132136333605	0.213944269558
368.0	0.000816136178151	0.214760405736
371.0	0.000544090785434	0.215304496522
374.0	0.000854999805682	0.216159496327
377.0	0.000272045392717	0.21643154172
380.0	0.000505227157903	0.216936768878
383.0	0.000738408923089	0.217675177801
386.0	0.000544090785434	0.218219268587
389.0	0.000932727060744	0.219151995647
392.0	0.00077727255062	0.219929268198
395.0	0.000738408923089	0.220667677121
398.0	0.000932727060744	0.221600404182
401.0	0.00077727255062	0.222377676732
404.0	0.000621818040496	0.222999494773
407.0	0.000699545295558	0.223699040068
410.0	0.00038863627531	0.224087676344
413.0	0.000544090785434	0.224631767129
416.0	0.000660681668027	0.225292448797
419.0	0.000699545295558	0.225991994093
422.0	0.000699545295558	0.226691539388
425.0	0.00101045431581	0.227701993704
428.0	0.000466363530372	0.228168357234
431.0	0.000621818040496	0.228790175275
434.0	0.00128249970852	0.230072674983
437.0	0.000854999805682	0.230927674789
440.0	0.00116590882593	0.232093583615
443.0	0.00101045431581	0.233104037931
446.0	0.00108818157087	0.234192219502
449.0	0.00139909059112	0.235591310093
452.0	0.000544090785434	0.236135400878
455.0	0.00038863627531	0.236524037154
458.0	0.00182659049396	0.238350627648
461.0	0.00104931794334	0.239399945591
464.0	0.00116590882593	0.240565854417
467.0	0.00132136333605	0.241887217753
470.0	0.000660681668027	0.242547899421
473.0	0.00116590882593	0.243713808247
476.0	0.000660681668027	0.244374489915
479.0	0.000544090785434	0.2449185807
482.0	0.000932727060744	0.245851307761
485.0	0.00858886168435	0.254440169445
488.0	0.000816136178151	0.255256305624
491.0	0.000971590688275	0.256227896312
494.0	0.000854999805682	0.257082896118
497.0	0.00077727255062	0.257860168668
500.0	0.000544090785434	0.258404259454
503.0	0.00101045431581	0.259414713769
506.0	0.00101045431581	0.260425168085
509.0	0.000505227157903	0.260930395243
512.0	0.00038863627531	0.261319031518
515.0	0.00139909059112	0.26271812211
518.0	0.00104931794334	0.263767440053
521.0	0.00077727255062	0.264544712603
524.0	0.00077727255062	0.265321985154
527.0	0.000505227157903	0.265827212312
530.0	0.000893863433213	0.266721075745
533.0	0.00132136333605	0.268042439081
536.0	0.00120477245346	0.269247211535
539.0	0.000816136178151	0.270063347713
542.0	0.00128249970852	0.271345847421
545.0	0.000544090785434	0.271889938207
548.0	0.00128249970852	0.273172437915
551.0	0.000505227157903	0.273677665073
554.0	0.000660681668027	0.274338346741
557.0	0.000466363530372	0.274804710272
560.0	0.00104931794334	0.275854028215
563.0	0.000466363530372	0.276320391745
566.0	0.000582954412965	0.276903346158
569.0	0.00077727255062	0.277680618709
572.0	0.00132136333605	0.279001982045
575.0	0.00174886323889	0.280750845284
578.0	0.00101045431581	0.2817612996
581.0	0.00124363608099	0.283004935681
584.0	0.000349772647779	0.283354708328
587.0	0.00104931794334	0.284404026272
590.0	0.000738408923089	0.285142435195
593.0	0.00120477245346	0.286347207648
596.0	0.000466363530372	0.286813571179
599.0	0.00116590882593	0.287979480005
602.0	0.00147681784618	0.289456297851
605.0	0.000544090785434	0.290000388636
608.0	0.000932727060744	0.290933115697
611.0	0.000971590688275	0.291904706385
614.0	0.000427499902841	0.292332206288
617.0	0.00116590882593	0.293498115114
620.0	0.000310909020248	0.293809024134
623.0	0.000544090785434	0.29435311492
626.0	0.000816136178151	0.295169251098
629.0	0.00116590882593	0.296335159924
632.0	0.000349772647779	0.296684932572
635.0	0.000854999805682	0.297539932377
638.0	0.000660681668027	0.298200614045
641.0	0.00104931794334	0.299249931989
644.0	0.00244840853445	0.301698340523
647.0	0.000854999805682	0.302553340329
650.0	0.000816136178151	0.303369476507
653.0	0.00101045431581	0.304379930823
656.0	0.00240954490692	0.30678947573
659.0	0.00077727255062	0.30756674828
662.0	0.000466363530372	0.308033111811
665.0	0.00038863627531	0.308421748086
668.0	0.000738408923089	0.309160157009
671.0	0.000660681668027	0.309820838677
674.0	0.000505227157903	0.310326065835
677.0	0.000660681668027	0.310986747503
680.0	0.00077727255062	0.311764020054
683.0	0.000544090785434	0.312308110839
686.0	0.000738408923089	0.313046519762
689.0	0.000932727060744	0.313979246823
692.0	0.00139909059112	0.315378337414
695.0	0.000621818040496	0.316000155455
698.0	0.000893863433213	0.316894018888
701.0	0.00124363608099	0.318137654969
704.0	0.00038863627531	0.318526291244
707.0	0.000310909020248	0.318837200264
710.0	0.000699545295558	0.31953674556
713.0	0.000893863433213	0.320430608993
716.0	0.000893863433213	0.321324472426
719.0	0.00136022696358	0.32268469939
722.0	0.00174886323889	0.324433562629
725.0	0.000893863433213	0.325327426062
728.0	0.000971590688275	0.32629901675
731.0	0.000699545295558	0.326998562046
734.0	0.000505227157903	0.327503789204
737.0	0.000582954412965	0.328086743617
740.0	0.00108818157087	0.329174925188
743.0	0.00136022696358	0.330535152151
746.0	0.000932727060744	0.331467879212
749.0	0.000582954412965	0.332050833625
752.0	0.00136022696358	0.333411060588
755.0	0.00272045392717	0.336131514516
758.0	0.00178772686643	0.337919241382
761.0	0.00038863627531	0.338307877657
764.0	0.000427499902841	0.33873537756
767.0	0.000621818040496	0.339357195601
770.0	0.000738408923089	0.340095604524
773.0	0.00147681784618	0.34157242237
776.0	0.000816136178151	0.342388558548
779.0	0.00038863627531	0.342777194823
782.0	0.00077727255062	0.343554467374
785.0	0.000544090785434	0.344098558159
788.0	0.00139909059112	0.345497648751
791.0	0.00101045431581	0.346508103066
794.0	0.00202090863161	0.348529011698
797.0	0.00038863627531	0.348917647973
800.0	0.00237068127939	0.351288329253
803.0	0.00077727255062	0.352065601803
806.0	0.000660681668027	0.352726283471
809.0	0.000466363530372	0.353192647002
812.0	0.00128249970852	0.35447514671
815.0	0.000427499902841	0.354902646613
818.0	0.000427499902841	0.355330146516
821.0	0.000854999805682	0.356185146322
824.0	0.000310909020248	0.356496055342
827.0	0.000621818040496	0.357117873382
830.0	0.00124363608099	0.358361509463
833.0	0.000893863433213	0.359255372897
836.0	0.0011270451984	0.360382418095
839.0	0.00120477245346	0.361587190548
842.0	0.000272045392717	0.361859235941
845.0	0.000349772647779	0.362209008589
848.0	0.0011270451984	0.363336053787
851.0	0.00108818157087	0.364424235358
854.0	0.00170999961136	0.366134234969
857.0	0.00136022696358	0.367494461933
860.0	0.000854999805682	0.368349461739
863.0	0.000738408923089	0.369087870662
866.0	0.000427499902841	0.369515370565
869.0	0.0011270451984	0.370642415763
872.0	0.000349772647779	0.370992188411
875.0	0.000349772647779	0.371341961059
878.0	0.00077727255062	0.372119233609
881.0	0.00159340872877	0.373712642338
884.0	0.000427499902841	0.374140142241
887.0	0.00104931794334	0.375189460184
890.0	0.000505227157903	0.375694687342
893.0	0.000233181765186	0.375927869107
896.0	0.000971590688275	0.376899459796
899.0	0.000854999805682	0.377754459601
902.0	0.0016322723563	0.379386731958
905.0	0.00101045431581	0.380397186273
908.0	0.00108818157087	0.381485367844
911.0	0.000854999805682	0.38234036765
914.0	0.00104931794334	0.383389685593
917.0	0.00178772686643	0.38517741246
920.0	0.00221522676927	0.387392639229
923.0	0.00108818157087	0.3884808208
926.0	0.00038863627531	0.388869457075
929.0	0.000621818040496	0.389491275116
932.0	0.000932727060744	0.390424002176
935.0	0.000660681668027	0.391084683844
938.0	0.000544090785434	0.39162877463
941.0	0.000582954412965	0.392211729043
944.0	0.000932727060744	0.393144456104
947.0	0.000544090785434	0.393688546889
950.0	0.0011270451984	0.394815592087
953.0	0.00116590882593	0.395981500913
956.0	0.000971590688275	0.396953091602
959.0	0.00132136333605	0.398274454938
962.0	0.00202090863161	0.400295363569
965.0	0.000582954412965	0.400878317982
968.0	0.00124363608099	0.402121954063
971.0	0.00182659049396	0.403948544557
974.0	0.00128249970852	0.405231044266
977.0	0.00159340872877	0.406824452994
980.0	0.00038863627531	0.40721308927
983.0	0.000349772647779	0.407562861918
986.0	0.000466363530372	0.408029225448
989.0	0.00108818157087	0.409117407019
992.0	0.00116590882593	0.410283315845
995.0	0.000466363530372	0.410749679375
998.0	0.000427499902841	0.411177179278
1001.0	0.000505227157903	0.411682406436
1004.0	0.000854999805682	0.412537406241
1007.0	0.00101045431581	0.413547860557
1010.0	0.000505227157903	0.414053087715
1013.0	0.000466363530372	0.414519451246
1016.0	0.000349772647779	0.414869223893
1019.0	0.00194318137655	0.41681240527
1022.0	0.000893863433213	0.417706268703
1025.0	0.00167113598383	0.419377404687
1028.0	0.00143795421865	0.420815358906
1031.0	0.00147681784618	0.422292176752
1034.0	0.000233181765186	0.422525358517
1037.0	7.7727255062e-05	0.422603085772
1040.0	0.000582954412965	0.423186040185
1043.0	0.00124363608099	0.424429676266
1046.0	0.000932727060744	0.425362403327
1049.0	0.000427499902841	0.42578990323
1052.0	0.000466363530372	0.42625626676
1055.0	0.00038863627531	0.426644903035
1058.0	0.000738408923089	0.427383311958
1061.0	0.000582954412965	0.427966266371
1064.0	0.00120477245346	0.429171038825
1067.0	0.000466363530372	0.429637402355
1070.0	0.000621818040496	0.430259220396
1073.0	0.00116590882593	0.431425129222
1076.0	0.000272045392717	0.431697174614
1079.0	0.000233181765186	0.431930356379
1082.0	0.000738408923089	0.432668765303
1085.0	0.000505227157903	0.43317399246
1088.0	0.000660681668027	0.433834674128
1091.0	0.000621818040496	0.434456492169
1094.0	0.000233181765186	0.434689673934
1097.0	0.000621818040496	0.435311491975
1100.0	0.000155454510124	0.435466946485
1103.0	0.000582954412965	0.436049900898
1106.0	0.00120477245346	0.437254673351
1109.0	0.000582954412965	0.437837627764
1112.0	0.00198204500408	0.439819672768
1115.0	0.000349772647779	0.440169445416
1118.0	0.000544090785434	0.440713536201
1121.0	0.000582954412965	0.441296490614
1124.0	0.000621818040496	0.441918308655
1127.0	0.000544090785434	0.44246239944
1130.0	0.000466363530372	0.442928762971
1133.0	0.000582954412965	0.443511717384
1136.0	0.000544090785434	0.444055808169
1139.0	0.00205977225914	0.446115580428
1142.0	0.000310909020248	0.446426489449
1145.0	0.000466363530372	0.446892852979
1148.0	0.00159340872877	0.448486261708
1151.0	0.00240954490692	0.450895806615
1154.0	0.00038863627531	0.45128444289
1157.0	0.000544090785434	0.451828533675
1160.0	0.00104931794334	0.452877851619
1163.0	0.00038863627531	0.453266487894
1166.0	0.000427499902841	0.453693987797
1169.0	0.000194318137655	0.453888305934
1172.0	0.000427499902841	0.454315805837
1175.0	0.000505227157903	0.454821032995
1178.0	0.000544090785434	0.455365123781
1181.0	0.000582954412965	0.455948078194
1184.0	0.000427499902841	0.456375578096
1187.0	0.000272045392717	0.456647623489
1190.0	0.000544090785434	0.457191714275
1193.0	0.000272045392717	0.457463759667
1196.0	0.000621818040496	0.458085577708
1199.0	0.00101045431581	0.459096032024
1202.0	0.0011270451984	0.460223077222
1205.0	0.000194318137655	0.46041739536
1208.0	0.000310909020248	0.46072830438
1211.0	0.000194318137655	0.460922622518
1214.0	0.00159340872877	0.462516031246
1217.0	0.000272045392717	0.462788076639
1220.0	0.000272045392717	0.463060122032
1223.0	0.000544090785434	0.463604212817
1226.0	0.000349772647779	0.463953985465
1229.0	0.000310909020248	0.464264894485
1232.0	7.7727255062e-05	0.46434262174
1235.0	0.000310909020248	0.464653530761
1238.0	0.000466363530372	0.465119894291
1241.0	0.00136022696358	0.466480121255
1244.0	0.000349772647779	0.466829893902
1247.0	0.000466363530372	0.467296257433
1250.0	0.000582954412965	0.467879211846
1253.0	0.000349772647779	0.468228984493
1256.0	0.000116590882593	0.468345575376
1259.0	0.000155454510124	0.468501029886
1262.0	0.000660681668027	0.469161711554
1265.0	0.000155454510124	0.469317166064
1268.0	0.000116590882593	0.469433756947
1271.0	0.000582954412965	0.47001671136
1274.0	0.00038863627531	0.470405347635
1277.0	0.000349772647779	0.470755120283
1280.0	0.00038863627531	0.471143756558
1283.0	0.000349772647779	0.471493529206
1286.0	0.000310909020248	0.471804438226
1289.0	0.000816136178151	0.472620574404
1292.0	0.00170999961136	0.474330574016
1295.0	0.000621818040496	0.474952392056
1298.0	0.000582954412965	0.475535346469
1301.0	0.000427499902841	0.475962846372
1304.0	0.000349772647779	0.47631261902
1307.0	0.000155454510124	0.47646807353
1310.0	0.000310909020248	0.47677898255
1313.0	0.000349772647779	0.477128755198
1316.0	0.000621818040496	0.477750573239
1319.0	0.000544090785434	0.478294664024
1322.0	0.000349772647779	0.478644436672
1325.0	0.000194318137655	0.478838754809
1328.0	0.000310909020248	0.47914966383
1331.0	0.000194318137655	0.479343981967
1334.0	0.00038863627531	0.479732618243
1337.0	0.000738408923089	0.480471027166
1340.0	0.000427499902841	0.480898527069
1343.0	0.000155454510124	0.481053981579
1346.0	0.000310909020248	0.481364890599
1349.0	0.000349772647779	0.481714663247
1352.0	0.000233181765186	0.481947845012
1355.0	0.000272045392717	0.482219890405
1358.0	0.000155454510124	0.482375344915
1361.0	0.00108818157087	0.483463526486
1364.0	0.000155454510124	0.483618980996
1367.0	0.00038863627531	0.484007617271
1370.0	0.000272045392717	0.484279662664
1373.0	0.00264272667211	0.486922389336
1376.0	0.000466363530372	0.487388752866
1379.0	0.00038863627531	0.487777389142
1382.0	0.000310909020248	0.488088298162
1385.0	0.000194318137655	0.488282616299
1388.0	0.000194318137655	0.488476934437
1391.0	0.000427499902841	0.48890443434
1394.0	0.00038863627531	0.489293070615
1397.0	0.000155454510124	0.489448525125
1400.0	0.000505227157903	0.489953752283
1403.0	0.00151568147371	0.491469433757
1406.0	0.000582954412965	0.49205238817
1409.0	0.000427499902841	0.492479888073
1412.0	0.000582954412965	0.493062842486
1415.0	0.000272045392717	0.493334887878
1418.0	0.00190431774902	0.495239205627
1421.0	0.000272045392717	0.49551125102
1424.0	0.000310909020248	0.49582216004
1427.0	0.000272045392717	0.496094205433
1430.0	0.000349772647779	0.496443978081
1433.0	0.000272045392717	0.496716023474
1436.0	0.000816136178151	0.497532159652
1439.0	0.000466363530372	0.497998523182
1442.0	0.000310909020248	0.498309432202
1445.0	0.000194318137655	0.49850375034
1448.0	0.000194318137655	0.498698068478
1451.0	0.000233181765186	0.498931250243
1454.0	0.00038863627531	0.499319886518
1457.0	0.000233181765186	0.499553068283
1460.0	0.000544090785434	0.500097159069
1463.0	0.000272045392717	0.500369204462
1466.0	0.000854999805682	0.501224204267
1469.0	0.00128249970852	0.502506703976
1472.0	0.000272045392717	0.502778749368
1475.0	0.000272045392717	0.503050794761
1478.0	0.000621818040496	0.503672612802
1481.0	0.000544090785434	0.504216703587
1484.0	0.000155454510124	0.504372158097
1487.0	0.00077727255062	0.505149430648
1490.0	0.00128249970852	0.506431930356
1493.0	0.000427499902841	0.506859430259
1496.0	0.000621818040496	0.5074812483
1499.0	0.00038863627531	0.507869884575
1502.0	0.000427499902841	0.508297384478
1505.0	0.00151568147371	0.509813065952
1508.0	0.000582954412965	0.510396020365
1511.0	0.000544090785434	0.51094011115
1514.0	0.000155454510124	0.51109556566
1517.0	0.00132136333605	0.512416928996
1520.0	0.00038863627531	0.512805565271
1523.0	0.00077727255062	0.513582837822
1526.0	0.000310909020248	0.513893746842
1529.0	0.000544090785434	0.514437837628
1532.0	0.00038863627531	0.514826473903
1535.0	0.00038863627531	0.515215110178
1538.0	0.000194318137655	0.515409428316
1541.0	0.00038863627531	0.515798064591
1544.0	0.000544090785434	0.516342155377
1547.0	0.000310909020248	0.516653064397
1550.0	0.000310909020248	0.516963973417
1553.0	0.000233181765186	0.517197155182
1556.0	0.000544090785434	0.517741245968
1559.0	0.000660681668027	0.518401927636
1562.0	0.000854999805682	0.519256927442
1565.0	0.00116590882593	0.520422836268
1568.0	0.000660681668027	0.521083517936
1571.0	0.000505227157903	0.521588745093
1574.0	0.000194318137655	0.521783063231
1577.0	0.000194318137655	0.521977381369
1580.0	0.00136022696358	0.523337608332
1583.0	0.00139909059112	0.524736698923
1586.0	0.000349772647779	0.525086471571
1589.0	0.00038863627531	0.525475107847
1592.0	0.000155454510124	0.525630562357
1595.0	0.000505227157903	0.526135789515
1598.0	0.000582954412965	0.526718743928
1601.0	0.00038863627531	0.527107380203
1604.0	0.000466363530372	0.527573743733
1607.0	0.000660681668027	0.528234425401
1610.0	0.00038863627531	0.528623061677
1613.0	0.000155454510124	0.528778516187
1616.0	0.000233181765186	0.529011697952
1619.0	0.000427499902841	0.529439197855
1622.0	0.000544090785434	0.52998328864
1625.0	0.000699545295558	0.530682833936
1628.0	0.000544090785434	0.531226924721
1631.0	0.00038863627531	0.531615560996
1634.0	0.000310909020248	0.531926470017
1637.0	0.000582954412965	0.53250942443
1640.0	0.000272045392717	0.532781469822
1643.0	0.000427499902841	0.533208969725
1646.0	0.000505227157903	0.533714196883
1649.0	0.000466363530372	0.534180560414
1652.0	0.000660681668027	0.534841242082
1655.0	0.000582954412965	0.535424196495
1658.0	0.000893863433213	0.536318059928
1661.0	0.00038863627531	0.536706696203
1664.0	0.000272045392717	0.536978741596
1667.0	0.000349772647779	0.537328514244
1670.0	0.000582954412965	0.537911468656
1673.0	0.00233181765186	0.540243286308
1675.0	0.00272045392717	0.542963740236
1679.0	0.000621818040496	0.543585558276
1682.0	0.000310909020248	0.543896467296
1685.0	0.000233181765186	0.544129649061
1688.0	0.00151568147371	0.545645330535
1691.0	0.00120477245346	0.546850102989
1694.0	0.000116590882593	0.546966693871
1697.0	0.000310909020248	0.547277602891
1700.0	0.00101045431581	0.548288057207
1703.0	0.000699545295558	0.548987602503
1706.0	0.000544090785434	0.549531693288
1709.0	0.000310909020248	0.549842602308
1712.0	0.00136022696358	0.551202829272
1715.0	0.000621818040496	0.551824647313
1718.0	0.000466363530372	0.552291010843
1721.0	0.000738408923089	0.553029419766
1724.0	0.000738408923089	0.553767828689
1727.0	0.000505227157903	0.554273055847
1730.0	0.000194318137655	0.554467373985
1733.0	0.000272045392717	0.554739419377
1736.0	0.000349772647779	0.555089192025
1739.0	0.000544090785434	0.555633282811
1742.0	0.000427499902841	0.556060782713
1745.0	0.000155454510124	0.556216237224
1748.0	0.000155454510124	0.556371691734
1751.0	0.000194318137655	0.556566009871
1754.0	0.000310909020248	0.556876918892
1757.0	0.00038863627531	0.557265555167
1760.0	0.00038863627531	0.557654191442
1763.0	0.000427499902841	0.558081691345
1766.0	0.000349772647779	0.558431463993
1769.0	0.00038863627531	0.558820100268
1772.0	0.0016322723563	0.560452372624
1775.0	0.000116590882593	0.560568963507
1778.0	0.000427499902841	0.56099646341
1781.0	0.00116590882593	0.562162372236
1784.0	0.000544090785434	0.562706463021
1787.0	0.00116590882593	0.563872371847
1790.0	0.000893863433213	0.56476623528
1793.0	0.000194318137655	0.564960553418
1796.0	0.000466363530372	0.565426916948
1799.0	0.000893863433213	0.566320780382
1802.0	0.000155454510124	0.566476234892
1805.0	0.000155454510124	0.566631689402
1808.0	0.000272045392717	0.566903734795
1811.0	0.000272045392717	0.567175780187
1814.0	0.00038863627531	0.567564416463
1817.0	0.00038863627531	0.567953052738
1820.0	0.00392522638063	0.571878279119
1823.0	0.000233181765186	0.572111460884
1826.0	0.000233181765186	0.572344642649
1829.0	0.000893863433213	0.573238506082
1831.0	0.000466363530372	0.573704869613
1835.0	0.000660681668027	0.574365551281
1838.0	0.000505227157903	0.574870778438
1841.0	0.000505227157903	0.575376005596
1844.0	0.000816136178151	0.576192141775
1847.0	0.000738408923089	0.576930550698
1850.0	0.000427499902841	0.5773580506
1853.0	0.000233181765186	0.577591232366
1856.0	0.000155454510124	0.577746686876
1859.0	0.000466363530372	0.578213050406
1862.0	0.000349772647779	0.578562823054
1865.0	3.8863627531e-05	0.578601686681
1868.0	0.000233181765186	0.578834868447
1871.0	0.000310909020248	0.579145777467
1874.0	0.00038863627531	0.579534413742
1877.0	0.00139909059112	0.580933504333
1880.0	0.000272045392717	0.581205549726
1882.0	0.00038863627531	0.581594186001
1886.0	0.000427499902841	0.582021685904
1889.0	0.000621818040496	0.582643503945
1892.0	0.000544090785434	0.58318759473
1895.0	0.000660681668027	0.583848276398
1898.0	0.000116590882593	0.583964867281
1901.0	0.000155454510124	0.584120321791
1904.0	0.000349772647779	0.584470094439
1907.0	0.000272045392717	0.584742139831
1909.0	0.000854999805682	0.585597139637
1913.0	0.000155454510124	0.585752594147
1916.0	0.00038863627531	0.586141230422
1919.0	0.000233181765186	0.586374412188
1922.0	0.00038863627531	0.586763048463
1924.0	0.000505227157903	0.587268275621
1928.0	0.000194318137655	0.587462593759
1931.0	0.000582954412965	0.588045548171
1934.0	0.00038863627531	0.588434184447
1937.0	0.000466363530372	0.588900547977
1940.0	0.000466363530372	0.589366911508
1942.0	0.000893863433213	0.590260774941
1945.0	0.00229295402433	0.592553728965
1949.0	0.000310909020248	0.592864637985
1952.0	0.000155454510124	0.593020092495
1955.0	0.000272045392717	0.593292137888
1958.0	0.000233181765186	0.593525319653
1961.0	0.000427499902841	0.593952819556
1964.0	0.000194318137655	0.594147137694
1967.0	0.00038863627531	0.594535773969
1970.0	0.000310909020248	0.594846682989
1973.0	0.000427499902841	0.595274182892
1976.0	0.000427499902841	0.595701682795
1979.0	0.000466363530372	0.596168046325
1981.0	0.000582954412965	0.596751000738
1985.0	0.000932727060744	0.597683727799
1988.0	0.000621818040496	0.59830554584
1991.0	0.000194318137655	0.598499863977
1994.0	0.000233181765186	0.598733045742
1997.0	0.000660681668027	0.599393727411
2000.0	0.000544090785434	0.599937818196
2002.0	0.000582954412965	0.600520772609
2006.0	0.000466363530372	0.600987136139
2009.0	0.000272045392717	0.601259181532
2012.0	0.000427499902841	0.601686681435
2015.0	0.00038863627531	0.60207531771
2017.0	0.00038863627531	0.602463953985
2021.0	0.000349772647779	0.602813726633
2024.0	0.000427499902841	0.603241226536
2027.0	0.000272045392717	0.603513271929
2030.0	0.000349772647779	0.603863044577
2033.0	0.000427499902841	0.604290544479
2036.0	0.000427499902841	0.604718044382
2039.0	0.000544090785434	0.605262135168
2042.0	0.000738408923089	0.606000544091
2045.0	0.0011270451984	0.607127589289
2047.0	0.000233181765186	0.607360771054
2050.0	0.0016322723563	0.608993043411
2054.0	0.000194318137655	0.609187361548
2057.0	0.000194318137655	0.609381679686
2060.0	0.000116590882593	0.609498270569
2063.0	0.000272045392717	0.609770315961
2066.0	0.000310909020248	0.610081224982
2069.0	0.000194318137655	0.610275543119
2072.0	0.000233181765186	0.610508724884
2075.0	0.000466363530372	0.610975088415
2078.0	0.000544090785434	0.6115191792
2081.0	0.000310909020248	0.61183008822
2084.0	0.000349772647779	0.612179860868
2086.0	0.000427499902841	0.612607360771
2090.0	0.000505227157903	0.613112587929
2092.0	0.00147681784618	0.614589405775
2096.0	0.000971590688275	0.615560996463
2099.0	0.000272045392717	0.615833041856
2102.0	7.7727255062e-05	0.615910769111
2105.0	0.000272045392717	0.616182814504
2107.0	0.000932727060744	0.617115541565
2111.0	0.000349772647779	0.617465314212
2114.0	0.000466363530372	0.617931677743
2117.0	0.000816136178151	0.618747813921
2119.0	0.000310909020248	0.619058722941
2122.0	0.000544090785434	0.619602813727
2126.0	0.000116590882593	0.619719404609
2128.0	0.00104931794334	0.620768722553
2132.0	0.000233181765186	0.621001904318
2134.0	0.0011270451984	0.622128949516
2137.0	0.000505227157903	0.622634176674
2141.0	0.000233181765186	0.622867358439
2144.0	0.000699545295558	0.623566903735
2147.0	0.000349772647779	0.623916676383
2150.0	0.00101045431581	0.624927130698
2153.0	0.000544090785434	0.625471221484
2155.0	0.000660681668027	0.626131903152
2159.0	0.000505227157903	0.62663713031
2162.0	0.000116590882593	0.626753721192
2165.0	0.000272045392717	0.627025766585
2168.0	0.000466363530372	0.627492130115
2171.0	0.000194318137655	0.627686448253
2173.0	0.000427499902841	0.628113948156
2177.0	0.000194318137655	0.628308266294
2179.0	0.00155454510124	0.629862811395
2183.0	0.000194318137655	0.630057129532
2186.0	0.000310909020248	0.630368038553
2189.0	0.000116590882593	0.630484629435
2192.0	0.000272045392717	0.630756674828
2194.0	0.00038863627531	0.631145311103
2198.0	0.000427499902841	0.631572811006
2200.0	0.000505227157903	0.632078038164
2204.0	0.000505227157903	0.632583265322
2206.0	0.00143795421865	0.634021219541
2209.0	0.00178772686643	0.635808946407
2213.0	0.000427499902841	0.63623644631
2215.0	0.000194318137655	0.636430764448
2219.0	3.8863627531e-05	0.636469628075
2221.0	0.000699545295558	0.637169173371
2224.0	0.000466363530372	0.637635536901
2227.0	0.000194318137655	0.637829855039
2230.0	0.000310909020248	0.638140764059
2233.0	0.000233181765186	0.638373945824
2237.0	0.000116590882593	0.638490536707
2239.0	0.000155454510124	0.638645991217
2243.0	0.000272045392717	0.63891803661
2246.0	0.000233181765186	0.639151218375
2248.0	0.000427499902841	0.639578718278
2251.0	0.000466363530372	0.640045081808
2254.0	0.000310909020248	0.640355990828
2258.0	0.000505227157903	0.640861217986
2261.0	0.000310909020248	0.641172127006
2264.0	7.7727255062e-05	0.641249854261
2267.0	7.7727255062e-05	0.641327581516
2269.0	0.000505227157903	0.641832808674
2272.0	0.000427499902841	0.642260308577
2276.0	0.000233181765186	0.642493490342
2278.0	0.00038863627531	0.642882126618
2281.0	0.000272045392717	0.64315417201
2284.0	0.000466363530372	0.643620535541
2287.0	0.000349772647779	0.643970308189
2290.0	0.000194318137655	0.644164626326
2293.0	0.000310909020248	0.644475535346
2296.0	0.000272045392717	0.644747580739
2299.0	0.000505227157903	0.645252807897
2303.0	0.000466363530372	0.645719171427
2306.0	0.000310909020248	0.646030080448
2309.0	0.00038863627531	0.646418716723
2311.0	0.000310909020248	0.646729625743
2314.0	0.000272045392717	0.647001671136
2318.0	0.000427499902841	0.647429171039
2321.0	0.000272045392717	0.647701216432
2324.0	0.00038863627531	0.648089852707
2326.0	0.000505227157903	0.648595079865
2329.0	0.000310909020248	0.648905988885
2332.0	0.00038863627531	0.64929462516
2335.0	0.000155454510124	0.64945007967
2339.0	7.7727255062e-05	0.649527806925
2341.0	0.000272045392717	0.649799852318
2345.0	0.000893863433213	0.650693715751
2348.0	7.7727255062e-05	0.650771443006
2351.0	0.000505227157903	0.651276670164
2354.0	0.000116590882593	0.651393261047
2356.0	0.000310909020248	0.651704170067
2360.0	0.000116590882593	0.65182076095
2363.0	0.000155454510124	0.65197621546
2365.0	0.000272045392717	0.652248260853
2368.0	0.000310909020248	0.652559169873
2371.0	0.000272045392717	0.652831215266
2375.0	0.000893863433213	0.653725078699
2377.0	0.00446931716606	0.658194395865
2381.0	7.7727255062e-05	0.65827212312
2383.0	0.000582954412965	0.658855077533
2386.0	0.000233181765186	0.659088259298
2389.0	0.000544090785434	0.659632350084
2393.0	0.000194318137655	0.659826668221
2396.0	0.000233181765186	0.660059849986
2399.0	0.000310909020248	0.660370759007
2401.0	0.000310909020248	0.660681668027
2405.0	0.000194318137655	0.660875986165
2408.0	0.000194318137655	0.661070304302
2411.0	0.000582954412965	0.661653258715
2414.0	0.000116590882593	0.661769849598
2417.0	0.000155454510124	0.661925304108
2419.0	0.000349772647779	0.662275076756
2423.0	0.000349772647779	0.662624849403
2425.0	0.000816136178151	0.663440985582
2428.0	0.000544090785434	0.663985076367
2431.0	0.000155454510124	0.664140530877
2434.0	0.000194318137655	0.664334849015
2437.0	0.000310909020248	0.664645758035
2440.0	0.000194318137655	0.664840076173
2443.0	0.000310909020248	0.665150985193
2447.0	7.7727255062e-05	0.665228712448
2449.0	0.000310909020248	0.665539621468
2452.0	0.000310909020248	0.665850530489
2456.0	0.000233181765186	0.666083712254
2459.0	3.8863627531e-05	0.666122575881
2461.0	0.000155454510124	0.666278030391
2464.0	0.000310909020248	0.666588939412
2467.0	0.000505227157903	0.66709416657
2471.0	0.000544090785434	0.667638257355
2474.0	0.000155454510124	0.667793711865
2476.0	0.00038863627531	0.66818234814
2479.0	0.000194318137655	0.668376666278
2482.0	0.000349772647779	0.668726438926
2485.0	0.000194318137655	0.668920757063
2489.0	0.000233181765186	0.669153938829
2491.0	0.000310909020248	0.669464847849
2494.0	0.000272045392717	0.669736893242
2498.0	0.000194318137655	0.669931211379
2500.0	0.000544090785434	0.670475302165
2503.0	0.000349772647779	0.670825074812
2507.0	0.000427499902841	0.671252574715
2510.0	0.000272045392717	0.671524620108
2512.0	0.000233181765186	0.671757801873
2515.0	0.000116590882593	0.671874392756
2518.0	0.000893863433213	0.672768256189
2521.0	0.00104931794334	0.673817574132
2524.0	0.000116590882593	0.673934165015
2528.0	3.8863627531e-05	0.673973028642
2530.0	0.000155454510124	0.674128483153
2534.0	0.000116590882593	0.674245074035
2536.0	0.000310909020248	0.674555983055
2540.0	0.000194318137655	0.674750301193
2543.0	0.000310909020248	0.675061210213
2545.0	0.000272045392717	0.675333255606
2548.0	0.000194318137655	0.675527573744
2552.0	0.000272045392717	0.675799619136
2554.0	0.0011270451984	0.676926664335
2557.0	0.000155454510124	0.677082118845
2560.0	0.000155454510124	0.677237573355
2563.0	0.000194318137655	0.677431891493
2566.0	0.00272045392717	0.68015234542
2569.0	0.000310909020248	0.68046325444
2572.0	0.000194318137655	0.680657572578
2575.0	0.000272045392717	0.680929617971
2578.0	0.000544090785434	0.681473708756
2581.0	0.000272045392717	0.681745754149
2584.0	0.000272045392717	0.682017799541
2587.0	0.000194318137655	0.682212117679
2590.0	0.000155454510124	0.682367572189
2593.0	0.000194318137655	0.682561890327
2596.0	0.00038863627531	0.682950526602
2599.0	0.000272045392717	0.683222571995
2602.0	0.000582954412965	0.683805526408
2605.0	0.000349772647779	0.684155299056
2608.0	0.000349772647779	0.684505071703
2611.0	0.000155454510124	0.684660526214
2615.0	0.000194318137655	0.684854844351
2617.0	0.000194318137655	0.685049162489
2620.0	0.000233181765186	0.685282344254
2623.0	0.00143795421865	0.686720298473
2626.0	0.000155454510124	0.686875752983
2629.0	0.000660681668027	0.687536434651
2632.0	0.000194318137655	0.687730752788
2635.0	0.000116590882593	0.687847343671
2638.0	0.000155454510124	0.688002798181
2642.0	0.000233181765186	0.688235979946
2644.0	0.000116590882593	0.688352570829
2647.0	0.00555749873693	0.693910069566
2650.0	0.000194318137655	0.694104387704
2653.0	0.000349772647779	0.694454160351
2656.0	0.000349772647779	0.694803932999
2659.0	0.000427499902841	0.695231432902
2662.0	0.000116590882593	0.695348023785
2665.0	0.000116590882593	0.695464614667
2668.0	0.000155454510124	0.695620069177
2672.0	0.000310909020248	0.695930978198
2674.0	0.000310909020248	0.696241887218
2677.0	0.000272045392717	0.69651393261
2680.0	0.00038863627531	0.696902568886
2683.0	0.000272045392717	0.697174614278
2686.0	0.000155454510124	0.697330068789
2689.0	0.000194318137655	0.697524386926
2692.0	0.000233181765186	0.697757568691
2696.0	0.000155454510124	0.697913023202
2698.0	0.000233181765186	0.698146204967
2701.0	0.00038863627531	0.698534841242
2704.0	0.000349772647779	0.69888461389
2708.0	7.7727255062e-05	0.698962341145
2710.0	0.000233181765186	0.69919552291
2713.0	0.00167113598383	0.700866658894
2716.0	0.000310909020248	0.701177567914
2719.0	0.000116590882593	0.701294158797
2722.0	0.000310909020248	0.701605067817
2725.0	0.000116590882593	0.7017216587
2728.0	0.000155454510124	0.70187711321
2731.0	0.000233181765186	0.702110294975
2735.0	3.8863627531e-05	0.702149158602
2737.0	0.000310909020248	0.702460067623
2740.0	0.000155454510124	0.702615522133
2743.0	0.000194318137655	0.70280984027
2746.0	0.000233181765186	0.703043022036
2749.0	0.000893863433213	0.703936885469
2752.0	0.000272045392717	0.704208930862
2755.0	0.00038863627531	0.704597567137
2758.0	0.000155454510124	0.704753021647
2761.0	0.000155454510124	0.704908476157
2764.0	0.000310909020248	0.705219385177
2767.0	0.000155454510124	0.705374839688
2771.0	7.7727255062e-05	0.705452566943
2773.0	0.000272045392717	0.705724612335
2776.0	0.000194318137655	0.705918930473
2780.0	7.7727255062e-05	0.705996657728
2782.0	0.000233181765186	0.706229839493
2786.0	7.7727255062e-05	0.706307566748
2788.0	0.000233181765186	0.706540748513
2791.0	0.000310909020248	0.706851657534
2794.0	0.000194318137655	0.707045975671
2797.0	0.000310909020248	0.707356884692
2800.0	0.000272045392717	0.707628930084
2803.0	0.000427499902841	0.708056429987
2806.0	0.000155454510124	0.708211884497
2810.0	0.000194318137655	0.708406202635
2812.0	0.000233181765186	0.7086393844
2815.0	0.00116590882593	0.709805293226
2818.0	0.000155454510124	0.709960747736
2821.0	0.000272045392717	0.710232793129
2825.0	0.000116590882593	0.710349384012
2827.0	0.000582954412965	0.710932338424
2830.0	0.000233181765186	0.71116552019
2833.0	0.000194318137655	0.711359838327
2836.0	0.000194318137655	0.711554156465
2839.0	0.000233181765186	0.71178733823
2842.0	0.000272045392717	0.712059383623
2845.0	0.000155454510124	0.712214838133
2848.0	0.000116590882593	0.712331429016
2851.0	0.000116590882593	0.712448019898
2855.0	7.7727255062e-05	0.712525747153
2857.0	0.000310909020248	0.712836656173
2860.0	0.000194318137655	0.713030974311
2863.0	0.000272045392717	0.713303019704
2866.0	0.000310909020248	0.713613928724
2869.0	7.7727255062e-05	0.713691655979
2872.0	7.7727255062e-05	0.713769383234
2875.0	0.000310909020248	0.714080292254
2879.0	0.000233181765186	0.71431347402
2881.0	0.000233181765186	0.714546655785
2884.0	0.000155454510124	0.714702110295
2887.0	7.7727255062e-05	0.71477983755
2890.0	0.000272045392717	0.715051882943
2893.0	0.000194318137655	0.71524620108
2896.0	0.000349772647779	0.715595973728
2899.0	0.000272045392717	0.715868019121
2902.0	0.000194318137655	0.716062337259
2906.0	7.7727255062e-05	0.716140064514
2908.0	0.000194318137655	0.716334382651
2911.0	0.000155454510124	0.716489837161
2914.0	0.000116590882593	0.716606428044
2917.0	0.000155454510124	0.716761882554
2921.0	7.7727255062e-05	0.716839609809
2923.0	0.000194318137655	0.717033927947
2926.0	0.000155454510124	0.717189382457
2929.0	0.000194318137655	0.717383700595
2932.0	7.7727255062e-05	0.71746142785
2935.0	0.000349772647779	0.717811200497
2938.0	0.000155454510124	0.717966655008
2941.0	0.000233181765186	0.718199836773
2944.0	0.000194318137655	0.71839415491
2947.0	0.000155454510124	0.718549609421
2950.0	0.000272045392717	0.718821654813
2953.0	0.000116590882593	0.718938245696
2956.0	0.000233181765186	0.719171427461
2959.0	0.000194318137655	0.719365745599
2962.0	0.000116590882593	0.719482336481
2965.0	0.000116590882593	0.719598927364
2968.0	0.000155454510124	0.719754381874
2971.0	0.000194318137655	0.719948700012
2974.0	0.000505227157903	0.72045392717
2977.0	0.000233181765186	0.720687108935
2980.0	0.000310909020248	0.720998017955
2983.0	7.7727255062e-05	0.72107574521
2986.0	0.000272045392717	0.721347790603
2989.0	0.000194318137655	0.72154210874
2992.0	0.000194318137655	0.721736426878
2998.0	0.000233181765186	0.721969608643
3002.0	0.000116590882593	0.722086199526
3004.0	7.7727255062e-05	0.722163926781
3007.0	0.00295363569236	0.725117562473
3010.0	0.000155454510124	0.725273016983
3013.0	0.000233181765186	0.725506198749
3016.0	0.000233181765186	0.725739380514
3019.0	0.000194318137655	0.725933698651
3022.0	0.000155454510124	0.726089153162
3025.0	0.00038863627531	0.726477789437
3028.0	0.000621818040496	0.727099607477
3031.0	0.000194318137655	0.727293925615
3034.0	7.7727255062e-05	0.72737165287
3038.0	7.7727255062e-05	0.727449380125
3040.0	0.000155454510124	0.727604834635
3043.0	7.7727255062e-05	0.72768256189
3046.0	0.000194318137655	0.727876880028
3049.0	0.000310909020248	0.728187789048
3052.0	0.000233181765186	0.728420970813
3055.0	7.7727255062e-05	0.728498698068
3058.0	0.000194318137655	0.728693016206
3062.0	0.000155454510124	0.728848470716
3064.0	0.000233181765186	0.729081652481
3067.0	0.00038863627531	0.729470288757
3070.0	0.000233181765186	0.729703470522
3073.0	0.000233181765186	0.729936652287
3077.0	0.000155454510124	0.730092106797
3079.0	0.00077727255062	0.730869379348
3082.0	0.000310909020248	0.731180288368
3085.0	0.00178772686643	0.732968015235
3088.0	0.00248727216198	0.735455287397
3091.0	0.000116590882593	0.735571878279
3094.0	0.000116590882593	0.735688469162
3097.0	3.8863627531e-05	0.735727332789
3100.0	0.000155454510124	0.735882787299
3103.0	0.000505227157903	0.736388014457
3106.0	0.000194318137655	0.736582332595
3109.0	0.000116590882593	0.736698923478
3113.0	0.000116590882593	0.73681551436
3115.0	0.00314795383001	0.73996346819
3119.0	0.000116590882593	0.740080059073
3121.0	0.000116590882593	0.740196649955
3124.0	0.000194318137655	0.740390968093
3127.0	0.000427499902841	0.740818467996
3130.0	0.000233181765186	0.741051649761
3134.0	0.000194318137655	0.741245967899
3136.0	0.000194318137655	0.741440286036
3139.0	0.000194318137655	0.741634604174
3142.0	0.000116590882593	0.741751195057
3145.0	0.000155454510124	0.741906649567
3148.0	0.000194318137655	0.742100967704
3151.0	3.8863627531e-05	0.742139831332
3154.0	0.000233181765186	0.742373013097
3157.0	0.000310909020248	0.742683922117
3160.0	0.000116590882593	0.742800513
3166.0	0.000155454510124	0.74295596751
3169.0	0.000116590882593	0.743072558393
3172.0	0.000155454510124	0.743228012903
3175.0	0.000155454510124	0.743383467413
3178.0	7.7727255062e-05	0.743461194668
3181.0	0.000194318137655	0.743655512806
3184.0	0.000155454510124	0.743810967316
3187.0	0.000233181765186	0.744044149081
3190.0	0.000116590882593	0.744160739963
3193.0	0.000116590882593	0.744277330846
3196.0	0.00038863627531	0.744665967121
3199.0	0.000466363530372	0.745132330652
3202.0	0.000116590882593	0.745248921534
3205.0	0.000272045392717	0.745520966927
3209.0	0.000155454510124	0.745676421437
3211.0	0.000155454510124	0.745831875947
3214.0	0.000116590882593	0.74594846683
3217.0	0.000116590882593	0.746065057712
3223.0	0.000505227157903	0.74657028487
3227.0	3.8863627531e-05	0.746609148498
3229.0	0.000155454510124	0.746764603008
3232.0	0.000155454510124	0.746920057518
3235.0	0.000233181765186	0.747153239283
3238.0	3.8863627531e-05	0.747192102911
3241.0	0.000194318137655	0.747386421049
3247.0	0.000194318137655	0.747580739186
3250.0	3.8863627531e-05	0.747619602814
3253.0	0.000582954412965	0.748202557227
3259.0	0.000233181765186	0.748435738992
3262.0	0.000116590882593	0.748552329874
3265.0	0.000194318137655	0.748746648012
3271.0	7.7727255062e-05	0.748824375267
3274.0	0.000155454510124	0.748979829777
3277.0	0.000116590882593	0.74909642066
3280.0	0.000155454510124	0.74925187517
3283.0	7.7727255062e-05	0.749329602425
3286.0	0.000310909020248	0.749640511445
3289.0	0.000233181765186	0.749873693211
3292.0	0.000272045392717	0.750145738603
3295.0	0.00205977225914	0.752205510862
3298.0	0.00104931794334	0.753254828806
3301.0	0.000233181765186	0.753488010571
3304.0	7.7727255062e-05	0.753565737826
3310.0	0.000155454510124	0.753721192336
3313.0	0.000155454510124	0.753876646846
3316.0	0.000116590882593	0.753993237729
3319.0	0.000155454510124	0.754148692239
3322.0	0.00178772686643	0.755936419105
3325.0	0.000194318137655	0.756130737243
3328.0	0.000194318137655	0.756325055381
3331.0	0.000116590882593	0.756441646263
3334.0	0.000116590882593	0.756558237146
3337.0	0.000155454510124	0.756713691656
3340.0	0.000194318137655	0.756908009794
3343.0	0.000233181765186	0.757141191559
3346.0	7.7727255062e-05	0.757218918814
3349.0	0.000310909020248	0.757529827834
3352.0	7.7727255062e-05	0.757607555089
3355.0	0.000155454510124	0.757763009599
3358.0	0.000233181765186	0.757996191365
3361.0	3.8863627531e-05	0.758035054992
3364.0	0.000194318137655	0.75822937313
3367.0	0.000194318137655	0.758423691267
3370.0	0.000155454510124	0.758579145777
3373.0	0.000310909020248	0.758890054798
3380.0	7.7727255062e-05	0.758967782053
3382.0	7.7727255062e-05	0.759045509308
3385.0	0.000155454510124	0.759200963818
3388.0	0.000155454510124	0.759356418328
3391.0	0.000272045392717	0.759628463721
3394.0	0.000194318137655	0.759822781858
3397.0	0.000116590882593	0.759939372741
3400.0	7.7727255062e-05	0.760017099996
3403.0	0.000155454510124	0.760172554506
3406.0	0.000155454510124	0.760328009016
3409.0	0.000233181765186	0.760561190782
3412.0	0.000194318137655	0.760755508919
3415.0	0.000233181765186	0.760988690684
3418.0	7.7727255062e-05	0.761066417939
3421.0	0.000194318137655	0.761260736077
3424.0	0.000233181765186	0.761493917842
3427.0	3.8863627531e-05	0.76153278147
3430.0	0.000116590882593	0.761649372352
3433.0	0.000233181765186	0.761882554118
3436.0	0.00077727255062	0.762659826668
3439.0	7.7727255062e-05	0.762737553923
3442.0	0.000155454510124	0.762893008433
3445.0	0.000116590882593	0.763009599316
3448.0	0.000233181765186	0.763242781081
3451.0	0.000116590882593	0.763359371964
3454.0	0.000272045392717	0.763631417356
3457.0	0.000116590882593	0.763748008239
3460.0	0.000194318137655	0.763942326377
3463.0	0.000194318137655	0.764136644514
3466.0	0.000116590882593	0.764253235397
3469.0	7.7727255062e-05	0.764330962652
3472.0	0.000116590882593	0.764447553535
3475.0	7.7727255062e-05	0.76452528079
3478.0	0.000116590882593	0.764641871672
3481.0	7.7727255062e-05	0.764719598927
3484.0	0.000155454510124	0.764875053437
3487.0	0.000116590882593	0.76499164432
3490.0	0.000233181765186	0.765224826085
3493.0	0.000155454510124	0.765380280595
3496.0	7.7727255062e-05	0.76545800785
3499.0	0.000116590882593	0.765574598733
3502.0	0.000116590882593	0.765691189616
3505.0	0.000155454510124	0.765846644126
3508.0	0.00435272628347	0.770199370409
3514.0	0.000155454510124	0.770354824919
3517.0	0.000194318137655	0.770549143057
3520.0	7.7727255062e-05	0.770626870312
3523.0	0.000116590882593	0.770743461195
3526.0	0.000116590882593	0.770860052077
3529.0	7.7727255062e-05	0.770937779332
3532.0	3.8863627531e-05	0.77097664296
3535.0	0.000116590882593	0.771093233842
3538.0	7.7727255062e-05	0.771170961098
3541.0	7.7727255062e-05	0.771248688353
3544.0	0.000194318137655	0.77144300649
3547.0	0.000116590882593	0.771559597373
3550.0	0.000116590882593	0.771676188255
3553.0	7.7727255062e-05	0.77175391551
3556.0	0.000116590882593	0.771870506393
3559.0	7.7727255062e-05	0.771948233648
3562.0	7.7727255062e-05	0.772025960903
3565.0	0.000155454510124	0.772181415413
3568.0	0.000155454510124	0.772336869923
3571.0	7.7727255062e-05	0.772414597179
3574.0	0.000155454510124	0.772570051689
3577.0	7.7727255062e-05	0.772647778944
3580.0	0.000155454510124	0.772803233454
3583.0	0.000194318137655	0.772997551591
3586.0	0.000310909020248	0.773308460612
3589.0	7.7727255062e-05	0.773386187867
3592.0	0.000116590882593	0.773502778749
3595.0	0.000233181765186	0.773735960515
3598.0	7.7727255062e-05	0.77381368777
3601.0	7.7727255062e-05	0.773891415025
3604.0	3.8863627531e-05	0.773930278652
3607.0	0.000116590882593	0.774046869535
3610.0	0.000194318137655	0.774241187672
3613.0	7.7727255062e-05	0.774318914928
3616.0	0.000155454510124	0.774474369438
3619.0	0.000116590882593	0.77459096032
3622.0	0.000116590882593	0.774707551203
3625.0	7.7727255062e-05	0.774785278458
3628.0	3.8863627531e-05	0.774824142085
3631.0	0.000155454510124	0.774979596596
3634.0	0.000194318137655	0.775173914733
3637.0	0.000194318137655	0.775368232871
3640.0	0.000155454510124	0.775523687381
3643.0	7.7727255062e-05	0.775601414636
3646.0	7.7727255062e-05	0.775679141891
3649.0	7.7727255062e-05	0.775756869146
3652.0	0.000116590882593	0.775873460029
3655.0	3.8863627531e-05	0.775912323656
3658.0	0.000116590882593	0.776028914539
3664.0	0.000272045392717	0.776300959932
3667.0	0.000194318137655	0.776495278069
3670.0	0.000194318137655	0.776689596207
3673.0	0.000155454510124	0.776845050717
3676.0	0.000155454510124	0.777000505227
3679.0	7.7727255062e-05	0.777078232482
3682.0	7.7727255062e-05	0.777155959737
3685.0	7.7727255062e-05	0.777233686992
3691.0	0.000194318137655	0.77742800513
3694.0	0.000155454510124	0.77758345964
3697.0	0.000155454510124	0.77773891415
3700.0	0.000116590882593	0.777855505033
3703.0	3.8863627531e-05	0.77789436866
3706.0	0.000155454510124	0.77804982317
3709.0	0.000155454510124	0.778205277681
3712.0	0.000233181765186	0.778438459446
3721.0	0.000194318137655	0.778632777583
3724.0	3.8863627531e-05	0.778671641211
3727.0	0.000116590882593	0.778788232094
3730.0	0.000155454510124	0.778943686604
3733.0	7.7727255062e-05	0.779021413859
3736.0	0.000194318137655	0.779215731996
3739.0	0.000116590882593	0.779332322879
3742.0	7.7727255062e-05	0.779410050134
3745.0	0.000155454510124	0.779565504644
3748.0	7.7727255062e-05	0.779643231899
3751.0	7.7727255062e-05	0.779720959154
3754.0	7.7727255062e-05	0.779798686409
3757.0	0.000155454510124	0.77995414092
3760.0	0.000155454510124	0.78010959543
3763.0	0.000116590882593	0.780226186312
3766.0	3.8863627531e-05	0.78026504994
3769.0	3.8863627531e-05	0.780303913567
3775.0	0.000116590882593	0.78042050445
3778.0	0.000194318137655	0.780614822588
3781.0	0.000194318137655	0.780809140725
3784.0	0.00077727255062	0.781586413276
3787.0	0.000505227157903	0.782091640434
3790.0	0.000233181765186	0.782324822199
3796.0	3.8863627531e-05	0.782363685826
3799.0	0.000116590882593	0.782480276709
3802.0	0.000155454510124	0.782635731219
3805.0	7.7727255062e-05	0.782713458474
3808.0	7.7727255062e-05	0.782791185729
3811.0	0.000116590882593	0.782907776612
3814.0	7.7727255062e-05	0.782985503867
3817.0	7.7727255062e-05	0.783063231122
3820.0	0.000233181765186	0.783296412887
3823.0	3.8863627531e-05	0.783335276515
3826.0	0.000272045392717	0.783607321907
3829.0	3.8863627531e-05	0.783646185535
3832.0	3.8863627531e-05	0.783685049162
3835.0	0.000155454510124	0.783840503673
3838.0	0.000116590882593	0.783957094555
3841.0	0.000194318137655	0.784151412693
3847.0	0.000116590882593	0.784268003575
3850.0	0.000116590882593	0.784384594458
3853.0	0.000116590882593	0.784501185341
3856.0	0.000116590882593	0.784617776223
3859.0	7.7727255062e-05	0.784695503478
3862.0	0.000893863433213	0.785589366912
3865.0	7.7727255062e-05	0.785667094167
3868.0	0.000155454510124	0.785822548677
3871.0	3.8863627531e-05	0.785861412304
3874.0	0.000155454510124	0.786016866814
3878.0	3.8863627531e-05	0.786055730442
3880.0	0.000116590882593	0.786172321324
3883.0	3.8863627531e-05	0.786211184952
3886.0	3.8863627531e-05	0.78625004858
3889.0	0.000155454510124	0.78640550309
3892.0	7.7727255062e-05	0.786483230345
3895.0	0.000116590882593	0.786599821227
3898.0	0.000155454510124	0.786755275737
3901.0	0.000155454510124	0.786910730248
3904.0	3.8863627531e-05	0.786949593875
3907.0	0.000116590882593	0.787066184758
3910.0	0.000155454510124	0.787221639268
3913.0	7.7727255062e-05	0.787299366523
3916.0	0.000116590882593	0.787415957405
3919.0	7.7727255062e-05	0.787493684661
3922.0	0.00237068127939	0.78986436594
3925.0	0.000310909020248	0.79017527496
3928.0	0.000155454510124	0.79033072947
3931.0	0.000116590882593	0.790447320353
3934.0	7.7727255062e-05	0.790525047608
3937.0	7.7727255062e-05	0.790602774863
3940.0	7.7727255062e-05	0.790680502118
3943.0	0.000155454510124	0.790835956628
3946.0	7.7727255062e-05	0.790913683883
3949.0	0.000194318137655	0.791108002021
3952.0	7.7727255062e-05	0.791185729276
3958.0	7.7727255062e-05	0.791263456531
3961.0	0.000233181765186	0.791496638296
3964.0	0.000272045392717	0.791768683689
3967.0	3.8863627531e-05	0.791807547316
3970.0	3.8863627531e-05	0.791846410944
3973.0	0.000155454510124	0.792001865454
3979.0	3.8863627531e-05	0.792040729082
3982.0	3.8863627531e-05	0.792079592709
3985.0	7.7727255062e-05	0.792157319964
3988.0	0.000233181765186	0.792390501729
3991.0	0.000233181765186	0.792623683495
3994.0	0.000272045392717	0.792895728887
3997.0	7.7727255062e-05	0.792973456142
4000.0	7.7727255062e-05	0.793051183397
4003.0	0.000116590882593	0.79316777428
4006.0	7.7727255062e-05	0.793245501535
4009.0	3.8863627531e-05	0.793284365163
4015.0	3.8863627531e-05	0.79332322879
4018.0	7.7727255062e-05	0.793400956045
4021.0	0.000116590882593	0.793517546928
4024.0	3.8863627531e-05	0.793556410555
4027.0	0.000155454510124	0.793711865065
4030.0	0.00322568108507	0.796937546151
4033.0	3.8863627531e-05	0.796976409778
4036.0	3.8863627531e-05	0.797015273406
4039.0	0.000116590882593	0.797131864288
4042.0	0.000116590882593	0.797248455171
4045.0	3.8863627531e-05	0.797287318798
4048.0	0.000155454510124	0.797442773308
4051.0	0.000233181765186	0.797675955074
4054.0	3.8863627531e-05	0.797714818701
4057.0	0.000116590882593	0.797831409584
4060.0	7.7727255062e-05	0.797909136839
4063.0	0.000116590882593	0.798025727721
4066.0	7.7727255062e-05	0.798103454976
4069.0	0.000116590882593	0.798220045859
4075.0	0.000194318137655	0.798414363997
4078.0	0.000116590882593	0.798530954879
4081.0	0.000116590882593	0.798647545762
4084.0	7.7727255062e-05	0.798725273017
4087.0	0.000272045392717	0.79899731841
4090.0	3.8863627531e-05	0.799036182037
4093.0	0.00268159029964	0.801717772337
4096.0	0.000349772647779	0.802067544985
4099.0	7.7727255062e-05	0.80214527224
4102.0	7.7727255062e-05	0.802222999495
4105.0	7.7727255062e-05	0.80230072675
4108.0	0.000116590882593	0.802417317632
4111.0	7.7727255062e-05	0.802495044887
4114.0	0.000233181765186	0.802728226653
4117.0	3.8863627531e-05	0.80276709028
4120.0	0.000116590882593	0.802883681163
4123.0	7.7727255062e-05	0.802961408418
4126.0	3.8863627531e-05	0.803000272045
4129.0	0.00408068089075	0.807080952936
4132.0	7.7727255062e-05	0.807158680191
4135.0	3.8863627531e-05	0.807197543819
4138.0	0.000194318137655	0.807391861956
4141.0	7.7727255062e-05	0.807469589211
4144.0	0.000194318137655	0.807663907349
4150.0	7.7727255062e-05	0.807741634604
4153.0	0.000116590882593	0.807858225487
4156.0	0.000194318137655	0.808052543624
4159.0	0.000155454510124	0.808207998135
4162.0	0.000233181765186	0.8084411799
4165.0	7.7727255062e-05	0.808518907155
4168.0	0.000155454510124	0.808674361665
4171.0	0.000116590882593	0.808790952548
4174.0	7.7727255062e-05	0.808868679803
4177.0	0.000155454510124	0.809024134313
4180.0	0.000116590882593	0.809140725195
4183.0	0.000155454510124	0.809296179705
4186.0	0.000116590882593	0.809412770588
4189.0	0.00170999961136	0.811122770199
4192.0	7.7727255062e-05	0.811200497454
4195.0	7.7727255062e-05	0.811278224709
4198.0	7.7727255062e-05	0.811355951965
4201.0	0.000116590882593	0.811472542847
4204.0	0.000116590882593	0.81158913373
4207.0	3.8863627531e-05	0.811627997357
4210.0	7.7727255062e-05	0.811705724612
4213.0	0.000155454510124	0.811861179122
4216.0	7.7727255062e-05	0.811938906378
4219.0	0.000155454510124	0.812094360888
4222.0	0.000155454510124	0.812249815398
4225.0	0.000116590882593	0.81236640628
4228.0	0.000116590882593	0.812482997163
4231.0	0.000116590882593	0.812599588046
4234.0	3.8863627531e-05	0.812638451673
4237.0	0.000155454510124	0.812793906183
4240.0	0.000116590882593	0.812910497066
4243.0	0.000116590882593	0.813027087948
4246.0	0.000155454510124	0.813182542459
4249.0	0.000155454510124	0.813337996969
4252.0	0.000194318137655	0.813532315106
4255.0	7.7727255062e-05	0.813610042361
4258.0	7.7727255062e-05	0.813687769616
4264.0	7.7727255062e-05	0.813765496871
4267.0	0.000155454510124	0.813920951382
4273.0	7.7727255062e-05	0.813998678637
4276.0	0.000116590882593	0.814115269519
4279.0	0.000155454510124	0.814270724029
4282.0	7.7727255062e-05	0.814348451284
4285.0	3.8863627531e-05	0.814387314912
4288.0	3.8863627531e-05	0.81442617854
4291.0	0.000155454510124	0.81458163305
4294.0	0.000155454510124	0.81473708756
4297.0	0.000155454510124	0.81489254207
4300.0	0.000233181765186	0.815125723835
4306.0	0.000116590882593	0.815242314718
4309.0	0.000194318137655	0.815436632855
4318.0	0.000194318137655	0.815630950993
4321.0	3.8863627531e-05	0.81566981462
4324.0	3.8863627531e-05	0.815708678248
4327.0	0.000116590882593	0.815825269131
4333.0	0.000116590882593	0.815941860013
4336.0	0.000310909020248	0.816252769033
4339.0	0.00334227196767	0.819595041001
4342.0	3.8863627531e-05	0.819633904629
4345.0	3.8863627531e-05	0.819672768256
4348.0	7.7727255062e-05	0.819750495511
4351.0	0.00124363608099	0.820994131592
4354.0	3.8863627531e-05	0.82103299522
4357.0	0.000155454510124	0.82118844973
4360.0	7.7727255062e-05	0.821266176985
4363.0	0.000155454510124	0.821421631495
4366.0	0.000272045392717	0.821693676888
4369.0	0.000272045392717	0.821965722281
4372.0	3.8863627531e-05	0.822004585908
4378.0	0.000116590882593	0.822121176791
4381.0	3.8863627531e-05	0.822160040418
4384.0	7.7727255062e-05	0.822237767673
4387.0	7.7727255062e-05	0.822315494928
4390.0	7.7727255062e-05	0.822393222183
4393.0	7.7727255062e-05	0.822470949438
4395.0	0.000349772647779	0.822820722086
4399.0	0.000544090785434	0.823364812872
4405.0	3.8863627531e-05	0.823403676499
4408.0	3.8863627531e-05	0.823442540127
4411.0	0.000155454510124	0.823597994637
4414.0	7.7727255062e-05	0.823675721892
4417.0	0.000116590882593	0.823792312774
4423.0	3.8863627531e-05	0.823831176402
4426.0	7.7727255062e-05	0.823908903657
4429.0	7.7727255062e-05	0.823986630912
4432.0	3.8863627531e-05	0.82402549454
4435.0	0.000155454510124	0.82418094905
4438.0	3.8863627531e-05	0.824219812677
4441.0	3.8863627531e-05	0.824258676305
4444.0	0.000194318137655	0.824452994443
4450.0	0.000155454510124	0.824608448953
4453.0	7.7727255062e-05	0.824686176208
4456.0	0.000155454510124	0.824841630718
4459.0	7.7727255062e-05	0.824919357973
4462.0	3.8863627531e-05	0.8249582216
4468.0	3.8863627531e-05	0.824997085228
4471.0	0.000116590882593	0.825113676111
4474.0	7.7727255062e-05	0.825191403366
4477.0	7.7727255062e-05	0.825269130621
4480.0	7.7727255062e-05	0.825346857876
4483.0	0.000116590882593	0.825463448758
4495.0	7.7727255062e-05	0.825541176013
4498.0	3.8863627531e-05	0.825580039641
4504.0	0.000155454510124	0.825735494151
4507.0	7.7727255062e-05	0.825813221406
4510.0	7.7727255062e-05	0.825890948661
4516.0	0.000116590882593	0.826007539544
4519.0	7.7727255062e-05	0.826085266799
4522.0	7.7727255062e-05	0.826162994054
4525.0	0.000116590882593	0.826279584936
4528.0	7.7727255062e-05	0.826357312192
4531.0	3.8863627531e-05	0.826396175819
4534.0	3.8863627531e-05	0.826435039447
4537.0	7.7727255062e-05	0.826512766702
4540.0	7.7727255062e-05	0.826590493957
4543.0	0.000116590882593	0.826707084839
4546.0	3.8863627531e-05	0.826745948467
4549.0	0.000194318137655	0.826940266604
4552.0	0.000116590882593	0.827056857487
4561.0	0.00202090863161	0.829077766119
4564.0	7.7727255062e-05	0.829155493374
4567.0	7.7727255062e-05	0.829233220629
4570.0	0.000116590882593	0.829349811511
4573.0	0.000155454510124	0.829505266022
4576.0	3.8863627531e-05	0.829544129649
4579.0	0.000155454510124	0.829699584159
4582.0	0.000155454510124	0.829855038669
4584.0	0.000116590882593	0.829971629552
4588.0	3.8863627531e-05	0.830010493179
4591.0	7.7727255062e-05	0.830088220434
4594.0	7.7727255062e-05	0.83016594769
4597.0	0.000854999805682	0.831020947495
4600.0	0.000155454510124	0.831176402005
4603.0	0.000155454510124	0.831331856515
4606.0	0.000116590882593	0.831448447398
4609.0	3.8863627531e-05	0.831487311026
4612.0	3.8863627531e-05	0.831526174653
4615.0	3.8863627531e-05	0.831565038281
4618.0	0.000349772647779	0.831914810928
4620.0	0.00170999961136	0.83362481054
4622.0	7.7727255062e-05	0.833702537795
4624.0	0.000116590882593	0.833819128677
4627.0	7.7727255062e-05	0.833896855933
4630.0	0.000116590882593	0.834013446815
4636.0	0.000155454510124	0.834168901325
4639.0	0.000116590882593	0.834285492208
4642.0	0.000116590882593	0.83440208309
4645.0	0.000155454510124	0.834557537601
4648.0	0.000116590882593	0.834674128483
4651.0	7.7727255062e-05	0.834751855738
4654.0	7.7727255062e-05	0.834829582993
4657.0	0.000116590882593	0.834946173876
4663.0	3.8863627531e-05	0.834985037503
4665.0	0.000116590882593	0.835101628386
4669.0	0.000155454510124	0.835257082896
4672.0	0.000116590882593	0.835373673779
4675.0	3.8863627531e-05	0.835412537406
4681.0	0.000310909020248	0.835723446426
4684.0	3.8863627531e-05	0.835762310054
4686.0	7.7727255062e-05	0.835840037309
4689.0	7.7727255062e-05	0.835917764564
4696.0	3.8863627531e-05	0.835956628192
4699.0	3.8863627531e-05	0.835995491819
4702.0	3.8863627531e-05	0.836034355447
4704.0	0.000155454510124	0.836189809957
4708.0	7.7727255062e-05	0.836267537212
4714.0	7.7727255062e-05	0.836345264467
4717.0	0.000466363530372	0.836811627997
4719.0	0.00108818157087	0.837899809568
4726.0	0.000155454510124	0.838055264078
4729.0	0.000194318137655	0.838249582216
4732.0	7.7727255062e-05	0.838327309471
4735.0	0.000155454510124	0.838482763981
4738.0	0.000155454510124	0.838638218491
4741.0	3.8863627531e-05	0.838677082119
4744.0	0.000116590882593	0.838793673001
4747.0	0.000116590882593	0.838910263884
4753.0	0.000116590882593	0.839026854767
4756.0	7.7727255062e-05	0.839104582022
4759.0	3.8863627531e-05	0.839143445649
4765.0	0.000155454510124	0.839298900159
4768.0	0.000310909020248	0.83960980918
4770.0	0.000116590882593	0.839726400062
4773.0	0.000116590882593	0.839842990945
4777.0	0.000116590882593	0.839959581827
4780.0	7.7727255062e-05	0.840037309082
4783.0	7.7727255062e-05	0.840115036337
4786.0	3.8863627531e-05	0.840153899965
4789.0	7.7727255062e-05	0.84023162722
4792.0	7.7727255062e-05	0.840309354475
4795.0	3.8863627531e-05	0.840348218103
4798.0	0.000116590882593	0.840464808985
4801.0	3.8863627531e-05	0.840503672613
4804.0	3.8863627531e-05	0.84054253624
4807.0	3.8863627531e-05	0.840581399868
4810.0	0.000155454510124	0.840736854378
4813.0	7.7727255062e-05	0.840814581633
4816.0	0.000116590882593	0.840931172516
4819.0	0.000116590882593	0.841047763398
4822.0	0.000194318137655	0.841242081536
4824.0	0.000582954412965	0.841825035949
4828.0	0.000194318137655	0.842019354087
4831.0	7.7727255062e-05	0.842097081342
4837.0	3.8863627531e-05	0.842135944969
4840.0	7.7727255062e-05	0.842213672224
4843.0	7.7727255062e-05	0.842291399479
4846.0	0.000116590882593	0.842407990362
4849.0	0.00590727138471	0.848315261747
4852.0	3.8863627531e-05	0.848354125374
4854.0	0.000505227157903	0.848859352532
4857.0	0.00077727255062	0.849636625083
4861.0	3.8863627531e-05	0.84967548871
4867.0	3.8863627531e-05	0.849714352338
4870.0	0.000116590882593	0.84983094322
4873.0	0.00038863627531	0.850219579496
4876.0	7.7727255062e-05	0.850297306751
4879.0	0.000155454510124	0.850452761261
4882.0	0.000116590882593	0.850569352143
4885.0	7.7727255062e-05	0.850647079398
4888.0	7.7727255062e-05	0.850724806653
4891.0	7.7727255062e-05	0.850802533909
4894.0	7.7727255062e-05	0.850880261164
4903.0	0.00120477245346	0.852085033617
4906.0	0.00077727255062	0.852862306168
4909.0	0.000116590882593	0.85297889705
4912.0	3.8863627531e-05	0.853017760678
4915.0	0.000116590882593	0.85313435156
4918.0	0.000116590882593	0.853250942443
4921.0	0.000194318137655	0.853445260581
4924.0	0.000116590882593	0.853561851463
4927.0	0.000194318137655	0.853756169601
4929.0	7.7727255062e-05	0.853833896856
4933.0	0.000427499902841	0.854261396759
4936.0	3.8863627531e-05	0.854300260386
4942.0	3.8863627531e-05	0.854339124014
4945.0	7.7727255062e-05	0.854416851269
4948.0	3.8863627531e-05	0.854455714896
4951.0	3.8863627531e-05	0.854494578524
4953.0	0.000272045392717	0.854766623917
4957.0	0.000155454510124	0.854922078427
4960.0	0.000349772647779	0.855271851075
4963.0	7.7727255062e-05	0.85534957833
4966.0	0.000310909020248	0.85566048735
4969.0	0.000116590882593	0.855777078232
4972.0	3.8863627531e-05	0.85581594186
4975.0	0.000116590882593	0.855932532743
4981.0	3.8863627531e-05	0.85597139637
4983.0	0.000116590882593	0.856087987253
4987.0	0.000155454510124	0.856243441763
4989.0	0.00182659049396	0.858070032257
4993.0	3.8863627531e-05	0.858108895884
4996.0	7.7727255062e-05	0.858186623139
4998.0	7.7727255062e-05	0.858264350394
5002.0	0.000116590882593	0.858380941277
5005.0	0.000116590882593	0.85849753216
5008.0	7.7727255062e-05	0.858575259415
5014.0	3.8863627531e-05	0.858614123042
5019.0	0.000116590882593	0.858730713925
5023.0	0.000116590882593	0.858847304807
5026.0	3.8863627531e-05	0.858886168435
5029.0	0.000116590882593	0.859002759318
5032.0	0.000155454510124	0.859158213828
5034.0	7.7727255062e-05	0.859235941083
5038.0	3.8863627531e-05	0.85927480471
5046.0	0.000116590882593	0.859391395593
5050.0	7.7727255062e-05	0.859469122848
5053.0	0.000194318137655	0.859663440986
5059.0	3.8863627531e-05	0.859702304613
5062.0	0.000116590882593	0.859818895496
5065.0	0.000349772647779	0.860168668143
5068.0	0.000116590882593	0.860285259026
5077.0	7.7727255062e-05	0.860362986281
5080.0	3.8863627531e-05	0.860401849909
5082.0	0.000155454510124	0.860557304419
5086.0	7.7727255062e-05	0.860635031674
5089.0	7.7727255062e-05	0.860712758929
5094.0	7.7727255062e-05	0.860790486184
5098.0	7.7727255062e-05	0.860868213439
5100.0	0.000233181765186	0.861101395204
5103.0	0.000310909020248	0.861412304224
5107.0	0.000116590882593	0.861528895107
5110.0	0.000155454510124	0.861684349617
5113.0	3.8863627531e-05	0.861723213245
5115.0	0.000194318137655	0.861917531382
5119.0	0.000116590882593	0.862034122265
5127.0	7.7727255062e-05	0.86211184952
5131.0	3.8863627531e-05	0.862150713148
5134.0	3.8863627531e-05	0.862189576775
5137.0	0.000116590882593	0.862306167658
5140.0	7.7727255062e-05	0.862383894913
5142.0	7.7727255062e-05	0.862461622168
5145.0	0.000155454510124	0.862617076678
5149.0	3.8863627531e-05	0.862655940305
5151.0	0.000310909020248	0.862966849326
5154.0	0.000116590882593	0.863083440208
5157.0	3.8863627531e-05	0.863122303836
5161.0	0.000116590882593	0.863238894718
5163.0	0.00843340717423	0.871672301893
5166.0	3.8863627531e-05	0.87171116552
5169.0	7.7727255062e-05	0.871788892775
5173.0	3.8863627531e-05	0.871827756403
5176.0	7.7727255062e-05	0.871905483658
5178.0	0.000116590882593	0.87202207454
5181.0	3.8863627531e-05	0.872060938168
5185.0	3.8863627531e-05	0.872099801795
5188.0	7.7727255062e-05	0.872177529051
5191.0	3.8863627531e-05	0.872216392678
5194.0	3.8863627531e-05	0.872255256306
5196.0	0.000194318137655	0.872449574443
5203.0	7.7727255062e-05	0.872527301698
5206.0	0.000116590882593	0.872643892581
5211.0	7.7727255062e-05	0.872721619836
5217.0	0.000155454510124	0.872877074346
5220.0	7.7727255062e-05	0.872954801601
5223.0	0.000155454510124	0.873110256111
5230.0	7.7727255062e-05	0.873187983366
5235.0	0.000155454510124	0.873343437876
5239.0	3.8863627531e-05	0.873382301504
5242.0	3.8863627531e-05	0.873421165132
5245.0	3.8863627531e-05	0.873460028759
5248.0	0.000116590882593	0.873576619642
5250.0	7.7727255062e-05	0.873654346897
5253.0	7.7727255062e-05	0.873732074152
5257.0	7.7727255062e-05	0.873809801407
5260.0	7.7727255062e-05	0.873887528662
5262.0	0.000194318137655	0.8740818468
5269.0	3.8863627531e-05	0.874120710427
5272.0	3.8863627531e-05	0.874159574055
5274.0	0.000155454510124	0.874315028565
5278.0	3.8863627531e-05	0.874353892192
5281.0	3.8863627531e-05	0.87439275582
5284.0	3.8863627531e-05	0.874431619447
5287.0	7.7727255062e-05	0.874509346702
5289.0	7.7727255062e-05	0.874587073957
5293.0	3.8863627531e-05	0.874625937585
5296.0	7.7727255062e-05	0.87470366484
5302.0	0.000155454510124	0.87485911935
5305.0	7.7727255062e-05	0.874936846605
5308.0	3.8863627531e-05	0.874975710233
5311.0	3.8863627531e-05	0.87501457386
5314.0	3.8863627531e-05	0.875053437488
5317.0	3.8863627531e-05	0.875092301115
5320.0	7.7727255062e-05	0.87517002837
5323.0	3.8863627531e-05	0.875208891998
5326.0	3.8863627531e-05	0.875247755626
5329.0	3.8863627531e-05	0.875286619253
5332.0	7.7727255062e-05	0.875364346508
5334.0	7.7727255062e-05	0.875442073763
5338.0	3.8863627531e-05	0.875480937391
5346.0	0.000116590882593	0.875597528273
5353.0	3.8863627531e-05	0.875636391901
5356.0	7.7727255062e-05	0.875714119156
5359.0	7.7727255062e-05	0.875791846411
5361.0	0.000116590882593	0.875908437294
5365.0	7.7727255062e-05	0.875986164549
5367.0	7.7727255062e-05	0.876063891804
5371.0	0.000116590882593	0.876180482686
5373.0	0.00124363608099	0.877424118767
5377.0	7.7727255062e-05	0.877501846022
5379.0	0.000116590882593	0.877618436905
5383.0	3.8863627531e-05	0.877657300532
5388.0	3.8863627531e-05	0.87769616416
5391.0	3.8863627531e-05	0.877735027787
5395.0	0.000116590882593	0.87785161867
5404.0	7.7727255062e-05	0.877929345925
5413.0	0.000116590882593	0.878045936808
5415.0	0.000116590882593	0.87816252769
5419.0	0.000116590882593	0.878279118573
5421.0	0.000116590882593	0.878395709456
5424.0	0.000116590882593	0.878512300338
5428.0	7.7727255062e-05	0.878590027593
5430.0	3.8863627531e-05	0.878628891221
5434.0	3.8863627531e-05	0.878667754848
5436.0	7.7727255062e-05	0.878745482103
5440.0	3.8863627531e-05	0.878784345731
5443.0	3.8863627531e-05	0.878823209358
5446.0	3.8863627531e-05	0.878862072986
5449.0	7.7727255062e-05	0.878939800241
5452.0	0.000116590882593	0.879056391124
5470.0	7.7727255062e-05	0.879134118379
5473.0	3.8863627531e-05	0.879172982006
5475.0	7.7727255062e-05	0.879250709261
5478.0	0.000971590688275	0.880222299949
5482.0	7.7727255062e-05	0.880300027205
5485.0	0.000116590882593	0.880416618087
5488.0	0.000116590882593	0.88053320897
5491.0	3.8863627531e-05	0.880572072597
5493.0	0.000155454510124	0.880727527107
5500.0	3.8863627531e-05	0.880766390735
5503.0	3.8863627531e-05	0.880805254362
5509.0	7.7727255062e-05	0.880882981618
5512.0	3.8863627531e-05	0.880921845245
5518.0	3.8863627531e-05	0.880960708873
5521.0	7.7727255062e-05	0.881038436128
5523.0	3.8863627531e-05	0.881077299755
5526.0	3.8863627531e-05	0.881116163383
5530.0	3.8863627531e-05	0.88115502701
5532.0	0.000155454510124	0.88131048152
5536.0	0.000155454510124	0.88146593603
5539.0	0.000116590882593	0.881582526913
5541.0	7.7727255062e-05	0.881660254168
5545.0	3.8863627531e-05	0.881699117796
5548.0	3.8863627531e-05	0.881737981423
5550.0	0.000116590882593	0.881854572306
5554.0	0.000233181765186	0.882087754071
5556.0	0.000582954412965	0.882670708484
5559.0	0.000116590882593	0.882787299367
5562.0	0.000116590882593	0.882903890249
5565.0	3.8863627531e-05	0.882942753877
5572.0	0.00038863627531	0.883331390152
5574.0	0.00190431774902	0.885235707901
5578.0	3.8863627531e-05	0.885274571529
5580.0	3.8863627531e-05	0.885313435156
5584.0	3.8863627531e-05	0.885352298784
5587.0	7.7727255062e-05	0.885430026039
5592.0	0.000116590882593	0.885546616921
5598.0	3.8863627531e-05	0.885585480549
5602.0	0.000116590882593	0.885702071431
5604.0	0.000116590882593	0.885818662314
5608.0	3.8863627531e-05	0.885857525941
5610.0	3.8863627531e-05	0.885896389569
5614.0	3.8863627531e-05	0.885935253197
5617.0	3.8863627531e-05	0.885974116824
5619.0	3.8863627531e-05	0.886012980452
5622.0	7.7727255062e-05	0.886090707707
5629.0	3.8863627531e-05	0.886129571334
5631.0	7.7727255062e-05	0.886207298589
5634.0	0.000155454510124	0.886362753099
5638.0	7.7727255062e-05	0.886440480354
5643.0	3.8863627531e-05	0.886479343982
5653.0	3.8863627531e-05	0.886518207609
5656.0	3.8863627531e-05	0.886557071237
5658.0	3.8863627531e-05	0.886595934865
5662.0	3.8863627531e-05	0.886634798492
5674.0	3.8863627531e-05	0.88667366212
5680.0	3.8863627531e-05	0.886712525747
5686.0	7.7727255062e-05	0.886790253002
5688.0	7.7727255062e-05	0.886867980257
5691.0	7.7727255062e-05	0.886945707512
5703.0	0.000233181765186	0.887178889278
5707.0	3.8863627531e-05	0.887217752905
5710.0	3.8863627531e-05	0.887256616533
5712.0	0.000233181765186	0.887489798298
5715.0	3.8863627531e-05	0.887528661925
5718.0	0.00345886285026	0.890987524776
5721.0	3.8863627531e-05	0.891026388403
5724.0	3.8863627531e-05	0.891065252031
5728.0	3.8863627531e-05	0.891104115658
5730.0	0.00143795421865	0.892542069877
5733.0	7.7727255062e-05	0.892619797132
5736.0	0.000116590882593	0.892736388014
5742.0	0.000116590882593	0.892852978897
5746.0	0.000233181765186	0.893086160662
5749.0	0.000427499902841	0.893513660565
5752.0	3.8863627531e-05	0.893552524193
5754.0	0.000349772647779	0.89390229684
5757.0	3.8863627531e-05	0.893941160468
5766.0	7.7727255062e-05	0.894018887723
5770.0	0.000116590882593	0.894135478606
5772.0	3.8863627531e-05	0.894174342233
5778.0	0.000155454510124	0.894329796743
5781.0	0.000155454510124	0.894485251253
5784.0	3.8863627531e-05	0.894524114881
5787.0	0.000116590882593	0.894640705763
5790.0	3.8863627531e-05	0.894679569391
5793.0	7.7727255062e-05	0.894757296646
5797.0	7.7727255062e-05	0.894835023901
5800.0	3.8863627531e-05	0.894873887529
5802.0	7.7727255062e-05	0.894951614784
5805.0	0.000116590882593	0.895068205666
5808.0	0.000155454510124	0.895223660176
5811.0	7.7727255062e-05	0.895301387432
5818.0	3.8863627531e-05	0.895340251059
5823.0	3.8863627531e-05	0.895379114687
5826.0	7.7727255062e-05	0.895456841942
5832.0	7.7727255062e-05	0.895534569197
5835.0	7.7727255062e-05	0.895612296452
5842.0	7.7727255062e-05	0.895690023707
5850.0	0.000194318137655	0.895884341844
5854.0	3.8863627531e-05	0.895923205472
5865.0	7.7727255062e-05	0.896000932727
5871.0	7.7727255062e-05	0.896078659982
5875.0	3.8863627531e-05	0.89611752361
5881.0	7.7727255062e-05	0.896195250865
5883.0	3.8863627531e-05	0.896234114492
5887.0	3.8863627531e-05	0.89627297812
5889.0	3.8863627531e-05	0.896311841747
5892.0	7.7727255062e-05	0.896389569002
5895.0	7.7727255062e-05	0.896467296257
5898.0	7.7727255062e-05	0.896545023512
5901.0	7.7727255062e-05	0.896622750768
5904.0	3.8863627531e-05	0.896661614395
5908.0	7.7727255062e-05	0.89673934165
5910.0	0.000155454510124	0.89689479616
5916.0	0.000116590882593	0.897011387043
5920.0	3.8863627531e-05	0.89705025067
5923.0	3.8863627531e-05	0.897089114298
5926.0	3.8863627531e-05	0.897127977925
5937.0	3.8863627531e-05	0.897166841553
5944.0	3.8863627531e-05	0.897205705181
5947.0	7.7727255062e-05	0.897283432436
5956.0	3.8863627531e-05	0.897322296063
5961.0	0.000116590882593	0.897438886946
5968.0	3.8863627531e-05	0.897477750573
5970.0	3.8863627531e-05	0.897516614201
5973.0	0.000155454510124	0.897672068711
5976.0	3.8863627531e-05	0.897710932338
5979.0	7.7727255062e-05	0.897788659593
5988.0	0.000116590882593	0.897905250476
5998.0	3.8863627531e-05	0.897944114104
6000.0	0.000116590882593	0.898060704986
6003.0	3.8863627531e-05	0.898099568614
6012.0	3.8863627531e-05	0.898138432241
6015.0	0.000194318137655	0.898332750379
6021.0	7.7727255062e-05	0.898410477634
6024.0	0.000116590882593	0.898527068517
6039.0	7.7727255062e-05	0.898604795772
6042.0	7.7727255062e-05	0.898682523027
6045.0	3.8863627531e-05	0.898721386654
6052.0	7.7727255062e-05	0.898799113909
6055.0	7.7727255062e-05	0.898876841164
6067.0	7.7727255062e-05	0.898954568419
6069.0	7.7727255062e-05	0.899032295674
6072.0	0.00505227157903	0.904084567254
6075.0	7.7727255062e-05	0.904162294509
6078.0	3.8863627531e-05	0.904201158136
6084.0	3.8863627531e-05	0.904240021764
6087.0	7.7727255062e-05	0.904317749019
6099.0	0.000116590882593	0.904434339901
6102.0	7.7727255062e-05	0.904512067156
6105.0	3.8863627531e-05	0.904550930784
6114.0	7.7727255062e-05	0.904628658039
6118.0	3.8863627531e-05	0.904667521666
6121.0	3.8863627531e-05	0.904706385294
6123.0	3.8863627531e-05	0.904745248922
6133.0	3.8863627531e-05	0.904784112549
6138.0	3.8863627531e-05	0.904822976177
6147.0	3.8863627531e-05	0.904861839804
6150.0	7.7727255062e-05	0.904939567059
6159.0	3.8863627531e-05	0.904978430687
6163.0	3.8863627531e-05	0.905017294314
6172.0	3.8863627531e-05	0.905056157942
6178.0	3.8863627531e-05	0.905095021569
6180.0	7.7727255062e-05	0.905172748824
6183.0	3.8863627531e-05	0.905211612452
6190.0	3.8863627531e-05	0.905250476079
6192.0	3.8863627531e-05	0.905289339707
6195.0	0.000116590882593	0.90540593059
6198.0	3.8863627531e-05	0.905444794217
6202.0	3.8863627531e-05	0.905483657845
6207.0	3.8863627531e-05	0.905522521472
6211.0	3.8863627531e-05	0.9055613851
6219.0	3.8863627531e-05	0.905600248727
6222.0	7.7727255062e-05	0.905677975982
6225.0	3.8863627531e-05	0.90571683961
6228.0	3.8863627531e-05	0.905755703237
6237.0	7.7727255062e-05	0.905833430492
6243.0	3.8863627531e-05	0.90587229412
6246.0	7.7727255062e-05	0.905950021375
6249.0	3.8863627531e-05	0.905988885003
6253.0	3.8863627531e-05	0.90602774863
6256.0	3.8863627531e-05	0.906066612258
6258.0	7.7727255062e-05	0.906144339513
6268.0	3.8863627531e-05	0.90618320314
6273.0	7.7727255062e-05	0.906260930395
6285.0	7.7727255062e-05	0.90633865765
6289.0	3.8863627531e-05	0.906377521278
6291.0	3.8863627531e-05	0.906416384905
6294.0	3.8863627531e-05	0.906455248533
6300.0	3.8863627531e-05	0.90649411216
6304.0	3.8863627531e-05	0.906532975788
6306.0	3.8863627531e-05	0.906571839415
6309.0	7.7727255062e-05	0.906649566671
6312.0	0.000116590882593	0.906766157553
6321.0	3.8863627531e-05	0.906805021181
6324.0	3.8863627531e-05	0.906843884808
6327.0	3.8863627531e-05	0.906882748436
6330.0	3.8863627531e-05	0.906921612063
6342.0	0.0011270451984	0.908048657262
6345.0	3.8863627531e-05	0.908087520889
6348.0	0.00345886285026	0.911546383739
6351.0	0.000466363530372	0.91201274727
6363.0	0.00194318137655	0.913955928646
6366.0	3.8863627531e-05	0.913994792274
6369.0	3.8863627531e-05	0.914033655901
6372.0	3.8863627531e-05	0.914072519529
6375.0	0.000272045392717	0.914344564922
6378.0	3.8863627531e-05	0.914383428549
6390.0	3.8863627531e-05	0.914422292177
6394.0	3.8863627531e-05	0.914461155804
6396.0	3.8863627531e-05	0.914500019432
6399.0	3.8863627531e-05	0.914538883059
6402.0	0.000155454510124	0.914694337569
6405.0	0.000116590882593	0.914810928452
6408.0	7.7727255062e-05	0.914888655707
6417.0	0.000155454510124	0.915044110217
6420.0	0.000116590882593	0.9151607011
6423.0	3.8863627531e-05	0.915199564727
6432.0	3.8863627531e-05	0.915238428355
6438.0	3.8863627531e-05	0.915277291982
6447.0	7.7727255062e-05	0.915355019237
6459.0	3.8863627531e-05	0.915393882865
6462.0	7.7727255062e-05	0.91547161012
6472.0	3.8863627531e-05	0.915510473748
6474.0	3.8863627531e-05	0.915549337375
6477.0	3.8863627531e-05	0.915588201003
6483.0	3.8863627531e-05	0.91562706463
6498.0	3.8863627531e-05	0.915665928258
6504.0	3.8863627531e-05	0.915704791885
6510.0	7.7727255062e-05	0.91578251914
6516.0	3.8863627531e-05	0.915821382768
6522.0	3.8863627531e-05	0.915860246395
6525.0	0.000272045392717	0.916132291788
6531.0	3.8863627531e-05	0.916171155416
6538.0	7.7727255062e-05	0.916248882671
6546.0	3.8863627531e-05	0.916287746298
6549.0	0.000116590882593	0.916404337181
6555.0	3.8863627531e-05	0.916443200808
6558.0	7.7727255062e-05	0.916520928063
6561.0	3.8863627531e-05	0.916559791691
6564.0	7.7727255062e-05	0.916637518946
6567.0	3.8863627531e-05	0.916676382574
6573.0	0.000116590882593	0.916792973456
6579.0	3.8863627531e-05	0.916831837084
6583.0	3.8863627531e-05	0.916870700711
6588.0	7.7727255062e-05	0.916948427966
6591.0	7.7727255062e-05	0.917026155221
6603.0	3.8863627531e-05	0.917065018849
6606.0	3.8863627531e-05	0.917103882476
6613.0	3.8863627531e-05	0.917142746104
6615.0	3.8863627531e-05	0.917181609731
6624.0	3.8863627531e-05	0.917220473359
6633.0	3.8863627531e-05	0.917259336987
6642.0	3.8863627531e-05	0.917298200614
6648.0	3.8863627531e-05	0.917337064242
6651.0	3.8863627531e-05	0.917375927869
6655.0	3.8863627531e-05	0.917414791497
6657.0	3.8863627531e-05	0.917453655124
6672.0	0.00380863549804	0.921262290622
6675.0	0.000155454510124	0.921417745132
6690.0	7.7727255062e-05	0.921495472387
6694.0	3.8863627531e-05	0.921534336015
6705.0	3.8863627531e-05	0.921573199642
6708.0	3.8863627531e-05	0.92161206327
6711.0	7.7727255062e-05	0.921689790525
6714.0	7.7727255062e-05	0.92176751778
6717.0	3.8863627531e-05	0.921806381408
6720.0	0.000116590882593	0.92192297229
6726.0	7.7727255062e-05	0.922000699545
6729.0	3.8863627531e-05	0.922039563173
6732.0	7.7727255062e-05	0.922117290428
6735.0	3.8863627531e-05	0.922156154055
6748.0	3.8863627531e-05	0.922195017683
6750.0	3.8863627531e-05	0.92223388131
6765.0	3.8863627531e-05	0.922272744938
6774.0	3.8863627531e-05	0.922311608566
6780.0	3.8863627531e-05	0.922350472193
6783.0	3.8863627531e-05	0.922389335821
6789.0	3.8863627531e-05	0.922428199448
6798.0	3.8863627531e-05	0.922467063076
6805.0	3.8863627531e-05	0.922505926703
6807.0	3.8863627531e-05	0.922544790331
6822.0	7.7727255062e-05	0.922622517586
6828.0	3.8863627531e-05	0.922661381213
6834.0	3.8863627531e-05	0.922700244841
6837.0	3.8863627531e-05	0.922739108468
6852.0	3.8863627531e-05	0.922777972096
6856.0	3.8863627531e-05	0.922816835723
6861.0	3.8863627531e-05	0.922855699351
6865.0	7.7727255062e-05	0.922933426606
6867.0	3.8863627531e-05	0.922972290234
6873.0	3.8863627531e-05	0.923011153861
6879.0	3.8863627531e-05	0.923050017489
6888.0	3.8863627531e-05	0.923088881116
6897.0	3.8863627531e-05	0.923127744744
6900.0	7.7727255062e-05	0.923205471999
6906.0	0.000738408923089	0.923943880922
6919.0	3.8863627531e-05	0.923982744549
6925.0	3.8863627531e-05	0.924021608177
6931.0	3.8863627531e-05	0.924060471804
6933.0	7.7727255062e-05	0.92413819906
6939.0	3.8863627531e-05	0.924177062687
6945.0	3.8863627531e-05	0.924215926315
6951.0	3.8863627531e-05	0.924254789942
6957.0	3.8863627531e-05	0.92429365357
6969.0	3.8863627531e-05	0.924332517197
6978.0	3.8863627531e-05	0.924371380825
6981.0	3.8863627531e-05	0.924410244452
6984.0	3.8863627531e-05	0.92444910808
6990.0	7.7727255062e-05	0.924526835335
6996.0	3.8863627531e-05	0.924565698962
6999.0	3.8863627531e-05	0.92460456259
7005.0	0.000116590882593	0.924721153472
7008.0	7.7727255062e-05	0.924798880728
7014.0	0.00155454510124	0.926353425829
7017.0	0.000621818040496	0.926975243869
7021.0	3.8863627531e-05	0.927014107497
7032.0	3.8863627531e-05	0.927052971124
7036.0	3.8863627531e-05	0.927091834752
7042.0	3.8863627531e-05	0.927130698379
7054.0	3.8863627531e-05	0.927169562007
7059.0	7.7727255062e-05	0.927247289262
7071.0	3.8863627531e-05	0.92728615289
7074.0	3.8863627531e-05	0.927325016517
7083.0	3.8863627531e-05	0.927363880145
7086.0	7.7727255062e-05	0.9274416074
7092.0	3.8863627531e-05	0.927480471027
7095.0	7.7727255062e-05	0.927558198282
7105.0	3.8863627531e-05	0.92759706191
7107.0	3.8863627531e-05	0.927635925537
7110.0	7.7727255062e-05	0.927713652792
7131.0	3.8863627531e-05	0.92775251642
7140.0	3.8863627531e-05	0.927791380047
7143.0	3.8863627531e-05	0.927830243675
7149.0	7.7727255062e-05	0.92790797093
7152.0	0.000116590882593	0.928024561813
7158.0	3.8863627531e-05	0.92806342544
7164.0	3.8863627531e-05	0.928102289068
7167.0	7.7727255062e-05	0.928180016323
7182.0	3.8863627531e-05	0.92821887995
7191.0	3.8863627531e-05	0.928257743578
7197.0	3.8863627531e-05	0.928296607205
7209.0	3.8863627531e-05	0.928335470833
7212.0	3.8863627531e-05	0.92837433446
7221.0	3.8863627531e-05	0.928413198088
7224.0	7.7727255062e-05	0.928490925343
7230.0	3.8863627531e-05	0.928529788971
7234.0	3.8863627531e-05	0.928568652598
7239.0	3.8863627531e-05	0.928607516226
7281.0	3.8863627531e-05	0.928646379853
7299.0	7.7727255062e-05	0.928724107108
7305.0	3.8863627531e-05	0.928762970736
7320.0	3.8863627531e-05	0.928801834363
7326.0	3.8863627531e-05	0.928840697991
7344.0	3.8863627531e-05	0.928879561618
7347.0	3.8863627531e-05	0.928918425246
7356.0	7.7727255062e-05	0.928996152501
7368.0	3.8863627531e-05	0.929035016128
7374.0	3.8863627531e-05	0.929073879756
7380.0	3.8863627531e-05	0.929112743383
7386.0	3.8863627531e-05	0.929151607011
7390.0	3.8863627531e-05	0.929190470639
7395.0	3.8863627531e-05	0.929229334266
7407.0	3.8863627531e-05	0.929268197894
7410.0	3.8863627531e-05	0.929307061521
7416.0	3.8863627531e-05	0.929345925149
7431.0	3.8863627531e-05	0.929384788776
7446.0	3.8863627531e-05	0.929423652404
7452.0	3.8863627531e-05	0.929462516031
7464.0	3.8863627531e-05	0.929501379659
7479.0	3.8863627531e-05	0.929540243286
7485.0	3.8863627531e-05	0.929579106914
7509.0	7.7727255062e-05	0.929656834169
7515.0	3.8863627531e-05	0.929695697796
7530.0	7.7727255062e-05	0.929773425051
7539.0	7.7727255062e-05	0.929851152307
7542.0	3.8863627531e-05	0.929890015934
7545.0	0.000155454510124	0.930045470444
7548.0	3.8863627531e-05	0.930084334072
7550.0	0.000116590882593	0.930200924954
7554.0	3.8863627531e-05	0.930239788582
7557.0	3.8863627531e-05	0.930278652209
7566.0	3.8863627531e-05	0.930317515837
7578.0	0.000116590882593	0.93043410672
7584.0	3.8863627531e-05	0.930472970347
7593.0	7.7727255062e-05	0.930550697602
7617.0	0.000116590882593	0.930667288485
7620.0	7.7727255062e-05	0.93074501574
7629.0	7.7727255062e-05	0.930822742995
7635.0	3.8863627531e-05	0.930861606622
7641.0	7.7727255062e-05	0.930939333877
7659.0	3.8863627531e-05	0.930978197505
7662.0	3.8863627531e-05	0.931017061132
7674.0	3.8863627531e-05	0.93105592476
7677.0	3.8863627531e-05	0.931094788388
7680.0	0.000116590882593	0.93121137927
7683.0	3.8863627531e-05	0.931250242898
7689.0	3.8863627531e-05	0.931289106525
7710.0	3.8863627531e-05	0.931327970153
7712.0	3.8863627531e-05	0.93136683378
7716.0	3.8863627531e-05	0.931405697408
7719.0	0.000116590882593	0.93152228829
7725.0	3.8863627531e-05	0.931561151918
7728.0	0.00077727255062	0.932338424469
7730.0	0.00077727255062	0.933115697019
7746.0	3.8863627531e-05	0.933154560647
7751.0	3.8863627531e-05	0.933193424274
7755.0	3.8863627531e-05	0.933232287902
7758.0	3.8863627531e-05	0.933271151529
7761.0	7.7727255062e-05	0.933348878784
7764.0	3.8863627531e-05	0.933387742412
7767.0	7.7727255062e-05	0.933465469667
7770.0	3.8863627531e-05	0.933504333294
7776.0	3.8863627531e-05	0.933543196922
7779.0	3.8863627531e-05	0.93358206055
7790.0	0.0327620380086	0.966344098558
7792.0	0.000893863433213	0.967237961991
7797.0	3.8863627531e-05	0.967276825619
7803.0	3.8863627531e-05	0.967315689246
7812.0	3.8863627531e-05	0.967354552874
7828.0	3.8863627531e-05	0.967393416501
7830.0	7.7727255062e-05	0.967471143757
7835.0	0.000116590882593	0.967587734639
7842.0	7.7727255062e-05	0.967665461894
7848.0	7.7727255062e-05	0.967743189149
7868.0	0.00330340834013	0.971046597489
7905.0	0.000155454510124	0.971202052
7908.0	3.8863627531e-05	0.971240915627
7914.0	0.000116590882593	0.97135750651
7920.0	3.8863627531e-05	0.971396370137
7935.0	7.7727255062e-05	0.971474097392
7940.0	3.8863627531e-05	0.97151296102
7964.0	3.8863627531e-05	0.971551824647
7974.0	3.8863627531e-05	0.971590688275
7976.0	3.8863627531e-05	0.971629551902
7986.0	3.8863627531e-05	0.97166841553
7995.0	3.8863627531e-05	0.971707279157
8010.0	3.8863627531e-05	0.971746142785
8018.0	3.8863627531e-05	0.971785006412
8030.0	7.7727255062e-05	0.971862733668
8040.0	3.8863627531e-05	0.971901597295
8043.0	3.8863627531e-05	0.971940460923
8045.0	3.8863627531e-05	0.97197932455
8055.0	3.8863627531e-05	0.972018188178
8088.0	0.000116590882593	0.97213477906
8091.0	3.8863627531e-05	0.972173642688
8093.0	3.8863627531e-05	0.972212506315
8099.0	3.8863627531e-05	0.972251369943
8103.0	3.8863627531e-05	0.97229023357
8115.0	3.8863627531e-05	0.972329097198
8118.0	7.7727255062e-05	0.972406824453
8124.0	3.8863627531e-05	0.972445688081
8127.0	3.8863627531e-05	0.972484551708
8142.0	0.000116590882593	0.972601142591
8148.0	3.8863627531e-05	0.972640006218
8162.0	3.8863627531e-05	0.972678869846
8166.0	3.8863627531e-05	0.972717733473
8169.0	7.7727255062e-05	0.972795460728
8178.0	3.8863627531e-05	0.972834324356
8202.0	7.7727255062e-05	0.972912051611
8205.0	3.8863627531e-05	0.972950915238
8213.0	3.8863627531e-05	0.972989778866
8219.0	3.8863627531e-05	0.973028642493
8226.0	3.8863627531e-05	0.973067506121
8234.0	3.8863627531e-05	0.973106369749
8244.0	3.8863627531e-05	0.973145233376
8253.0	3.8863627531e-05	0.973184097004
8256.0	3.8863627531e-05	0.973222960631
8265.0	3.8863627531e-05	0.973261824259
8282.0	3.8863627531e-05	0.973300687886
8292.0	3.8863627531e-05	0.973339551514
8324.0	3.8863627531e-05	0.973378415141
8346.0	3.8863627531e-05	0.973417278769
8355.0	3.8863627531e-05	0.973456142396
8361.0	7.7727255062e-05	0.973533869651
8373.0	7.7727255062e-05	0.973611596906
8378.0	0.000116590882593	0.973728187789
8384.0	3.8863627531e-05	0.973767051417
8388.0	3.8863627531e-05	0.973805915044
8418.0	3.8863627531e-05	0.973844778672
8433.0	3.8863627531e-05	0.973883642299
8445.0	3.8863627531e-05	0.973922505927
8448.0	3.8863627531e-05	0.973961369554
8454.0	7.7727255062e-05	0.974039096809
8472.0	7.7727255062e-05	0.974116824064
8475.0	3.8863627531e-05	0.974155687692
8478.0	3.8863627531e-05	0.974194551319
8517.0	7.7727255062e-05	0.974272278574
8520.0	3.8863627531e-05	0.974311142202
8529.0	3.8863627531e-05	0.97435000583
8550.0	3.8863627531e-05	0.974388869457
8556.0	7.7727255062e-05	0.974466596712
8570.0	3.8863627531e-05	0.97450546034
8604.0	7.7727255062e-05	0.974583187595
8606.0	7.7727255062e-05	0.97466091485
8619.0	3.8863627531e-05	0.974699778477
8649.0	3.8863627531e-05	0.974738642105
8655.0	3.8863627531e-05	0.974777505732
8661.0	3.8863627531e-05	0.97481636936
8669.0	7.7727255062e-05	0.974894096615
8691.0	3.8863627531e-05	0.974932960243
8693.0	3.8863627531e-05	0.97497182387
8697.0	3.8863627531e-05	0.975010687498
8718.0	0.000116590882593	0.97512727838
8720.0	3.8863627531e-05	0.975166142008
8724.0	3.8863627531e-05	0.975205005635
8727.0	3.8863627531e-05	0.975243869263
8766.0	3.8863627531e-05	0.97528273289
8774.0	3.8863627531e-05	0.975321596518
8783.0	3.8863627531e-05	0.975360460145
8831.0	3.8863627531e-05	0.975399323773
8841.0	7.7727255062e-05	0.975477051028
8883.0	3.8863627531e-05	0.975515914655
8891.0	7.7727255062e-05	0.975593641911
8909.0	3.8863627531e-05	0.975632505538
8943.0	3.8863627531e-05	0.975671369166
8961.0	3.8863627531e-05	0.975710232793
8985.0	3.8863627531e-05	0.975749096421
8987.0	3.8863627531e-05	0.975787960048
8993.0	3.8863627531e-05	0.975826823676
9006.0	3.8863627531e-05	0.975865687303
9018.0	3.8863627531e-05	0.975904550931
9021.0	3.8863627531e-05	0.975943414558
9042.0	3.8863627531e-05	0.975982278186
9051.0	3.8863627531e-05	0.976021141813
9074.0	3.8863627531e-05	0.976060005441
9087.0	3.8863627531e-05	0.976098869068
9107.0	3.8863627531e-05	0.976137732696
9134.0	0.00279818118223	0.978935913878
9137.0	7.7727255062e-05	0.979013641133
9155.0	3.8863627531e-05	0.979052504761
9170.0	3.8863627531e-05	0.979091368388
9200.0	7.7727255062e-05	0.979169095643
9209.0	3.8863627531e-05	0.979207959271
9218.0	3.8863627531e-05	0.979246822898
9224.0	0.000116590882593	0.979363413781
9239.0	3.8863627531e-05	0.979402277409
9252.0	3.8863627531e-05	0.979441141036
9290.0	3.8863627531e-05	0.979480004664
9326.0	3.8863627531e-05	0.979518868291
9344.0	3.8863627531e-05	0.979557731919
9356.0	3.8863627531e-05	0.979596595546
9371.0	3.8863627531e-05	0.979635459174
9425.0	3.8863627531e-05	0.979674322801
9464.0	0.0088997707046	0.988574093506
9485.0	3.8863627531e-05	0.988612957133
9521.0	0.00190431774902	0.990517274882
9524.0	0.000349772647779	0.99086704753
9540.0	3.8863627531e-05	0.990905911158
9557.0	3.8863627531e-05	0.990944774785
9650.0	3.8863627531e-05	0.990983638413
9656.0	7.7727255062e-05	0.991061365668
9681.0	3.8863627531e-05	0.991100229295
9696.0	3.8863627531e-05	0.991139092923
9737.0	3.8863627531e-05	0.99117795655
9801.0	3.8863627531e-05	0.991216820178
9840.0	3.8863627531e-05	0.991255683806
9851.0	3.8863627531e-05	0.991294547433
9887.0	3.8863627531e-05	0.991333411061
9917.0	3.8863627531e-05	0.991372274688
9950.0	3.8863627531e-05	0.991411138316
9978.0	3.8863627531e-05	0.991450001943
10022.0	3.8863627531e-05	0.991488865571
10061.0	3.8863627531e-05	0.991527729198
10115.0	3.8863627531e-05	0.991566592826
10160.0	3.8863627531e-05	0.991605456453
10217.0	3.8863627531e-05	0.991644320081
10238.0	3.8863627531e-05	0.991683183708
10259.0	3.8863627531e-05	0.991722047336
10284.0	3.8863627531e-05	0.991760910963
10325.0	3.8863627531e-05	0.991799774591
10460.0	3.8863627531e-05	0.991838638218
10493.0	3.8863627531e-05	0.991877501846
10526.0	3.8863627531e-05	0.991916365474
10541.0	3.8863627531e-05	0.991955229101
10559.0	3.8863627531e-05	0.991994092729
10610.0	3.8863627531e-05	0.992032956356
10679.0	3.8863627531e-05	0.992071819984
10711.0	7.7727255062e-05	0.992149547239
10727.0	3.8863627531e-05	0.992188410866
10742.0	3.8863627531e-05	0.992227274494
10808.0	3.8863627531e-05	0.992266138121
10841.0	3.8863627531e-05	0.992305001749
10888.0	3.8863627531e-05	0.992343865376
10929.0	3.8863627531e-05	0.992382729004
10999.0	3.8863627531e-05	0.992421592631
11005.0	0.00361431736038	0.996035909992
11008.0	3.8863627531e-05	0.996074773619
11023.0	3.8863627531e-05	0.996113637247
11041.0	7.7727255062e-05	0.996191364502
11065.0	7.7727255062e-05	0.996269091757
11117.0	3.8863627531e-05	0.996307955385
11123.0	3.8863627531e-05	0.996346819012
11183.0	3.8863627531e-05	0.99638568264
11210.0	0.00120477245346	0.997590455093
11212.0	0.00077727255062	0.998367727644
11222.0	3.8863627531e-05	0.998406591271
11236.0	3.8863627531e-05	0.998445454899
11273.0	3.8863627531e-05	0.998484318526
11306.0	3.8863627531e-05	0.998523182154
11321.0	3.8863627531e-05	0.998562045781
11325.0	3.8863627531e-05	0.998600909409
11407.0	3.8863627531e-05	0.998639773036
11447.0	3.8863627531e-05	0.998678636664
11488.0	3.8863627531e-05	0.998717500291
11504.0	3.8863627531e-05	0.998756363919
11545.0	3.8863627531e-05	0.998795227547
11618.0	3.8863627531e-05	0.998834091174
11653.0	3.8863627531e-05	0.998872954802
11687.0	3.8863627531e-05	0.998911818429
11708.0	3.8863627531e-05	0.998950682057
11815.0	3.8863627531e-05	0.998989545684
11843.0	3.8863627531e-05	0.999028409312
11911.0	3.8863627531e-05	0.999067272939
11914.0	3.8863627531e-05	0.999106136567
11987.0	3.8863627531e-05	0.999145000194
12064.0	3.8863627531e-05	0.999183863822
12076.0	3.8863627531e-05	0.999222727449
12098.0	3.8863627531e-05	0.999261591077
12107.0	3.8863627531e-05	0.999300454704
12151.0	3.8863627531e-05	0.999339318332
12202.0	3.8863627531e-05	0.99937818196
12226.0	3.8863627531e-05	0.999417045587
12295.0	7.7727255062e-05	0.999494772842
12314.0	3.8863627531e-05	0.99953363647
12385.0	3.8863627531e-05	0.999572500097
12497.0	3.8863627531e-05	0.999611363725
12500.0	3.8863627531e-05	0.999650227352
12605.0	3.8863627531e-05	0.99968909098
12703.0	3.8863627531e-05	0.999727954607
13075.0	3.8863627531e-05	0.999766818235
13142.0	3.8863627531e-05	0.999805681862
13289.0	3.8863627531e-05	0.99984454549
13459.0	3.8863627531e-05	0.999883409117
13537.0	3.8863627531e-05	0.999922272745
13572.0	3.8863627531e-05	0.999961136372
13678.0	3.8863627531e-05	1.0
13879.0	3.8863627531e-05	1.0
