#
# Generated On: 2012-02-05T17:26:31.593460
#           By: cwa.analyze.statistics
#      Version: 11.11.23
#       Author: Thomas A. de Ruiter <thomas@de-ruiter.cx>
#
#  Commandline: /home/af10028/bin/cwa analyze
#     Work Dir: /scratch/af10028/var/thesis-project/result/analyses/workload-06h-00123l-4s-fair
#

Time	Sum	Avg	StdDev	CoV	0.000000-Pct	0.010000-Pct	0.100000-Pct	1.000000-Pct	2.000000-Pct	5.000000-Pct	25.000000-Pct	50.000000-Pct	75.000000-Pct	95.000000-Pct	98.000000-Pct	99.000000-Pct	99.900000-Pct	99.990000-Pct	100.000000-Pct
1326973200	135929.0	141.298336798	325.287887186	2.30213528734	2.0	2.0	2.0	2.0	2.0	2.0	5.0	20.0	95.0	1091.0	1610.0	1610.0	1628.0	1628.0	1628.0
1326976800	138557.0	114.226710635	227.987979271	1.9959252788	2.0	2.0	2.0	2.0	2.0	2.0	5.0	20.0	89.0	560.0	989.0	1085.0	1088.0	1088.0	1088.0
1326980400	18203.0	98.3945945946	168.931459516	1.71687743836	2.0	2.0	2.0	2.0	2.0	2.0	3.0	20.0	104.0	623.0	623.0	623.0	629.0	629.0	629.0
1326984000	121424.0	219.176895307	708.907052552	3.2344059421	2.0	2.0	2.0	2.0	2.0	2.0	3.0	20.5	110.0	830.0	4048.0	4048.0	4054.0	4054.0	4054.0
1326987600	253396.0	168.481382979	373.120365795	2.21460887368	2.0	2.0	2.0	2.0	2.0	2.0	3.0	20.0	92.0	1403.0	1403.0	1403.0	1403.0	1412.0	1412.0
1326991200	23612.0	93.3280632411	166.050309965	1.77921092754	2.0	2.0	2.0	2.0	2.0	2.0	3.0	20.0	95.0	566.0	599.0	599.0	599.0	599.0	599.0
1326994800	0	0	0	0															
