#
# Generated On: 2012-02-09T13:06:51.896006
#           By: cwa.analyze.statistics
#      Version: 11.11.23
#       Author: Thomas A. de Ruiter <thomas@de-ruiter.cx>
#
#  Commandline: /home/af10028/bin/cwa analyze
#     Work Dir: /scratch/af10028/var/thesis-project/result/workload-analyses/workload-01h-08652l-0s
#

Value	PDF	CDF
0.0	0.155772657314	0.155778173734
2.0	0.0567418922423	0.212520065976
4.0	0.0408049559514	0.253325021928
6.0	0.0325523921954	0.285877414123
8.0	0.0275710652758	0.313448479399
10.0	0.023792317834	0.337240797233
12.0	0.0201459644632	0.357386761696
14.0	0.0186841132631	0.376070874959
16.0	0.0167864649128	0.392857339872
18.0	0.0148888165625	0.407746156435
20.0	0.0146019627421	0.422348119177
22.0	0.0135262609156	0.435874380092
24.0	0.0128201592039	0.448694539296
26.0	0.0116837767615	0.460378316058
28.0	0.0109004451751	0.471278761233
30.0	0.0101943434633	0.481473104696
32.0	0.0099736866784	0.491446791375
34.0	0.00937239693949	0.500819188314
36.0	0.0089200505304	0.509739238844
38.0	0.00839599066622	0.518135229511
40.0	0.00831324437187	0.526448473883
42.0	0.00785538154316	0.534303855426
44.0	0.0073368380986	0.541640693524
46.0	0.00704446785858	0.548685161383
48.0	0.00707756637632	0.555762727759
50.0	0.00674106477932	0.562503792538
52.0	0.00673003194007	0.569233824479
54.0	0.00633284972721	0.575566674206
56.0	0.00591360183586	0.581480276042
58.0	0.00594118393398	0.587421459976
60.0	0.00552745246225	0.592948912438
62.0	0.00567087937245	0.59861979181
64.0	0.00556055097999	0.60418034279
66.0	0.00504200753543	0.609222350326
68.0	0.00490409704485	0.614126447371
70.0	0.00488754778598	0.619013995157
72.0	0.00482686717013	0.623840862327
74.0	0.00463930890295	0.62848017123
76.0	0.00463930890295	0.633119480133
78.0	0.00424764310972	0.637367123242
80.0	0.0042917744667	0.641658897709
82.0	0.0040049206463	0.645663818355
84.0	0.00423661027047	0.649900428626
86.0	0.00417592965462	0.65407635828
88.0	0.00391665793234	0.657993016213
90.0	0.00370703398666	0.661700050199
92.0	0.00385046089686	0.665550511096
94.0	0.00360773843345	0.66915824953
96.0	0.00370151756704	0.672859767097
98.0	0.00344776226438	0.676307529361
100.0	0.00370703398666	0.680014563348
102.0	0.00325468757757	0.683269250925
104.0	0.0032602039972	0.686529454923
106.0	0.00321607264021	0.689745527563
108.0	0.00321607264021	0.692961600203
110.0	0.00322158905984	0.696183189263
112.0	0.00307816214964	0.699261351412
114.0	0.00316090844398	0.702422259856
116.0	0.00280785758811	0.705230117445
118.0	0.00298438301605	0.708214500461
120.0	0.00279130832924	0.71100580879
122.0	0.00299541585529	0.714001224645
124.0	0.00294025165906	0.716941476304
126.0	0.00250997092847	0.719451447233
128.0	0.00262029932093	0.722071746554
130.0	0.0026368485798	0.724708595133
132.0	0.00257065154432	0.727279246678
134.0	0.00231689624166	0.729596142919
136.0	0.00211830513524	0.731714448055
138.0	0.0021569200726	0.733871368127
140.0	0.00241619179488	0.736287559922
142.0	0.00235551117902	0.738643071101
144.0	0.0020852066175	0.740728277719
146.0	0.0023499947594	0.743078272478
148.0	0.00248790524998	0.745566177728
150.0	0.0020852066175	0.747651384346
152.0	0.00232792908091	0.749979313426
154.0	0.00217898575109	0.752158299178
156.0	0.00204107526051	0.754199374438
158.0	0.00193074686805	0.756130121306
160.0	0.00187558267182	0.758005703978
162.0	0.00203004242127	0.760035746399
164.0	0.00199142748391	0.762027173883
166.0	0.00190316476994	0.763930338653
168.0	0.00179283637748	0.76572317503
170.0	0.00180938563635	0.767532560667
172.0	0.00172112292238	0.769253683589
174.0	0.0017983527971	0.771052036386
176.0	0.00184800057371	0.77290003696
178.0	0.00193074686805	0.774830783828
180.0	0.00152804823557	0.776358832064
182.0	0.00182041847559	0.778179250539
184.0	0.00172112292238	0.779900373462
186.0	0.00159976169067	0.781500135152
188.0	0.00157769601218	0.783077831164
190.0	0.0014618512001	0.784539682365
192.0	0.0015335646552	0.78607324702
194.0	0.00155563033369	0.787628877353
196.0	0.00150598255708	0.789134859911
198.0	0.00155563033369	0.790690490244
200.0	0.00137358848613	0.79206407873
202.0	0.00135703922726	0.793421117958
204.0	0.00155563033369	0.794976748291
206.0	0.00134048996839	0.79631723826
208.0	0.00131290787028	0.79763014613
210.0	0.00140668700387	0.799036833134
212.0	0.0014618512001	0.800498684334
214.0	0.0015335646552	0.802032248989
216.0	0.00139565416462	0.803427903154
218.0	0.00121912873668	0.80464703189
220.0	0.00143978552161	0.806086817412
222.0	0.0011749973797	0.807261814792
224.0	0.00125222725442	0.808514042046
226.0	0.0013184242899	0.809832466336
228.0	0.00137910490575	0.811211571242
230.0	0.00133497354877	0.812546544791
232.0	0.000981922692895	0.813528467483
234.0	0.00136255564688	0.81489102313
236.0	0.00114741528159	0.816038438412
238.0	0.00135152280764	0.81738996122
240.0	0.00119706305819	0.818587024278
242.0	0.0011749973797	0.819762021657
244.0	0.00119154663857	0.820953568296
246.0	0.00123016157593	0.822183729872
248.0	0.00108673466573	0.823270464538
250.0	0.00123567799555	0.824506142533
252.0	0.00108673466573	0.825592877199
254.0	0.000998471951764	0.826591349151
256.0	0.00121361231706	0.827804961468
258.0	0.00100950479101	0.828814466259
260.0	0.00102053763026	0.829835003889
262.0	0.000987439112518	0.830822443002
264.0	0.00110880034422	0.831931243346
266.0	0.000910209237796	0.832841452584
268.0	0.00105915256762	0.833900605151
270.0	0.000937791335911	0.834838396487
272.0	0.000888143559304	0.835726540046
274.0	0.00101502121063	0.836741561257
276.0	0.000921242077042	0.837662803334
278.0	0.000893659978927	0.838556463313
280.0	0.00106466898724	0.8396211323
282.0	0.000910209237796	0.840531341538
284.0	0.000838495782697	0.841369837321
286.0	0.000910209237796	0.842280046559
288.0	0.000948824175157	0.843228870734
290.0	0.000871594300435	0.844100465034
292.0	0.000981922692895	0.845082387727
294.0	0.000882627139681	0.845965014867
296.0	0.000893659978927	0.846858674846
298.0	0.000799880845336	0.847658555691
300.0	0.000832979363074	0.848491535054
302.0	0.000970889853649	0.849462424908
304.0	0.000794364425713	0.850256789333
306.0	0.000888143559304	0.851144932893
308.0	0.000761265907975	0.851906198801
310.0	0.000877110720058	0.852783309521
312.0	0.000799880845336	0.853583190366
314.0	0.000849528621943	0.854432718988
316.0	0.000722650970614	0.855155369959
318.0	0.000645421095892	0.855800791055
320.0	0.000932274916288	0.856733065971
322.0	0.000783331586467	0.857516397557
324.0	0.000722650970614	0.858239048528
326.0	0.000832979363074	0.859072027891
328.0	0.000750233068729	0.85982226096
330.0	0.000799880845336	0.860622141805
332.0	0.000717134550991	0.861339276356
334.0	0.000650937515515	0.861990213872
336.0	0.00073368380986	0.862723897681
338.0	0.000750233068729	0.86347413075
340.0	0.000744716649106	0.864218847399
342.0	0.000777815166844	0.864996662566
344.0	0.000639904676269	0.865636567242
346.0	0.000794364425713	0.866430931668
348.0	0.000661970354761	0.867092902023
350.0	0.000695068872499	0.867787970895
352.0	0.000695068872499	0.868483039768
354.0	0.000689552452876	0.869172592221
356.0	0.000650937515515	0.869823529736
358.0	0.000650937515515	0.870474467252
360.0	0.000656453935138	0.871130921187
362.0	0.000650937515515	0.871781858702
364.0	0.000628871837023	0.872410730539
366.0	0.000766782327598	0.873177512867
368.0	0.000557158381924	0.873734671249
370.0	0.000601289738908	0.874335960988
372.0	0.0006233554174	0.874959316405
374.0	0.000673003194007	0.875632319599
376.0	0.000650937515515	0.876283257115
378.0	0.000656453935138	0.87693971105
380.0	0.00073368380986	0.87767339486
382.0	0.000546125542678	0.878219520402
384.0	0.000661970354761	0.878881490757
386.0	0.000557158381924	0.879438649139
388.0	0.000612322578154	0.880050971717
390.0	0.000584740480039	0.880635712197
392.0	0.00051302702494	0.881148739222
394.0	0.000546125542678	0.881694864765
396.0	0.000645421095892	0.882340285861
398.0	0.000529576283809	0.882869862145
400.0	0.000551641962301	0.883421504107
402.0	0.000645421095892	0.884066925203
404.0	0.000551641962301	0.884618567165
406.0	0.000524059864186	0.885142627029
408.0	0.000518543444563	0.885661170474
410.0	0.000601289738908	0.886262460213
412.0	0.000507510605317	0.886769970818
414.0	0.000612322578154	0.887382293396
416.0	0.000452346409087	0.887834639805
418.0	0.000551641962301	0.888386281768
420.0	0.000490961346448	0.888877243114
422.0	0.000628871837023	0.889506114951
424.0	0.000518543444563	0.890024658396
426.0	0.000463379248333	0.890488037644
428.0	0.000490961346448	0.89097899899
430.0	0.000518543444563	0.891497542435
432.0	0.000474412087579	0.891971954523
434.0	0.000518543444563	0.892490497967
436.0	0.000540609123055	0.89303110709
438.0	0.00045786282871	0.893488969919
440.0	0.000463379248333	0.893952349167
442.0	0.000501994185694	0.894454343353
444.0	0.000424764310972	0.894879107664
446.0	0.000452346409087	0.895331454073
448.0	0.00051302702494	0.895844481098
450.0	0.000463379248333	0.896307860346
452.0	0.00045786282871	0.896765723175
454.0	0.000435797150218	0.897201520325
456.0	0.000524059864186	0.897725580189
458.0	0.000364083695119	0.898089663885
460.0	0.000435797150218	0.898525461035
462.0	0.000479928507202	0.899005389542
464.0	0.000430280730595	0.899435670273
466.0	0.00040269863248	0.899838368905
468.0	0.000452346409087	0.900290715314
470.0	0.000430280730595	0.900720996045
472.0	0.000463379248333	0.901184375293
474.0	0.000446829989464	0.901631205283
476.0	0.000380632953988	0.902011838237
478.0	0.000424764310972	0.902436602547
480.0	0.000590256899662	0.903026859447
482.0	0.000424764310972	0.903451623758
484.0	0.00045786282871	0.903909486587
486.0	0.000501994185694	0.904411480773
488.0	0.000474412087579	0.90488589286
490.0	0.000446829989464	0.90533272285
492.0	0.000408215052103	0.905740937902
494.0	0.000397182212857	0.906138120115
496.0	0.000446829989464	0.906584950104
498.0	0.000375116534365	0.906960066638
500.0	0.000430280730595	0.907390347369
502.0	0.000397182212857	0.907787529582
504.0	0.000413731471726	0.908201261054
506.0	0.000490961346448	0.9086922224
508.0	0.000452346409087	0.909144568809
510.0	0.000397182212857	0.909541751022
512.0	0.000375116534365	0.909916867556
514.0	0.000391665793234	0.91030853335
516.0	0.000463379248333	0.910771912598
518.0	0.000430280730595	0.911202193328
520.0	0.000375116534365	0.911577309863
522.0	0.000435797150218	0.912013107013
524.0	0.000441313569841	0.912454420583
526.0	0.000375116534365	0.912829537117
528.0	0.000336501597003	0.913166038714
530.0	0.000319952338134	0.913485991052
532.0	0.000397182212857	0.913883173265
534.0	0.000325468757757	0.914208642023
536.0	0.000353050855873	0.914561692879
538.0	0.000314435918511	0.914876128797
540.0	0.000408215052103	0.915284343849
542.0	0.000314435918511	0.915598779768
544.0	0.000353050855873	0.915951830624
546.0	0.000292370240019	0.916244200864
548.0	0.000364083695119	0.916608284559
550.0	0.000369600114742	0.916977884674
552.0	0.000308919498888	0.917286804173
554.0	0.00033098517738	0.91761778935
556.0	0.000314435918511	0.917932225269
558.0	0.000314435918511	0.918246661187
560.0	0.000336501597003	0.918583162784
562.0	0.000369600114742	0.918952762899
564.0	0.000325468757757	0.919278231657
566.0	0.000319952338134	0.919598183995
568.0	0.000342018016626	0.919940202011
570.0	0.000248238883035	0.920188440894
572.0	0.000336501597003	0.920524942491
574.0	0.000314435918511	0.92083937841
576.0	0.000369600114742	0.921208978525
578.0	0.00022065678492	0.921429635309
580.0	0.000314435918511	0.921744071228
582.0	0.000198591106428	0.921942662334
584.0	0.000297886659642	0.922240548994
586.0	0.000281337400773	0.922521886395
588.0	0.000353050855873	0.922874937251
590.0	0.000281337400773	0.923156274652
592.0	0.00027582098115	0.923432095633
594.0	0.000325468757757	0.92375756439
596.0	0.000297886659642	0.92405545105
598.0	0.000292370240019	0.92434782129
600.0	0.000308919498888	0.924656740789
602.0	0.000281337400773	0.92493807819
604.0	0.00033098517738	0.925269063367
606.0	0.000281337400773	0.925550400768
608.0	0.000226173204543	0.925776573972
610.0	0.000342018016626	0.926118591989
612.0	0.000264788141904	0.926383380131
614.0	0.000308919498888	0.92669229963
616.0	0.000209623945674	0.926901923576
618.0	0.000231689624166	0.9271336132
620.0	0.000209623945674	0.927343237145
622.0	0.000264788141904	0.927608025287
624.0	0.000248238883035	0.92785626417
626.0	0.000297886659642	0.92815415083
628.0	0.000292370240019	0.92844652107
630.0	0.000231689624166	0.928678210694
632.0	0.000297886659642	0.928976097354
634.0	0.000237206043789	0.929213303398
636.0	0.00022065678492	0.929433960182
638.0	0.000259271722281	0.929693231905
640.0	0.000342018016626	0.930035249921
642.0	0.000319952338134	0.93035520226
644.0	0.000253755302658	0.930608957562
646.0	0.00022065678492	0.930829614347
648.0	0.000231689624166	0.931061303971
650.0	0.00022065678492	0.931281960756
652.0	0.000237206043789	0.9315191668
654.0	0.000209623945674	0.931728790746
656.0	0.000231689624166	0.93196048037
658.0	0.000204107526051	0.932164587896
660.0	0.000259271722281	0.932423859618
662.0	0.000259271722281	0.93268313134
664.0	0.000209623945674	0.932892755286
666.0	0.00033098517738	0.933223740463
668.0	0.000270304561527	0.933494045025
670.0	0.000231689624166	0.933725734649
672.0	0.000226173204543	0.933951907854
674.0	0.000242722463412	0.934194630317
676.0	0.00022065678492	0.934415287102
678.0	0.000242722463412	0.934658009565
680.0	0.000281337400773	0.934939346966
682.0	0.000176525427936	0.935115872394
684.0	0.000253755302658	0.935369627697
686.0	0.000270304561527	0.935639932258
688.0	0.000209623945674	0.935849556204
690.0	0.000204107526051	0.93605366373
692.0	0.000303403079265	0.936357066809
694.0	0.000237206043789	0.936594272853
696.0	0.000226173204543	0.936820446058
698.0	0.000297886659642	0.937118332717
700.0	0.000270304561527	0.937388637279
702.0	0.000176525427936	0.937565162707
704.0	0.000231689624166	0.937796852331
706.0	0.000176525427936	0.937973377759
708.0	0.000193074686805	0.938166452446
710.0	0.000226173204543	0.93839262565
712.0	0.000198591106428	0.938591216757
714.0	0.000237206043789	0.9388284228
716.0	0.000242722463412	0.939071145264
718.0	0.000237206043789	0.939308351308
720.0	0.000171009008313	0.939479360316
722.0	0.000253755302658	0.939733115619
724.0	0.00016549258869	0.939898608207
726.0	0.000176525427936	0.940075133635
728.0	0.000248238883035	0.940323372518
730.0	0.000209623945674	0.940532996464
732.0	0.000215140365297	0.940748136829
734.0	0.000237206043789	0.940985342873
736.0	0.000204107526051	0.941189450399
738.0	0.000159976169067	0.941349426568
740.0	0.000242722463412	0.941592149032
742.0	0.000132394070952	0.941724543103
744.0	0.000182041847559	0.94190658495
746.0	0.000248238883035	0.942154823833
748.0	0.000215140365297	0.942369964198
750.0	0.000187558267182	0.942557522466
752.0	0.000231689624166	0.94278921209
754.0	0.000204107526051	0.942993319616
756.0	0.00022065678492	0.943213976401
758.0	0.000231689624166	0.943445666025
760.0	0.000231689624166	0.943677355649
762.0	0.000242722463412	0.943920078113
764.0	0.000226173204543	0.944146251317
766.0	0.000148943329821	0.944295194647
768.0	0.00022065678492	0.944515851432
770.0	0.000132394070952	0.944648245503
772.0	0.000248238883035	0.944896484386
774.0	0.000209623945674	0.945106108331
776.0	0.000187558267182	0.945293666599
778.0	0.000204107526051	0.945497774125
780.0	0.000226173204543	0.945723947329
782.0	0.000264788141904	0.945988735471
784.0	0.000104811972837	0.946093547444
786.0	0.000226173204543	0.946319720649
788.0	0.000198591106428	0.946518311755
790.0	0.00016549258869	0.946683804344
792.0	0.000159976169067	0.946843780513
794.0	0.000171009008313	0.947014789521
796.0	0.000159976169067	0.94717476569
798.0	0.000154459749444	0.94732922544
800.0	0.000159976169067	0.947489201609
802.0	0.00022065678492	0.947709858394
804.0	0.000193074686805	0.94790293308
806.0	0.000159976169067	0.948062909249
808.0	0.000176525427936	0.948239434677
810.0	0.00011032839246	0.94834976307
812.0	0.000176525427936	0.948526288498
814.0	0.000204107526051	0.948730396024
816.0	0.00022065678492	0.948951052809
818.0	0.00016549258869	0.949116545397
820.0	0.000121361231706	0.949237906629
822.0	0.000193074686805	0.949430981316
824.0	0.000137910490575	0.949568891806
826.0	0.000159976169067	0.949728867976
828.0	0.000121361231706	0.949850229207
830.0	0.000182041847559	0.950032271055
832.0	0.00016549258869	0.950197763643
834.0	0.000171009008313	0.950368772652
836.0	0.000154459749444	0.950523232401
838.0	0.000182041847559	0.950705274249
840.0	0.00011032839246	0.950815602641
842.0	0.000187558267182	0.951003160908
844.0	0.000121361231706	0.95112452214
846.0	0.000148943329821	0.95127346547
848.0	0.000154459749444	0.951427925219
850.0	0.000143426910198	0.95157135213
852.0	0.000143426910198	0.95171477904
854.0	0.000143426910198	0.95185820595
856.0	0.000193074686805	0.952051280637
858.0	0.000154459749444	0.952205740386
860.0	0.000143426910198	0.952349167296
862.0	0.000137910490575	0.952487077787
864.0	0.000204107526051	0.952691185313
866.0	0.000137910490575	0.952829095804
868.0	0.000182041847559	0.953011137651
870.0	0.000159976169067	0.95317111382
872.0	0.000132394070952	0.953303507891
874.0	7.72298747221e-05	0.953380737766
876.0	0.000154459749444	0.953535197515
878.0	0.000148943329821	0.953684140845
880.0	0.000115844812083	0.953799985657
882.0	0.000209623945674	0.954009609603
884.0	0.000132394070952	0.954142003674
886.0	0.000154459749444	0.954296463423
888.0	0.000159976169067	0.954456439592
890.0	8.27462943451e-05	0.954539185887
892.0	0.00016549258869	0.954704678475
894.0	0.000104811972837	0.954809490448
896.0	0.00016549258869	0.954974983037
898.0	0.000104811972837	0.95507979501
900.0	0.000121361231706	0.955201156242
902.0	0.000182041847559	0.955383198089
904.0	0.000187558267182	0.955570756356
906.0	0.000143426910198	0.955714183266
908.0	0.000215140365297	0.955929323632
910.0	0.000143426910198	0.956072750542
912.0	0.000104811972837	0.956177562515
914.0	0.000132394070952	0.956309956586
916.0	0.000115844812083	0.956425801398
918.0	0.000132394070952	0.956558195469
920.0	0.000154459749444	0.956712655218
922.0	0.000176525427936	0.956889180646
924.0	0.000154459749444	0.957043640396
926.0	8.82627139681e-05	0.95713190311
928.0	0.00011032839246	0.957242231502
930.0	0.000148943329821	0.957391174832
932.0	9.92955532141e-05	0.957490470385
934.0	0.000148943329821	0.957639413715
936.0	0.000154459749444	0.957793873464
938.0	0.000154459749444	0.957948333214
940.0	0.000148943329821	0.958097276544
942.0	0.000148943329821	0.958246219873
944.0	0.000154459749444	0.958400679623
946.0	0.000115844812083	0.958516524435
948.0	0.000115844812083	0.958632369247
950.0	0.000143426910198	0.958775796157
952.0	0.000148943329821	0.958924739487
954.0	0.000126877651329	0.959051617138
956.0	0.000137910490575	0.959189527629
958.0	0.000137910490575	0.95932743812
960.0	0.00011032839246	0.959437766512
962.0	0.000171009008313	0.95960877552
964.0	0.00011032839246	0.959719103913
966.0	0.000148943329821	0.959868047243
968.0	0.000115844812083	0.959983892055
970.0	0.000137910490575	0.960121802545
972.0	0.000154459749444	0.960276262295
974.0	0.000143426910198	0.960419689205
976.0	0.000137910490575	0.960557599695
978.0	0.00011032839246	0.960667928088
980.0	8.82627139681e-05	0.960756190802
982.0	0.000104811972837	0.960861002775
984.0	0.000104811972837	0.960965814748
986.0	9.92955532141e-05	0.961065110301
988.0	0.000104811972837	0.961169922274
990.0	0.000126877651329	0.961296799925
992.0	5.51641962301e-05	0.961351964121
994.0	9.37791335911e-05	0.961445743255
996.0	8.27462943451e-05	0.961528489549
998.0	0.000126877651329	0.9616553672
1000.0	6.06806158531e-05	0.961716047816
1002.0	0.000104811972837	0.961820859789
1004.0	0.000115844812083	0.961936704601
1006.0	0.00011032839246	0.962047032994
1008.0	0.00011032839246	0.962157361386
1010.0	0.00011032839246	0.962267689779
1012.0	0.000104811972837	0.962372501751
1014.0	0.000115844812083	0.962488346564
1016.0	8.27462943451e-05	0.962571092858
1018.0	8.27462943451e-05	0.962653839152
1020.0	7.72298747221e-05	0.962731069027
1022.0	0.000126877651329	0.962857946678
1024.0	7.17134550991e-05	0.962929660133
1026.0	8.82627139681e-05	0.963017922847
1028.0	0.000121361231706	0.963139284079
1030.0	7.72298747221e-05	0.963216513954
1032.0	0.00011032839246	0.963326842346
1034.0	8.82627139681e-05	0.96341510506
1036.0	0.000132394070952	0.963547499131
1038.0	9.92955532141e-05	0.963646794684
1040.0	8.27462943451e-05	0.963729540979
1042.0	9.92955532141e-05	0.963828836532
1044.0	8.82627139681e-05	0.963917099246
1046.0	0.000154459749444	0.964071558995
1048.0	0.000104811972837	0.964176370968
1050.0	0.000154459749444	0.964330830718
1052.0	5.51641962301e-05	0.964385994914
1054.0	8.27462943451e-05	0.964468741208
1056.0	9.92955532141e-05	0.964568036761
1058.0	0.000121361231706	0.964689397993
1060.0	0.000137910490575	0.964827308484
1062.0	9.37791335911e-05	0.964921087617
1064.0	9.37791335911e-05	0.965014866751
1066.0	0.000115844812083	0.965130711563
1068.0	8.82627139681e-05	0.965218974277
1070.0	0.000115844812083	0.965334819089
1072.0	4.41313569841e-05	0.965378950446
1074.0	8.27462943451e-05	0.96546169674
1076.0	0.000132394070952	0.965594090811
1078.0	8.27462943451e-05	0.965676837106
1080.0	0.000121361231706	0.965798198337
1082.0	0.000115844812083	0.965914043149
1084.0	7.72298747221e-05	0.965991273024
1086.0	0.000126877651329	0.966118150675
1088.0	0.000104811972837	0.966222962648
1090.0	7.17134550991e-05	0.966294676103
1092.0	9.37791335911e-05	0.966388455237
1094.0	8.82627139681e-05	0.966476717951
1096.0	7.72298747221e-05	0.966553947826
1098.0	0.000126877651329	0.966680825477
1100.0	9.37791335911e-05	0.966774604611
1102.0	6.06806158531e-05	0.966835285226
1104.0	7.17134550991e-05	0.966906998682
1106.0	8.82627139681e-05	0.966995261396
1108.0	8.82627139681e-05	0.96708352411
1110.0	8.27462943451e-05	0.967166270404
1112.0	9.92955532141e-05	0.967265565957
1114.0	0.00011032839246	0.96737589435
1116.0	6.06806158531e-05	0.967436574965
1118.0	8.27462943451e-05	0.96751932126
1120.0	7.72298747221e-05	0.967596551134
1122.0	9.37791335911e-05	0.967690330268
1124.0	8.82627139681e-05	0.967778592982
1126.0	8.27462943451e-05	0.967861339276
1128.0	9.92955532141e-05	0.96796063483
1130.0	0.000115844812083	0.968076479642
1132.0	0.00011032839246	0.968186808034
1134.0	9.92955532141e-05	0.968286103587
1136.0	6.61970354761e-05	0.968352300623
1138.0	8.82627139681e-05	0.968440563337
1140.0	7.17134550991e-05	0.968512276792
1142.0	0.000132394070952	0.968644670863
1144.0	7.17134550991e-05	0.968716384318
1146.0	5.51641962301e-05	0.968771548514
1148.0	4.41313569841e-05	0.968815679871
1150.0	3.86149373611e-05	0.968854294808
1152.0	0.000104811972837	0.968959106781
1154.0	0.000104811972837	0.969063918754
1156.0	4.41313569841e-05	0.969108050111
1158.0	8.82627139681e-05	0.969196312825
1160.0	9.37791335911e-05	0.969290091959
1162.0	5.51641962301e-05	0.969345256155
1164.0	9.92955532141e-05	0.969444551708
1166.0	9.92955532141e-05	0.969543847261
1168.0	9.37791335911e-05	0.969637626395
1170.0	8.27462943451e-05	0.969720372689
1172.0	8.82627139681e-05	0.969808635403
1174.0	5.51641962301e-05	0.9698637996
1176.0	9.37791335911e-05	0.969957578733
1178.0	0.000115844812083	0.970073423545
1180.0	8.27462943451e-05	0.97015616984
1182.0	4.96477766071e-05	0.970205817616
1184.0	0.000126877651329	0.970332695267
1186.0	6.61970354761e-05	0.970398892303
1188.0	8.82627139681e-05	0.970487155017
1190.0	7.17134550991e-05	0.970558868472
1192.0	5.51641962301e-05	0.970614032668
1194.0	6.61970354761e-05	0.970680229704
1196.0	7.72298747221e-05	0.970757459578
1198.0	0.000121361231706	0.97087882081
1200.0	7.72298747221e-05	0.970956050685
1202.0	0.000121361231706	0.971077411917
1204.0	6.06806158531e-05	0.971138092532
1206.0	8.27462943451e-05	0.971220838827
1208.0	0.000143426910198	0.971364265737
1210.0	8.27462943451e-05	0.971447012031
1212.0	7.17134550991e-05	0.971518725486
1214.0	7.72298747221e-05	0.971595955361
1216.0	8.27462943451e-05	0.971678701655
1218.0	7.72298747221e-05	0.97175593153
1220.0	4.41313569841e-05	0.971800062887
1222.0	9.37791335911e-05	0.971893842021
1224.0	8.27462943451e-05	0.971976588315
1226.0	0.000104811972837	0.972081400288
1228.0	6.61970354761e-05	0.972147597323
1230.0	6.61970354761e-05	0.972213794359
1232.0	0.00011032839246	0.972324122751
1234.0	7.17134550991e-05	0.972395836206
1236.0	8.82627139681e-05	0.97248409892
1238.0	7.17134550991e-05	0.972555812376
1240.0	7.17134550991e-05	0.972627525831
1242.0	6.61970354761e-05	0.972693722866
1244.0	6.06806158531e-05	0.972754403482
1246.0	4.96477766071e-05	0.972804051259
1248.0	6.61970354761e-05	0.972870248294
1250.0	6.61970354761e-05	0.97293644533
1252.0	5.51641962301e-05	0.972991609526
1254.0	8.82627139681e-05	0.97307987224
1256.0	6.61970354761e-05	0.973146069275
1258.0	8.82627139681e-05	0.973234331989
1260.0	5.51641962301e-05	0.973289496185
1262.0	0.000115844812083	0.973405340997
1264.0	4.41313569841e-05	0.973449472354
1266.0	6.61970354761e-05	0.97351566939
1268.0	3.86149373611e-05	0.973554284327
1270.0	6.61970354761e-05	0.973620481363
1272.0	9.37791335911e-05	0.973714260496
1274.0	8.82627139681e-05	0.97380252321
1276.0	7.72298747221e-05	0.973879753085
1278.0	7.72298747221e-05	0.97395698296
1280.0	7.17134550991e-05	0.974028696415
1282.0	6.61970354761e-05	0.97409489345
1284.0	6.06806158531e-05	0.974155574066
1286.0	6.61970354761e-05	0.974221771102
1288.0	3.86149373611e-05	0.974260386039
1290.0	8.82627139681e-05	0.974348648753
1292.0	6.61970354761e-05	0.974414845788
1294.0	6.61970354761e-05	0.974481042824
1296.0	7.72298747221e-05	0.974558272699
1298.0	6.61970354761e-05	0.974624469734
1300.0	7.17134550991e-05	0.974696183189
1302.0	6.06806158531e-05	0.974756863805
1304.0	5.51641962301e-05	0.974812028001
1306.0	9.92955532141e-05	0.974911323555
1308.0	6.06806158531e-05	0.97497200417
1310.0	2.7582098115e-05	0.974999586269
1312.0	8.82627139681e-05	0.975087848982
1314.0	9.37791335911e-05	0.975181628116
1316.0	2.2065678492e-05	0.975203693795
1318.0	9.92955532141e-05	0.975302989348
1320.0	6.06806158531e-05	0.975363669964
1322.0	9.37791335911e-05	0.975457449097
1324.0	6.61970354761e-05	0.975523646133
1326.0	5.51641962301e-05	0.975578810329
1328.0	4.41313569841e-05	0.975622941686
1330.0	5.51641962301e-05	0.975678105882
1332.0	6.61970354761e-05	0.975744302918
1334.0	4.96477766071e-05	0.975793950694
1336.0	8.27462943451e-05	0.975876696989
1338.0	6.61970354761e-05	0.975942894024
1340.0	4.96477766071e-05	0.975992541801
1342.0	6.61970354761e-05	0.976058738836
1344.0	8.27462943451e-05	0.97614148513
1346.0	3.86149373611e-05	0.976180100068
1348.0	2.7582098115e-05	0.976207682166
1350.0	7.72298747221e-05	0.976284912041
1352.0	7.17134550991e-05	0.976356625496
1354.0	3.86149373611e-05	0.976395240433
1356.0	8.27462943451e-05	0.976477986727
1358.0	8.27462943451e-05	0.976560733022
1361.0	7.72298747221e-05	0.976637962897
1363.0	7.72298747221e-05	0.976715192771
1365.0	8.27462943451e-05	0.976797939066
1367.0	8.27462943451e-05	0.97688068536
1369.0	6.61970354761e-05	0.976946882395
1371.0	5.51641962301e-05	0.977002046592
1373.0	4.96477766071e-05	0.977051694368
1375.0	4.96477766071e-05	0.977101342145
1377.0	3.3098517738e-05	0.977134440663
1379.0	6.06806158531e-05	0.977195121278
1381.0	7.17134550991e-05	0.977266834734
1383.0	3.86149373611e-05	0.977305449671
1385.0	6.61970354761e-05	0.977371646706
1387.0	3.86149373611e-05	0.977410261644
1389.0	0.000104811972837	0.977515073617
1391.0	6.06806158531e-05	0.977575754232
1393.0	5.51641962301e-05	0.977630918429
1395.0	5.51641962301e-05	0.977686082625
1397.0	4.41313569841e-05	0.977730213982
1399.0	8.27462943451e-05	0.977812960276
1401.0	6.06806158531e-05	0.977873640892
1403.0	4.41313569841e-05	0.977917772249
1405.0	7.72298747221e-05	0.977995002124
1407.0	7.17134550991e-05	0.978066715579
1409.0	1.6549258869e-05	0.978083264838
1411.0	5.51641962301e-05	0.978138429034
1413.0	6.61970354761e-05	0.978204626069
1415.0	5.51641962301e-05	0.978259790266
1417.0	8.27462943451e-05	0.97834253656
1419.0	7.72298747221e-05	0.978419766435
1421.0	3.86149373611e-05	0.978458381372
1423.0	4.96477766071e-05	0.978508029149
1425.0	6.61970354761e-05	0.978574226184
1427.0	2.7582098115e-05	0.978601808282
1429.0	4.96477766071e-05	0.978651456059
1431.0	7.72298747221e-05	0.978728685934
1433.0	3.3098517738e-05	0.978761784451
1435.0	5.51641962301e-05	0.978816948648
1437.0	4.41313569841e-05	0.978861080005
1439.0	2.7582098115e-05	0.978888662103
1441.0	4.41313569841e-05	0.97893279346
1443.0	4.41313569841e-05	0.978976924817
1445.0	5.51641962301e-05	0.979032089013
1447.0	3.3098517738e-05	0.979065187531
1449.0	5.51641962301e-05	0.979120351727
1451.0	3.86149373611e-05	0.979158966664
1453.0	3.3098517738e-05	0.979192065182
1455.0	4.41313569841e-05	0.979236196539
1457.0	6.61970354761e-05	0.979302393574
1459.0	6.61970354761e-05	0.97936859061
1461.0	4.41313569841e-05	0.979412721967
1463.0	6.06806158531e-05	0.979473402583
1466.0	4.41313569841e-05	0.97951753394
1468.0	2.2065678492e-05	0.979539599618
1470.0	5.51641962301e-05	0.979594763814
1472.0	1.6549258869e-05	0.979611313073
1474.0	6.06806158531e-05	0.979671993689
1476.0	3.86149373611e-05	0.979710608627
1478.0	6.61970354761e-05	0.979776805662
1480.0	3.3098517738e-05	0.97980990418
1482.0	6.61970354761e-05	0.979876101215
1484.0	3.86149373611e-05	0.979914716153
1486.0	3.86149373611e-05	0.97995333109
1488.0	6.06806158531e-05	0.980014011706
1490.0	3.86149373611e-05	0.980052626643
1492.0	4.41313569841e-05	0.980096758
1494.0	4.96477766071e-05	0.980146405777
1496.0	3.86149373611e-05	0.980185020714
1498.0	5.51641962301e-05	0.98024018491
1500.0	5.51641962301e-05	0.980295349107
1502.0	1.6549258869e-05	0.980311898365
1504.0	5.51641962301e-05	0.980367062562
1506.0	4.41313569841e-05	0.980411193919
1508.0	4.41313569841e-05	0.980455325276
1510.0	5.51641962301e-05	0.980510489472
1512.0	5.51641962301e-05	0.980565653668
1514.0	3.3098517738e-05	0.980598752186
1516.0	3.86149373611e-05	0.980637367123
1518.0	5.51641962301e-05	0.980692531319
1520.0	3.86149373611e-05	0.980731146257
1522.0	5.51641962301e-05	0.980786310453
1524.0	4.41313569841e-05	0.98083044181
1526.0	5.51641962301e-05	0.980885606006
1528.0	2.7582098115e-05	0.980913188104
1530.0	3.3098517738e-05	0.980946286622
1532.0	6.06806158531e-05	0.981006967238
1534.0	6.06806158531e-05	0.981067647854
1536.0	3.86149373611e-05	0.981106262791
1538.0	4.96477766071e-05	0.981155910568
1540.0	4.96477766071e-05	0.981205558344
1542.0	3.3098517738e-05	0.981238656862
1544.0	2.2065678492e-05	0.981260722541
1546.0	4.41313569841e-05	0.981304853898
1548.0	3.3098517738e-05	0.981337952415
1550.0	5.51641962301e-05	0.981393116612
1552.0	4.96477766071e-05	0.981442764388
1554.0	4.41313569841e-05	0.981486895745
1556.0	2.7582098115e-05	0.981514477843
1558.0	6.61970354761e-05	0.981580674879
1560.0	3.3098517738e-05	0.981613773397
1562.0	4.41313569841e-05	0.981657904753
1564.0	3.86149373611e-05	0.981696519691
1566.0	6.06806158531e-05	0.981757200307
1568.0	5.51641962301e-05	0.981812364503
1570.0	5.51641962301e-05	0.981867528699
1572.0	3.3098517738e-05	0.981900627217
1574.0	5.51641962301e-05	0.981955791413
1576.0	2.7582098115e-05	0.981983373511
1578.0	2.7582098115e-05	0.982010955609
1580.0	4.96477766071e-05	0.982060603386
1582.0	1.1032839246e-05	0.982071636225
1584.0	4.41313569841e-05	0.982115767582
1586.0	2.7582098115e-05	0.98214334968
1588.0	4.41313569841e-05	0.982187481037
1590.0	7.17134550991e-05	0.982259194492
1592.0	4.41313569841e-05	0.982303325849
1594.0	6.61970354761e-05	0.982369522885
1596.0	2.7582098115e-05	0.982397104983
1598.0	3.3098517738e-05	0.982430203501
1600.0	2.7582098115e-05	0.982457785599
1602.0	4.96477766071e-05	0.982507433375
1604.0	6.61970354761e-05	0.982573630411
1606.0	2.7582098115e-05	0.982601212509
1608.0	5.51641962301e-05	0.982656376705
1610.0	3.86149373611e-05	0.982694991643
1612.0	4.41313569841e-05	0.982739123
1614.0	6.61970354761e-05	0.982805320035
1616.0	2.2065678492e-05	0.982827385714
1618.0	4.96477766071e-05	0.98287703349
1620.0	3.3098517738e-05	0.982910132008
1623.0	6.06806158531e-05	0.982970812624
1625.0	4.41313569841e-05	0.983014943981
1627.0	4.41313569841e-05	0.983059075338
1629.0	3.3098517738e-05	0.983092173855
1631.0	3.3098517738e-05	0.983125272373
1633.0	4.96477766071e-05	0.98317492015
1635.0	7.17134550991e-05	0.983246633605
1637.0	3.3098517738e-05	0.983279732123
1639.0	1.1032839246e-05	0.983290764962
1641.0	3.86149373611e-05	0.983329379899
1643.0	3.3098517738e-05	0.983362478417
1645.0	1.6549258869e-05	0.983379027676
1647.0	4.41313569841e-05	0.983423159033
1649.0	2.2065678492e-05	0.983445224711
1651.0	3.86149373611e-05	0.983483839649
1653.0	7.17134550991e-05	0.983555553104
1655.0	3.86149373611e-05	0.983594168041
1657.0	6.61970354761e-05	0.983660365077
1659.0	2.2065678492e-05	0.983682430755
1661.0	4.41313569841e-05	0.983726562112
1663.0	3.86149373611e-05	0.983765177049
1665.0	3.86149373611e-05	0.983803791987
1667.0	2.7582098115e-05	0.983831374085
1669.0	2.7582098115e-05	0.983858956183
1671.0	7.17134550991e-05	0.983930669638
1673.0	3.86149373611e-05	0.983969284576
1675.0	4.41313569841e-05	0.984013415933
1677.0	1.1032839246e-05	0.984024448772
1679.0	2.2065678492e-05	0.98404651445
1681.0	4.41313569841e-05	0.984090645807
1683.0	4.41313569841e-05	0.984134777164
1685.0	4.41313569841e-05	0.984178908521
1687.0	5.51641962301e-05	0.984234072717
1689.0	1.6549258869e-05	0.984250621976
1691.0	2.2065678492e-05	0.984272687655
1693.0	3.86149373611e-05	0.984311302592
1695.0	3.86149373611e-05	0.98434991753
1697.0	4.96477766071e-05	0.984399565306
1699.0	3.86149373611e-05	0.984438180243
1701.0	2.2065678492e-05	0.984460245922
1703.0	4.96477766071e-05	0.984509893699
1705.0	3.86149373611e-05	0.984548508636
1707.0	4.41313569841e-05	0.984592639993
1709.0	2.2065678492e-05	0.984614705671
1711.0	4.96477766071e-05	0.984664353448
1713.0	6.06806158531e-05	0.984725034064
1715.0	2.7582098115e-05	0.984752616162
1717.0	3.3098517738e-05	0.98478571468
1719.0	5.51641962301e-05	0.984840878876
1721.0	3.86149373611e-05	0.984879493813
1723.0	3.3098517738e-05	0.984912592331
1725.0	2.2065678492e-05	0.98493465801
1727.0	4.96477766071e-05	0.984984305786
1729.0	3.86149373611e-05	0.985022920724
1731.0	4.41313569841e-05	0.985067052081
1733.0	2.7582098115e-05	0.985094634179
1735.0	1.6549258869e-05	0.985111183438
1737.0	4.96477766071e-05	0.985160831214
1739.0	3.3098517738e-05	0.985193929732
1741.0	3.86149373611e-05	0.985232544669
1743.0	4.41313569841e-05	0.985276676026
1745.0	3.3098517738e-05	0.985309774544
1747.0	1.6549258869e-05	0.985326323803
1749.0	3.86149373611e-05	0.98536493874
1751.0	2.7582098115e-05	0.985392520838
1753.0	1.6549258869e-05	0.985409070097
1755.0	2.2065678492e-05	0.985431135776
1757.0	4.41313569841e-05	0.985475267133
1759.0	2.7582098115e-05	0.985502849231
1761.0	2.7582098115e-05	0.985530431329
1763.0	1.6549258869e-05	0.985546980588
1765.0	2.2065678492e-05	0.985569046266
1767.0	4.41313569841e-05	0.985613177623
1769.0	3.86149373611e-05	0.985651792561
1771.0	2.2065678492e-05	0.985673858239
1773.0	3.86149373611e-05	0.985712473176
1775.0	3.3098517738e-05	0.985745571694
1777.0	2.2065678492e-05	0.985767637373
1779.0	3.86149373611e-05	0.98580625231
1781.0	3.3098517738e-05	0.985839350828
1783.0	3.3098517738e-05	0.985872449345
1785.0	2.2065678492e-05	0.985894515024
1787.0	4.41313569841e-05	0.985938646381
1789.0	3.3098517738e-05	0.985971744899
1792.0	2.2065678492e-05	0.985993810577
1794.0	4.41313569841e-05	0.986037941934
1796.0	2.2065678492e-05	0.986060007613
1798.0	3.86149373611e-05	0.98609862255
1800.0	3.3098517738e-05	0.986131721068
1802.0	2.2065678492e-05	0.986153786746
1804.0	4.41313569841e-05	0.986197918103
1806.0	3.86149373611e-05	0.986236533041
1808.0	3.3098517738e-05	0.986269631558
1810.0	6.61970354761e-05	0.986335828594
1812.0	2.7582098115e-05	0.986363410692
1814.0	1.6549258869e-05	0.986379959951
1816.0	2.2065678492e-05	0.986402025629
1818.0	2.7582098115e-05	0.986429607727
1820.0	3.3098517738e-05	0.986462706245
1822.0	4.41313569841e-05	0.986506837602
1824.0	2.2065678492e-05	0.986528903281
1826.0	6.06806158531e-05	0.986589583896
1828.0	1.6549258869e-05	0.986606133155
1830.0	1.6549258869e-05	0.986622682414
1832.0	2.7582098115e-05	0.986650264512
1834.0	2.7582098115e-05	0.98667784661
1837.0	3.3098517738e-05	0.986710945128
1839.0	3.3098517738e-05	0.986744043646
1841.0	2.7582098115e-05	0.986771625744
1843.0	2.7582098115e-05	0.986799207842
1845.0	1.6549258869e-05	0.986815757101
1848.0	4.96477766071e-05	0.986865404878
1850.0	3.3098517738e-05	0.986898503395
1852.0	3.3098517738e-05	0.986931601913
1854.0	3.86149373611e-05	0.98697021685
1856.0	4.41313569841e-05	0.987014348207
1858.0	2.7582098115e-05	0.987041930306
1860.0	2.7582098115e-05	0.987069512404
1862.0	3.86149373611e-05	0.987108127341
1864.0	2.7582098115e-05	0.987135709439
1866.0	3.3098517738e-05	0.987168807957
1868.0	2.2065678492e-05	0.987190873635
1870.0	2.2065678492e-05	0.987212939314
1872.0	2.7582098115e-05	0.987240521412
1874.0	3.86149373611e-05	0.987279136349
1876.0	5.51641962301e-05	0.987334300546
1878.0	2.7582098115e-05	0.987361882644
1880.0	3.3098517738e-05	0.987394981161
1882.0	3.86149373611e-05	0.987433596099
1884.0	3.3098517738e-05	0.987466694617
1886.0	2.2065678492e-05	0.987488760295
1889.0	3.86149373611e-05	0.987527375232
1891.0	1.1032839246e-05	0.987538408072
1893.0	7.17134550991e-05	0.987610121527
1895.0	1.6549258869e-05	0.987626670786
1897.0	1.6549258869e-05	0.987643220044
1899.0	2.2065678492e-05	0.987665285723
1901.0	1.6549258869e-05	0.987681834982
1903.0	2.7582098115e-05	0.98770941708
1905.0	3.3098517738e-05	0.987742515598
1907.0	3.86149373611e-05	0.987781130535
1909.0	3.3098517738e-05	0.987814229053
1911.0	3.3098517738e-05	0.987847327571
1914.0	1.6549258869e-05	0.987863876829
1916.0	2.2065678492e-05	0.987885942508
1918.0	1.1032839246e-05	0.987896975347
1920.0	1.1032839246e-05	0.987908008186
1923.0	3.3098517738e-05	0.987941106704
1925.0	3.3098517738e-05	0.987974205222
1927.0	1.6549258869e-05	0.987990754481
1930.0	4.41313569841e-05	0.988034885838
1932.0	1.6549258869e-05	0.988051435097
1935.0	2.7582098115e-05	0.988079017195
1937.0	2.7582098115e-05	0.988106599293
1940.0	3.86149373611e-05	0.98814521423
1943.0	2.2065678492e-05	0.988167279909
1945.0	2.7582098115e-05	0.988194862007
1947.0	1.6549258869e-05	0.988211411266
1949.0	1.6549258869e-05	0.988227960525
1952.0	2.2065678492e-05	0.988250026203
1954.0	2.2065678492e-05	0.988272091881
1956.0	2.2065678492e-05	0.98829415756
1958.0	1.1032839246e-05	0.988305190399
1960.0	3.86149373611e-05	0.988343805337
1962.0	2.2065678492e-05	0.988365871015
1966.0	3.3098517738e-05	0.988398969533
1968.0	2.2065678492e-05	0.988421035211
1970.0	1.1032839246e-05	0.988432068051
1972.0	1.6549258869e-05	0.988448617309
1974.0	3.3098517738e-05	0.988481715827
1976.0	2.2065678492e-05	0.988503781506
1978.0	2.2065678492e-05	0.988525847184
1980.0	2.2065678492e-05	0.988547912863
1982.0	2.7582098115e-05	0.988575494961
1984.0	2.7582098115e-05	0.988603077059
1986.0	1.1032839246e-05	0.988614109898
1988.0	5.51641962301e-06	0.988619626318
1990.0	3.3098517738e-05	0.988652724835
1992.0	1.6549258869e-05	0.988669274094
1997.0	1.6549258869e-05	0.988685823353
1999.0	3.3098517738e-05	0.988718921871
2001.0	3.3098517738e-05	0.988752020389
2003.0	1.6549258869e-05	0.988768569648
2005.0	1.1032839246e-05	0.988779602487
2007.0	4.41313569841e-05	0.988823733844
2009.0	3.86149373611e-05	0.988862348781
2011.0	1.6549258869e-05	0.98887889804
2013.0	1.6549258869e-05	0.988895447299
2015.0	1.6549258869e-05	0.988911996558
2017.0	2.2065678492e-05	0.988934062236
2019.0	2.7582098115e-05	0.988961644334
2022.0	1.6549258869e-05	0.988978193593
2024.0	1.1032839246e-05	0.988989226432
2026.0	2.2065678492e-05	0.989011292111
2028.0	3.3098517738e-05	0.989044390629
2030.0	2.2065678492e-05	0.989066456307
2033.0	1.6549258869e-05	0.989083005566
2035.0	3.3098517738e-05	0.989116104084
2037.0	2.2065678492e-05	0.989138169762
2039.0	3.3098517738e-05	0.98917126828
2041.0	2.2065678492e-05	0.989193333959
2043.0	2.7582098115e-05	0.989220916057
2045.0	1.6549258869e-05	0.989237465316
2047.0	2.2065678492e-05	0.989259530994
2050.0	3.3098517738e-05	0.989292629512
2053.0	2.2065678492e-05	0.98931469519
2055.0	3.86149373611e-05	0.989353310128
2058.0	3.3098517738e-05	0.989386408645
2060.0	1.6549258869e-05	0.989402957904
2063.0	1.1032839246e-05	0.989413990743
2065.0	4.96477766071e-05	0.98946363852
2067.0	2.2065678492e-05	0.989485704199
2069.0	2.2065678492e-05	0.989507769877
2071.0	2.7582098115e-05	0.989535351975
2073.0	5.51641962301e-06	0.989540868395
2075.0	1.6549258869e-05	0.989557417654
2079.0	2.2065678492e-05	0.989579483332
2081.0	3.3098517738e-05	0.98961258185
2083.0	1.1032839246e-05	0.989623614689
2085.0	3.3098517738e-05	0.989656713207
2087.0	1.6549258869e-05	0.989673262466
2089.0	1.6549258869e-05	0.989689811725
2091.0	1.1032839246e-05	0.989700844564
2093.0	1.1032839246e-05	0.989711877403
2095.0	2.7582098115e-05	0.989739459501
2097.0	1.6549258869e-05	0.98975600876
2099.0	1.6549258869e-05	0.989772558019
2101.0	3.86149373611e-05	0.989811172956
2103.0	2.7582098115e-05	0.989838755054
2107.0	1.6549258869e-05	0.989855304313
2109.0	3.3098517738e-05	0.989888402831
2111.0	3.3098517738e-05	0.989921501349
2113.0	2.2065678492e-05	0.989943567027
2116.0	3.3098517738e-05	0.989976665545
2118.0	2.7582098115e-05	0.990004247643
2120.0	1.6549258869e-05	0.990020796902
2122.0	1.6549258869e-05	0.990037346161
2124.0	1.1032839246e-05	0.990048379
2126.0	1.6549258869e-05	0.990064928259
2128.0	1.1032839246e-05	0.990075961098
2130.0	4.41313569841e-05	0.990120092455
2132.0	3.3098517738e-05	0.990153190973
2134.0	3.3098517738e-05	0.990186289491
2136.0	1.6549258869e-05	0.99020283875
2138.0	4.41313569841e-05	0.990246970107
2140.0	1.1032839246e-05	0.990258002946
2142.0	3.86149373611e-05	0.990296617883
2144.0	2.2065678492e-05	0.990318683562
2146.0	3.3098517738e-05	0.990351782079
2148.0	1.1032839246e-05	0.990362814919
2150.0	2.7582098115e-05	0.990390397017
2153.0	1.6549258869e-05	0.990406946276
2155.0	1.6549258869e-05	0.990423495534
2157.0	3.3098517738e-05	0.990456594052
2159.0	2.7582098115e-05	0.99048417615
2161.0	1.6549258869e-05	0.990500725409
2163.0	1.6549258869e-05	0.990517274668
2165.0	1.6549258869e-05	0.990533823927
2168.0	5.51641962301e-05	0.990588988123
2171.0	1.6549258869e-05	0.990605537382
2173.0	2.7582098115e-05	0.99063311948
2175.0	1.1032839246e-05	0.990644152319
2177.0	2.2065678492e-05	0.990666217998
2179.0	5.51641962301e-06	0.990671734417
2181.0	2.7582098115e-05	0.990699316516
2183.0	2.7582098115e-05	0.990726898614
2185.0	3.3098517738e-05	0.990759997131
2187.0	3.86149373611e-05	0.990798612069
2189.0	1.6549258869e-05	0.990815161328
2191.0	3.3098517738e-05	0.990848259845
2194.0	1.1032839246e-05	0.990859292685
2196.0	2.2065678492e-05	0.990881358363
2198.0	2.2065678492e-05	0.990903424042
2202.0	3.3098517738e-05	0.990936522559
2205.0	2.7582098115e-05	0.990964104658
2208.0	1.6549258869e-05	0.990980653916
2211.0	2.7582098115e-05	0.991008236014
2213.0	2.2065678492e-05	0.991030301693
2216.0	2.7582098115e-05	0.991057883791
2218.0	1.6549258869e-05	0.99107443305
2220.0	1.6549258869e-05	0.991090982309
2222.0	1.1032839246e-05	0.991102015148
2224.0	4.41313569841e-05	0.991146146505
2227.0	4.96477766071e-05	0.991195794282
2230.0	2.2065678492e-05	0.99121785996
2232.0	1.1032839246e-05	0.991228892799
2234.0	1.6549258869e-05	0.991245442058
2236.0	1.1032839246e-05	0.991256474898
2238.0	2.2065678492e-05	0.991278540576
2240.0	1.6549258869e-05	0.991295089835
2243.0	2.2065678492e-05	0.991317155513
2245.0	2.2065678492e-05	0.991339221192
2248.0	1.1032839246e-05	0.991350254031
2250.0	1.6549258869e-05	0.99136680329
2252.0	5.51641962301e-06	0.99137231971
2257.0	5.51641962301e-06	0.991377836129
2259.0	1.1032839246e-05	0.991388868968
2264.0	2.2065678492e-05	0.991410934647
2268.0	1.1032839246e-05	0.991421967486
2270.0	1.1032839246e-05	0.991433000325
2272.0	1.6549258869e-05	0.991449549584
2276.0	1.6549258869e-05	0.991466098843
2278.0	5.51641962301e-06	0.991471615263
2281.0	2.2065678492e-05	0.991493680941
2283.0	1.6549258869e-05	0.9915102302
2285.0	5.51641962301e-06	0.99151574662
2288.0	1.1032839246e-05	0.991526779459
2290.0	2.7582098115e-05	0.991554361557
2292.0	2.7582098115e-05	0.991581943655
2295.0	1.6549258869e-05	0.991598492914
2298.0	3.3098517738e-05	0.991631591432
2300.0	2.7582098115e-05	0.99165917353
2303.0	1.1032839246e-05	0.991670206369
2305.0	1.1032839246e-05	0.991681239209
2308.0	1.6549258869e-05	0.991697788467
2310.0	2.2065678492e-05	0.991719854146
2312.0	1.1032839246e-05	0.991730886985
2314.0	2.2065678492e-05	0.991752952664
2316.0	1.6549258869e-05	0.991769501922
2318.0	1.6549258869e-05	0.991786051181
2320.0	2.2065678492e-05	0.99180811686
2322.0	1.1032839246e-05	0.991819149699
2325.0	1.1032839246e-05	0.991830182538
2328.0	2.2065678492e-05	0.991852248217
2331.0	2.7582098115e-05	0.991879830315
2333.0	1.6549258869e-05	0.991896379574
2336.0	1.6549258869e-05	0.991912928833
2338.0	5.51641962301e-06	0.991918445252
2341.0	5.51641962301e-06	0.991923961672
2343.0	2.2065678492e-05	0.99194602735
2345.0	2.2065678492e-05	0.991968093029
2348.0	1.1032839246e-05	0.991979125868
2350.0	3.3098517738e-05	0.992012224386
2352.0	1.1032839246e-05	0.992023257225
2354.0	5.51641962301e-06	0.992028773645
2356.0	3.3098517738e-05	0.992061872162
2358.0	1.6549258869e-05	0.992078421421
2360.0	1.1032839246e-05	0.992089454261
2362.0	2.2065678492e-05	0.992111519939
2364.0	1.1032839246e-05	0.992122552778
2366.0	2.2065678492e-05	0.992144618457
2368.0	2.2065678492e-05	0.992166684135
2370.0	1.6549258869e-05	0.992183233394
2372.0	1.1032839246e-05	0.992194266233
2374.0	2.7582098115e-05	0.992221848332
2376.0	1.1032839246e-05	0.992232881171
2379.0	1.1032839246e-05	0.99224391401
2381.0	1.1032839246e-05	0.992254946849
2383.0	1.6549258869e-05	0.992271496108
2385.0	1.6549258869e-05	0.992288045367
2387.0	1.6549258869e-05	0.992304594626
2390.0	1.1032839246e-05	0.992315627465
2392.0	2.2065678492e-05	0.992337693144
2394.0	2.7582098115e-05	0.992365275242
2398.0	1.6549258869e-05	0.992381824501
2400.0	2.7582098115e-05	0.992409406599
2402.0	1.1032839246e-05	0.992420439438
2404.0	1.6549258869e-05	0.992436988697
2406.0	1.1032839246e-05	0.992448021536
2408.0	5.51641962301e-06	0.992453537956
2410.0	5.51641962301e-06	0.992459054375
2412.0	1.6549258869e-05	0.992475603634
2414.0	5.51641962301e-06	0.992481120054
2416.0	1.1032839246e-05	0.992492152893
2418.0	1.6549258869e-05	0.992508702152
2421.0	2.2065678492e-05	0.99253076783
2423.0	1.6549258869e-05	0.992547317089
2426.0	1.1032839246e-05	0.992558349929
2428.0	1.6549258869e-05	0.992574899187
2430.0	1.6549258869e-05	0.992591448446
2432.0	2.7582098115e-05	0.992619030544
2434.0	5.51641962301e-06	0.992624546964
2436.0	5.51641962301e-06	0.992630063384
2438.0	1.6549258869e-05	0.992646612643
2440.0	2.7582098115e-05	0.992674194741
2442.0	1.6549258869e-05	0.992690744
2444.0	1.6549258869e-05	0.992707293258
2447.0	1.1032839246e-05	0.992718326098
2450.0	2.7582098115e-05	0.992745908196
2453.0	1.1032839246e-05	0.992756941035
2456.0	1.6549258869e-05	0.992773490294
2458.0	1.6549258869e-05	0.992790039553
2460.0	2.2065678492e-05	0.992812105231
2462.0	1.6549258869e-05	0.99282865449
2465.0	1.6549258869e-05	0.992845203749
2467.0	2.7582098115e-05	0.992872785847
2470.0	1.6549258869e-05	0.992889335106
2472.0	1.1032839246e-05	0.992900367945
2478.0	1.6549258869e-05	0.992916917204
2480.0	2.7582098115e-05	0.992944499302
2482.0	2.2065678492e-05	0.992966564981
2484.0	1.6549258869e-05	0.99298311424
2487.0	1.1032839246e-05	0.992994147079
2489.0	1.1032839246e-05	0.993005179918
2491.0	1.1032839246e-05	0.993016212757
2493.0	3.3098517738e-05	0.993049311275
2495.0	1.6549258869e-05	0.993065860534
2497.0	1.6549258869e-05	0.993082409793
2499.0	3.3098517738e-05	0.99311550831
2502.0	3.3098517738e-05	0.993148606828
2504.0	1.1032839246e-05	0.993159639667
2508.0	2.2065678492e-05	0.993181705346
2510.0	5.51641962301e-06	0.993187221766
2512.0	1.6549258869e-05	0.993203771024
2514.0	5.51641962301e-06	0.993209287444
2518.0	1.1032839246e-05	0.993220320283
2520.0	1.6549258869e-05	0.993236869542
2522.0	1.1032839246e-05	0.993247902381
2524.0	3.3098517738e-05	0.993281000899
2526.0	1.1032839246e-05	0.993292033738
2529.0	1.6549258869e-05	0.993308582997
2531.0	2.7582098115e-05	0.993336165095
2533.0	5.51641962301e-06	0.993341681515
2535.0	2.2065678492e-05	0.993363747194
2538.0	1.6549258869e-05	0.993380296452
2540.0	2.2065678492e-05	0.993402362131
2542.0	5.51641962301e-06	0.993407878551
2546.0	2.2065678492e-05	0.993429944229
2549.0	1.6549258869e-05	0.993446493488
2551.0	2.7582098115e-05	0.993474075586
2553.0	1.1032839246e-05	0.993485108425
2555.0	1.1032839246e-05	0.993496141264
2557.0	1.6549258869e-05	0.993512690523
2561.0	1.1032839246e-05	0.993523723363
2563.0	1.1032839246e-05	0.993534756202
2565.0	1.1032839246e-05	0.993545789041
2568.0	2.7582098115e-05	0.993573371139
2572.0	1.1032839246e-05	0.993584403978
2574.0	2.2065678492e-05	0.993606469657
2576.0	2.2065678492e-05	0.993628535335
2579.0	2.7582098115e-05	0.993656117434
2581.0	5.51641962301e-06	0.993661633853
2583.0	1.6549258869e-05	0.993678183112
2586.0	5.51641962301e-06	0.993683699532
2589.0	1.6549258869e-05	0.993700248791
2591.0	1.6549258869e-05	0.993716798049
2593.0	1.1032839246e-05	0.993727830889
2596.0	2.2065678492e-05	0.993749896567
2598.0	1.1032839246e-05	0.993760929406
2602.0	1.1032839246e-05	0.993771962246
2604.0	5.51641962301e-06	0.993777478665
2606.0	1.6549258869e-05	0.993794027924
2608.0	1.6549258869e-05	0.993810577183
2610.0	1.1032839246e-05	0.993821610022
2616.0	1.1032839246e-05	0.993832642861
2618.0	2.7582098115e-05	0.99386022496
2620.0	5.51641962301e-06	0.993865741379
2622.0	2.2065678492e-05	0.993887807058
2626.0	2.2065678492e-05	0.993909872736
2628.0	1.6549258869e-05	0.993926421995
2634.0	2.7582098115e-05	0.993954004093
2636.0	1.1032839246e-05	0.993965036932
2638.0	2.2065678492e-05	0.993987102611
2640.0	5.51641962301e-06	0.993992619031
2642.0	1.1032839246e-05	0.99400365187
2644.0	1.6549258869e-05	0.994020201129
2647.0	2.7582098115e-05	0.994047783227
2649.0	1.6549258869e-05	0.994064332486
2653.0	1.6549258869e-05	0.994080881745
2655.0	5.51641962301e-06	0.994086398164
2657.0	2.7582098115e-05	0.994113980262
2659.0	1.6549258869e-05	0.994130529521
2661.0	1.1032839246e-05	0.99414156236
2663.0	1.1032839246e-05	0.9941525952
2665.0	1.6549258869e-05	0.994169144458
2668.0	2.2065678492e-05	0.994191210137
2670.0	1.1032839246e-05	0.994202242976
2672.0	1.1032839246e-05	0.994213275815
2674.0	2.2065678492e-05	0.994235341494
2677.0	1.6549258869e-05	0.994251890753
2680.0	2.2065678492e-05	0.994273956431
2683.0	5.51641962301e-06	0.994279472851
2687.0	2.2065678492e-05	0.994301538529
2692.0	1.1032839246e-05	0.994312571369
2694.0	5.51641962301e-06	0.994318087788
2697.0	1.1032839246e-05	0.994329120628
2699.0	1.1032839246e-05	0.994340153467
2703.0	2.7582098115e-05	0.994367735565
2705.0	2.2065678492e-05	0.994389801243
2711.0	2.2065678492e-05	0.994411866922
2713.0	1.6549258869e-05	0.994428416181
2715.0	1.6549258869e-05	0.99444496544
2718.0	1.6549258869e-05	0.994461514699
2720.0	5.51641962301e-06	0.994467031118
2722.0	5.51641962301e-06	0.994472547538
2724.0	1.1032839246e-05	0.994483580377
2726.0	1.6549258869e-05	0.994500129636
2730.0	1.6549258869e-05	0.994516678895
2732.0	1.1032839246e-05	0.994527711734
2736.0	1.1032839246e-05	0.994538744573
2738.0	1.6549258869e-05	0.994555293832
2745.0	5.51641962301e-06	0.994560810252
2748.0	1.6549258869e-05	0.994577359511
2750.0	5.51641962301e-06	0.99458287593
2752.0	1.1032839246e-05	0.994593908769
2755.0	5.51641962301e-06	0.994599425189
2757.0	1.1032839246e-05	0.994610458028
2759.0	5.51641962301e-06	0.994615974448
2761.0	2.7582098115e-05	0.994643556546
2765.0	5.51641962301e-06	0.994649072966
2767.0	5.51641962301e-06	0.994654589385
2769.0	1.6549258869e-05	0.994671138644
2771.0	1.6549258869e-05	0.994687687903
2773.0	5.51641962301e-06	0.994693204323
2775.0	2.2065678492e-05	0.994715270001
2777.0	5.51641962301e-06	0.994720786421
2779.0	1.1032839246e-05	0.99473181926
2782.0	5.51641962301e-06	0.99473733568
2788.0	3.3098517738e-05	0.994770434197
2791.0	1.6549258869e-05	0.994786983456
2793.0	5.51641962301e-06	0.994792499876
2797.0	1.6549258869e-05	0.994809049135
2799.0	5.51641962301e-06	0.994814565554
2802.0	1.1032839246e-05	0.994825598394
2805.0	5.51641962301e-06	0.994831114813
2810.0	1.1032839246e-05	0.994842147652
2812.0	1.1032839246e-05	0.994853180492
2816.0	1.1032839246e-05	0.994864213331
2818.0	1.1032839246e-05	0.99487524617
2821.0	5.51641962301e-06	0.99488076259
2823.0	1.1032839246e-05	0.994891795429
2826.0	1.6549258869e-05	0.994908344688
2833.0	1.1032839246e-05	0.994919377527
2835.0	2.2065678492e-05	0.994941443206
2838.0	1.6549258869e-05	0.994957992465
2840.0	1.6549258869e-05	0.994974541723
2844.0	5.51641962301e-06	0.994980058143
2847.0	5.51641962301e-06	0.994985574563
2849.0	1.6549258869e-05	0.995002123822
2851.0	5.51641962301e-06	0.995007640241
2853.0	5.51641962301e-06	0.995013156661
2856.0	1.1032839246e-05	0.9950241895
2858.0	1.1032839246e-05	0.995035222339
2860.0	5.51641962301e-06	0.995040738759
2862.0	5.51641962301e-06	0.995046255179
2864.0	1.1032839246e-05	0.995057288018
2869.0	1.6549258869e-05	0.995073837277
2871.0	1.1032839246e-05	0.995084870116
2873.0	1.1032839246e-05	0.995095902955
2876.0	2.2065678492e-05	0.995117968634
2878.0	1.6549258869e-05	0.995134517893
2880.0	1.1032839246e-05	0.995145550732
2882.0	5.51641962301e-06	0.995151067151
2884.0	5.51641962301e-06	0.995156583571
2887.0	1.6549258869e-05	0.99517313283
2890.0	1.1032839246e-05	0.995184165669
2892.0	1.1032839246e-05	0.995195198508
2894.0	1.6549258869e-05	0.995211747767
2897.0	1.6549258869e-05	0.995228297026
2902.0	2.2065678492e-05	0.995250362705
2906.0	5.51641962301e-06	0.995255879124
2912.0	5.51641962301e-06	0.995261395544
2916.0	1.1032839246e-05	0.995272428383
2919.0	5.51641962301e-06	0.995277944803
2922.0	2.7582098115e-05	0.995305526901
2924.0	1.1032839246e-05	0.99531655974
2926.0	1.1032839246e-05	0.995327592579
2928.0	2.2065678492e-05	0.995349658258
2930.0	2.2065678492e-05	0.995371723936
2933.0	5.51641962301e-06	0.995377240356
2935.0	2.2065678492e-05	0.995399306034
2937.0	5.51641962301e-06	0.995404822454
2939.0	1.6549258869e-05	0.995421371713
2942.0	5.51641962301e-06	0.995426888133
2944.0	1.1032839246e-05	0.995437920972
2946.0	5.51641962301e-06	0.995443437391
2949.0	1.1032839246e-05	0.995454470231
2951.0	1.1032839246e-05	0.99546550307
2955.0	5.51641962301e-06	0.99547101949
2959.0	1.1032839246e-05	0.995482052329
2963.0	5.51641962301e-06	0.995487568748
2965.0	1.6549258869e-05	0.995504118007
2971.0	2.2065678492e-05	0.995526183686
2975.0	1.1032839246e-05	0.995537216525
2977.0	5.51641962301e-06	0.995542732945
2980.0	5.51641962301e-06	0.995548249364
2982.0	1.6549258869e-05	0.995564798623
2984.0	1.1032839246e-05	0.995575831462
2988.0	1.6549258869e-05	0.995592380721
2991.0	1.6549258869e-05	0.99560892998
2994.0	2.2065678492e-05	0.995630995659
2996.0	5.51641962301e-06	0.995636512078
2998.0	2.2065678492e-05	0.995658577757
3003.0	1.6549258869e-05	0.995675127016
3005.0	1.1032839246e-05	0.995686159855
3012.0	5.51641962301e-06	0.995691676274
3019.0	1.1032839246e-05	0.995702709114
3021.0	1.6549258869e-05	0.995719258373
3024.0	5.51641962301e-06	0.995724774792
3027.0	1.1032839246e-05	0.995735807631
3030.0	1.1032839246e-05	0.995746840471
3034.0	1.1032839246e-05	0.99575787331
3039.0	5.51641962301e-06	0.99576338973
3041.0	1.6549258869e-05	0.995779938988
3044.0	1.1032839246e-05	0.995790971828
3046.0	1.1032839246e-05	0.995802004667
3049.0	1.6549258869e-05	0.995818553926
3053.0	5.51641962301e-06	0.995824070345
3056.0	1.6549258869e-05	0.995840619604
3058.0	5.51641962301e-06	0.995846136024
3061.0	1.6549258869e-05	0.995862685283
3063.0	1.1032839246e-05	0.995873718122
3065.0	2.2065678492e-05	0.9958957838
3068.0	1.6549258869e-05	0.995912333059
3072.0	5.51641962301e-06	0.995917849479
3077.0	5.51641962301e-06	0.995923365899
3080.0	1.1032839246e-05	0.995934398738
3082.0	5.51641962301e-06	0.995939915157
3087.0	2.2065678492e-05	0.995961980836
3091.0	5.51641962301e-06	0.995967497256
3096.0	1.1032839246e-05	0.995978530095
3100.0	1.6549258869e-05	0.995995079354
3102.0	5.51641962301e-06	0.996000595773
3104.0	1.6549258869e-05	0.996017145032
3106.0	5.51641962301e-06	0.996022661452
3109.0	5.51641962301e-06	0.996028177871
3112.0	5.51641962301e-06	0.996033694291
3114.0	1.1032839246e-05	0.99604472713
3116.0	1.1032839246e-05	0.99605575997
3118.0	1.1032839246e-05	0.996066792809
3124.0	1.1032839246e-05	0.996077825648
3126.0	5.51641962301e-06	0.996083342068
3128.0	5.51641962301e-06	0.996088858487
3131.0	5.51641962301e-06	0.996094374907
3136.0	1.6549258869e-05	0.996110924166
3140.0	2.2065678492e-05	0.996132989844
3142.0	5.51641962301e-06	0.996138506264
3144.0	5.51641962301e-06	0.996144022684
3146.0	5.51641962301e-06	0.996149539103
3148.0	1.1032839246e-05	0.996160571942
3151.0	1.1032839246e-05	0.996171604782
3157.0	1.6549258869e-05	0.996188154041
3159.0	5.51641962301e-06	0.99619367046
3162.0	5.51641962301e-06	0.99619918688
3169.0	5.51641962301e-06	0.996204703299
3174.0	5.51641962301e-06	0.996210219719
3182.0	5.51641962301e-06	0.996215736139
3190.0	1.1032839246e-05	0.996226768978
3192.0	1.1032839246e-05	0.996237801817
3196.0	5.51641962301e-06	0.996243318237
3199.0	5.51641962301e-06	0.996248834656
3201.0	5.51641962301e-06	0.996254351076
3203.0	1.1032839246e-05	0.996265383915
3209.0	5.51641962301e-06	0.996270900335
3212.0	1.1032839246e-05	0.996281933174
3214.0	1.1032839246e-05	0.996292966013
3217.0	1.1032839246e-05	0.996303998853
3220.0	1.1032839246e-05	0.996315031692
3223.0	5.51641962301e-06	0.996320548111
3225.0	1.1032839246e-05	0.996331580951
3231.0	5.51641962301e-06	0.99633709737
3235.0	1.1032839246e-05	0.99634813021
3237.0	1.1032839246e-05	0.996359163049
3244.0	1.1032839246e-05	0.996370195888
3246.0	1.1032839246e-05	0.996381228727
3248.0	1.1032839246e-05	0.996392261567
3250.0	1.1032839246e-05	0.996403294406
3253.0	1.1032839246e-05	0.996414327245
3256.0	2.2065678492e-05	0.996436392924
3259.0	1.6549258869e-05	0.996452942182
3261.0	5.51641962301e-06	0.996458458602
3263.0	2.2065678492e-05	0.996480524281
3267.0	1.1032839246e-05	0.99649155712
3270.0	1.1032839246e-05	0.996502589959
3275.0	1.1032839246e-05	0.996513622798
3277.0	1.6549258869e-05	0.996530172057
3279.0	5.51641962301e-06	0.996535688477
3281.0	1.1032839246e-05	0.996546721316
3285.0	1.6549258869e-05	0.996563270575
3288.0	5.51641962301e-06	0.996568786994
3291.0	1.1032839246e-05	0.996579819834
3295.0	1.1032839246e-05	0.996590852673
3297.0	1.1032839246e-05	0.996601885512
3299.0	5.51641962301e-06	0.996607401932
3301.0	1.6549258869e-05	0.996623951191
3305.0	5.51641962301e-06	0.99662946761
3308.0	5.51641962301e-06	0.99663498403
3310.0	1.6549258869e-05	0.996651533289
3315.0	1.1032839246e-05	0.996662566128
3320.0	5.51641962301e-06	0.996668082548
3322.0	5.51641962301e-06	0.996673598967
3324.0	1.6549258869e-05	0.996690148226
3326.0	1.6549258869e-05	0.996706697485
3328.0	5.51641962301e-06	0.996712213905
3339.0	1.1032839246e-05	0.996723246744
3341.0	1.1032839246e-05	0.996734279583
3344.0	1.1032839246e-05	0.996745312422
3347.0	5.51641962301e-06	0.996750828842
3349.0	1.1032839246e-05	0.996761861681
3352.0	5.51641962301e-06	0.996767378101
3355.0	1.1032839246e-05	0.99677841094
3358.0	1.1032839246e-05	0.996789443779
3364.0	5.51641962301e-06	0.996794960199
3367.0	2.2065678492e-05	0.996817025878
3370.0	1.1032839246e-05	0.996828058717
3373.0	1.1032839246e-05	0.996839091556
3375.0	5.51641962301e-06	0.996844607976
3382.0	1.1032839246e-05	0.996855640815
3385.0	5.51641962301e-06	0.996861157235
3387.0	1.1032839246e-05	0.996872190074
3390.0	1.1032839246e-05	0.996883222913
3396.0	5.51641962301e-06	0.996888739333
3398.0	5.51641962301e-06	0.996894255752
3400.0	5.51641962301e-06	0.996899772172
3402.0	5.51641962301e-06	0.996905288591
3404.0	5.51641962301e-06	0.996910805011
3407.0	1.6549258869e-05	0.99692735427
3409.0	5.51641962301e-06	0.99693287069
3412.0	1.1032839246e-05	0.996943903529
3416.0	5.51641962301e-06	0.996949419948
3419.0	5.51641962301e-06	0.996954936368
3423.0	5.51641962301e-06	0.996960452788
3428.0	1.1032839246e-05	0.996971485627
3430.0	5.51641962301e-06	0.996977002047
3434.0	5.51641962301e-06	0.996982518466
3437.0	5.51641962301e-06	0.996988034886
3444.0	1.1032839246e-05	0.996999067725
3447.0	5.51641962301e-06	0.997004584145
3449.0	1.1032839246e-05	0.997015616984
3451.0	5.51641962301e-06	0.997021133404
3454.0	5.51641962301e-06	0.997026649823
3457.0	5.51641962301e-06	0.997032166243
3460.0	1.1032839246e-05	0.997043199082
3462.0	5.51641962301e-06	0.997048715502
3464.0	5.51641962301e-06	0.997054231921
3468.0	1.1032839246e-05	0.997065264761
3472.0	1.1032839246e-05	0.9970762976
3475.0	5.51641962301e-06	0.997081814019
3479.0	1.1032839246e-05	0.997092846859
3483.0	5.51641962301e-06	0.997098363278
3488.0	5.51641962301e-06	0.997103879698
3496.0	1.6549258869e-05	0.997120428957
3501.0	1.1032839246e-05	0.997131461796
3505.0	1.1032839246e-05	0.997142494635
3509.0	5.51641962301e-06	0.997148011055
3511.0	1.6549258869e-05	0.997164560314
3514.0	5.51641962301e-06	0.997170076733
3519.0	1.1032839246e-05	0.997181109573
3522.0	5.51641962301e-06	0.997186625992
3528.0	5.51641962301e-06	0.997192142412
3533.0	5.51641962301e-06	0.997197658832
3537.0	5.51641962301e-06	0.997203175251
3545.0	5.51641962301e-06	0.997208691671
3550.0	5.51641962301e-06	0.99721420809
3552.0	5.51641962301e-06	0.99721972451
3554.0	1.1032839246e-05	0.997230757349
3556.0	5.51641962301e-06	0.997236273769
3561.0	1.1032839246e-05	0.997247306608
3564.0	1.1032839246e-05	0.997258339447
3567.0	1.1032839246e-05	0.997269372287
3569.0	1.1032839246e-05	0.997280405126
3573.0	1.1032839246e-05	0.997291437965
3577.0	5.51641962301e-06	0.997296954385
3579.0	1.1032839246e-05	0.997307987224
3586.0	5.51641962301e-06	0.997313503644
3588.0	1.1032839246e-05	0.997324536483
3590.0	1.1032839246e-05	0.997335569322
3592.0	5.51641962301e-06	0.997341085742
3596.0	5.51641962301e-06	0.997346602161
3599.0	5.51641962301e-06	0.997352118581
3601.0	1.1032839246e-05	0.99736315142
3603.0	5.51641962301e-06	0.99736866784
3610.0	5.51641962301e-06	0.997374184259
3612.0	1.1032839246e-05	0.997385217099
3617.0	5.51641962301e-06	0.997390733518
3625.0	1.6549258869e-05	0.997407282777
3629.0	1.6549258869e-05	0.997423832036
3632.0	5.51641962301e-06	0.997429348456
3638.0	5.51641962301e-06	0.997434864875
3641.0	5.51641962301e-06	0.997440381295
3643.0	2.2065678492e-05	0.997462446973
3645.0	5.51641962301e-06	0.997467963393
3647.0	1.6549258869e-05	0.997484512652
3649.0	5.51641962301e-06	0.997490029072
3653.0	1.1032839246e-05	0.997501061911
3661.0	5.51641962301e-06	0.99750657833
3663.0	5.51641962301e-06	0.99751209475
3665.0	5.51641962301e-06	0.99751761117
3671.0	1.6549258869e-05	0.997534160429
3673.0	5.51641962301e-06	0.997539676848
3677.0	5.51641962301e-06	0.997545193268
3681.0	5.51641962301e-06	0.997550709687
3684.0	5.51641962301e-06	0.997556226107
3692.0	5.51641962301e-06	0.997561742527
3695.0	1.6549258869e-05	0.997578291785
3701.0	5.51641962301e-06	0.997583808205
3705.0	1.1032839246e-05	0.997594841044
3708.0	5.51641962301e-06	0.997600357464
3710.0	1.1032839246e-05	0.997611390303
3719.0	5.51641962301e-06	0.997616906723
3725.0	5.51641962301e-06	0.997622423142
3738.0	5.51641962301e-06	0.997627939562
3747.0	1.1032839246e-05	0.997638972401
3751.0	5.51641962301e-06	0.997644488821
3759.0	1.1032839246e-05	0.99765552166
3761.0	1.1032839246e-05	0.997666554499
3763.0	1.1032839246e-05	0.997677587339
3765.0	1.1032839246e-05	0.997688620178
3768.0	5.51641962301e-06	0.997694136598
3771.0	5.51641962301e-06	0.997699653017
3774.0	1.1032839246e-05	0.997710685856
3781.0	5.51641962301e-06	0.997716202276
3784.0	5.51641962301e-06	0.997721718696
3786.0	5.51641962301e-06	0.997727235115
3789.0	1.1032839246e-05	0.997738267955
3791.0	1.6549258869e-05	0.997754817213
3793.0	5.51641962301e-06	0.997760333633
3797.0	5.51641962301e-06	0.997765850053
3802.0	1.6549258869e-05	0.997782399312
3804.0	5.51641962301e-06	0.997787915731
3816.0	5.51641962301e-06	0.997793432151
3824.0	5.51641962301e-06	0.99779894857
3827.0	5.51641962301e-06	0.99780446499
3840.0	1.6549258869e-05	0.997821014249
3848.0	1.6549258869e-05	0.997837563508
3851.0	1.6549258869e-05	0.997854112767
3855.0	5.51641962301e-06	0.997859629186
3861.0	5.51641962301e-06	0.997865145606
3863.0	1.1032839246e-05	0.997876178445
3865.0	5.51641962301e-06	0.997881694865
3868.0	1.1032839246e-05	0.997892727704
3870.0	1.1032839246e-05	0.997903760543
3875.0	1.1032839246e-05	0.997914793383
3877.0	1.6549258869e-05	0.997931342641
3892.0	5.51641962301e-06	0.997936859061
3897.0	1.1032839246e-05	0.9979478919
3905.0	5.51641962301e-06	0.99795340832
3912.0	5.51641962301e-06	0.997958924739
3914.0	1.6549258869e-05	0.997975473998
3918.0	2.2065678492e-05	0.997997539677
3921.0	5.51641962301e-06	0.998003056096
3924.0	5.51641962301e-06	0.998008572516
3928.0	1.1032839246e-05	0.998019605355
3933.0	1.1032839246e-05	0.998030638195
3940.0	1.1032839246e-05	0.998041671034
3946.0	5.51641962301e-06	0.998047187453
3955.0	5.51641962301e-06	0.998052703873
3958.0	5.51641962301e-06	0.998058220293
3964.0	5.51641962301e-06	0.998063736712
3968.0	1.1032839246e-05	0.998074769552
3970.0	1.1032839246e-05	0.998085802391
3976.0	1.1032839246e-05	0.99809683523
3979.0	1.1032839246e-05	0.998107868069
3986.0	1.1032839246e-05	0.998118900909
3998.0	5.51641962301e-06	0.998124417328
4014.0	5.51641962301e-06	0.998129933748
4023.0	5.51641962301e-06	0.998135450167
4030.0	5.51641962301e-06	0.998140966587
4033.0	5.51641962301e-06	0.998146483007
4036.0	1.1032839246e-05	0.998157515846
4039.0	1.1032839246e-05	0.998168548685
4041.0	5.51641962301e-06	0.998174065105
4044.0	5.51641962301e-06	0.998179581524
4046.0	1.6549258869e-05	0.998196130783
4048.0	1.1032839246e-05	0.998207163623
4050.0	5.51641962301e-06	0.998212680042
4059.0	5.51641962301e-06	0.998218196462
4061.0	5.51641962301e-06	0.998223712881
4077.0	5.51641962301e-06	0.998229229301
4086.0	5.51641962301e-06	0.998234745721
4096.0	5.51641962301e-06	0.99824026214
4099.0	5.51641962301e-06	0.99824577856
4111.0	1.6549258869e-05	0.998262327819
4113.0	5.51641962301e-06	0.998267844238
4116.0	5.51641962301e-06	0.998273360658
4120.0	1.6549258869e-05	0.998289909917
4128.0	5.51641962301e-06	0.998295426336
4135.0	1.1032839246e-05	0.998306459176
4137.0	1.1032839246e-05	0.998317492015
4139.0	5.51641962301e-06	0.998323008435
4141.0	1.1032839246e-05	0.998334041274
4144.0	5.51641962301e-06	0.998339557693
4150.0	1.1032839246e-05	0.998350590533
4153.0	5.51641962301e-06	0.998356106952
4155.0	1.1032839246e-05	0.998367139792
4167.0	1.1032839246e-05	0.998378172631
4176.0	5.51641962301e-06	0.99838368905
4180.0	1.1032839246e-05	0.99839472189
4183.0	1.1032839246e-05	0.998405754729
4201.0	5.51641962301e-06	0.998411271149
4206.0	5.51641962301e-06	0.998416787568
4213.0	5.51641962301e-06	0.998422303988
4226.0	5.51641962301e-06	0.998427820407
4232.0	1.1032839246e-05	0.998438853247
4237.0	5.51641962301e-06	0.998444369666
4254.0	5.51641962301e-06	0.998449886086
4259.0	5.51641962301e-06	0.998455402506
4267.0	5.51641962301e-06	0.998460918925
4270.0	1.1032839246e-05	0.998471951764
4272.0	5.51641962301e-06	0.998477468184
4280.0	1.1032839246e-05	0.998488501023
4283.0	5.51641962301e-06	0.998494017443
4288.0	5.51641962301e-06	0.998499533863
4302.0	5.51641962301e-06	0.998505050282
4309.0	5.51641962301e-06	0.998510566702
4311.0	5.51641962301e-06	0.998516083121
4336.0	5.51641962301e-06	0.998521599541
4344.0	5.51641962301e-06	0.998527115961
4358.0	5.51641962301e-06	0.99853263238
4366.0	5.51641962301e-06	0.9985381488
4381.0	5.51641962301e-06	0.99854366522
4399.0	5.51641962301e-06	0.998549181639
4402.0	1.1032839246e-05	0.998560214478
4412.0	5.51641962301e-06	0.998565730898
4415.0	5.51641962301e-06	0.998571247318
4431.0	5.51641962301e-06	0.998576763737
4447.0	5.51641962301e-06	0.998582280157
4454.0	5.51641962301e-06	0.998587796577
4473.0	1.1032839246e-05	0.998598829416
4478.0	5.51641962301e-06	0.998604345835
4487.0	1.1032839246e-05	0.998615378675
4491.0	5.51641962301e-06	0.998620895094
4494.0	5.51641962301e-06	0.998626411514
4497.0	1.1032839246e-05	0.998637444353
4503.0	5.51641962301e-06	0.998642960773
4505.0	1.1032839246e-05	0.998653993612
4512.0	5.51641962301e-06	0.998659510032
4514.0	1.1032839246e-05	0.998670542871
4523.0	5.51641962301e-06	0.99867605929
4548.0	5.51641962301e-06	0.99868157571
4574.0	1.1032839246e-05	0.998692608549
4581.0	5.51641962301e-06	0.998698124969
4588.0	1.1032839246e-05	0.998709157808
4592.0	5.51641962301e-06	0.998714674228
4595.0	5.51641962301e-06	0.998720190647
4602.0	5.51641962301e-06	0.998725707067
4604.0	5.51641962301e-06	0.998731223487
4610.0	5.51641962301e-06	0.998736739906
4617.0	5.51641962301e-06	0.998742256326
4622.0	5.51641962301e-06	0.998747772746
4625.0	1.1032839246e-05	0.998758805585
4632.0	5.51641962301e-06	0.998764322004
4638.0	5.51641962301e-06	0.998769838424
4641.0	5.51641962301e-06	0.998775354844
4647.0	5.51641962301e-06	0.998780871263
4654.0	5.51641962301e-06	0.998786387683
4659.0	5.51641962301e-06	0.998791904103
4661.0	5.51641962301e-06	0.998797420522
4678.0	5.51641962301e-06	0.998802936942
4691.0	5.51641962301e-06	0.998808453361
4693.0	1.1032839246e-05	0.998819486201
4704.0	5.51641962301e-06	0.99882500262
4707.0	5.51641962301e-06	0.99883051904
4711.0	5.51641962301e-06	0.99883603546
4718.0	5.51641962301e-06	0.998841551879
4732.0	5.51641962301e-06	0.998847068299
4737.0	5.51641962301e-06	0.998852584718
4739.0	5.51641962301e-06	0.998858101138
4749.0	5.51641962301e-06	0.998863617558
4773.0	5.51641962301e-06	0.998869133977
4779.0	5.51641962301e-06	0.998874650397
4782.0	5.51641962301e-06	0.998880166817
4797.0	5.51641962301e-06	0.998885683236
4811.0	1.6549258869e-05	0.998902232495
4818.0	5.51641962301e-06	0.998907748915
4825.0	5.51641962301e-06	0.998913265334
4828.0	1.1032839246e-05	0.998924298174
4841.0	1.6549258869e-05	0.998940847432
4848.0	5.51641962301e-06	0.998946363852
4889.0	5.51641962301e-06	0.998951880272
4892.0	1.1032839246e-05	0.998962913111
4894.0	1.1032839246e-05	0.99897394595
4898.0	1.1032839246e-05	0.998984978789
4939.0	5.51641962301e-06	0.998990495209
4975.0	5.51641962301e-06	0.998996011629
4982.0	5.51641962301e-06	0.999001528048
4986.0	5.51641962301e-06	0.999007044468
4998.0	5.51641962301e-06	0.999012560887
5019.0	5.51641962301e-06	0.999018077307
5022.0	5.51641962301e-06	0.999023593727
5024.0	5.51641962301e-06	0.999029110146
5037.0	5.51641962301e-06	0.999034626566
5056.0	5.51641962301e-06	0.999040142986
5058.0	5.51641962301e-06	0.999045659405
5067.0	5.51641962301e-06	0.999051175825
5079.0	1.1032839246e-05	0.999062208664
5096.0	5.51641962301e-06	0.999067725084
5098.0	1.6549258869e-05	0.999084274343
5110.0	5.51641962301e-06	0.999089790762
5120.0	5.51641962301e-06	0.999095307182
5122.0	5.51641962301e-06	0.999100823601
5131.0	5.51641962301e-06	0.999106340021
5159.0	5.51641962301e-06	0.999111856441
5161.0	5.51641962301e-06	0.99911737286
5173.0	1.1032839246e-05	0.9991284057
5195.0	1.1032839246e-05	0.999139438539
5214.0	5.51641962301e-06	0.999144954958
5219.0	5.51641962301e-06	0.999150471378
5239.0	5.51641962301e-06	0.999155987798
5259.0	1.1032839246e-05	0.999167020637
5266.0	5.51641962301e-06	0.999172537057
5268.0	5.51641962301e-06	0.999178053476
5272.0	5.51641962301e-06	0.999183569896
5287.0	5.51641962301e-06	0.999189086315
5298.0	5.51641962301e-06	0.999194602735
5301.0	5.51641962301e-06	0.999200119155
5308.0	5.51641962301e-06	0.999205635574
5311.0	5.51641962301e-06	0.999211151994
5340.0	5.51641962301e-06	0.999216668414
5342.0	5.51641962301e-06	0.999222184833
5353.0	5.51641962301e-06	0.999227701253
5361.0	5.51641962301e-06	0.999233217672
5363.0	5.51641962301e-06	0.999238734092
5365.0	5.51641962301e-06	0.999244250512
5368.0	5.51641962301e-06	0.999249766931
5387.0	5.51641962301e-06	0.999255283351
5395.0	1.1032839246e-05	0.99926631619
5406.0	5.51641962301e-06	0.99927183261
5409.0	5.51641962301e-06	0.999277349029
5432.0	5.51641962301e-06	0.999282865449
5455.0	5.51641962301e-06	0.999288381869
5460.0	5.51641962301e-06	0.999293898288
5478.0	1.6549258869e-05	0.999310447547
5486.0	5.51641962301e-06	0.999315963967
5495.0	5.51641962301e-06	0.999321480386
5516.0	5.51641962301e-06	0.999326996806
5534.0	5.51641962301e-06	0.999332513226
5552.0	5.51641962301e-06	0.999338029645
5577.0	5.51641962301e-06	0.999343546065
5591.0	5.51641962301e-06	0.999349062484
5603.0	5.51641962301e-06	0.999354578904
5645.0	5.51641962301e-06	0.999360095324
5665.0	5.51641962301e-06	0.999365611743
5690.0	5.51641962301e-06	0.999371128163
5696.0	5.51641962301e-06	0.999376644583
5703.0	5.51641962301e-06	0.999382161002
5710.0	5.51641962301e-06	0.999387677422
5712.0	5.51641962301e-06	0.999393193841
5725.0	1.1032839246e-05	0.999404226681
5737.0	5.51641962301e-06	0.9994097431
5751.0	5.51641962301e-06	0.99941525952
5772.0	5.51641962301e-06	0.99942077594
5837.0	5.51641962301e-06	0.999426292359
5847.0	5.51641962301e-06	0.999431808779
5852.0	5.51641962301e-06	0.999437325198
5873.0	5.51641962301e-06	0.999442841618
5888.0	5.51641962301e-06	0.999448358038
5897.0	5.51641962301e-06	0.999453874457
5899.0	1.1032839246e-05	0.999464907297
5904.0	5.51641962301e-06	0.999470423716
5907.0	5.51641962301e-06	0.999475940136
5945.0	5.51641962301e-06	0.999481456555
5948.0	5.51641962301e-06	0.999486972975
5967.0	5.51641962301e-06	0.999492489395
5979.0	5.51641962301e-06	0.999498005814
5995.0	5.51641962301e-06	0.999503522234
6036.0	5.51641962301e-06	0.999509038654
6063.0	5.51641962301e-06	0.999514555073
6085.0	5.51641962301e-06	0.999520071493
6090.0	5.51641962301e-06	0.999525587912
6108.0	5.51641962301e-06	0.999531104332
6136.0	5.51641962301e-06	0.999536620752
6138.0	5.51641962301e-06	0.999542137171
6152.0	5.51641962301e-06	0.999547653591
6233.0	5.51641962301e-06	0.999553170011
6250.0	5.51641962301e-06	0.99955868643
6283.0	5.51641962301e-06	0.99956420285
6291.0	1.1032839246e-05	0.999575235689
6296.0	5.51641962301e-06	0.999580752109
6321.0	5.51641962301e-06	0.999586268528
6331.0	5.51641962301e-06	0.999591784948
6336.0	5.51641962301e-06	0.999597301368
6420.0	5.51641962301e-06	0.999602817787
6518.0	5.51641962301e-06	0.999608334207
6535.0	5.51641962301e-06	0.999613850626
6543.0	5.51641962301e-06	0.999619367046
6617.0	5.51641962301e-06	0.999624883466
6668.0	1.1032839246e-05	0.999635916305
6674.0	5.51641962301e-06	0.999641432725
6678.0	5.51641962301e-06	0.999646949144
6732.0	5.51641962301e-06	0.999652465564
6764.0	5.51641962301e-06	0.999657981983
6802.0	5.51641962301e-06	0.999663498403
6831.0	5.51641962301e-06	0.999669014823
6835.0	5.51641962301e-06	0.999674531242
6841.0	5.51641962301e-06	0.999680047662
6890.0	5.51641962301e-06	0.999685564081
6917.0	5.51641962301e-06	0.999691080501
6952.0	5.51641962301e-06	0.999696596921
7027.0	5.51641962301e-06	0.99970211334
7046.0	5.51641962301e-06	0.99970762976
7077.0	5.51641962301e-06	0.99971314618
7187.0	5.51641962301e-06	0.999718662599
7210.0	1.1032839246e-05	0.999729695438
7213.0	5.51641962301e-06	0.999735211858
7239.0	5.51641962301e-06	0.999740728278
7277.0	5.51641962301e-06	0.999746244697
7325.0	5.51641962301e-06	0.999751761117
7338.0	5.51641962301e-06	0.999757277537
7342.0	5.51641962301e-06	0.999762793956
7348.0	5.51641962301e-06	0.999768310376
7374.0	5.51641962301e-06	0.999773826795
7391.0	5.51641962301e-06	0.999779343215
7448.0	5.51641962301e-06	0.999784859635
7648.0	5.51641962301e-06	0.999790376054
7668.0	5.51641962301e-06	0.999795892474
7757.0	5.51641962301e-06	0.999801408894
7808.0	5.51641962301e-06	0.999806925313
7816.0	5.51641962301e-06	0.999812441733
7902.0	5.51641962301e-06	0.999817958152
7904.0	5.51641962301e-06	0.999823474572
8030.0	5.51641962301e-06	0.999828990992
8109.0	5.51641962301e-06	0.999834507411
8133.0	5.51641962301e-06	0.999840023831
8149.0	5.51641962301e-06	0.999845540251
8204.0	5.51641962301e-06	0.99985105667
8211.0	5.51641962301e-06	0.99985657309
8254.0	5.51641962301e-06	0.999862089509
8345.0	5.51641962301e-06	0.999867605929
8451.0	5.51641962301e-06	0.999873122349
8614.0	5.51641962301e-06	0.999878638768
8628.0	5.51641962301e-06	0.999884155188
8826.0	5.51641962301e-06	0.999889671608
8983.0	5.51641962301e-06	0.999895188027
9153.0	5.51641962301e-06	0.999900704447
9292.0	5.51641962301e-06	0.999906220866
9379.0	5.51641962301e-06	0.999911737286
9541.0	5.51641962301e-06	0.999917253706
9892.0	5.51641962301e-06	0.999922770125
9907.0	5.51641962301e-06	0.999928286545
9946.0	5.51641962301e-06	0.999933802965
10042.0	5.51641962301e-06	0.999939319384
10239.0	5.51641962301e-06	0.999944835804
10647.0	5.51641962301e-06	0.999950352223
10695.0	5.51641962301e-06	0.999955868643
11006.0	5.51641962301e-06	0.999961385063
11331.0	5.51641962301e-06	0.999966901482
11491.0	5.51641962301e-06	0.999972417902
12039.0	5.51641962301e-06	0.999977934322
12202.0	5.51641962301e-06	0.999983450741
12808.0	5.51641962301e-06	0.999988967161
13346.0	5.51641962301e-06	0.99999448358
14882.0	5.51641962301e-06	1.0
17435.0	5.51641962301e-06	1.0
