#
# Generated On: 2012-02-05T18:33:05.658521
#           By: cwa.analyze.jobs_per_executableid
#      Version: 11.3.16
#       Author: Thomas A. de Ruiter <thomas@de-ruiter.cx>
#
#  Commandline: /home/af10028/bin/cwa analyze
#     Work Dir: /scratch/af10028/var/thesis-project/result/analyses/workload-06h-06180l-2s-default
#

Time	ID_-1
0	18823
600	20380
1200	29380
1800	27107
2400	22077
3000	30308
3600	29984
4200	28353
4800	24250
5400	25964
6000	30502
6600	25556
7200	26851
7800	23647
8400	29104
9000	26420
9600	28926
10200	30910
10800	26301
11400	30034
12000	28727
12600	31357
13200	29490
13800	27755
14400	30325
15000	29042
15600	31332
16200	32418
16800	32124
17400	28272
18000	33913
18600	30228
19200	30229
19800	35931
20400	34530
21000	22415
21600	9238
22200	9546
22800	8156
23400	9422
24000	8818
24600	7419
25200	8923
25800	9378
26400	4489
27000	3410
27600	2409
28200	2347
28800	1546
29400	1125
30000	878
30600	876
31200	816
31800	816
32400	814
33000	500
33600	334
34200	313
34800	237
35400	237
36000	102
