#
# Generated On: 2012-02-05T19:09:37.047101
#           By: cwa.analyze.statistics
#      Version: 11.11.23
#       Author: Thomas A. de Ruiter <thomas@de-ruiter.cx>
#
#  Commandline: /home/af10028/bin/cwa analyze
#     Work Dir: /scratch/af10028/var/thesis-project/result/analyses/workload-06h-07416l-2s-default
#

Time	Sum	Avg	StdDev	CoV	0.000000-Pct	0.010000-Pct	0.100000-Pct	1.000000-Pct	2.000000-Pct	5.000000-Pct	25.000000-Pct	50.000000-Pct	75.000000-Pct	95.000000-Pct	98.000000-Pct	99.000000-Pct	99.900000-Pct	99.990000-Pct	100.000000-Pct
1327087800	4545.0	267.352941176	320.838538282	1.20005613879	3.0	3.0	3.0	3.0	3.0	3.0	3.0	197.0	593.0	854.0	854.0	854.0	854.0	854.0	854.0
1327088400	59879.0	308.654639175	401.701857973	1.30146061969	2.0	2.0	2.0	2.0	2.0	2.0	4.0	128.0	504.0	1146.0	1496.0	1682.0	1703.0	1703.0	1703.0
1327089000	75194.0	353.023474178	463.433448045	1.31275533199	2.0	2.0	2.0	2.0	2.0	3.0	5.0	168.0	573.0	1338.0	1577.0	1929.0	2989.0	2989.0	2989.0
1327089600	173957.0	737.105932203	752.632266885	1.02106391226	2.0	2.0	2.0	2.0	2.0	2.0	60.0	395.0	1615.0	1918.0	2044.0	2303.0	2948.0	2948.0	2948.0
1327090200	410648.0	2281.37777778	1645.40594626	0.721233441603	6.0	6.0	6.0	10.0	30.0	82.0	187.0	2755.5	3531.0	4647.0	4648.0	4649.0	4820.0	4820.0	4820.0
1327090800	949982.0	4025.34745763	2150.94849292	0.534351013312	258.0	258.0	258.0	262.0	329.0	382.0	569.0	5378.5	5429.0	5466.0	5483.0	5490.0	5492.0	5492.0	5492.0
1327091400	863787.0	4152.82211538	2079.87745879	0.500834709746	402.0	402.0	402.0	410.0	412.0	420.0	5143.0	5222.0	5418.0	5540.0	5555.0	5558.0	5573.0	5573.0	5573.0
1327092000	906006.0	3759.36099585	2137.19184679	0.568498702079	255.0	255.0	255.0	284.0	290.0	303.0	378.0	5043.0	5150.0	5231.0	5238.0	5245.0	5248.0	5248.0	5248.0
1327092600	698835.0	3620.90673575	2179.47335038	0.601913694396	265.0	265.0	265.0	265.0	267.0	284.0	422.0	5051.0	5086.0	5138.0	5140.0	5163.0	5167.0	5167.0	5167.0
1327093200	799896.0	3686.15668203	2180.96863745	0.591664659315	362.0	362.0	362.0	368.0	378.0	397.0	508.0	5070.0	5239.0	5290.0	5306.0	5308.0	5308.0	5308.0	5308.0
1327093800	610723.0	4126.50675676	2216.98208025	0.537253956176	350.0	350.0	350.0	355.0	355.0	374.0	615.0	5445.5	5537.0	5586.0	5619.0	5619.0	5620.0	5620.0	5620.0
1327094400	788247.0	3826.44174757	2246.43846772	0.587082886901	419.0	419.0	419.0	422.0	422.0	441.0	623.0	5295.0	5381.0	5512.0	5514.0	5515.0	5526.0	5526.0	5526.0
1327095000	920808.0	4558.45544554	2366.07788706	0.519052542101	596.0	596.0	596.0	600.0	602.0	663.0	792.0	6116.0	6163.0	6231.0	6255.0	6257.0	6261.0	6261.0	6261.0
1327095600	1153498.0	4670.03238866	2559.8325734	0.548140218387	685.0	685.0	685.0	687.0	689.0	701.0	746.0	6230.0	6368.0	6513.0	6516.0	6522.0	6523.0	6523.0	6523.0
1327096200	920703.0	4923.54545455	2496.35628054	0.507024115768	501.0	501.0	501.0	502.0	508.0	517.0	1387.0	6282.0	6553.0	6644.0	6678.0	6680.0	6680.0	6680.0	6680.0
1327096800	943123.0	4963.80526316	2458.82811571	0.49535144619	502.0	502.0	502.0	502.0	508.0	594.0	6127.0	6340.0	6417.0	6530.0	6538.0	6544.0	6544.0	6544.0	6544.0
1327097400	798935.0	5121.37820513	2745.16534632	0.536020820249	643.0	643.0	643.0	644.0	645.0	680.0	1230.0	6881.0	7071.0	7202.0	7208.0	7210.0	7210.0	7210.0	7210.0
1327098000	725096.0	5070.6013986	3085.2599501	0.608460359545	1180.0	1180.0	1180.0	1184.0	1188.0	1204.0	1359.0	7005.0	7747.0	7795.0	7920.0	7920.0	7920.0	7920.0	7920.0
1327098600	1218355.0	6153.30808081	2871.81794084	0.466711223154	1317.0	1317.0	1317.0	1317.0	1322.0	1333.0	1422.0	7770.0	7923.0	8093.0	8126.0	8131.0	8173.0	8173.0	8173.0
1327099200	1354771.0	5668.49790795	2869.8409801	0.50627891669	1254.0	1254.0	1254.0	1264.0	1290.0	1303.0	1359.0	7498.0	7644.0	7726.0	7751.0	7754.0	7754.0	7754.0	7754.0
1327099800	978944.0	5691.53488372	2640.66588137	0.463963752365	1259.0	1259.0	1259.0	1322.0	1326.0	1347.0	1486.0	7242.5	7356.0	7386.0	7396.0	7399.0	7400.0	7400.0	7400.0
1327100400	1283317.0	5703.63111111	2609.64108129	0.457540298531	1277.0	1277.0	1277.0	1277.0	1283.0	1291.0	1567.0	7260.0	7300.0	7355.0	7356.0	7359.0	7363.0	7363.0	7363.0
1327101000	1189108.0	5060.03404255	2715.53994389	0.536664362543	1009.0	1009.0	1009.0	1016.0	1016.0	1026.0	1247.0	6791.0	7032.0	7163.0	7170.0	7170.0	7171.0	7171.0	7171.0
1327101600	1284084.0	4996.43579767	2533.95068827	0.507151655877	991.0	991.0	991.0	991.0	996.0	1022.0	1089.0	6583.0	6644.0	6773.0	6809.0	6814.0	6819.0	6819.0	6819.0
1327102200	889963.0	5085.50285714	2450.72659382	0.481904476835	909.0	909.0	909.0	910.0	914.0	919.0	1505.0	6506.0	6586.0	6674.0	6679.0	6682.0	6682.0	6682.0	6682.0
1327102800	1043801.0	5167.33168317	2456.01413002	0.475296396788	776.0	776.0	776.0	779.0	781.0	824.0	6425.0	6524.5	6623.0	6688.0	6707.0	6711.0	6713.0	6713.0	6713.0
1327103400	1229422.0	5322.17316017	2639.78599682	0.495997765833	707.0	707.0	707.0	712.0	717.0	757.0	1692.0	6902.0	6990.0	7068.0	7074.0	7083.0	7087.0	7087.0	7087.0
1327104000	1115049.0	4955.77333333	2749.5666732	0.554820910533	625.0	625.0	625.0	651.0	666.0	669.0	780.0	6681.0	6764.0	6871.0	6874.0	6875.0	6877.0	6877.0	6877.0
1327104600	816222.0	4435.98913043	2782.31716535	0.627214603901	613.0	613.0	613.0	616.0	636.0	640.0	713.0	6394.5	6558.0	6720.0	6740.0	6743.0	6746.0	6746.0	6746.0
1327105200	985204.0	4713.89473684	2617.71056174	0.555317992418	505.0	505.0	505.0	513.0	524.0	550.0	685.0	6345.0	6396.0	6528.0	6561.0	6561.0	6583.0	6583.0	6583.0
1327105800	1109871.0	4236.14885496	2574.51730192	0.607749488999	494.0	494.0	494.0	496.0	505.0	539.0	606.0	5898.0	6146.0	6275.0	6295.0	6308.0	6309.0	6309.0	6309.0
1327106400	910711.0	4768.12041885	2391.03800651	0.501463427194	478.0	478.0	478.0	510.0	554.0	578.0	863.0	5784.0	6379.0	6489.0	6496.0	6497.0	6498.0	6498.0	6498.0
1327107000	990042.0	4648.08450704	2607.75627956	0.561038913042	563.0	563.0	563.0	571.0	574.0	576.0	722.0	6170.0	6225.0	7037.0	7053.0	7063.0	7074.0	7074.0	7074.0
1327107600	1079447.0	5240.03398058	2650.12596549	0.505745950373	566.0	566.0	566.0	573.0	584.0	620.0	2024.0	6695.0	6859.0	7000.0	7010.0	7012.0	7012.0	7012.0	7012.0
1327108200	907718.0	4607.70558376	2708.2114918	0.587757060986	472.0	472.0	472.0	477.0	480.0	485.0	549.0	6354.0	6433.0	6515.0	6535.0	6538.0	6543.0	6543.0	6543.0
1327108800	943744.0	4889.86528497	2803.27809271	0.573283297053	587.0	587.0	587.0	592.0	602.0	608.0	937.0	6601.0	6961.0	7009.0	7039.0	7055.0	7060.0	7060.0	7060.0
1327109400	539631.0	4818.13392857	2856.11957662	0.592785426674	698.0	698.0	698.0	699.0	700.0	714.0	809.0	6694.5	6876.0	6950.0	6954.0	6955.0	6966.0	6966.0	6966.0
