#
# Generated On: 2012-02-05T19:11:39.292791
#           By: cwa.analyze.statistics
#      Version: 11.11.23
#       Author: Thomas A. de Ruiter <thomas@de-ruiter.cx>
#
#  Commandline: /home/af10028/bin/cwa analyze
#     Work Dir: /scratch/af10028/var/thesis-project/result/analyses/workload-06h-07416l-2s-default
#

Time	Sum	Avg	StdDev	CoV	0.000000-Pct	0.010000-Pct	0.100000-Pct	1.000000-Pct	2.000000-Pct	5.000000-Pct	25.000000-Pct	50.000000-Pct	75.000000-Pct	95.000000-Pct	98.000000-Pct	99.000000-Pct	99.900000-Pct	99.990000-Pct	100.000000-Pct
1327087800	191464.0	196.979423868	497.710140259	2.52671132083	2.0	2.0	2.0	2.0	2.0	2.0	6.0	36.0	158.0	1046.0	1670.0	2306.0	7869.0	7869.0	7869.0
1327088400	3503252.0	178.373319756	439.757127537	2.46537502436	2.0	2.0	2.0	2.0	2.0	2.0	6.0	35.0	155.0	818.0	1442.0	2009.0	4855.0	11006.0	11212.0
1327089000	3662023.0	168.570382987	427.558628132	2.53638047536	2.0	2.0	2.0	2.0	2.0	2.0	6.0	32.0	140.0	764.0	1403.0	2063.0	5131.0	6906.0	7557.0
1327089600	3528609.0	165.818092105	412.975675824	2.49053448017	2.0	2.0	2.0	2.0	2.0	2.0	6.0	32.0	140.0	773.0	1373.0	1976.0	5068.0	8109.0	8627.0
1327090200	4200069.0	194.393640655	476.423085895	2.45081621131	2.0	2.0	2.0	2.0	2.0	2.0	8.0	41.0	167.0	899.0	1610.0	2279.0	5862.0	8286.0	10898.0
1327090800	3980540.0	216.098805646	496.722015564	2.29858750991	2.0	2.0	2.0	2.0	2.0	2.0	8.0	47.0	197.0	977.0	1733.0	2426.0	5485.0	9518.0	11471.0
1327091400	3646149.0	170.627965745	467.690967005	2.74099831738	2.0	2.0	2.0	2.0	2.0	2.0	6.0	32.0	138.0	752.0	1457.0	2075.0	5629.0	9161.0	20362.0
1327092000	3622387.0	153.075853617	422.845405492	2.76232596781	2.0	2.0	2.0	2.0	2.0	2.0	5.0	29.0	122.0	689.0	1328.0	1955.0	4636.0	8913.0	18035.0
1327092600	3791271.0	178.960160491	431.520849989	2.41126767436	2.0	2.0	2.0	2.0	2.0	2.0	6.0	36.0	158.0	815.0	1436.0	2051.0	4696.0	7260.0	11237.0
1327093200	3734057.0	181.467512271	455.330568318	2.50915749392	2.0	2.0	2.0	2.0	2.0	2.0	6.0	36.0	155.0	818.0	1472.0	2183.0	5206.0	9242.0	9998.0
1327093800	3797660.0	187.390703642	454.879105111	2.42743688065	2.0	2.0	2.0	2.0	2.0	2.0	6.0	38.0	161.0	866.0	1544.0	2177.0	4945.0	7368.0	11722.0
1327094400	3609669.0	188.36659187	449.523529407	2.38642916955	2.0	2.0	2.0	2.0	2.0	2.0	6.0	38.0	167.0	860.0	1532.0	2210.0	5050.0	9447.0	10498.0
1327095000	3710734.0	182.902898265	466.664626524	2.55143374408	2.0	2.0	2.0	2.0	2.0	2.0	6.0	36.0	155.0	845.0	1502.0	2183.0	5122.0	9047.0	13297.0
1327095600	3638166.0	185.620714286	476.961980319	2.56955147573	2.0	2.0	2.0	2.0	2.0	2.0	6.0	36.0	161.0	833.0	1520.0	2144.0	5611.0	11522.0	13306.0
1327096200	3702675.0	167.876088139	444.929433797	2.65034430292	2.0	2.0	2.0	2.0	2.0	2.0	6.0	32.0	137.0	767.0	1337.0	1913.0	5401.0	10940.0	13249.0
1327096800	3790989.0	182.434504331	459.848721657	2.52062362514	2.0	2.0	2.0	2.0	2.0	2.0	6.0	35.0	152.0	836.0	1502.0	2231.0	5002.0	8661.0	10985.0
1327097400	3800503.0	179.370539928	479.429615593	2.67284480375	2.0	2.0	2.0	2.0	2.0	2.0	6.0	35.0	149.0	806.0	1445.0	2174.0	5230.0	8876.0	18015.0
1327098000	3734592.0	219.694805577	497.445605357	2.26425747323	2.0	2.0	2.0	2.0	2.0	2.0	9.0	53.0	206.0	992.0	1760.0	2453.0	5319.0	9227.0	12956.0
1327098600	3504578.0	195.208488832	459.016942995	2.35141896616	2.0	2.0	2.0	2.0	2.0	2.0	8.0	41.0	174.0	893.0	1565.0	2231.0	5044.0	9542.0	9908.0
1327099200	3850741.0	220.432823859	511.452580803	2.32021970162	2.0	2.0	2.0	2.0	2.0	2.0	9.0	48.0	203.0	992.0	1700.0	2440.0	5650.0	9483.0	12212.0
1327099800	3552310.0	176.943116159	473.987485636	2.67875629144	2.0	2.0	2.0	2.0	2.0	2.0	6.0	33.0	143.0	812.0	1460.0	2117.0	5044.0	12001.0	16714.0
1327100400	3589349.0	154.407166824	411.534080569	2.66525245578	2.0	2.0	2.0	2.0	2.0	2.0	5.0	29.0	122.0	701.0	1319.0	1979.0	4897.0	7470.0	8714.0
1327101000	3820931.0	204.087757718	477.122651542	2.33783082766	2.0	2.0	2.0	2.0	2.0	2.0	8.0	41.0	182.0	959.0	1652.0	2318.0	5074.0	11410.0	11509.0
1327101600	3547931.0	176.277189844	424.968425186	2.4107964596	2.0	2.0	2.0	2.0	2.0	2.0	6.0	33.0	152.0	827.0	1442.0	1994.0	5014.0	6720.0	8549.0
1327102200	3636788.0	155.398367731	407.805876065	2.62426100107	2.0	2.0	2.0	2.0	2.0	2.0	5.0	29.0	122.0	707.0	1310.0	1976.0	4972.0	7533.0	8832.0
1327102800	3772861.0	170.055936176	422.411559082	2.483956565	2.0	2.0	2.0	2.0	2.0	2.0	6.0	32.0	141.0	797.0	1412.0	2069.0	4507.0	7914.0	11873.0
1327103400	3539173.0	163.676316885	441.510668299	2.69746214176	2.0	2.0	2.0	2.0	2.0	2.0	6.0	30.0	132.0	746.0	1352.0	2060.0	5068.0	7522.0	16896.0
1327104000	3637687.0	159.715797331	415.034314816	2.5985802391	2.0	2.0	2.0	2.0	2.0	2.0	6.0	32.0	134.0	734.0	1313.0	1898.0	4210.0	10283.0	18032.0
1327104600	3727883.0	165.624800071	454.051754146	2.74144786259	2.0	2.0	2.0	2.0	2.0	2.0	6.0	30.0	134.0	770.0	1358.0	1922.0	5329.0	8694.0	26361.0
1327105200	3728116.0	171.818416444	426.978561212	2.48505701571	2.0	2.0	2.0	2.0	2.0	2.0	6.0	32.0	146.0	797.0	1427.0	2039.0	4651.0	9891.0	12314.0
1327105800	3737820.0	187.547415956	462.512280267	2.46610851933	2.0	2.0	2.0	2.0	2.0	2.0	6.0	38.0	164.0	869.0	1517.0	2135.0	5272.0	9158.0	13822.0
1327106400	3697481.0	156.130436619	420.844897023	2.69546992974	2.0	2.0	2.0	2.0	2.0	2.0	5.0	29.0	122.0	713.0	1337.0	1910.0	4954.0	9851.0	12491.0
1327107000	3869896.0	210.997001254	504.544419399	2.3912397636	2.0	2.0	2.0	2.0	2.0	2.0	8.0	44.0	185.0	986.0	1709.0	2402.0	5620.0	9564.0	15501.0
1327107600	3703152.0	167.578604399	440.740468385	2.63005214757	2.0	2.0	2.0	2.0	2.0	2.0	6.0	32.0	134.0	776.0	1406.0	2009.0	5017.0	8937.0	13186.0
1327108200	3388033.0	162.145632927	419.487500508	2.58710329064	2.0	2.0	2.0	2.0	2.0	2.0	6.0	32.0	134.0	761.0	1340.0	1904.0	4234.0	11137.0	17292.0
1327108800	3749824.0	182.677644079	426.502271352	2.33472614289	2.0	2.0	2.0	2.0	2.0	2.0	6.0	38.0	161.0	863.0	1463.0	1991.0	4525.0	6769.0	9949.0
1327109400	3823920.0	198.325812977	464.729020631	2.34326038379	2.0	2.0	2.0	2.0	2.0	2.0	8.0	44.0	176.0	911.0	1598.0	2261.0	5065.0	8370.0	9312.0
1327110000	3666456.0	177.269061548	468.990443766	2.64564182645	2.0	2.0	2.0	2.0	2.0	2.0	6.0	35.0	152.0	797.0	1421.0	2072.0	5398.0	10690.0	17424.0
1327110600	595590.0	176.89040689	401.087270284	2.26743370279	2.0	2.0	2.0	2.0	2.0	2.0	8.0	36.0	146.0	860.0	1505.0	1963.0	4249.0	5553.0	5553.0
1327111200	0	0	0	0															
1327111800	0	0	0	0															
1327112400	0	0	0	0															
1327113000	0	0	0	0															
1327113600	0	0	0	0															
1327114200	0	0	0	0															
1327114800	0	0	0	0															
1327115400	0	0	0	0															
1327116000	0	0	0	0															
1327116600	0	0	0	0															
