#
# Generated On: 2012-02-09T15:46:45.675486
#           By: cwa.analyze.statistics
#      Version: 11.11.23
#       Author: Thomas A. de Ruiter <thomas@de-ruiter.cx>
#
#  Commandline: /home/af10028/bin/cwa analyze
#     Work Dir: /scratch/af10028/var/thesis-project/result/workload-analyses/workload-06h-08652l-4s
#

Time	Sum	Avg	StdDev	CoV	0.000000-Pct	0.010000-Pct	0.100000-Pct	1.000000-Pct	2.000000-Pct	5.000000-Pct	25.000000-Pct	50.000000-Pct	75.000000-Pct	95.000000-Pct	98.000000-Pct	99.000000-Pct	99.900000-Pct	99.990000-Pct	100.000000-Pct
1326889800	285819.0	4025.61971831	4854.53603894	1.20591023957	7.0	7.0	7.0	7.0	7.0	12.0	531.0	2376.0	5435.0	13452.0	13741.0	28674.0	28674.0	28674.0	28674.0
1326890400	515431.0	4685.73636364	7286.74584079	1.55509087053	0.0	0.0	0.0	1.0	9.0	17.0	1133.0	2871.5	5110.0	14862.0	21356.0	47437.0	51343.0	51343.0	51343.0
1326891000	421819.0	4017.32380952	4902.52611788	1.22034626789	5.0	5.0	5.0	17.0	19.0	42.0	1007.0	2369.0	5231.0	10621.0	18137.0	25520.0	30048.0	30048.0	30048.0
1326891600	445743.0	6652.88059701	11418.6739446	1.71635035051	7.0	7.0	7.0	7.0	8.0	72.0	788.0	2836.0	7868.0	21633.0	59968.0	65374.0	65374.0	65374.0	65374.0
1326892200	424727.0	4290.17171717	6968.26580634	1.62423936982	6.0	6.0	6.0	6.0	6.0	33.0	522.0	2407.0	5546.0	12583.0	19296.0	62177.0	62177.0	62177.0	62177.0
1326892800	315999.0	3949.9875	3856.56165316	0.976347812028	6.0	6.0	6.0	6.0	30.0	72.0	987.0	2755.5	6150.0	11864.0	14518.0	15378.0	15378.0	15378.0	15378.0
1326893400	315854.0	3630.50574713	3269.54050492	0.900574391739	5.0	5.0	5.0	5.0	9.0	71.0	1181.0	2824.0	5344.0	10201.0	13502.0	16743.0	16743.0	16743.0	16743.0
1326894000	568147.0	4473.5984252	5387.44574054	1.20427566994	1.0	1.0	1.0	7.0	10.0	39.0	738.0	2534.0	6111.0	16041.0	22660.0	23413.0	28310.0	28310.0	28310.0
1326894600	342260.0	3979.76744186	3858.34773133	0.969490752336	11.0	11.0	11.0	11.0	20.0	72.0	920.0	3032.5	5815.0	11557.0	15663.0	17999.0	17999.0	17999.0	17999.0
1326895200	581317.0	4338.18656716	7321.5796625	1.68770511576	7.0	7.0	7.0	10.0	17.0	106.0	688.0	2481.5	5018.0	12993.0	28962.0	40191.0	62583.0	62583.0	62583.0
1326895800	482019.0	4868.87878788	6612.88052996	1.35819370702	4.0	4.0	4.0	4.0	15.0	66.0	626.0	2288.0	6618.0	22298.0	27856.0	30857.0	30857.0	30857.0	30857.0
1326896400	206532.0	2647.84615385	3673.65221182	1.38741150293	9.0	9.0	9.0	9.0	13.0	17.0	366.0	1354.5	3207.0	11481.0	14614.0	20546.0	20546.0	20546.0	20546.0
1326897000	240414.0	3877.64516129	4482.43041546	1.15596714733	6.0	6.0	6.0	6.0	10.0	50.0	584.0	2241.5	6107.0	14240.0	16462.0	17121.0	17121.0	17121.0	17121.0
1326897600	400911.0	4265.0106383	6038.48325593	1.41581903729	1.0	1.0	1.0	1.0	16.0	49.0	906.0	2513.0	4757.0	14727.0	30945.0	36589.0	36589.0	36589.0	36589.0
1326898200	481005.0	4581.0	5563.80441231	1.21453927359	27.0	27.0	27.0	30.0	52.0	92.0	1047.0	2624.0	5931.0	18176.0	23855.0	24806.0	26749.0	26749.0	26749.0
1326898800	412714.0	4211.36734694	3997.87994175	0.949306866961	4.0	4.0	4.0	4.0	9.0	181.0	1219.0	3364.0	6045.0	13156.0	15332.0	21033.0	21033.0	21033.0	21033.0
1326899400	453170.0	3625.36	4865.30117657	1.34201877236	2.0	2.0	2.0	7.0	7.0	8.0	728.0	2139.0	4450.0	15289.0	22568.0	22748.0	25462.0	25462.0	25462.0
1326900000	355954.0	4288.60240964	4563.10836222	1.06400825406	15.0	15.0	15.0	15.0	33.0	58.0	1072.0	2991.0	5476.0	12950.0	20531.0	23671.0	23671.0	23671.0	23671.0
1326900600	497673.0	4217.56779661	5659.84187131	1.34196820164	2.0	2.0	2.0	5.0	7.0	43.0	802.0	2066.0	5234.0	18035.0	21283.0	23216.0	34845.0	34845.0	34845.0
1326901200	320705.0	4111.6025641	4395.74356206	1.06910711664	7.0	7.0	7.0	7.0	30.0	40.0	991.0	3112.0	5611.0	13344.0	19686.0	22013.0	22013.0	22013.0	22013.0
1326901800	412224.0	4249.73195876	4963.62442659	1.1679852929	1.0	1.0	1.0	1.0	6.0	82.0	739.0	2682.0	5709.0	15937.0	19557.0	19917.0	19917.0	19917.0	19917.0
1326902400	463312.0	4776.41237113	7221.66370166	1.51194309463	2.0	2.0	2.0	2.0	3.0	19.0	943.0	2354.0	5554.0	15222.0	31005.0	55402.0	55402.0	55402.0	55402.0
1326903000	429653.0	3905.93636364	5104.69365285	1.30690650784	2.0	2.0	2.0	5.0	7.0	78.0	913.0	2605.5	4905.0	12529.0	19290.0	23685.0	37229.0	37229.0	37229.0
1326903600	456454.0	4039.4159292	4064.69179276	1.0062573065	0.0	0.0	0.0	14.0	17.0	40.0	879.0	3171.0	5552.0	13219.0	15985.0	16440.0	19513.0	19513.0	19513.0
1326904200	423405.0	3558.02521008	4531.73376008	1.27366544431	11.0	11.0	11.0	14.0	19.0	21.0	574.0	1954.0	4744.0	13582.0	19359.0	19775.0	24853.0	24853.0	24853.0
1326904800	237682.0	2863.63855422	3218.3007582	1.12385019871	9.0	9.0	9.0	9.0	18.0	34.0	620.0	1957.0	3622.0	9758.0	13775.0	16428.0	16428.0	16428.0	16428.0
1326905400	416228.0	4784.22988506	5645.10951899	1.17994110957	1.0	1.0	1.0	1.0	41.0	180.0	1210.0	3138.0	6119.0	15200.0	17460.0	39076.0	39076.0	39076.0	39076.0
1326906000	599375.0	4506.57894737	6515.40936551	1.44575507089	6.0	6.0	6.0	21.0	23.0	99.0	1253.0	2694.0	5103.0	14259.0	31993.0	36568.0	49186.0	49186.0	49186.0
1326906600	453744.0	4162.78899083	4113.12689036	0.98806999332	5.0	5.0	5.0	13.0	13.0	74.0	937.0	3036.0	6171.0	11945.0	14989.0	17933.0	19861.0	19861.0	19861.0
1326907200	510497.0	4218.98347107	5332.97146843	1.26404180177	7.0	7.0	7.0	22.0	31.0	80.0	839.0	2571.0	5527.0	12051.0	18636.0	23619.0	39988.0	39988.0	39988.0
1326907800	516132.0	4411.38461538	4866.00790999	1.10305682552	3.0	3.0	3.0	6.0	36.0	67.0	689.0	3112.0	5954.0	15192.0	16995.0	18185.0	27834.0	27834.0	27834.0
1326908400	525868.0	4533.34482759	6416.97690587	1.41550602258	19.0	19.0	19.0	23.0	24.0	60.0	938.0	2800.0	5491.0	14789.0	28307.0	31148.0	46657.0	46657.0	46657.0
1326909000	442947.0	4259.10576923	4127.29675964	0.969052421626	28.0	28.0	28.0	39.0	49.0	76.0	1136.0	3210.0	5622.0	12051.0	13701.0	18634.0	22444.0	22444.0	22444.0
1326909600	437170.0	4047.87037037	4896.31876805	1.20960364835	4.0	4.0	4.0	19.0	25.0	75.0	1143.0	2469.5	4911.0	14536.0	20089.0	22733.0	28883.0	28883.0	28883.0
1326910200	469254.0	4646.07920792	6080.2179857	1.30867721225	5.0	5.0	5.0	6.0	7.0	63.0	900.0	3257.0	6008.0	15713.0	18158.0	18464.0	48026.0	48026.0	48026.0
1326910800	328122.0	4557.25	5470.01636517	1.20028885077	1.0	1.0	1.0	1.0	11.0	36.0	1044.0	3384.0	5869.0	16398.0	27338.0	28357.0	28357.0	28357.0	28357.0
1326911400	255880.0	5444.25531915	8482.53195503	1.55807019652	4.0	4.0	4.0	4.0	4.0	79.0	705.0	2729.0	6552.0	21188.0	49441.0	49441.0	49441.0	49441.0	49441.0
