#
# Generated On: 2012-02-09T15:47:56.944625
#           By: cwa.analyze.jobs_per_executableid
#      Version: 11.3.16
#       Author: Thomas A. de Ruiter <thomas@de-ruiter.cx>
#
#  Commandline: /home/af10028/bin/cwa analyze
#     Work Dir: /scratch/af10028/var/thesis-project/result/workload-analyses/workload-06h-08652l-4s
#

Time	ID_-1
0	94521
3600	123160
7200	124476
10800	135873
14400	149180
18000	158554
21600	76299
25200	34895
28800	19827
32400	12861
36000	9225
39600	7121
43200	4958
46800	4014
50400	3208
54000	3045
57600	2730
61200	1388
64800	316
68400	24
