#
# Generated On: 2012-02-05T22:03:56.217554
#           By: cwa.analyze.statistics
#      Version: 11.11.23
#       Author: Thomas A. de Ruiter <thomas@de-ruiter.cx>
#
#  Commandline: /home/af10028/bin/cwa analyze
#     Work Dir: /scratch/af10028/var/thesis-project/result/analyses/workload-06h-11124l-4s-fair
#

Time	Sum	Avg	StdDev	CoV	0.000000-Pct	0.010000-Pct	0.100000-Pct	1.000000-Pct	2.000000-Pct	5.000000-Pct	25.000000-Pct	50.000000-Pct	75.000000-Pct	95.000000-Pct	98.000000-Pct	99.000000-Pct	99.900000-Pct	99.990000-Pct	100.000000-Pct
all	257754076.0	1405.08316434	3053.69384522	2.17331893422	5.0	5.0	5.0	5.0	5.0	5.0	5.0	53.0	1271.0	7251.0	11512.0	15343.0	27539.0	33909.0	38216.0
