#
# Generated On: 2012-02-05T16:52:34.895403
#           By: cwa.analyze.statistics
#      Version: 11.11.23
#       Author: Thomas A. de Ruiter <thomas@de-ruiter.cx>
#
#  Commandline: /home/af10028/bin/cwa analyze
#     Work Dir: /scratch/af10028/var/thesis-project/result/analyses/workload-01h-06180l-3s-default
#

Time	Sum	Avg	StdDev	CoV	0.000000-Pct	0.010000-Pct	0.100000-Pct	1.000000-Pct	2.000000-Pct	5.000000-Pct	25.000000-Pct	50.000000-Pct	75.000000-Pct	95.000000-Pct	98.000000-Pct	99.000000-Pct	99.900000-Pct	99.990000-Pct	100.000000-Pct
all	2919518.0	1792.21485574	1939.19530868	1.08201050921	2.0	2.0	2.0	2.0	2.0	3.0	57.0	1158.0	3355.0	5060.0	6816.0	8458.0	12996.0	14000.0	14000.0
