#
# Generated On: 2012-02-05T16:52:34.913502
#           By: cwa.analyze.statistics
#      Version: 11.11.23
#       Author: Thomas A. de Ruiter <thomas@de-ruiter.cx>
#
#  Commandline: /home/af10028/bin/cwa analyze
#     Work Dir: /scratch/af10028/var/thesis-project/result/analyses/workload-01h-06180l-3s-default
#

Time	Sum	Avg	StdDev	CoV	0.000000-Pct	0.010000-Pct	0.100000-Pct	1.000000-Pct	2.000000-Pct	5.000000-Pct	25.000000-Pct	50.000000-Pct	75.000000-Pct	95.000000-Pct	98.000000-Pct	99.000000-Pct	99.900000-Pct	99.990000-Pct	100.000000-Pct
1326956400	43514.0	378.382608696	464.137751456	1.22663605776	2.0	2.0	2.0	2.0	2.0	2.0	8.0	212.0	636.0	1473.0	1679.0	1730.0	1917.0	1917.0	1917.0
1326957000	67965.0	414.420731707	499.788224903	1.20599233258	2.0	2.0	2.0	2.0	2.0	2.0	9.0	241.0	675.0	1516.0	1712.0	1988.0	2096.0	2096.0	2096.0
1326957600	57492.0	322.988764045	426.547855837	1.32062753668	2.0	2.0	2.0	2.0	2.0	2.0	3.0	143.5	514.0	1352.0	1530.0	1599.0	2198.0	2198.0	2198.0
1326958200	177787.0	858.874396135	825.126788534	0.960707167715	2.0	2.0	2.0	2.0	2.0	3.0	41.0	723.0	1792.0	2249.0	2384.0	2385.0	2401.0	2401.0	2401.0
1326958800	453561.0	1843.74390244	1197.90514235	0.649713412347	2.0	2.0	2.0	2.0	2.0	3.0	64.0	2398.5	2651.0	3355.0	3378.0	3380.0	3386.0	3386.0	3386.0
1326959400	528158.0	2640.79	1656.68618679	0.627344918298	2.0	2.0	2.0	2.0	3.0	3.0	95.0	3658.5	3713.0	3869.0	3881.0	3884.0	3884.0	3884.0	3884.0
1326960000	192318.0	2434.40506329	1841.90146677	0.756612568117	2.0	2.0	2.0	2.0	2.0	3.0	8.0	3670.0	3891.0	4042.0	4042.0	4042.0	4042.0	4042.0	4042.0
