#
# Generated On: 2012-02-05T17:06:36.005202
#           By: cwa.analyze.statistics
#      Version: 11.11.23
#       Author: Thomas A. de Ruiter <thomas@de-ruiter.cx>
#
#  Commandline: /home/af10028/bin/cwa analyze
#     Work Dir: /scratch/af10028/var/thesis-project/result/analyses/workload-01h-08652l-5s-default
#

Time	Sum	Avg	StdDev	CoV	0.000000-Pct	0.010000-Pct	0.100000-Pct	1.000000-Pct	2.000000-Pct	5.000000-Pct	25.000000-Pct	50.000000-Pct	75.000000-Pct	95.000000-Pct	98.000000-Pct	99.000000-Pct	99.900000-Pct	99.990000-Pct	100.000000-Pct
1326931200	60266149.0	409.094388933	1260.00226791	3.07997934461	2.0	2.0	2.0	2.0	2.0	2.0	6.0	41.0	203.0	2273.0	4672.0	6654.0	14475.0	14476.0	14477.0
1326934800	23457805.0	509.697433892	1234.39987361	2.4218286998	2.0	2.0	2.0	2.0	2.0	2.0	6.0	45.0	308.0	2831.0	4770.0	5302.0	11822.0	11843.0	11845.0
1326938400	8373433.0	1711.30860413	2006.71469398	1.17261999919	5.0	5.0	5.0	5.0	5.0	5.0	6.0	707.0	3044.0	5931.0	6213.0	6214.0	6214.0	6216.0	6216.0
