#
# Generated On: 2012-02-05T17:16:32.227992
#           By: cwa.analyze.statistics
#      Version: 11.11.23
#       Author: Thomas A. de Ruiter <thomas@de-ruiter.cx>
#
#  Commandline: /home/af10028/bin/cwa analyze
#     Work Dir: /scratch/af10028/var/thesis-project/result/analyses/workload-01h-11124l-1s-default
#

Time	Sum	Avg	StdDev	CoV	0.000000-Pct	0.010000-Pct	0.100000-Pct	1.000000-Pct	2.000000-Pct	5.000000-Pct	25.000000-Pct	50.000000-Pct	75.000000-Pct	95.000000-Pct	98.000000-Pct	99.000000-Pct	99.900000-Pct	99.990000-Pct	100.000000-Pct
1326946800	1930892.0	152.20652688	341.955512197	2.2466547211	2.0	2.0	2.0	2.0	2.0	2.0	3.0	20.0	101.0	1013.0	1379.0	1502.0	2090.0	3973.0	3973.0
1326947400	1232007.0	96.590121521	233.949551389	2.42208569266	2.0	2.0	2.0	2.0	2.0	2.0	3.0	17.0	71.0	485.0	995.0	1217.0	1880.0	2378.0	2867.0
1326948000	660912.0	79.4079058032	182.41765521	2.29722284406	2.0	2.0	2.0	2.0	2.0	2.0	3.0	17.0	68.0	386.0	635.0	764.0	2392.0	2396.0	2396.0
1326948600	459856.0	82.3967030998	223.819354682	2.71636298859	2.0	2.0	2.0	2.0	2.0	2.0	3.0	14.0	59.0	365.0	728.0	1646.0	1685.0	2252.0	2252.0
1326949200	229094.0	56.1918077017	118.568102779	2.11006030289	2.0	2.0	2.0	2.0	2.0	2.0	3.0	14.0	56.0	254.0	425.0	578.0	1169.0	1799.0	1799.0
1326949800	582296.0	56.3857848359	126.748035108	2.24787214503	2.0	2.0	2.0	2.0	2.0	2.0	3.0	12.0	53.0	248.0	443.0	614.0	1349.0	1946.0	2267.0
1326950400	510314.0	57.5001690141	124.592873503	2.16682621355	2.0	2.0	2.0	2.0	2.0	2.0	3.0	14.0	54.0	257.0	443.0	611.0	1238.0	2660.0	2660.0
1326951000	415060.0	61.4357608052	135.235858401	2.20125634693	2.0	2.0	2.0	2.0	2.0	2.0	3.0	14.0	56.0	275.0	485.0	644.0	1472.0	2678.0	2678.0
1326951600	253207.0	62.5202469136	132.031437652	2.1118188774	2.0	2.0	2.0	2.0	2.0	2.0	3.0	14.0	60.0	290.0	500.0	644.0	1295.0	1793.0	1793.0
1326952200	288347.0	54.2005639098	135.007070204	2.49087943862	2.0	2.0	2.0	2.0	2.0	2.0	3.0	9.0	44.0	251.0	449.0	626.0	1364.0	3553.0	3553.0
1326952800	793.0	5.46896551724	0.500765697233	0.0915649761649	5.0	5.0	5.0	5.0	5.0	5.0	5.0	5.0	6.0	6.0	6.0	6.0	6.0	6.0	6.0
1326953400	1198.0	5.44545454545	0.498149335523	0.0914798445868	5.0	5.0	5.0	5.0	5.0	5.0	5.0	5.0	6.0	6.0	6.0	6.0	6.0	6.0	6.0
1326954000	716.0	5.42424242424	0.496110245708	0.0914616654098	5.0	5.0	5.0	5.0	5.0	5.0	5.0	5.0	6.0	6.0	6.0	6.0	6.0	6.0	6.0
1326954600	2689.0	5.45436105477	0.498418481996	0.0913798109424	5.0	5.0	5.0	5.0	5.0	5.0	5.0	5.0	6.0	6.0	6.0	6.0	6.0	6.0	6.0
1326955200	3066.0	5.41696113074	0.493492471802	0.0911013499804	5.0	5.0	5.0	5.0	5.0	5.0	5.0	5.0	6.0	6.0	6.0	6.0	6.0	6.0	6.0
1326955800	4267.0	5.41497461929	0.493030588024	0.0910494734856	5.0	5.0	5.0	5.0	5.0	5.0	5.0	5.0	6.0	6.0	6.0	6.0	6.0	6.0	6.0
1326956400	8575.0	5.40668348045	0.491369781221	0.0908819210515	5.0	5.0	5.0	5.0	5.0	5.0	5.0	5.0	6.0	6.0	6.0	6.0	6.0	6.0	6.0
1326957000	2015.0	5.40214477212	0.490989466694	0.0908878764649	5.0	5.0	5.0	5.0	5.0	5.0	5.0	5.0	6.0	6.0	6.0	6.0	6.0	6.0	6.0
1326957600	4089.0	5.4375	0.496408539494	0.0912935245046	5.0	5.0	5.0	5.0	5.0	5.0	5.0	5.0	6.0	6.0	6.0	6.0	6.0	6.0	6.0
