#
# Generated On: 2012-02-05T19:40:09.312340
#           By: cwa.analyze.jobs_per_executableid
#      Version: 11.3.16
#       Author: Thomas A. de Ruiter <thomas@de-ruiter.cx>
#
#  Commandline: /home/af10028/bin/cwa analyze
#     Work Dir: /scratch/af10028/var/thesis-project/result/analyses/workload-06h-08652l-0s-default
#

Time	ID_-1
0	2097
3600	3064
7200	3745
10800	3682
14400	4425
18000	5554
21600	3760
25200	1661
28800	226
32400	10
36000	1
