#
# Generated On: 2012-02-09T15:08:32.015313
#           By: cwa.analyze.statistics
#      Version: 11.11.23
#       Author: Thomas A. de Ruiter <thomas@de-ruiter.cx>
#
#  Commandline: /home/af10028/bin/cwa analyze
#     Work Dir: /scratch/af10028/var/thesis-project/result/workload-analyses/workload-06h-07416l-3s
#

Time	Sum	Avg	StdDev	CoV	0.000000-Pct	0.010000-Pct	0.100000-Pct	1.000000-Pct	2.000000-Pct	5.000000-Pct	25.000000-Pct	50.000000-Pct	75.000000-Pct	95.000000-Pct	98.000000-Pct	99.000000-Pct	99.900000-Pct	99.990000-Pct	100.000000-Pct
1326891600	1892510.0	4330.68649886	5828.60761971	1.34588537435	2.0	2.0	2.0	7.0	16.0	38.0	919.0	2487.0	5830.0	13764.0	21431.0	27571.0	61546.0	61546.0	61546.0
1326895200	2002510.0	4037.31854839	5015.14261792	1.24219641275	0.0	0.0	0.0	5.0	11.0	41.0	719.0	2462.0	5516.0	13154.0	18001.0	22826.0	48121.0	48121.0	48121.0
1326898800	2045981.0	4133.29494949	5404.62136987	1.307581829	2.0	2.0	2.0	5.0	14.0	31.0	791.0	2609.0	5518.0	13238.0	22539.0	28577.0	45476.0	45476.0	45476.0
1326902400	2073016.0	4088.78895464	4685.80527001	1.14601299358	4.0	4.0	4.0	8.0	13.0	42.0	604.0	2653.0	5564.0	13777.0	19435.0	22230.0	27901.0	27901.0	27901.0
1326906000	2365763.0	4172.42151675	5332.247919	1.27797440829	1.0	1.0	1.0	5.0	10.0	41.0	941.0	2601.0	5177.0	14380.0	19010.0	22139.0	48401.0	48401.0	48401.0
1326909600	2290494.0	4082.87700535	4889.02505957	1.19744607863	2.0	2.0	2.0	10.0	16.0	46.0	842.0	2604.0	5256.0	12704.0	17913.0	22813.0	49296.0	49296.0	49296.0
1326913200	63245.0	4216.33333333	3410.52990576	0.808885265024	19.0	19.0	19.0	19.0	19.0	19.0	815.0	3438.0	7606.0	9063.0	9063.0	9063.0	9063.0	9063.0	9063.0
