#
# Generated On: 2012-02-05T18:15:23.094195
#           By: cwa.analyze.statistics
#      Version: 11.11.23
#       Author: Thomas A. de Ruiter <thomas@de-ruiter.cx>
#
#  Commandline: /home/af10028/bin/cwa analyze
#     Work Dir: /scratch/af10028/var/thesis-project/result/analyses/workload-06h-04944l-5s-default
#

Value	PDF	CDF
2.0	0.128234681269	0.128237197797
5.0	0.084746573119	0.212983770915
8.0	0.0335679575613	0.246551728477
11.0	0.0269343916169	0.273486120094
14.0	0.0226386795278	0.296124799622
17.0	0.0196918260677	0.315816625689
20.0	0.0173590052671	0.333175630956
23.0	0.0155647213072	0.348740352263
26.0	0.0148550606106	0.363595412874
29.0	0.0135842143276	0.377179627202
32.0	0.0123863473361	0.389565974538
35.0	0.0115206619473	0.401086636485
38.0	0.0107933855597	0.411880022045
41.0	0.0100912744449	0.42197129649
44.0	0.0096307499503	0.43160204644
47.0	0.00887830828969	0.44048035473
50.0	0.00842784990425	0.448908204634
53.0	0.00828189132125	0.457190095955
56.0	0.00779116849912	0.464981264454
59.0	0.00764269338883	0.472623957843
62.0	0.00734825969555	0.479972217539
65.0	0.00665369816268	0.486625915701
68.0	0.00666879732644	0.493294713028
71.0	0.00634919836023	0.499643911388
74.0	0.00606986383071	0.505713775219
77.0	0.00589873997478	0.511612515194
80.0	0.00560178975421	0.517214304948
83.0	0.00583331026517	0.523047615213
86.0	0.00555649226294	0.528604107476
89.0	0.00527464120612	0.533878748682
92.0	0.00489212905759	0.53877087774
95.0	0.00491981085781	0.543690688597
98.0	0.00476881922023	0.548459507818
101.0	0.00459266230972	0.553052170127
104.0	0.00448193510883	0.557534105236
107.0	0.00425293112516	0.561787036361
110.0	0.00425293112516	0.566039967486
113.0	0.00417743530637	0.570217402793
116.0	0.00402141061421	0.574238813407
119.0	0.00407929074195	0.578318104149
122.0	0.00389810077685	0.582216204926
125.0	0.0039157164679	0.586131921394
128.0	0.0037722744122	0.589904195806
131.0	0.00365399762943	0.593558193435
134.0	0.00355333653771	0.597111529973
137.0	0.00345519197328	0.600566721946
140.0	0.0031985061894	0.603765228136
143.0	0.00332936560863	0.607094593744
146.0	0.00318592355293	0.610280517297
149.0	0.00303241538806	0.613312932685
152.0	0.00306261371558	0.616375546401
155.0	0.00292672124176	0.619302267643
158.0	0.0030173162243	0.622319583867
161.0	0.00293175429634	0.625251338163
164.0	0.00292672124176	0.628178059405
167.0	0.00290658902341	0.631084648429
170.0	0.00257440742074	0.633659055849
173.0	0.00258950658449	0.636248562434
176.0	0.00269771725809	0.638946279692
179.0	0.00272288253102	0.641669162223
182.0	0.00260712227554	0.644276284498
185.0	0.00246116369255	0.646737448191
188.0	0.00242341578316	0.649160863974
191.0	0.00232275469144	0.651483618666
194.0	0.00274553127666	0.654229149942
197.0	0.00235295301895	0.656582102961
200.0	0.00227494067287	0.658857043634
203.0	0.00229507289121	0.661152116525
206.0	0.00210884987153	0.663260966397
209.0	0.00198554003417	0.665246506431
212.0	0.00198554003417	0.667232046465
215.0	0.00231268858226	0.669544735047
218.0	0.00217427958115	0.671719014629
221.0	0.00192011032456	0.673639124953
224.0	0.0019779904523	0.675617115405
227.0	0.00201573836169	0.677632853767
230.0	0.00184209797847	0.679474951746
233.0	0.00196540781583	0.681440359561
236.0	0.00180183354179	0.683242193103
239.0	0.00189746157892	0.685139654682
242.0	0.00188236241516	0.687022017097
245.0	0.00187732936058	0.688899346458
248.0	0.00176911868698	0.690668465145
251.0	0.00208620112589	0.692754666271
254.0	0.0017238211957	0.694478487466
257.0	0.00192765990644	0.696406147373
260.0	0.00170368897736	0.69810983635
263.0	0.00164077579503	0.699750612145
266.0	0.00171375508653	0.701464367232
269.0	0.00152501553956	0.702989382771
272.0	0.00153256512144	0.704521947893
275.0	0.00162819315857	0.706150141051
278.0	0.00154011470331	0.707690255755
281.0	0.00140673875679	0.709096994511
284.0	0.00150739984851	0.71060439436
287.0	0.00139667264761	0.712001067008
290.0	0.00139918917491	0.713400256182
293.0	0.00144197013889	0.714842226321
296.0	0.00159547830376	0.716437704625
299.0	0.00166090801338	0.718098612639
302.0	0.0014017057022	0.719500318341
305.0	0.00132620988341	0.720826528224
308.0	0.00141680486596	0.72224333309
311.0	0.00141177181137	0.723655104901
314.0	0.00115256950019	0.724807674402
317.0	0.00124316448274	0.726050838884
320.0	0.00130356113777	0.727354400022
323.0	0.00128091239214	0.728635312414
326.0	0.00123309837357	0.729868410788
329.0	0.00120793310064	0.731076343888
332.0	0.00128846197401	0.732364805863
335.0	0.00122806531898	0.733592871181
338.0	0.00107204062682	0.734664911808
341.0	0.00117018519124	0.735835097
344.0	0.0010770736814	0.736912170681
347.0	0.00105694146306	0.737969112144
350.0	0.00105945799035	0.739028570134
353.0	0.00108462326328	0.740113193398
356.0	0.00109720589975	0.741210399297
359.0	0.00104435882659	0.742254758124
362.0	0.00109720589975	0.743351964024
365.0	0.00142435444784	0.744776318472
368.0	0.00103429271742	0.745810611189
371.0	0.00109217284516	0.746902784034
374.0	0.00102925966284	0.747932043697
377.0	0.00104435882659	0.748976402524
380.0	0.000951247316753	0.74992764984
383.0	0.00097389606239	0.750901545903
386.0	0.00101919355366	0.751920739456
389.0	0.000918532461944	0.752839271918
392.0	0.00108713979057	0.753926411709
395.0	0.00101416049908	0.754940572208
398.0	0.000933631625702	0.755874203834
401.0	0.000880784552549	0.756754988386
404.0	0.00109720589975	0.757852194286
407.0	0.00100409438991	0.758856288676
410.0	0.00103177619013	0.759888064866
413.0	0.000958796898632	0.760846861765
416.0	0.00110223895433	0.761949100719
419.0	0.00123561490086	0.76318471562
422.0	0.000830454006689	0.764015169627
425.0	0.000785156515415	0.764800326142
428.0	0.000880784552549	0.765681110694
431.0	0.000838003588568	0.766519114283
434.0	0.000868201916084	0.767387316199
437.0	0.000815354842931	0.768202671042
440.0	0.000978929116976	0.769181600159
443.0	0.000953763844046	0.770135364003
446.0	0.000817871370224	0.770953235373
449.0	0.000782639988122	0.771735875361
452.0	0.000752441660606	0.772488317022
455.0	0.000991511753441	0.773479828775
458.0	0.000880784552549	0.774360613328
461.0	0.000860652334205	0.775221265662
464.0	0.000978929116976	0.776200194779
467.0	0.00084806969774	0.777048264477
470.0	0.000951247316753	0.777999511794
473.0	0.000883301079842	0.778882812874
476.0	0.000858135806912	0.77974094868
479.0	0.000699594587453	0.780440543268
482.0	0.000754958187899	0.781195501456
485.0	0.000757474715192	0.781952976171
488.0	0.00074740860602	0.782700384777
491.0	0.000752441660606	0.783452826438
494.0	0.000727276387676	0.784180102825
497.0	0.000704627642039	0.784884730467
500.0	0.00108713979057	0.785971870258
503.0	0.000692045005574	0.786663915263
506.0	0.000903433298186	0.787567348562
509.0	0.000805288733759	0.788372637295
512.0	0.000749925133313	0.789122562429
515.0	0.000624098768663	0.789746661197
518.0	0.000704627642039	0.790451288839
521.0	0.000566218640924	0.79101750748
524.0	0.000608999604905	0.791626507085
527.0	0.000593900441147	0.792220407526
530.0	0.000659330150765	0.792879737677
533.0	0.000548602949873	0.793428340627
536.0	0.000591383913854	0.794019724541
539.0	0.000566218640924	0.794585943182
542.0	0.000586350859268	0.795172294041
545.0	0.000553636004459	0.795725930046
548.0	0.000581317804682	0.79630724785
551.0	0.000606483077612	0.796913730928
554.0	0.000619065714077	0.797532796642
557.0	0.000624098768663	0.798156895411
560.0	0.00069707806016	0.798853973471
563.0	0.000712177223918	0.799566150695
566.0	0.000558669059045	0.800124819754
569.0	0.000586350859268	0.800711170613
572.0	0.000578801277389	0.80128997189
575.0	0.000827937479396	0.80211790937
578.0	0.00105694146306	0.803174850833
581.0	0.000498272404013	0.803673123237
584.0	0.000551119477166	0.804224242714
587.0	0.00054608642258	0.804770329137
590.0	0.000478140185669	0.805248469322
593.0	0.000611516132198	0.805859985454
596.0	0.000586350859268	0.806446336314
599.0	0.000661846678058	0.807108182992
602.0	0.000583834331975	0.807692017324
605.0	0.000480656712962	0.808172674037
608.0	0.000503305458599	0.808675979495
611.0	0.00044542533086	0.809121404826
614.0	0.000538536840701	0.809659941667
617.0	0.000510855040478	0.810170796707
620.0	0.000463041021911	0.810633837729
623.0	0.000666879732644	0.811300717462
626.0	0.000498272404013	0.811798989866
629.0	0.000488206294841	0.812287196161
632.0	0.000425293112516	0.812712489273
635.0	0.000468074076497	0.81318056335
638.0	0.000468074076497	0.813648637426
641.0	0.000478140185669	0.814126777612
644.0	0.000447941858153	0.81457471947
647.0	0.000593900441147	0.815168619911
650.0	0.000450458385446	0.815619078297
653.0	0.000485689767548	0.816104768064
656.0	0.000450458385446	0.81655522645
659.0	0.000430326167102	0.816985552617
662.0	0.000344764239141	0.817330316856
665.0	0.000593900441147	0.817924217297
668.0	0.000468074076497	0.818392291374
671.0	0.000390061730414	0.818782353104
674.0	0.000422776585223	0.819205129689
677.0	0.000450458385446	0.819655588075
680.0	0.000402644366879	0.820058232442
683.0	0.000493239349427	0.820551471791
686.0	0.00037747909395	0.820928950885
689.0	0.000437875748981	0.821366826634
692.0	0.000626615295956	0.82199344193
695.0	0.000536020313408	0.822529462243
698.0	0.000412710476051	0.822942172719
701.0	0.000402644366879	0.823344817086
704.0	0.000427809639809	0.823772626726
707.0	0.000525954204236	0.82429858093
710.0	0.000463041021911	0.824761621952
713.0	0.000342247711848	0.825103869664
716.0	0.000367412984778	0.825471282649
719.0	0.000417743530637	0.825889026179
722.0	0.000372446039364	0.826261472219
725.0	0.000387545203122	0.826649017422
728.0	0.000397611312293	0.827046628734
731.0	0.000425293112516	0.827471921847
734.0	0.000337214657262	0.827809136504
737.0	0.000367412984778	0.828176549489
740.0	0.000332181602676	0.828508731091
743.0	0.000342247711848	0.828850978803
746.0	0.00035231382102	0.829203292624
749.0	0.000372446039364	0.829575738664
752.0	0.000392578257707	0.829968316921
755.0	0.000367412984778	0.830335729906
758.0	0.000339731184555	0.830675461091
761.0	0.000291917165988	0.830967378257
764.0	0.000289400638695	0.831256778895
767.0	0.000374962566657	0.831631741462
770.0	0.000324632020797	0.831956373483
773.0	0.000289400638695	0.832245774122
776.0	0.000369929512071	0.832615703634
779.0	0.000344764239141	0.832960467873
782.0	0.000314565911625	0.833275033784
785.0	0.000397611312293	0.833672645097
788.0	0.000334698129969	0.834007343227
791.0	0.000339731184555	0.834347074411
794.0	0.000294433693281	0.834641508104
797.0	0.000362379930192	0.835003888035
800.0	0.00032714854809	0.835331036583
803.0	0.000372446039364	0.835703482622
806.0	0.000322115493504	0.836025598116
809.0	0.000296950220574	0.836322548336
812.0	0.000329665075383	0.836652213412
815.0	0.00032714854809	0.83697936196
818.0	0.000322115493504	0.837301477453
821.0	0.00030198327516	0.837603460728
824.0	0.000291917165988	0.837895377894
827.0	0.000317082438918	0.838212460333
830.0	0.000397611312293	0.838610071646
833.0	0.000271784947644	0.838881856593
836.0	0.000312049384332	0.839193905978
839.0	0.000382512148536	0.839576418126
842.0	0.000651780568886	0.840228198695
845.0	0.000266751893058	0.840494950588
848.0	0.000299466747867	0.840794417336
851.0	0.000254169256593	0.841048586592
854.0	0.000312049384332	0.841360635977
857.0	0.000392578257707	0.841753214234
860.0	0.00032714854809	0.842080362783
863.0	0.000271784947644	0.84235214773
866.0	0.000296950220574	0.842649097951
869.0	0.000294433693281	0.842943531644
872.0	0.00030198327516	0.843245514919
875.0	0.000286884111402	0.843532399031
878.0	0.00027681800223	0.843809217033
881.0	0.000299466747867	0.844108683781
884.0	0.000264235365765	0.844372919146
887.0	0.000259202311179	0.844632121458
890.0	0.000246619674714	0.844878741132
893.0	0.000256685783886	0.845135426916
896.0	0.000234037038249	0.845369463955
899.0	0.00027681800223	0.845646281957
902.0	0.000246619674714	0.845892901631
905.0	0.000261718838472	0.84615462047
908.0	0.000186223019682	0.84634084349
911.0	0.000344764239141	0.846685607729
914.0	0.00022648745637	0.846912095185
917.0	0.000432842694395	0.84734493788
920.0	0.000344764239141	0.847689702119
923.0	0.000473107131083	0.84816280925
926.0	0.000284367584109	0.848447176834
929.0	0.000410193948758	0.848857370783
932.0	0.000304499802453	0.849161870585
935.0	0.000264235365765	0.849426105951
938.0	0.000281851056816	0.849707957008
941.0	0.000296950220574	0.850004907228
944.0	0.000437875748981	0.850442782977
947.0	0.000435359221688	0.850878142199
950.0	0.000254169256593	0.851132311455
953.0	0.000407677421465	0.851539988877
956.0	0.000530987258822	0.852070976136
959.0	0.000271784947644	0.852342761083
962.0	0.000234037038249	0.852576798122
965.0	0.000198805656147	0.852775603778
968.0	0.000231520510956	0.853007124289
971.0	0.000213904819905	0.853221029109
974.0	0.000198805656147	0.853419834765
977.0	0.000347280766434	0.853767115531
980.0	0.000337214657262	0.854104330189
983.0	0.000304499802453	0.854408829991
986.0	0.00030198327516	0.854710813266
989.0	0.000802772206466	0.855513585473
992.0	0.000641714459714	0.856155299932
995.0	0.00035231382102	0.856507613753
998.0	0.000395094785	0.856902708538
1001.0	0.000236553565542	0.857139262104
1004.0	0.000193772601561	0.857333034705
1007.0	0.000390061730414	0.857723096436
1010.0	0.000178673437803	0.857901769874
1013.0	0.00022648745637	0.85812825733
1016.0	0.000198805656147	0.858327062986
1019.0	0.000196289128854	0.858523352115
1022.0	0.000254169256593	0.858777521372
1025.0	0.000349797293727	0.859127318665
1028.0	0.000213904819905	0.859341223485
1031.0	0.000216421347198	0.859557644832
1034.0	0.000208871765319	0.859766516598
1037.0	0.000299466747867	0.860065983346
1040.0	0.00020132218344	0.860267305529
1043.0	0.000236553565542	0.860503859095
1046.0	0.000264235365765	0.86076809446
1049.0	0.000364896457485	0.861132990918
1052.0	0.000749925133313	0.861882916051
1055.0	0.000218937874491	0.862101853926
1058.0	0.000181189965096	0.862283043891
1061.0	0.000183706492389	0.862466750383
1064.0	0.000193772601561	0.862660522985
1067.0	0.000218937874491	0.862879460859
1070.0	0.000427809639809	0.863307270499
1073.0	0.000387545203122	0.863694815702
1076.0	0.000246619674714	0.863941435377
1079.0	0.000432842694395	0.864374278071
1082.0	0.000191256074268	0.864565534146
1085.0	0.000193772601561	0.864759306747
1088.0	0.000261718838472	0.865021025586
1091.0	0.000171123855924	0.865192149441
1094.0	0.000203838710733	0.865395988152
1097.0	0.000158541219459	0.865554529372
1100.0	0.000473107131083	0.866027636503
1103.0	0.000254169256593	0.866281805759
1106.0	0.000246619674714	0.866528425434
1109.0	0.000259202311179	0.866787627745
1112.0	0.000166090801338	0.866953718547
1115.0	0.000161057746752	0.867114776293
1118.0	0.000206355238026	0.867321131531
1121.0	0.000173640383217	0.867494771915
1124.0	0.00020132218344	0.867696094098
1127.0	0.000206355238026	0.867902449336
1130.0	0.000158541219459	0.868060990555
1133.0	0.00022648745637	0.868287478012
1136.0	0.00015099163758	0.868438469649
1139.0	0.000359863402899	0.868798333052
1142.0	0.000291917165988	0.869090250218
1145.0	0.000281851056816	0.869372101275
1148.0	0.000364896457485	0.869736997733
1151.0	0.00020132218344	0.869938319916
1154.0	0.000223970929077	0.870162290845
1157.0	0.000183706492389	0.870345997338
1160.0	0.000173640383217	0.870519637721
1163.0	0.000123309837357	0.870642947558
1166.0	0.000239070092835	0.870882017651
1169.0	0.000206355238026	0.871088372889
1172.0	0.000231520510956	0.8713198934
1175.0	0.000140925528408	0.871460818928
1178.0	0.000455491440032	0.871916310368
1181.0	0.000221454401784	0.87213776477
1184.0	0.000163574274045	0.872301339044
1187.0	0.000289400638695	0.872590739683
1190.0	0.000118276782771	0.872709016466
1193.0	0.000178673437803	0.872887689903
1196.0	0.000244103147421	0.873131793051
1199.0	0.000465557549204	0.8735973506
1202.0	0.000274301474937	0.873871652075
1205.0	0.00012582636465	0.87399747844
1208.0	9.81445644269e-05	0.874095623004
1211.0	0.000234037038249	0.874329660042
1214.0	0.000395094785	0.874724754827
1217.0	0.000140925528408	0.874865680356
1220.0	0.000203838710733	0.875069519066
1223.0	0.000644230987007	0.875713750053
1226.0	0.000163574274045	0.875877324328
1229.0	0.000113243728185	0.875990568056
1232.0	9.81445644269e-05	0.87608871262
1235.0	0.000133375946529	0.876222088567
1238.0	0.000130859419236	0.876352947986
1241.0	0.000148475110287	0.876501423096
1244.0	0.000412710476051	0.876914133572
1247.0	0.000332181602676	0.877246315175
1250.0	0.000193772601561	0.877440087776
1253.0	0.000171123855924	0.877611211632
1256.0	0.000135892473822	0.877747104106
1259.0	0.000148475110287	0.877895579217
1262.0	0.000156024692166	0.878051603909
1265.0	0.000113243728185	0.878164847637
1268.0	0.000128342891943	0.878293190529
1271.0	0.000138409001115	0.87843159953
1274.0	0.00012582636465	0.878557425895
1277.0	0.000153508164873	0.878710934059
1280.0	0.000133375946529	0.878844310006
1283.0	0.000239070092835	0.879083380099
1286.0	0.000130859419236	0.879214239518
1289.0	0.000208871765319	0.879423111283
1292.0	0.000110727200892	0.879533838484
1295.0	0.000138409001115	0.879672247485
1298.0	0.000374962566657	0.880047210052
1301.0	0.00022648745637	0.880273697508
1304.0	0.000186223019682	0.880459920528
1307.0	0.000188739546975	0.880648660075
1310.0	0.000161057746752	0.880809717822
1313.0	0.000211388292612	0.881021106114
1316.0	0.000120793310064	0.881141899424
1319.0	0.000115760255478	0.88125765968
1322.0	0.000105694146306	0.881363353826
1325.0	0.000135892473822	0.8814992463
1328.0	0.000299466747867	0.881798713048
1331.0	0.000133375946529	0.881932088994
1334.0	0.000400127839586	0.882332216834
1337.0	0.00027681800223	0.882609034836
1340.0	0.000161057746752	0.882770092583
1343.0	0.000153508164873	0.882923600748
1346.0	0.000113243728185	0.883036844476
1349.0	0.000231520510956	0.883268364987
1352.0	0.000130859419236	0.883399224406
1355.0	0.000113243728185	0.883512468134
1358.0	0.000128342891943	0.883640811026
1361.0	0.000123309837357	0.883764120864
1364.0	0.000138409001115	0.883902529865
1367.0	0.000143442055701	0.884045971921
1370.0	0.000105694146306	0.884151666067
1373.0	0.000120793310064	0.884272459377
1376.0	0.000110727200892	0.884383186578
1379.0	0.000105694146306	0.884488880724
1382.0	0.000120793310064	0.884609674034
1385.0	0.000103177619013	0.884712851653
1388.0	0.000103177619013	0.884816029272
1391.0	9.81445644269e-05	0.884914173837
1394.0	9.56280371339e-05	0.885009801874
1397.0	0.000173640383217	0.885183442257
1400.0	9.81445644269e-05	0.885281586821
1403.0	0.000123309837357	0.885404896659
1406.0	0.000118276782771	0.885523173442
1409.0	0.000221454401784	0.885744627843
1412.0	0.000113243728185	0.885857871572
1415.0	0.00015099163758	0.886008863209
1418.0	0.000239070092835	0.886247933302
1421.0	0.00012582636465	0.886373759667
1424.0	7.80123460829e-05	0.886451772013
1427.0	0.000118276782771	0.886570048795
1430.0	0.000254169256593	0.886824218052
1433.0	0.000118276782771	0.886942494835
1436.0	0.000113243728185	0.887055738563
1439.0	9.31115098409e-05	0.887148850073
1442.0	7.54958187899e-05	0.887224345892
1445.0	0.000108210673599	0.887332556565
1448.0	0.000120793310064	0.887453349875
1451.0	8.05288733759e-05	0.887533878749
1454.0	0.000103177619013	0.887637056368
1457.0	0.000259202311179	0.887896258679
1460.0	0.00030198327516	0.888198241954
1463.0	0.000221454401784	0.888419696356
1466.0	0.000702111114746	0.889121807471
1469.0	0.000385028675829	0.889506836146
1472.0	0.000133375946529	0.889640212093
1475.0	0.00015099163758	0.889791203731
1478.0	8.55619279619e-05	0.889876765658
1481.0	8.05288733759e-05	0.889957294532
1484.0	9.81445644269e-05	0.890055439096
1487.0	8.80784552549e-05	0.890143517552
1490.0	0.000171123855924	0.890314641407
1493.0	0.000113243728185	0.890427885136
1496.0	7.29792914969e-05	0.890500864427
1499.0	0.000123309837357	0.890624174264
1502.0	0.00010066109172	0.890724835356
1505.0	0.00015099163758	0.890875826994
1508.0	0.00010066109172	0.890976488086
1511.0	8.80784552549e-05	0.891064566541
1514.0	9.31115098409e-05	0.891157678051
1517.0	9.81445644269e-05	0.891255822615
1520.0	0.000163574274045	0.891419396889
1523.0	5.28470731529e-05	0.891472243962
1526.0	7.54958187899e-05	0.891547739781
1529.0	6.29131823249e-05	0.891610652963
1532.0	0.000105694146306	0.89171634711
1535.0	0.000395094785	0.892111441895
1538.0	9.05949825479e-05	0.892202036877
1541.0	7.54958187899e-05	0.892277532696
1544.0	0.000198805656147	0.892476338352
1547.0	0.000158541219459	0.892634879572
1550.0	0.000118276782771	0.892753156354
1553.0	0.00022648745637	0.892979643811
1556.0	0.000108210673599	0.893087854484
1559.0	0.000135892473822	0.893223746958
1562.0	0.00017615691051	0.893399903869
1565.0	0.000105694146306	0.893505598015
1568.0	8.30454006689e-05	0.893588643416
1571.0	0.00012582636465	0.89371446978
1574.0	0.000115760255478	0.893830230036
1577.0	0.000166090801338	0.893996320837
1580.0	7.80123460829e-05	0.894074333183
1583.0	9.56280371339e-05	0.89416996122
1586.0	0.000138409001115	0.894308370221
1589.0	7.54958187899e-05	0.89438386604
1592.0	7.80123460829e-05	0.894461878386
1595.0	8.80784552549e-05	0.894549956842
1598.0	7.04627642039e-05	0.894620419606
1601.0	7.04627642039e-05	0.89469088237
1604.0	6.03966550319e-05	0.894751279025
1607.0	7.54958187899e-05	0.894826774844
1610.0	9.05949825479e-05	0.894917369826
1613.0	8.30454006689e-05	0.895000415227
1616.0	9.81445644269e-05	0.895098559791
1619.0	7.80123460829e-05	0.895176572138
1622.0	8.30454006689e-05	0.895259617538
1625.0	0.000145958582994	0.895405576121
1628.0	7.54958187899e-05	0.89548107194
1631.0	7.04627642039e-05	0.895551534704
1634.0	0.00010066109172	0.895652195796
1637.0	0.000166090801338	0.895818286597
1640.0	0.00017615691051	0.895994443508
1643.0	7.54958187899e-05	0.896069939327
1646.0	8.05288733759e-05	0.8961504682
1649.0	5.78801277389e-05	0.896208348328
1652.0	5.28470731529e-05	0.896261195401
1655.0	0.000138409001115	0.896399604402
1658.0	0.000236553565542	0.896636157967
1661.0	0.000563702113631	0.897199860081
1664.0	0.000123309837357	0.897323169918
1667.0	5.53636004459e-05	0.897378533519
1670.0	8.05288733759e-05	0.897459062392
1673.0	6.79462369109e-05	0.897527008629
1676.0	5.28470731529e-05	0.897579855702
1679.0	8.30454006689e-05	0.897662901103
1682.0	0.000118276782771	0.897781177886
1685.0	6.03966550319e-05	0.897841574541
1688.0	7.54958187899e-05	0.89791707036
1691.0	8.55619279619e-05	0.898002632288
1694.0	4.78140185669e-05	0.898050446306
1697.0	6.54297096179e-05	0.898115876016
1700.0	6.79462369109e-05	0.898183822253
1703.0	8.30454006689e-05	0.898266867653
1706.0	5.78801277389e-05	0.898324747781
1709.0	6.79462369109e-05	0.898392694018
1712.0	6.79462369109e-05	0.898460640255
1715.0	7.54958187899e-05	0.898536136074
1718.0	0.000105694146306	0.89864183022
1721.0	8.80784552549e-05	0.898729908675
1724.0	0.000133375946529	0.898863284622
1726.0	9.56280371339e-05	0.898958912659
1730.0	5.53636004459e-05	0.899014276259
1733.0	0.000120793310064	0.899135069569
1736.0	7.04627642039e-05	0.899205532334
1739.0	8.30454006689e-05	0.899288577734
1742.0	8.05288733759e-05	0.899369106608
1745.0	7.54958187899e-05	0.899444602426
1748.0	5.28470731529e-05	0.8994974495
1751.0	4.02644366879e-05	0.899537713936
1754.0	0.000118276782771	0.899655990719
1757.0	9.81445644269e-05	0.899754135283
1760.0	3.5231382102e-05	0.899789366666
1763.0	7.54958187899e-05	0.899864862484
1766.0	9.31115098409e-05	0.899957973994
1769.0	0.000183706492389	0.900141680487
1772.0	0.000153508164873	0.900295188651
1775.0	9.05949825479e-05	0.900385783634
1777.0	4.52974912739e-05	0.900431081125
1781.0	0.000120793310064	0.900551874435
1784.0	7.04627642039e-05	0.9006223372
1787.0	0.000140925528408	0.900763262728
1790.0	0.000113243728185	0.900876506456
1793.0	0.000135892473822	0.90101239893
1796.0	7.04627642039e-05	0.901082861694
1799.0	7.54958187899e-05	0.901158357513
1801.0	6.79462369109e-05	0.90122630375
1805.0	7.04627642039e-05	0.901296766514
1808.0	0.000161057746752	0.901457824261
1810.0	0.000221454401784	0.901679278663
1814.0	0.000307016329746	0.901986294992
1817.0	5.78801277389e-05	0.90204417512
1820.0	6.29131823249e-05	0.902107088302
1822.0	0.000130859419236	0.902237947722
1826.0	9.31115098409e-05	0.902331059232
1829.0	7.04627642039e-05	0.902401521996
1832.0	9.81445644269e-05	0.90249966656
1834.0	0.000123309837357	0.902622976397
1838.0	0.000246619674714	0.902869596072
1841.0	0.0002516527293	0.903121248802
1844.0	8.55619279619e-05	0.903206810729
1846.0	0.000208871765319	0.903415682495
1850.0	5.53636004459e-05	0.903471046095
1853.0	0.000213904819905	0.903684950915
1855.0	0.000299466747867	0.903984417663
1859.0	5.53636004459e-05	0.904039781263
1862.0	3.2714854809e-05	0.904072496118
1865.0	4.02644366879e-05	0.904112760555
1868.0	5.78801277389e-05	0.904170640683
1871.0	5.03305458599e-05	0.904220971229
1874.0	5.53636004459e-05	0.904276334829
1877.0	7.29792914969e-05	0.90434931412
1880.0	6.29131823249e-05	0.904412227303
1883.0	5.78801277389e-05	0.904470107431
1885.0	6.79462369109e-05	0.904538053667
1888.0	0.000382512148536	0.904920565816
1892.0	7.54958187899e-05	0.904996061635
1895.0	0.000110727200892	0.905106788836
1898.0	3.2714854809e-05	0.90513950369
1900.0	9.81445644269e-05	0.905237648255
1904.0	4.52974912739e-05	0.905282945746
1907.0	0.000143442055701	0.905426387802
1910.0	4.52974912739e-05	0.905471685293
1913.0	4.27809639809e-05	0.905514466257
1916.0	4.27809639809e-05	0.905557247221
1919.0	7.29792914969e-05	0.905630226513
1922.0	0.00022648745637	0.905856713969
1925.0	7.54958187899e-05	0.905932209788
1928.0	0.00017615691051	0.906108366698
1931.0	5.28470731529e-05	0.906161213771
1934.0	3.0198327516e-05	0.906191412099
1937.0	5.28470731529e-05	0.906244259172
1940.0	0.000110727200892	0.906354986373
1943.0	5.53636004459e-05	0.906410349973
1946.0	5.28470731529e-05	0.906463197047
1948.0	0.000128342891943	0.906591539939
1951.0	0.000156024692166	0.906747564631
1954.0	6.79462369109e-05	0.906815510868
1958.0	5.78801277389e-05	0.906873390995
1960.0	5.03305458599e-05	0.906923721541
1964.0	4.78140185669e-05	0.90697153556
1967.0	0.000128342891943	0.907099878452
1970.0	0.000153508164873	0.907253386617
1972.0	0.00020132218344	0.9074547088
1976.0	0.000163574274045	0.907618283074
1978.0	9.31115098409e-05	0.907711394584
1981.0	7.04627642039e-05	0.907781857348
1985.0	2.516527293e-05	0.907807022621
1987.0	4.52974912739e-05	0.907852320112
1990.0	5.53636004459e-05	0.907907683713
1993.0	0.000171123855924	0.908078807569
1997.0	6.29131823249e-05	0.908141720751
2000.0	6.54297096179e-05	0.908207150461
2003.0	0.000166090801338	0.908373241262
2005.0	0.000186223019682	0.908559464282
2009.0	0.000317082438918	0.908876546721
2011.0	0.000274301474937	0.909150848196
2014.0	0.000108210673599	0.909259058869
2018.0	4.02644366879e-05	0.909299323306
2021.0	4.02644366879e-05	0.909339587742
2023.0	4.52974912739e-05	0.909384885234
2027.0	4.78140185669e-05	0.909432699252
2030.0	3.5231382102e-05	0.909467930634
2033.0	6.54297096179e-05	0.909533360344
2036.0	4.02644366879e-05	0.909573624781
2039.0	3.7747909395e-05	0.90961137269
2042.0	4.52974912739e-05	0.909656670181
2045.0	2.7681800223e-05	0.909684351982
2047.0	5.03305458599e-05	0.909734682527
2050.0	0.000135892473822	0.909870575001
2053.0	0.000183706492389	0.910054281494
2057.0	4.78140185669e-05	0.910102095512
2060.0	4.27809639809e-05	0.910144876476
2062.0	5.03305458599e-05	0.910195207022
2066.0	0.000145958582994	0.910341165605
2068.0	7.04627642039e-05	0.910411628369
2071.0	0.000455491440032	0.910867119809
2075.0	4.52974912739e-05	0.910912417301
2077.0	9.56280371339e-05	0.911008045338
2080.0	0.000475623658376	0.911483668996
2083.0	0.000168607328631	0.911652276325
2086.0	0.000183706492389	0.911835982817
2090.0	4.27809639809e-05	0.911878763781
2092.0	0.000168607328631	0.91204737111
2095.0	0.000337214657262	0.912384585767
2098.0	4.78140185669e-05	0.912432399786
2102.0	9.05949825479e-05	0.912522994768
2104.0	0.000113243728185	0.912636238496
2108.0	4.02644366879e-05	0.912676502933
2111.0	3.0198327516e-05	0.912706701261
2114.0	3.0198327516e-05	0.912736899588
2116.0	3.5231382102e-05	0.91277213097
2120.0	3.5231382102e-05	0.912807362352
2122.0	3.7747909395e-05	0.912845110262
2125.0	3.0198327516e-05	0.912875308589
2128.0	0.000140925528408	0.913016234118
2131.0	7.04627642039e-05	0.913086696882
2135.0	4.78140185669e-05	0.9131345109
2137.0	3.7747909395e-05	0.91317225881
2140.0	8.30454006689e-05	0.91325530421
2143.0	0.000178673437803	0.913433977648
2146.0	5.78801277389e-05	0.913491857776
2149.0	0.000108210673599	0.91360006845
2152.0	0.000105694146306	0.913705762596
2155.0	0.000223970929077	0.913929733525
2158.0	0.000171123855924	0.914100857381
2162.0	3.2714854809e-05	0.914133572236
2164.0	0.000218937874491	0.91435251011
2167.0	5.28470731529e-05	0.914405357183
2171.0	4.02644366879e-05	0.91444562162
2173.0	3.7747909395e-05	0.914483369529
2176.0	3.5231382102e-05	0.914518600911
2180.0	9.56280371339e-05	0.914614228949
2183.0	3.5231382102e-05	0.914649460331
2186.0	3.5231382102e-05	0.914684691713
2188.0	9.31115098409e-05	0.914777803223
2192.0	8.55619279619e-05	0.914863365151
2194.0	0.0002516527293	0.91511501788
2198.0	2.0132218344e-05	0.915135150098
2200.0	0.000249136202007	0.9153842863
2203.0	4.02644366879e-05	0.915424550737
2206.0	3.5231382102e-05	0.915459782119
2209.0	2.516527293e-05	0.915484947392
2212.0	5.28470731529e-05	0.915537794465
2215.0	4.78140185669e-05	0.915585608484
2218.0	8.80784552549e-05	0.915673686939
2221.0	2.0132218344e-05	0.915693819157
2225.0	4.27809639809e-05	0.915736600121
2227.0	4.27809639809e-05	0.915779381085
2230.0	0.000274301474937	0.91605368256
2233.0	0.000374962566657	0.916428645127
2237.0	2.7681800223e-05	0.916456326927
2239.0	2.7681800223e-05	0.916484008727
2242.0	0.000145958582994	0.91662996731
2246.0	5.28470731529e-05	0.916682814383
2248.0	0.000130859419236	0.916813673803
2251.0	4.52974912739e-05	0.916858971294
2255.0	4.52974912739e-05	0.916904268785
2258.0	1.0066109172e-05	0.916914334894
2261.0	2.516527293e-05	0.916939500167
2263.0	0.000123309837357	0.917062810005
2266.0	9.56280371339e-05	0.917158438042
2269.0	0.000193772601561	0.917352210643
2272.0	0.000256685783886	0.917608896427
2275.0	0.000312049384332	0.917920945812
2278.0	0.000324632020797	0.918245577832
2281.0	0.000171123855924	0.918416701688
2284.0	0.000309532857039	0.918726234545
2287.0	0.000103177619013	0.918829412164
2290.0	8.55619279619e-05	0.918914974092
2293.0	0.000156024692166	0.919070998785
2296.0	5.78801277389e-05	0.919128878912
2299.0	6.54297096179e-05	0.919194308622
2302.0	3.0198327516e-05	0.919224506949
2305.0	3.7747909395e-05	0.919262254859
2308.0	4.52974912739e-05	0.91930755235
2311.0	0.000241586620128	0.91954913897
2314.0	0.000198805656147	0.919747944626
2317.0	0.000249136202007	0.919997080828
2320.0	2.2648745637e-05	0.920019729574
2323.0	3.5231382102e-05	0.920054960956
2326.0	4.02644366879e-05	0.920095225393
2330.0	4.52974912739e-05	0.920140522884
2332.0	0.000105694146306	0.92024621703
2335.0	6.03966550319e-05	0.920306613685
2338.0	3.7747909395e-05	0.920344361595
2341.0	0.000249136202007	0.920593497797
2344.0	0.000183706492389	0.920777204289
2347.0	4.02644366879e-05	0.920817468726
2350.0	0.00022648745637	0.921043956182
2353.0	0.000223970929077	0.921267927111
2356.0	9.05949825479e-05	0.921358522094
2359.0	3.2714854809e-05	0.921391236949
2362.0	3.2714854809e-05	0.921423951803
2365.0	8.05288733759e-05	0.921504480677
2369.0	2.2648745637e-05	0.921527129422
2371.0	9.81445644269e-05	0.921625273987
2374.0	4.78140185669e-05	0.921673088005
2377.0	4.27809639809e-05	0.921715868969
2380.0	5.03305458599e-05	0.921766199515
2384.0	3.7747909395e-05	0.921803947425
2386.0	7.54958187899e-05	0.921879443244
2389.0	8.05288733759e-05	0.921959972117
2392.0	3.7747909395e-05	0.921997720026
2395.0	3.2714854809e-05	0.922030434881
2398.0	1.2582636465e-05	0.922043017518
2401.0	4.02644366879e-05	0.922083281954
2404.0	2.7681800223e-05	0.922110963754
2407.0	2.0132218344e-05	0.922131095973
2410.0	3.2714854809e-05	0.922163810828
2413.0	2.7681800223e-05	0.922191492628
2416.0	5.28470731529e-05	0.922244339701
2419.0	0.000108210673599	0.922352550375
2422.0	0.000115760255478	0.92246831063
2425.0	2.0132218344e-05	0.922488442848
2428.0	0.000538536840701	0.923026979689
2431.0	0.000153508164873	0.923180487854
2434.0	4.02644366879e-05	0.923220752291
2437.0	0.000133375946529	0.923354128237
2440.0	0.000135892473822	0.923490020711
2443.0	2.2648745637e-05	0.923512669457
2446.0	2.2648745637e-05	0.923535318202
2449.0	2.516527293e-05	0.923560483475
2452.0	3.0198327516e-05	0.923590681803
2455.0	3.0198327516e-05	0.92362088013
2458.0	4.27809639809e-05	0.923663661094
2461.0	0.00017615691051	0.923839818005
2464.0	2.0132218344e-05	0.923859950223
2467.0	3.2714854809e-05	0.923892665078
2470.0	2.2648745637e-05	0.923915313824
2473.0	2.0132218344e-05	0.923935446042
2477.0	2.516527293e-05	0.923960611315
2480.0	3.2714854809e-05	0.92399332617
2482.0	3.7747909395e-05	0.924031074079
2485.0	0.000447941858153	0.924479015937
2488.0	2.516527293e-05	0.92450418121
2491.0	7.80123460829e-05	0.924582193556
2495.0	2.516527293e-05	0.924607358829
2497.0	2.516527293e-05	0.924632524102
2500.0	1.2582636465e-05	0.924645106739
2503.0	2.516527293e-05	0.924670272011
2506.0	2.7681800223e-05	0.924697953812
2509.0	2.2648745637e-05	0.924720602557
2512.0	3.0198327516e-05	0.924750800885
2515.0	2.2648745637e-05	0.92477344963
2518.0	2.516527293e-05	0.924798614903
2522.0	1.5099163758e-05	0.924813714067
2524.0	0.000108210673599	0.924921924741
2527.0	3.0198327516e-05	0.924952123068
2530.0	1.2582636465e-05	0.924964705705
2534.0	2.0132218344e-05	0.924984837923
2536.0	3.0198327516e-05	0.925015036251
2539.0	2.7681800223e-05	0.925042718051
2543.0	3.7747909395e-05	0.92508046596
2545.0	0.000173640383217	0.925254106343
2548.0	4.52974912739e-05	0.925299403835
2551.0	4.02644366879e-05	0.925339668271
2554.0	0.000118276782771	0.925457945054
2557.0	2.2648745637e-05	0.9254805938
2560.0	2.2648745637e-05	0.925503242545
2563.0	0.000191256074268	0.92569449862
2566.0	4.27809639809e-05	0.925737279584
2569.0	2.2648745637e-05	0.925759928329
2572.0	1.5099163758e-05	0.925775027493
2575.0	2.0132218344e-05	0.925795159711
2578.0	1.5099163758e-05	0.925810258875
2581.0	1.7615691051e-05	0.925827874566
2584.0	2.516527293e-05	0.925853039839
2587.0	3.5231382102e-05	0.925888271221
2590.0	2.516527293e-05	0.925913436494
2593.0	0.000166090801338	0.926079527296
2596.0	4.78140185669e-05	0.926127341314
2599.0	5.28470731529e-05	0.926180188387
2602.0	2.2648745637e-05	0.926202837133
2605.0	4.52974912739e-05	0.926248134624
2608.0	4.52974912739e-05	0.926293432115
2611.0	3.0198327516e-05	0.926323630443
2614.0	0.000216421347198	0.92654005179
2617.0	4.78140185669e-05	0.926587865809
2620.0	0.000213904819905	0.926801770629
2623.0	7.54958187899e-05	0.926877266447
2626.0	0.000153508164873	0.927030774612
2629.0	2.0132218344e-05	0.927050906831
2632.0	2.516527293e-05	0.927076072104
2635.0	5.03305458599e-06	0.927081105158
2639.0	2.2648745637e-05	0.927103753904
2641.0	3.2714854809e-05	0.927136468759
2644.0	6.29131823249e-05	0.927199381941
2647.0	3.5231382102e-05	0.927234613323
2650.0	3.0198327516e-05	0.927264811651
2653.0	1.5099163758e-05	0.927279910814
2656.0	5.28470731529e-05	0.927332757887
2659.0	0.000143442055701	0.927476199943
2662.0	0.000171123855924	0.927647323799
2665.0	0.00020132218344	0.927848645982
2668.0	0.00010066109172	0.927949307074
2671.0	1.5099163758e-05	0.927964406238
2674.0	2.2648745637e-05	0.927987054984
2677.0	1.2582636465e-05	0.92799963762
2680.0	1.0066109172e-05	0.928009703729
2683.0	1.7615691051e-05	0.92802731942
2686.0	1.5099163758e-05	0.928042418584
2689.0	0.000223970929077	0.928266389513
2692.0	0.00017615691051	0.928442546424
2695.0	0.000367412984778	0.928809959408
2698.0	0.000166090801338	0.92897605021
2701.0	5.78801277389e-05	0.929033930337
2704.0	8.05288733759e-05	0.929114459211
2707.0	3.7747909395e-05	0.92915220712
2711.0	1.0066109172e-05	0.929162273229
2714.0	1.5099163758e-05	0.929177372393
2716.0	6.54297096179e-05	0.929242802103
2719.0	1.5099163758e-05	0.929257901267
2723.0	2.2648745637e-05	0.929280550012
2725.0	7.29792914969e-05	0.929353529304
2728.0	0.000148475110287	0.929502004414
2731.0	0.000105694146306	0.92960769856
2734.0	0.000385028675829	0.929992727236
2737.0	0.000244103147421	0.930236830384
2740.0	0.000186223019682	0.930423053403
2743.0	0.000329665075383	0.930752718479
2746.0	1.0066109172e-05	0.930762784588
2749.0	6.29131823249e-05	0.93082569777
2752.0	3.0198327516e-05	0.930855896098
2755.0	2.516527293e-05	0.930881061371
2758.0	3.0198327516e-05	0.930911259698
2762.0	1.5099163758e-05	0.930926358862
2764.0	0.000128342891943	0.931054701754
2767.0	0.000236553565542	0.931291255319
2770.0	0.000140925528408	0.931432180848
2773.0	3.2714854809e-05	0.931464895703
2776.0	1.7615691051e-05	0.931482511394
2779.0	2.7681800223e-05	0.931510193194
2782.0	7.29792914969e-05	0.931583172485
2785.0	0.000218937874491	0.93180211036
2788.0	0.000173640383217	0.931975750743
2791.0	0.000203838710733	0.932179589454
2794.0	2.516527293e-05	0.932204754727
2797.0	4.52974912739e-05	0.932250052218
2800.0	6.03966550319e-05	0.932310448873
2803.0	0.000110727200892	0.932421176074
2806.0	0.000118276782771	0.932539452857
2809.0	0.000113243728185	0.932652696585
2812.0	1.7615691051e-05	0.932670312276
2815.0	1.0066109172e-05	0.932680378385
2818.0	2.2648745637e-05	0.932703027131
2821.0	4.27809639809e-05	0.932745808095
2824.0	5.03305458599e-06	0.932750841149
2827.0	1.7615691051e-05	0.93276845684
2830.0	1.7615691051e-05	0.932786072531
2833.0	1.0066109172e-05	0.932796138641
2836.0	7.54958187899e-06	0.932803688222
2839.0	2.7681800223e-05	0.932831370023
2842.0	5.53636004459e-05	0.932886733623
2845.0	4.27809639809e-05	0.932929514587
2848.0	2.516527293e-05	0.93295467986
2851.0	2.7681800223e-05	0.93298236166
2854.0	2.0132218344e-05	0.933002493879
2857.0	1.5099163758e-05	0.933017593042
2860.0	1.2582636465e-05	0.933030175679
2863.0	0.00020132218344	0.933231497862
2866.0	7.54958187899e-06	0.933239047444
2869.0	2.516527293e-05	0.933264212717
2872.0	3.5231382102e-05	0.933299444099
2875.0	5.78801277389e-05	0.933357324227
2878.0	3.0198327516e-05	0.933387522554
2881.0	1.2582636465e-05	0.933400105191
2884.0	1.2582636465e-05	0.933412687827
2887.0	1.0066109172e-05	0.933422753936
2890.0	3.2714854809e-05	0.933455468791
2893.0	1.0066109172e-05	0.9334655349
2896.0	7.54958187899e-05	0.933541030719
2899.0	7.54958187899e-06	0.933548580301
2902.0	1.0066109172e-05	0.93355864641
2905.0	5.03305458599e-06	0.933563679465
2908.0	1.7615691051e-05	0.933581295156
2911.0	1.2582636465e-05	0.933593877792
2914.0	2.2648745637e-05	0.933616526538
2917.0	1.5099163758e-05	0.933631625702
2920.0	7.54958187899e-06	0.933639175284
2923.0	2.7681800223e-05	0.933666857084
2926.0	0.000364896457485	0.934031753541
2929.0	7.80123460829e-05	0.934109765887
2932.0	0.000216421347198	0.934326187235
2935.0	1.7615691051e-05	0.934343802926
2938.0	1.2582636465e-05	0.934356385562
2941.0	0.00012582636465	0.934482211927
2944.0	0.000460524494618	0.934942736421
2947.0	2.0132218344e-05	0.93496286864
2950.0	1.2582636465e-05	0.934975451276
2953.0	2.2648745637e-05	0.934998100022
2956.0	1.5099163758e-05	0.935013199186
2960.0	2.516527293e-06	0.935015715713
2962.0	2.2648745637e-05	0.935038364459
2965.0	2.516527293e-05	0.935063529732
2968.0	6.79462369109e-05	0.935131475968
2971.0	1.5099163758e-05	0.935146575132
2974.0	0.000103177619013	0.935249752751
2977.0	7.54958187899e-06	0.935257302333
2980.0	1.7615691051e-05	0.935274918024
2983.0	5.03305458599e-06	0.935279951079
2986.0	1.7615691051e-05	0.93529756677
2989.0	2.2648745637e-05	0.935320215515
2992.0	3.0198327516e-05	0.935350413843
2995.0	2.516527293e-05	0.935375579116
2998.0	1.2582636465e-05	0.935388161752
3001.0	2.7681800223e-05	0.935415843553
3004.0	3.7747909395e-05	0.935453591462
3007.0	2.0132218344e-05	0.93547372368
3010.0	0.000181189965096	0.935654913645
3013.0	1.2582636465e-05	0.935667496282
3016.0	1.5099163758e-05	0.935682595446
3020.0	5.03305458599e-06	0.9356876285
3022.0	1.0066109172e-05	0.935697694609
3025.0	1.2582636465e-05	0.935710277246
3028.0	0.000427809639809	0.936138086886
3031.0	0.000309532857039	0.936447619743
3034.0	1.2582636465e-05	0.936460202379
3037.0	7.54958187899e-06	0.936467751961
3040.0	5.28470731529e-05	0.936520599034
3043.0	0.000143442055701	0.93666404109
3046.0	3.2714854809e-05	0.936696755945
3049.0	5.03305458599e-06	0.936701788999
3052.0	2.7681800223e-05	0.936729470799
3055.0	2.2648745637e-05	0.936752119545
3058.0	1.7615691051e-05	0.936769735236
3062.0	2.516527293e-06	0.936772251763
3064.0	7.54958187899e-06	0.936779801345
3067.0	0.000244103147421	0.937023904493
3070.0	3.0198327516e-05	0.93705410282
3073.0	4.78140185669e-05	0.937101916839
3076.0	2.2648745637e-05	0.937124565584
3079.0	3.7747909395e-05	0.937162313494
3082.0	9.05949825479e-05	0.937252908476
3085.0	1.2582636465e-05	0.937265491113
3088.0	7.54958187899e-06	0.937273040695
3091.0	1.7615691051e-05	0.937290656386
3094.0	5.03305458599e-06	0.93729568944
3097.0	2.7681800223e-05	0.937323371241
3100.0	3.0198327516e-05	0.937353569568
3103.0	6.79462369109e-05	0.937421515805
3106.0	1.2582636465e-05	0.937434098442
3109.0	1.5099163758e-05	0.937449197605
3112.0	3.0198327516e-05	0.937479395933
3115.0	1.5099163758e-05	0.937494495097
3118.0	5.03305458599e-06	0.937499528151
3121.0	7.04627642039e-05	0.937569990915
3124.0	2.2648745637e-05	0.937592639661
3127.0	2.2648745637e-05	0.937615288407
3131.0	2.516527293e-06	0.937617804934
3133.0	1.5099163758e-05	0.937632904098
3136.0	7.54958187899e-06	0.93764045368
3139.0	6.29131823249e-05	0.937703366862
3142.0	9.81445644269e-05	0.937801511426
3145.0	1.7615691051e-05	0.937819127117
3148.0	6.29131823249e-05	0.9378820403
3151.0	1.7615691051e-05	0.937899655991
3154.0	5.03305458599e-06	0.937904689045
3157.0	4.52974912739e-05	0.937949986537
3160.0	5.53636004459e-05	0.938005350137
3163.0	3.0198327516e-05	0.938035548465
3166.0	2.0132218344e-05	0.938055680683
3169.0	0.000279334529523	0.938335015212
3172.0	0.000347280766434	0.938682295979
3175.0	2.2648745637e-05	0.938704944724
3178.0	7.54958187899e-06	0.938712494306
3181.0	4.27809639809e-05	0.93875527527
3184.0	0.000576284750096	0.93933156002
3187.0	8.30454006689e-05	0.939414605421
3190.0	2.516527293e-06	0.939417121948
3193.0	9.81445644269e-05	0.939515266513
3196.0	6.29131823249e-05	0.939578179695
3199.0	0.00017615691051	0.939754336606
3202.0	4.27809639809e-05	0.93979711757
3205.0	1.5099163758e-05	0.939812216733
3208.0	1.2582636465e-05	0.93982479937
3211.0	3.7747909395e-05	0.939862547279
3214.0	1.7615691051e-05	0.93988016297
3218.0	7.54958187899e-06	0.939887712552
3220.0	2.516527293e-05	0.939912877825
3223.0	3.7747909395e-05	0.939950625735
3226.0	8.30454006689e-05	0.940033671135
3229.0	2.0132218344e-05	0.940053803354
3232.0	0.000145958582994	0.940199761937
3235.0	0.000286884111402	0.940486646048
3238.0	1.5099163758e-05	0.940501745212
3241.0	1.0066109172e-05	0.940511811321
3244.0	7.54958187899e-06	0.940519360903
3247.0	6.29131823249e-05	0.940582274085
3250.0	6.29131823249e-05	0.940645187267
3253.0	1.0066109172e-05	0.940655253377
3256.0	2.0132218344e-05	0.940675385595
3259.0	0.00017615691051	0.940851542505
3262.0	3.7747909395e-05	0.940889290415
3265.0	1.2582636465e-05	0.940901873051
3268.0	1.2582636465e-05	0.940914455688
3272.0	2.516527293e-06	0.940916972215
3274.0	5.03305458599e-06	0.94092200527
3277.0	5.03305458599e-06	0.940927038324
3280.0	1.0066109172e-05	0.940937104433
3283.0	1.2582636465e-05	0.94094968707
3286.0	5.03305458599e-05	0.941000017616
3289.0	7.29792914969e-05	0.941072996907
3292.0	1.2582636465e-05	0.941085579544
3295.0	2.7681800223e-05	0.941113261344
3298.0	3.5231382102e-05	0.941148492726
3301.0	5.03305458599e-06	0.941153525781
3304.0	1.0066109172e-05	0.94116359189
3307.0	1.0066109172e-05	0.941173657999
3310.0	1.2582636465e-05	0.941186240635
3313.0	7.54958187899e-06	0.941193790217
3316.0	5.03305458599e-06	0.941198823272
3319.0	8.80784552549e-05	0.941286901727
3322.0	3.0198327516e-05	0.941317100055
3325.0	2.516527293e-06	0.941319616582
3328.0	4.02644366879e-05	0.941359881019
3331.0	0.000206355238026	0.941566236257
3334.0	2.0132218344e-05	0.941586368475
3337.0	2.2648745637e-05	0.941609017221
3340.0	4.27809639809e-05	0.941651798185
3343.0	0.000148475110287	0.941800273295
3346.0	7.54958187899e-05	0.941875769114
3349.0	1.2582636465e-05	0.94188835175
3352.0	7.54958187899e-06	0.941895901332
3355.0	1.0066109172e-05	0.941905967441
3358.0	2.2648745637e-05	0.941928616187
3361.0	0.000166090801338	0.942094706988
3364.0	0.00017615691051	0.942270863899
3367.0	4.02644366879e-05	0.942311128335
3370.0	2.516527293e-05	0.942336293608
3373.0	7.54958187899e-06	0.94234384319
3376.0	9.81445644269e-05	0.942441987755
3379.0	1.5099163758e-05	0.942457086918
3382.0	1.2582636465e-05	0.942469669555
3385.0	5.03305458599e-06	0.942474702609
3388.0	5.03305458599e-06	0.942479735664
3391.0	1.5099163758e-05	0.942494834828
3394.0	1.0066109172e-05	0.942504900937
3397.0	8.55619279619e-05	0.942590462865
3400.0	7.54958187899e-05	0.942665958684
3403.0	7.54958187899e-05	0.942741454502
3406.0	6.29131823249e-05	0.942804367685
3409.0	0.00054608642258	0.943350454107
3412.0	7.54958187899e-06	0.943358003689
3415.0	1.5099163758e-05	0.943373102853
3418.0	0.000239070092835	0.943612172946
3421.0	0.000115760255478	0.943727933201
3424.0	4.27809639809e-05	0.943770714165
3427.0	1.0066109172e-05	0.943780780274
3430.0	1.2582636465e-05	0.943793362911
3433.0	1.2582636465e-05	0.943805945547
3436.0	0.000206355238026	0.944012300785
3439.0	6.29131823249e-05	0.944075213968
3442.0	0.00030198327516	0.944377197243
3445.0	0.000103177619013	0.944480374862
3448.0	6.03966550319e-05	0.944540771517
3451.0	1.0066109172e-05	0.944550837626
3454.0	1.7615691051e-05	0.944568453317
3457.0	0.000130859419236	0.944699312736
3460.0	4.02644366879e-05	0.944739577173
3463.0	0.000259202311179	0.944998779484
3466.0	0.000322115493504	0.945320894978
3470.0	2.516527293e-06	0.945323411505
3472.0	7.54958187899e-06	0.945330961087
3475.0	1.5099163758e-05	0.945346060251
3478.0	4.02644366879e-05	0.945386324687
3481.0	6.29131823249e-05	0.94544923787
3484.0	1.0066109172e-05	0.945459303979
3487.0	5.03305458599e-06	0.945464337033
3490.0	6.54297096179e-05	0.945529766743
3493.0	0.000329665075383	0.945859431818
3496.0	5.03305458599e-06	0.945864464873
3499.0	1.0066109172e-05	0.945874530982
3502.0	0.000314565911625	0.946189096894
3505.0	1.0066109172e-05	0.946199163003
3508.0	1.0066109172e-05	0.946209229112
3512.0	2.516527293e-06	0.946211745639
3514.0	1.2582636465e-05	0.946224328276
3517.0	2.516527293e-06	0.946226844803
3520.0	1.5099163758e-05	0.946241943967
3523.0	0.000254169256593	0.946496113224
3526.0	1.5099163758e-05	0.946511212387
3529.0	1.0066109172e-05	0.946521278497
3532.0	1.5099163758e-05	0.94653637766
3535.0	3.0198327516e-05	0.946566575988
3538.0	1.0066109172e-05	0.946576642097
3541.0	2.0132218344e-05	0.946596774315
3544.0	1.7615691051e-05	0.946614390006
3547.0	1.0066109172e-05	0.946624456116
3550.0	5.03305458599e-05	0.946674786661
3553.0	1.5099163758e-05	0.946689885825
3556.0	6.79462369109e-05	0.946757832062
3559.0	0.000135892473822	0.946893724536
3562.0	2.516527293e-06	0.946896241063
3565.0	4.02644366879e-05	0.9469365055
3568.0	0.000110727200892	0.947047232701
3572.0	2.516527293e-06	0.947049749228
3574.0	1.7615691051e-05	0.947067364919
3577.0	0.000291917165988	0.947359282085
3580.0	5.53636004459e-05	0.947414645686
3583.0	2.0132218344e-05	0.947434777904
3586.0	1.5099163758e-05	0.947449877068
3589.0	7.54958187899e-06	0.94745742665
3592.0	1.0066109172e-05	0.947467492759
3595.0	7.54958187899e-06	0.947475042341
3598.0	2.516527293e-06	0.947477558868
3601.0	1.2582636465e-05	0.947490141504
3604.0	1.7615691051e-05	0.947507757195
3607.0	1.5099163758e-05	0.947522856359
3610.0	5.03305458599e-06	0.947527889414
3613.0	2.7681800223e-05	0.947555571214
3616.0	0.000191256074268	0.947746827288
3619.0	1.0066109172e-05	0.947756893397
3623.0	2.516527293e-06	0.947759409925
3625.0	2.516527293e-06	0.947761926452
3628.0	6.54297096179e-05	0.947827356162
3631.0	2.0132218344e-05	0.94784748838
3634.0	2.516527293e-05	0.947872653653
3637.0	7.54958187899e-06	0.947880203235
3640.0	1.0066109172e-05	0.947890269344
3643.0	2.0132218344e-05	0.947910401562
3646.0	6.79462369109e-05	0.947978347799
3649.0	6.29131823249e-05	0.948041260981
3652.0	0.000103177619013	0.948144438601
3655.0	5.03305458599e-06	0.948149471655
3658.0	2.516527293e-06	0.948151988182
3661.0	2.0132218344e-05	0.948172120401
3664.0	3.0198327516e-05	0.948202318728
3667.0	5.28470731529e-05	0.948255165801
3670.0	3.7747909395e-05	0.948292913711
3673.0	5.03305458599e-06	0.948297946765
3676.0	2.0132218344e-05	0.948318078984
3679.0	2.516527293e-06	0.948320595511
3682.0	1.5099163758e-05	0.948335694675
3685.0	1.5099163758e-05	0.948350793839
3688.0	7.54958187899e-06	0.94835834342
3691.0	1.5099163758e-05	0.948373442584
3694.0	2.516527293e-06	0.948375959111
3697.0	5.03305458599e-06	0.948380992166
3700.0	1.0066109172e-05	0.948391058275
3703.0	7.54958187899e-06	0.948398607857
3706.0	2.7681800223e-05	0.948426289657
3709.0	0.00020132218344	0.948627611841
3712.0	5.53636004459e-05	0.948682975441
3715.0	2.516527293e-06	0.948685491969
3718.0	5.03305458599e-06	0.948690525023
3721.0	1.5099163758e-05	0.948705624187
3724.0	0.000291917165988	0.948997541353
3727.0	7.54958187899e-06	0.949005090935
3730.0	5.03305458599e-06	0.949010123989
3733.0	2.2648745637e-05	0.949032772735
3736.0	0.000296950220574	0.949329722956
3739.0	6.79462369109e-05	0.949397669192
3742.0	6.29131823249e-05	0.949460582375
3745.0	0.00017615691051	0.949636739285
3748.0	1.0066109172e-05	0.949646805394
3751.0	7.54958187899e-05	0.949722301213
3754.0	0.000135892473822	0.949858193687
3760.0	3.5231382102e-05	0.949893425069
3763.0	4.78140185669e-05	0.949941239088
3766.0	7.54958187899e-06	0.94994878867
3769.0	2.516527293e-06	0.949951305197
3772.0	4.52974912739e-05	0.949996602688
3775.0	0.000254169256593	0.950250771945
3778.0	0.000332181602676	0.950582953547
3781.0	2.516527293e-05	0.95060811882
3784.0	5.03305458599e-06	0.950613151875
3787.0	7.54958187899e-06	0.950620701457
3790.0	7.54958187899e-06	0.950628251039
3793.0	8.80784552549e-05	0.950716329494
3796.0	1.7615691051e-05	0.950733945185
3799.0	8.30454006689e-05	0.950816990586
3802.0	7.54958187899e-06	0.950824540168
3805.0	1.0066109172e-05	0.950834606277
3808.0	0.000143442055701	0.950978048332
3811.0	0.000427809639809	0.951405857972
3814.0	0.00049575587672	0.951901613849
3817.0	0.000118276782771	0.952019890632
3820.0	0.000614032659491	0.952633923291
3823.0	0.000138409001115	0.952772332292
3826.0	0.000108210673599	0.952880542966
3829.0	6.29131823249e-05	0.952943456148
3832.0	0.000208871765319	0.953152327914
3835.0	0.000208871765319	0.953361199679
3838.0	0.000166090801338	0.95352729048
3841.0	4.52974912739e-05	0.953572587972
3844.0	0.000128342891943	0.953700930863
3847.0	0.000110727200892	0.953811658064
3850.0	2.516527293e-06	0.953814174592
3853.0	0.000342247711848	0.954156422303
3856.0	2.516527293e-06	0.954158938831
3859.0	5.03305458599e-06	0.954163971885
3862.0	3.2714854809e-05	0.95419668674
3865.0	2.516527293e-06	0.954199203267
3868.0	7.54958187899e-06	0.954206752849
3871.0	1.2582636465e-05	0.954219335486
3874.0	7.54958187899e-06	0.954226885068
3877.0	1.5099163758e-05	0.954241984231
3880.0	0.000171123855924	0.954413108087
3883.0	0.000168607328631	0.954581715416
3886.0	8.55619279619e-05	0.954667277344
3889.0	0.000133375946529	0.95480065329
3892.0	5.03305458599e-06	0.954805686345
3895.0	0.00128846197401	0.956094148319
3898.0	1.5099163758e-05	0.956109247483
3901.0	1.2582636465e-05	0.956121830119
3904.0	5.03305458599e-06	0.956126863174
3907.0	9.56280371339e-05	0.956222491211
3910.0	5.03305458599e-05	0.956272821757
3913.0	1.7615691051e-05	0.956290437448
3916.0	1.2582636465e-05	0.956303020084
3919.0	0.000103177619013	0.956406197703
3922.0	3.2714854809e-05	0.956438912558
3925.0	6.03966550319e-05	0.956499309213
3928.0	4.78140185669e-05	0.956547123232
3932.0	2.516527293e-06	0.956549639759
3934.0	9.81445644269e-05	0.956647784324
3937.0	5.03305458599e-06	0.956652817378
3940.0	0.000143442055701	0.956796259434
3943.0	0.000485689767548	0.957281949201
3946.0	2.516527293e-06	0.957284465729
3949.0	1.0066109172e-05	0.957294531838
3952.0	7.54958187899e-06	0.95730208142
3955.0	5.03305458599e-06	0.957307114474
3958.0	5.03305458599e-06	0.957312147529
3961.0	1.0066109172e-05	0.957322213638
3964.0	2.516527293e-06	0.957324730165
3967.0	7.54958187899e-06	0.957332279747
3970.0	7.54958187899e-06	0.957339829329
3976.0	0.000105694146306	0.957445523475
3979.0	0.00017615691051	0.957621680386
3982.0	6.79462369109e-05	0.957689626623
3985.0	3.2714854809e-05	0.957722341478
3988.0	2.0132218344e-05	0.957742473696
3991.0	7.54958187899e-06	0.957750023278
3997.0	5.03305458599e-06	0.957755056332
4000.0	1.5099163758e-05	0.957770155496
4003.0	5.03305458599e-06	0.957775188551
4006.0	2.516527293e-06	0.957777705078
4009.0	7.54958187899e-06	0.95778525466
4012.0	5.03305458599e-06	0.957790287715
4015.0	4.27809639809e-05	0.957833068679
4018.0	1.0066109172e-05	0.957843134788
4021.0	7.54958187899e-06	0.95785068437
4024.0	2.516527293e-06	0.957853200897
4027.0	1.2582636465e-05	0.957865783533
4030.0	1.0066109172e-05	0.957875849643
4033.0	1.0066109172e-05	0.957885915752
4036.0	2.516527293e-06	0.957888432279
4039.0	2.516527293e-06	0.957890948806
4045.0	1.0066109172e-05	0.957901014915
4048.0	5.03305458599e-06	0.95790604797
4051.0	2.516527293e-06	0.957908564497
4054.0	2.7681800223e-05	0.957936246298
4057.0	7.29792914969e-05	0.958009225589
4060.0	5.03305458599e-06	0.958014258644
4063.0	2.516527293e-06	0.958016775171
4066.0	5.03305458599e-06	0.958021808226
4069.0	5.03305458599e-06	0.95802684128
4072.0	7.54958187899e-06	0.958034390862
4075.0	2.516527293e-06	0.958036907389
4078.0	7.54958187899e-06	0.958044456971
4081.0	2.516527293e-06	0.958046973498
4084.0	2.516527293e-06	0.958049490026
4087.0	2.0132218344e-05	0.958069622244
4090.0	2.2648745637e-05	0.95809227099
4093.0	7.54958187899e-06	0.958099820572
4096.0	1.0066109172e-05	0.958109886681
4099.0	5.03305458599e-06	0.958114919735
4101.0	1.2582636465e-05	0.958127502372
4105.0	5.03305458599e-06	0.958132535426
4108.0	2.516527293e-06	0.958135051954
4111.0	4.52974912739e-05	0.958180349445
4114.0	2.2648745637e-05	0.958202998191
4117.0	8.30454006689e-05	0.958286043591
4120.0	0.000135892473822	0.958421936065
4123.0	3.0198327516e-05	0.958452134393
4126.0	2.0132218344e-05	0.958472266611
4128.0	0.000181189965096	0.958653456576
4130.0	1.0066109172e-05	0.958663522685
4132.0	5.78801277389e-05	0.958721402813
4135.0	7.04627642039e-05	0.958791865577
4138.0	7.29792914969e-05	0.958864844869
4141.0	2.516527293e-05	0.958890010142
4144.0	5.03305458599e-06	0.958895043196
4147.0	1.5099163758e-05	0.95891014236
4150.0	7.54958187899e-06	0.958917691942
4153.0	1.5099163758e-05	0.958932791106
4156.0	1.0066109172e-05	0.958942857215
4159.0	0.000198805656147	0.959141662871
4161.0	1.0066109172e-05	0.95915172898
4165.0	7.54958187899e-06	0.959159278562
4168.0	5.03305458599e-06	0.959164311617
4174.0	1.0066109172e-05	0.959174377726
4178.0	2.516527293e-06	0.959176894253
4180.0	5.03305458599e-06	0.959181927308
4186.0	2.0132218344e-05	0.959202059526
4189.0	7.54958187899e-06	0.959209609108
4195.0	1.7615691051e-05	0.959227224799
4198.0	1.5099163758e-05	0.959242323963
4201.0	7.54958187899e-06	0.959249873545
4204.0	2.516527293e-06	0.959252390072
4207.0	2.516527293e-06	0.959254906599
4210.0	0.000123309837357	0.959378216436
4213.0	0.000284367584109	0.959662584021
4216.0	9.31115098409e-05	0.95975569553
4219.0	2.2648745637e-05	0.959778344276
4221.0	6.03966550319e-05	0.959838740931
4223.0	2.516527293e-06	0.959841257458
4225.0	5.03305458599e-06	0.959846290513
4228.0	7.54958187899e-06	0.959853840095
4231.0	2.2648745637e-05	0.95987648884
4234.0	5.03305458599e-06	0.959881521895
4237.0	7.54958187899e-06	0.959889071477
4240.0	2.516527293e-06	0.959891588004
4243.0	1.2582636465e-05	0.959904170641
4246.0	3.2714854809e-05	0.959936885495
4249.0	7.54958187899e-06	0.959944435077
4252.0	7.54958187899e-06	0.959951984659
4255.0	7.54958187899e-06	0.959959534241
4258.0	0.000284367584109	0.960243901825
4261.0	7.54958187899e-06	0.960251451407
4264.0	0.000108210673599	0.960359662081
4266.0	6.79462369109e-05	0.960427608318
4270.0	3.5231382102e-05	0.9604628397
4273.0	5.03305458599e-06	0.960467872754
4276.0	2.516527293e-06	0.960470389282
4278.0	1.2582636465e-05	0.960482971918
4282.0	2.516527293e-06	0.960485488445
4285.0	5.03305458599e-06	0.9604905215
4288.0	5.03305458599e-06	0.960495554555
4291.0	5.03305458599e-06	0.960500587609
4295.0	2.516527293e-06	0.960503104136
4297.0	7.54958187899e-06	0.960510653718
4299.0	3.0198327516e-05	0.960540852046
4301.0	7.54958187899e-06	0.960548401628
4303.0	7.80123460829e-05	0.960626413974
4306.0	0.000168607328631	0.960795021302
4308.0	0.000513371567771	0.96130839287
4310.0	5.03305458599e-06	0.961313425925
4312.0	6.03966550319e-05	0.96137382258
4315.0	2.516527293e-06	0.961376339107
4317.0	8.80784552549e-05	0.961464417562
4320.0	4.78140185669e-05	0.961512231581
4324.0	0.000229003983663	0.961741235565
4327.0	2.516527293e-06	0.961743752092
4330.0	1.2582636465e-05	0.961756334728
4333.0	5.03305458599e-06	0.961761367783
4336.0	7.54958187899e-05	0.961836863602
4339.0	0.000372446039364	0.962209309641
4342.0	3.5231382102e-05	0.962244541023
4345.0	1.5099163758e-05	0.962259640187
4348.0	1.7615691051e-05	0.962277255878
4351.0	7.54958187899e-06	0.96228480546
4357.0	5.03305458599e-06	0.962289838514
4360.0	7.54958187899e-06	0.962297388096
4363.0	6.79462369109e-05	0.962365334333
4365.0	0.000234037038249	0.962599371371
4367.0	7.54958187899e-06	0.962606920953
4369.0	2.516527293e-06	0.962609437481
4372.0	3.2714854809e-05	0.962642152335
4374.0	5.53636004459e-05	0.962697515936
4377.0	0.000156024692166	0.962853540628
4381.0	1.2582636465e-05	0.962866123265
4384.0	5.03305458599e-06	0.962871156319
4387.0	2.516527293e-06	0.962873672846
4390.0	5.03305458599e-06	0.962878705901
4393.0	2.516527293e-06	0.962881222428
4396.0	2.516527293e-06	0.962883738956
4399.0	2.516527293e-06	0.962886255483
4402.0	5.03305458599e-06	0.962891288537
4405.0	2.7681800223e-05	0.962918970338
4408.0	7.54958187899e-06	0.96292651992
4410.0	8.30454006689e-05	0.96300956532
4412.0	5.03305458599e-06	0.963014598375
4414.0	0.000234037038249	0.963248635413
4416.0	1.5099163758e-05	0.963263734577
4420.0	5.03305458599e-05	0.963314065123
4423.0	1.2582636465e-05	0.963326647759
4425.0	4.27809639809e-05	0.963369428723
4427.0	2.516527293e-06	0.96337194525
4429.0	3.7747909395e-05	0.96340969316
4432.0	7.54958187899e-06	0.963417242742
4435.0	7.54958187899e-06	0.963424792324
4438.0	2.516527293e-06	0.963427308851
4442.0	2.516527293e-06	0.963429825378
4444.0	1.2582636465e-05	0.963442408015
4447.0	3.2714854809e-05	0.963475122869
4450.0	1.0066109172e-05	0.963485188979
4452.0	0.000173640383217	0.963658829362
4454.0	2.516527293e-06	0.963661345889
4460.0	2.516527293e-06	0.963663862416
4462.0	7.54958187899e-06	0.963671411998
4465.0	4.27809639809e-05	0.963714192962
4468.0	0.000135892473822	0.963850085436
4470.0	0.000324632020797	0.964174717457
4472.0	2.516527293e-06	0.964177233984
4474.0	0.000113243728185	0.964290477712
4477.0	2.516527293e-06	0.96429299424
4483.0	2.516527293e-06	0.964295510767
4485.0	0.000500788931306	0.964796299698
4487.0	1.0066109172e-05	0.964806365807
4489.0	3.0198327516e-05	0.964836564135
4491.0	0.000440392276274	0.965276956411
4493.0	5.03305458599e-06	0.965281989466
4495.0	6.03966550319e-05	0.965342386121
4498.0	1.5099163758e-05	0.965357485285
4503.0	0.00027681800223	0.965634303287
4505.0	5.03305458599e-06	0.965639336341
4507.0	0.00010066109172	0.965739997433
4509.0	1.5099163758e-05	0.965755096597
4512.0	0.000173640383217	0.96592873698
4514.0	2.516527293e-06	0.965931253507
4516.0	8.30454006689e-05	0.966014298908
4519.0	2.516527293e-06	0.966016815435
4522.0	2.516527293e-06	0.966019331963
4525.0	3.2714854809e-05	0.966052046817
4528.0	5.78801277389e-05	0.966109926945
4531.0	6.03966550319e-05	0.9661703236
4534.0	5.03305458599e-06	0.966175356655
4540.0	2.516527293e-06	0.966177873182
4543.0	5.03305458599e-06	0.966182906237
4546.0	2.516527293e-06	0.966185422764
4548.0	4.52974912739e-05	0.966230720255
4558.0	2.516527293e-06	0.966233236783
4561.0	7.54958187899e-06	0.966240786364
4563.0	9.31115098409e-05	0.966333897874
4565.0	2.516527293e-06	0.966336414402
4567.0	2.0132218344e-05	0.96635654662
4570.0	1.7615691051e-05	0.966374162311
4573.0	2.516527293e-06	0.966376678838
4575.0	4.02644366879e-05	0.966416943275
4579.0	6.79462369109e-05	0.966484889512
4581.0	6.54297096179e-05	0.966550319221
4584.0	2.516527293e-06	0.966552835749
4588.0	5.03305458599e-06	0.966557868803
4591.0	1.5099163758e-05	0.966572967967
4597.0	5.03305458599e-06	0.966578001022
4600.0	7.54958187899e-06	0.966585550604
4603.0	2.516527293e-06	0.966588067131
4605.0	9.31115098409e-05	0.966681178641
4607.0	2.516527293e-06	0.966683695168
4609.0	3.0198327516e-05	0.966713893496
4612.0	1.2582636465e-05	0.966726476132
4615.0	4.27809639809e-05	0.966769257096
4618.0	1.7615691051e-05	0.966786872787
4621.0	2.516527293e-05	0.96681203806
4624.0	2.2648745637e-05	0.966834686806
4630.0	1.7615691051e-05	0.966852302497
4633.0	5.28470731529e-05	0.96690514957
4639.0	2.516527293e-06	0.966907666097
4642.0	7.54958187899e-06	0.966915215679
4645.0	7.54958187899e-06	0.966922765261
4648.0	2.516527293e-06	0.966925281788
4651.0	7.54958187899e-06	0.96693283137
4654.0	2.516527293e-06	0.966935347897
4657.0	2.516527293e-05	0.96696051317
4659.0	0.000115760255478	0.967076273426
4663.0	2.0132218344e-05	0.967096405644
4666.0	5.03305458599e-06	0.967101438699
4669.0	5.03305458599e-06	0.967106471753
4672.0	2.516527293e-06	0.967108988281
4678.0	7.54958187899e-06	0.967116537862
4687.0	5.53636004459e-05	0.967171901463
4689.0	0.000145958582994	0.967317860046
4692.0	0.000181189965096	0.967499050011
4694.0	2.516527293e-06	0.967501566538
4702.0	7.54958187899e-06	0.96750911612
4705.0	2.516527293e-06	0.967511632647
4708.0	3.5231382102e-05	0.96754686403
4711.0	2.516527293e-06	0.967549380557
4714.0	2.516527293e-06	0.967551897084
4717.0	7.54958187899e-06	0.967559446666
4720.0	5.28470731529e-05	0.967612293739
4722.0	1.0066109172e-05	0.967622359848
4726.0	5.03305458599e-06	0.967627392903
4729.0	2.516527293e-06	0.96762990943
4737.0	3.2714854809e-05	0.967662624285
4741.0	1.0066109172e-05	0.967672690394
4744.0	5.03305458599e-06	0.967677723449
4747.0	5.03305458599e-06	0.967682756503
4756.0	5.03305458599e-06	0.967687789558
4762.0	7.54958187899e-06	0.96769533914
4765.0	7.54958187899e-06	0.967702888722
4770.0	5.03305458599e-06	0.967707921776
4774.0	1.0066109172e-05	0.967717987885
4777.0	2.0132218344e-05	0.967738120104
4780.0	3.2714854809e-05	0.967770834959
4783.0	1.0066109172e-05	0.967780901068
4785.0	7.54958187899e-06	0.96778845065
4789.0	2.516527293e-06	0.967790967177
4795.0	2.516527293e-06	0.967793483704
4798.0	2.516527293e-06	0.967796000232
4807.0	2.516527293e-06	0.967798516759
4809.0	0.00012582636465	0.967924343123
4812.0	5.28470731529e-05	0.967977190197
4819.0	7.54958187899e-06	0.967984739778
4825.0	5.03305458599e-06	0.967989772833
4827.0	3.0198327516e-05	0.968019971161
4831.0	7.54958187899e-06	0.968027520742
4843.0	0.000113243728185	0.968140764471
4845.0	0.00015099163758	0.968291756108
4847.0	1.0066109172e-05	0.968301822217
4849.0	0.000244103147421	0.968545925365
4851.0	6.03966550319e-05	0.96860632202
4855.0	2.516527293e-06	0.968608838547
4858.0	7.54958187899e-06	0.968616388129
4864.0	1.0066109172e-05	0.968626454238
4866.0	1.0066109172e-05	0.968636520347
4869.0	0.000138409001115	0.968774929348
4873.0	5.03305458599e-06	0.968779962403
4876.0	5.03305458599e-06	0.968784995458
4884.0	4.27809639809e-05	0.968827776422
4886.0	1.2582636465e-05	0.968840359058
4888.0	0.000183706492389	0.969024065551
4890.0	9.81445644269e-05	0.969122210115
4892.0	2.516527293e-06	0.969124726642
4894.0	5.03305458599e-06	0.969129759697
4906.0	1.0066109172e-05	0.969139825806
4912.0	2.516527293e-06	0.969142342333
4915.0	2.516527293e-06	0.969144858861
4918.0	2.516527293e-06	0.969147375388
4924.0	7.54958187899e-06	0.96915492497
4927.0	7.54958187899e-06	0.969162474552
4930.0	2.516527293e-06	0.969164991079
4933.0	2.516527293e-06	0.969167507606
4942.0	2.516527293e-06	0.969170024133
4944.0	1.0066109172e-05	0.969180090243
4947.0	5.03305458599e-06	0.969185123297
4954.0	2.516527293e-06	0.969187639825
4957.0	0.00012582636465	0.969313466189
4959.0	0.000206355238026	0.969519821427
4962.0	7.54958187899e-06	0.969527371009
4966.0	9.81445644269e-05	0.969625515574
4968.0	7.80123460829e-05	0.96970352792
4972.0	7.54958187899e-06	0.969711077501
4975.0	2.516527293e-06	0.969713594029
4978.0	2.516527293e-06	0.969716110556
4984.0	2.516527293e-06	0.969718627083
4987.0	2.516527293e-06	0.969721143611
4990.0	2.516527293e-06	0.969723660138
4993.0	2.516527293e-06	0.969726176665
4998.0	0.000289400638695	0.970015577304
5001.0	7.54958187899e-06	0.970023126886
5007.0	2.516527293e-06	0.970025643413
5011.0	3.5231382102e-05	0.970060874795
5013.0	6.54297096179e-05	0.970126304505
5016.0	0.000120793310064	0.970247097815
5020.0	2.516527293e-06	0.970249614342
5022.0	5.03305458599e-06	0.970254647397
5026.0	5.03305458599e-06	0.970259680451
5031.0	0.000135892473822	0.970395572925
5033.0	1.5099163758e-05	0.970410672089
5035.0	7.04627642039e-05	0.970481134853
5038.0	2.516527293e-05	0.970506300126
5041.0	5.03305458599e-06	0.970511333181
5044.0	1.0066109172e-05	0.97052139929
5055.0	2.0132218344e-05	0.970541531508
5059.0	5.03305458599e-06	0.970546564563
5065.0	2.0132218344e-05	0.970566696781
5068.0	1.0066109172e-05	0.97057676289
5071.0	2.516527293e-06	0.970579279418
5074.0	7.54958187899e-06	0.970586828999
5077.0	5.03305458599e-06	0.970591862054
5079.0	7.54958187899e-06	0.970599411636
5082.0	1.5099163758e-05	0.9706145108
5086.0	5.03305458599e-06	0.970619543854
5088.0	0.000173640383217	0.970793184237
5091.0	3.0198327516e-05	0.970823382565
5095.0	5.03305458599e-05	0.970873713111
5097.0	2.516527293e-05	0.970898878384
5100.0	6.03966550319e-05	0.970959275039
5103.0	1.2582636465e-05	0.970971857675
5106.0	1.5099163758e-05	0.970986956839
5109.0	2.516527293e-06	0.970989473366
5113.0	2.516527293e-06	0.970991989894
5122.0	5.03305458599e-06	0.970997022948
5128.0	2.516527293e-06	0.970999539476
5131.0	5.03305458599e-06	0.97100457253
5134.0	1.0066109172e-05	0.971014638639
5136.0	2.516527293e-05	0.971039803912
5143.0	2.516527293e-06	0.971042320439
5146.0	2.516527293e-06	0.971044836967
5148.0	2.516527293e-06	0.971047353494
5152.0	2.516527293e-06	0.971049870021
5155.0	2.516527293e-06	0.971052386549
5167.0	1.2582636465e-05	0.971064969185
5173.0	2.516527293e-06	0.971067485712
5185.0	7.54958187899e-06	0.971075035294
5191.0	5.03305458599e-06	0.971080068349
5193.0	3.5231382102e-05	0.971115299731
5197.0	7.54958187899e-06	0.971122849313
5199.0	3.2714854809e-05	0.971155564168
5202.0	0.000130859419236	0.971286423587
5205.0	3.7747909395e-05	0.971324171496
5212.0	5.03305458599e-06	0.971329204551
5215.0	5.03305458599e-06	0.971334237605
5217.0	4.78140185669e-05	0.971382051624
5221.0	5.03305458599e-06	0.971387084679
5224.0	2.516527293e-06	0.971389601206
5232.0	3.2714854809e-05	0.971422316061
5236.0	2.516527293e-06	0.971424832588
5238.0	0.00010066109172	0.97152549368
5241.0	5.03305458599e-06	0.971530526734
5245.0	2.516527293e-06	0.971533043262
5248.0	7.54958187899e-06	0.971540592843
5250.0	0.000110727200892	0.971651320044
5253.0	0.000140925528408	0.971792245573
5256.0	9.81445644269e-05	0.971890390137
5259.0	2.516527293e-06	0.971892906665
5263.0	5.03305458599e-06	0.971897939719
5266.0	7.54958187899e-06	0.971905489301
5268.0	5.28470731529e-05	0.971958336374
5272.0	7.54958187899e-06	0.971965885956
5274.0	7.54958187899e-06	0.971973435538
5278.0	7.54958187899e-06	0.97198098512
5287.0	2.516527293e-06	0.971983501647
5292.0	2.516527293e-06	0.971986018174
5296.0	5.03305458599e-06	0.971991051229
5299.0	5.03305458599e-06	0.971996084284
5305.0	5.03305458599e-06	0.972001117338
5308.0	2.516527293e-06	0.972003633865
5311.0	5.03305458599e-06	0.97200866692
5316.0	7.54958187899e-06	0.972016216502
5322.0	9.31115098409e-05	0.972109328012
5325.0	3.5231382102e-05	0.972144559394
5328.0	2.516527293e-06	0.972147075921
5335.0	5.03305458599e-06	0.972152108976
5337.0	1.5099163758e-05	0.972167208139
5340.0	6.54297096179e-05	0.972232637849
5343.0	0.000213904819905	0.972446542669
5347.0	2.516527293e-06	0.972449059196
5350.0	1.2582636465e-05	0.972461641833
5352.0	6.79462369109e-05	0.97252958807
5356.0	2.516527293e-06	0.972532104597
5358.0	0.000208871765319	0.972740976362
5361.0	9.56280371339e-05	0.972836604399
5364.0	2.7681800223e-05	0.9728642862
5367.0	0.000108210673599	0.972972496873
5370.0	7.29792914969e-05	0.973045476165
5372.0	7.54958187899e-06	0.973053025747
5374.0	5.53636004459e-05	0.973108389347
5386.0	5.03305458599e-06	0.973113422402
5389.0	7.54958187899e-06	0.973120971984
5391.0	3.5231382102e-05	0.973156203366
5394.0	2.2648745637e-05	0.973178852111
5400.0	3.5231382102e-05	0.973214083493
5403.0	2.2648745637e-05	0.973236732239
5406.0	1.0066109172e-05	0.973246798348
5409.0	2.516527293e-06	0.973249314875
5412.0	5.03305458599e-05	0.973299645421
5415.0	0.000385028675829	0.973684674097
5419.0	2.516527293e-06	0.973687190624
5424.0	2.7681800223e-05	0.973714872425
5427.0	2.0132218344e-05	0.973735004643
5430.0	1.7615691051e-05	0.973752620334
5436.0	1.7615691051e-05	0.973770236025
5440.0	5.03305458599e-06	0.97377526908
5443.0	1.0066109172e-05	0.973785335189
5446.0	1.0066109172e-05	0.973795401298
5448.0	7.54958187899e-06	0.97380295088
5451.0	2.7681800223e-05	0.97383063268
5455.0	1.2582636465e-05	0.973843215317
5457.0	9.05949825479e-05	0.973933810299
5460.0	0.000296950220574	0.97423076052
5463.0	0.00012582636465	0.974356586884
5466.0	0.000135892473822	0.974492479358
5469.0	2.516527293e-06	0.974494995885
5473.0	2.516527293e-06	0.974497512413
5476.0	1.0066109172e-05	0.974507578522
5481.0	5.03305458599e-06	0.974512611577
5485.0	2.516527293e-06	0.974515128104
5487.0	1.2582636465e-05	0.97452771074
5490.0	3.7747909395e-05	0.97456545865
5493.0	7.80123460829e-05	0.974643470996
5496.0	3.2714854809e-05	0.974676185851
5499.0	2.2648745637e-05	0.974698834596
5503.0	5.03305458599e-06	0.974703867651
5505.0	5.03305458599e-06	0.974708900705
5508.0	3.7747909395e-05	0.974746648615
5511.0	5.03305458599e-06	0.974751681669
5517.0	2.516527293e-06	0.974754198197
5527.0	2.516527293e-06	0.974756714724
5530.0	2.516527293e-06	0.974759231251
5535.0	2.2648745637e-05	0.974781879997
5538.0	1.7615691051e-05	0.974799495688
5545.0	2.516527293e-06	0.974802012215
5547.0	2.516527293e-06	0.974804528743
5557.0	2.516527293e-06	0.97480704527
5560.0	2.516527293e-06	0.974809561797
5563.0	2.516527293e-06	0.974812078324
5571.0	1.2582636465e-05	0.974824660961
5574.0	6.03966550319e-05	0.974885057616
5578.0	7.54958187899e-06	0.974892607198
5580.0	8.30454006689e-05	0.974975652598
5583.0	6.79462369109e-05	0.975043598835
5586.0	5.03305458599e-06	0.97504863189
5589.0	6.29131823249e-05	0.975111545072
5592.0	0.000105694146306	0.975217239219
5595.0	0.000231520510956	0.97544875973
5598.0	4.27809639809e-05	0.975491540694
5601.0	0.000296950220574	0.975788490914
5604.0	5.53636004459e-05	0.975843854515
5616.0	2.516527293e-06	0.975846371042
5620.0	2.2648745637e-05	0.975869019787
5622.0	0.000196289128854	0.976065308916
5626.0	2.516527293e-06	0.976067825444
5628.0	0.000130859419236	0.976198684863
5631.0	0.000143442055701	0.976342126919
5633.0	5.03305458599e-05	0.976392457464
5635.0	7.29792914969e-05	0.976465436756
5637.0	3.7747909395e-05	0.976503184665
5640.0	7.54958187899e-05	0.976578680484
5643.0	0.000161057746752	0.976739738231
5646.0	7.54958187899e-06	0.976747287813
5656.0	1.0066109172e-05	0.976757353922
5658.0	0.000193772601561	0.976951126523
5661.0	2.516527293e-06	0.976953643051
5670.0	3.0198327516e-05	0.976983841378
5673.0	1.2582636465e-05	0.976996424015
5676.0	0.000221454401784	0.977217878417
5679.0	3.0198327516e-05	0.977248076744
5682.0	0.000148475110287	0.977396551854
5692.0	2.516527293e-06	0.977399068382
5700.0	5.03305458599e-06	0.977404101436
5703.0	3.7747909395e-05	0.977441849346
5705.0	5.53636004459e-05	0.977497212946
5707.0	6.03966550319e-05	0.977557609601
5710.0	2.516527293e-06	0.977560126128
5712.0	3.0198327516e-05	0.977590324456
5715.0	1.7615691051e-05	0.977607940147
5731.0	4.78140185669e-05	0.977655754165
5733.0	0.000241586620128	0.977897340786
5736.0	2.2648745637e-05	0.977919989531
5739.0	0.000105694146306	0.978025683678
5742.0	1.2582636465e-05	0.978038266314
5745.0	4.52974912739e-05	0.978083563805
5749.0	5.03305458599e-06	0.97808859686
5751.0	0.000123309837357	0.978211906697
5754.0	9.31115098409e-05	0.978305018207
5757.0	0.000289400638695	0.978594418846
5760.0	5.03305458599e-06	0.9785994519
5770.0	2.516527293e-06	0.978601968428
5772.0	7.54958187899e-06	0.97860951801
5779.0	2.516527293e-06	0.978612034537
5781.0	0.000123309837357	0.978735344374
5784.0	0.00017615691051	0.978911501285
5787.0	2.516527293e-06	0.978914017812
5791.0	5.03305458599e-06	0.978919050867
5800.0	1.2582636465e-05	0.978931633503
5802.0	1.2582636465e-05	0.978944216139
5805.0	2.516527293e-06	0.978946732667
5809.0	2.516527293e-06	0.978949249194
5811.0	1.0066109172e-05	0.978959315303
5814.0	2.2648745637e-05	0.978981964049
5817.0	0.000161057746752	0.979143021796
5820.0	0.000166090801338	0.979309112597
5824.0	5.03305458599e-06	0.979314145652
5826.0	2.516527293e-06	0.979316662179
5832.0	5.03305458599e-06	0.979321695233
5835.0	1.2582636465e-05	0.97933427787
5838.0	2.516527293e-06	0.979336794397
5840.0	2.516527293e-06	0.979339310924
5842.0	2.516527293e-06	0.979341827452
5847.0	2.516527293e-06	0.979344343979
5850.0	5.03305458599e-06	0.979349377034
5853.0	2.516527293e-06	0.979351893561
5865.0	1.2582636465e-05	0.979364476197
5868.0	2.516527293e-05	0.97938964147
5871.0	1.2582636465e-05	0.979402224107
5877.0	2.516527293e-06	0.979404740634
5880.0	5.03305458599e-06	0.979409773689
5886.0	2.516527293e-06	0.979412290216
5889.0	0.000115760255478	0.979528050471
5892.0	2.2648745637e-05	0.979550699217
5895.0	2.516527293e-06	0.979553215744
5899.0	2.516527293e-06	0.979555732272
5901.0	6.03966550319e-05	0.979616128927
5904.0	4.02644366879e-05	0.979656393363
5907.0	2.7681800223e-05	0.979684075164
5910.0	2.516527293e-06	0.979686591691
5919.0	0.00017615691051	0.979862748601
5922.0	2.516527293e-05	0.979887913874
5928.0	2.516527293e-06	0.979890430402
5937.0	5.03305458599e-06	0.979895463456
5940.0	1.0066109172e-05	0.979905529565
5943.0	0.000166090801338	0.980071620367
5946.0	5.78801277389e-05	0.980129500494
5949.0	9.56280371339e-05	0.980225128532
5952.0	5.03305458599e-06	0.980230161586
5955.0	6.29131823249e-05	0.980293074769
5961.0	2.516527293e-06	0.980295591296
5964.0	2.516527293e-06	0.980298107823
5970.0	2.516527293e-06	0.98030062435
5973.0	1.0066109172e-05	0.98031069046
5976.0	8.30454006689e-05	0.98039373586
5979.0	3.7747909395e-05	0.98043148377
5982.0	8.05288733759e-05	0.980512012643
5985.0	0.000397611312293	0.980909623955
5987.0	1.5099163758e-05	0.980924723119
5989.0	1.0066109172e-05	0.980934789228
5991.0	0.00020132218344	0.981136111412
5994.0	0.000103177619013	0.981239289031
6000.0	5.03305458599e-06	0.981244322085
6003.0	6.79462369109e-05	0.981312268322
6006.0	0.000397611312293	0.981709879634
6021.0	1.7615691051e-05	0.981727495326
6024.0	2.0132218344e-05	0.981747627544
6028.0	5.03305458599e-06	0.981752660598
6030.0	2.7681800223e-05	0.981780342399
6033.0	1.7615691051e-05	0.98179795809
6040.0	2.516527293e-06	0.981800474617
6043.0	2.516527293e-06	0.981802991144
6045.0	0.00012582636465	0.981928817509
6048.0	1.0066109172e-05	0.981938883618
6051.0	2.0132218344e-05	0.981959015837
6054.0	1.7615691051e-05	0.981976631528
6057.0	0.000113243728185	0.982089875256
6067.0	2.516527293e-06	0.982092391783
6070.0	2.516527293e-06	0.98209490831
6091.0	2.516527293e-06	0.982097424838
6096.0	2.516527293e-06	0.982099941365
6099.0	5.03305458599e-06	0.98210497442
6103.0	5.03305458599e-06	0.982110007474
6105.0	0.000120793310064	0.982230800784
6108.0	4.27809639809e-05	0.982273581748
6111.0	5.03305458599e-06	0.982278614803
6123.0	2.516527293e-06	0.98228113133
6126.0	2.516527293e-06	0.982283647857
6129.0	2.516527293e-06	0.982286164385
6148.0	2.516527293e-06	0.982288680912
6150.0	0.00010066109172	0.982389342004
6153.0	5.03305458599e-06	0.982394375058
6183.0	2.516527293e-06	0.982396891585
6186.0	2.516527293e-06	0.982399408113
6217.0	2.516527293e-06	0.98240192464
6223.0	2.516527293e-06	0.982404441167
6231.0	5.03305458599e-06	0.982409474222
6235.0	2.516527293e-06	0.982411990749
6238.0	1.2582636465e-05	0.982424573386
6240.0	7.80123460829e-05	0.982502585732
6244.0	2.516527293e-06	0.982505102259
6246.0	5.03305458599e-06	0.982510135314
6262.0	2.516527293e-06	0.982512651841
6268.0	2.516527293e-06	0.982515168368
6289.0	2.516527293e-06	0.982517684896
6291.0	3.2714854809e-05	0.98255039975
6295.0	2.516527293e-06	0.982552916278
6300.0	0.000123309837357	0.982676226115
6303.0	1.0066109172e-05	0.982686292224
6306.0	0.000145958582994	0.982832250807
6315.0	0.000329665075383	0.983161915883
6319.0	2.516527293e-06	0.98316443241
6325.0	2.516527293e-06	0.983166948937
6339.0	2.516527293e-06	0.983169465464
6351.0	0.000460524494618	0.983629989959
6354.0	0.000108210673599	0.983738200633
6360.0	2.2648745637e-05	0.983760849378
6366.0	2.516527293e-06	0.983763365906
6369.0	2.516527293e-06	0.983765882433
6378.0	7.54958187899e-05	0.983841378252
6381.0	4.78140185669e-05	0.98388919227
6384.0	0.000241586620128	0.98413077889
6387.0	2.516527293e-06	0.984133295418
6403.0	2.516527293e-06	0.984135811945
6411.0	2.516527293e-06	0.984138328472
6418.0	2.516527293e-06	0.984140845
6420.0	2.516527293e-06	0.984143361527
6438.0	9.31115098409e-05	0.984236473037
6441.0	3.2714854809e-05	0.984269187891
6443.0	0.000148475110287	0.984417663002
6445.0	1.5099163758e-05	0.984432762166
6447.0	2.516527293e-06	0.984435278693
6462.0	2.516527293e-06	0.98443779522
6465.0	0.000108210673599	0.984546005894
6477.0	2.516527293e-06	0.984548522421
6490.0	2.516527293e-06	0.984551038948
6492.0	2.516527293e-06	0.984553555476
6495.0	0.000322115493504	0.984875670969
6504.0	2.516527293e-06	0.984878187496
6507.0	2.516527293e-06	0.984880704024
6519.0	2.516527293e-06	0.984883220551
6528.0	1.5099163758e-05	0.984898319715
6530.0	0.000143442055701	0.98504176177
6532.0	3.0198327516e-05	0.985071960098
6534.0	5.03305458599e-06	0.985076993153
6537.0	2.516527293e-06	0.98507950968
6549.0	2.516527293e-06	0.985082026207
6561.0	2.516527293e-06	0.985084542734
6564.0	5.03305458599e-06	0.985089575789
6585.0	2.516527293e-06	0.985092092316
6588.0	0.000166090801338	0.985258183118
6591.0	0.000173640383217	0.985431823501
6594.0	9.56280371339e-05	0.985527451538
6597.0	5.03305458599e-06	0.985532484593
6600.0	4.27809639809e-05	0.985575265557
6603.0	4.52974912739e-05	0.985620563048
6613.0	2.516527293e-06	0.985623079575
6618.0	2.516527293e-06	0.985625596102
6630.0	1.5099163758e-05	0.985640695266
6633.0	2.7681800223e-05	0.985668377066
6636.0	1.2582636465e-05	0.985680959703
6639.0	2.516527293e-06	0.98568347623
6645.0	2.516527293e-06	0.985685992757
6660.0	2.516527293e-06	0.985688509285
6663.0	5.03305458599e-06	0.985693542339
6666.0	0.000218937874491	0.985912480214
6669.0	5.03305458599e-06	0.985917513268
6687.0	5.03305458599e-06	0.985922546323
6699.0	2.516527293e-06	0.98592506285
6747.0	2.516527293e-06	0.985927579378
6759.0	2.516527293e-06	0.985930095905
6771.0	2.516527293e-06	0.985932612432
6775.0	5.03305458599e-06	0.985937645487
6777.0	1.5099163758e-05	0.98595274465
6780.0	0.000123309837357	0.986076054488
6786.0	2.516527293e-06	0.986078571015
6795.0	7.54958187899e-06	0.986086120597
6807.0	7.04627642039e-05	0.986156583361
6810.0	7.54958187899e-05	0.98623207918
6828.0	2.516527293e-06	0.986234595707
6832.0	2.516527293e-06	0.986237112235
6843.0	5.03305458599e-06	0.986242145289
6846.0	0.000208871765319	0.986451017055
6864.0	5.03305458599e-06	0.986456050109
6870.0	2.516527293e-06	0.986458566636
6876.0	2.516527293e-06	0.986461083164
6883.0	2.516527293e-06	0.986463599691
6888.0	2.516527293e-06	0.986466116218
6891.0	5.03305458599e-06	0.986471149273
6897.0	2.516527293e-06	0.9864736658
6900.0	2.516527293e-06	0.986476182327
6916.0	2.516527293e-06	0.986478698855
6933.0	2.516527293e-06	0.986481215382
6939.0	2.516527293e-06	0.986483731909
6945.0	5.03305458599e-06	0.986488764964
6954.0	5.03305458599e-06	0.986493798018
6975.0	2.516527293e-06	0.986496314546
6979.0	2.516527293e-06	0.986498831073
6984.0	2.516527293e-06	0.9865013476
6987.0	5.03305458599e-06	0.986506380655
6999.0	2.516527293e-06	0.986508897182
7005.0	2.516527293e-06	0.98651141371
7026.0	2.516527293e-06	0.986513930237
7029.0	2.516527293e-06	0.986516446764
7032.0	2.516527293e-06	0.986518963291
7042.0	2.516527293e-06	0.986521479819
7046.0	0.000307016329746	0.986828496148
7048.0	5.28470731529e-05	0.986881343222
7059.0	2.516527293e-06	0.986883859749
7062.0	2.516527293e-06	0.986886376276
7077.0	5.03305458599e-06	0.986891409331
7083.0	2.516527293e-06	0.986893925858
7089.0	7.54958187899e-05	0.986969421677
7092.0	1.2582636465e-05	0.986982004313
7095.0	1.0066109172e-05	0.986992070422
7098.0	6.79462369109e-05	0.987060016659
7107.0	6.29131823249e-05	0.987122929842
7110.0	7.04627642039e-05	0.987193392606
7134.0	1.2582636465e-05	0.987205975242
7136.0	0.000221454401784	0.987427429644
7138.0	4.27809639809e-05	0.987470210608
7158.0	2.516527293e-06	0.987472727135
7160.0	0.000234037038249	0.987706764174
7162.0	3.2714854809e-05	0.987739479029
7164.0	0.000168607328631	0.987908086357
7166.0	4.52974912739e-05	0.987953383848
7168.0	5.03305458599e-06	0.987958416903
7170.0	7.54958187899e-06	0.987965966485
7180.0	2.516527293e-06	0.987968483012
7196.0	0.000103177619013	0.988071660631
7198.0	1.2582636465e-05	0.988084243268
7200.0	4.02644366879e-05	0.988124507704
7206.0	2.516527293e-06	0.988127024232
7217.0	6.29131823249e-05	0.988189937414
7219.0	1.2582636465e-05	0.98820252005
7221.0	0.000405160894172	0.988607680945
7224.0	6.54297096179e-05	0.988673110654
7226.0	0.000143442055701	0.98881655271
7228.0	2.516527293e-06	0.988819069237
7230.0	3.0198327516e-05	0.988849267565
7236.0	2.516527293e-06	0.988851784092
7242.0	2.516527293e-06	0.988854300619
7253.0	2.516527293e-06	0.988856817147
7260.0	2.516527293e-06	0.988859333674
7273.0	2.516527293e-06	0.988861850201
7276.0	7.54958187899e-06	0.988869399783
7278.0	3.5231382102e-05	0.988904631165
7281.0	2.516527293e-06	0.988907147692
7305.0	1.0066109172e-05	0.988917213802
7308.0	2.0132218344e-05	0.98893734602
7311.0	2.516527293e-06	0.988939862547
7341.0	5.03305458599e-05	0.988990193093
7347.0	2.516527293e-05	0.989015358366
7353.0	2.516527293e-06	0.989017874893
7362.0	2.516527293e-06	0.989020391421
7365.0	2.516527293e-06	0.989022907948
7371.0	2.516527293e-06	0.989025424475
7386.0	2.516527293e-06	0.989027941003
7394.0	0.000329665075383	0.989357606078
7396.0	3.5231382102e-05	0.98939283746
7398.0	7.29792914969e-05	0.989465816752
7422.0	2.516527293e-06	0.989468333279
7425.0	3.0198327516e-05	0.989498531606
7427.0	2.516527293e-06	0.989501048134
7429.0	2.516527293e-06	0.989503564661
7431.0	5.03305458599e-06	0.989508597715
7467.0	2.516527293e-06	0.989511114243
7470.0	2.516527293e-06	0.98951363077
7485.0	2.516527293e-06	0.989516147297
7487.0	2.516527293e-06	0.989518663825
7491.0	3.7747909395e-05	0.989556411734
7493.0	0.000113243728185	0.989669655462
7495.0	2.516527293e-06	0.98967217199
7512.0	2.516527293e-06	0.989674688517
7515.0	2.516527293e-06	0.989677205044
7523.0	5.03305458599e-05	0.98972753559
7527.0	2.516527293e-05	0.989752700863
7530.0	2.516527293e-06	0.98975521739
7539.0	2.516527293e-06	0.989757733918
7572.0	5.03305458599e-06	0.989762766972
7578.0	5.03305458599e-06	0.989767800027
7581.0	2.516527293e-06	0.989770316554
7593.0	2.516527293e-06	0.989772833081
7608.0	2.516527293e-06	0.989775349609
7623.0	2.516527293e-06	0.989777866136
7641.0	2.516527293e-06	0.989780382663
7646.0	5.03305458599e-05	0.989830713209
7648.0	1.7615691051e-05	0.9898483289
7650.0	0.000110727200892	0.989959056101
7652.0	6.03966550319e-05	0.990019452756
7655.0	0.000281851056816	0.990301303813
7657.0	7.54958187899e-06	0.990308853395
7668.0	5.03305458599e-06	0.990313886449
7677.0	1.5099163758e-05	0.990328985613
7679.0	1.2582636465e-05	0.990341568249
7689.0	2.516527293e-06	0.990344084777
7716.0	5.03305458599e-06	0.990349117831
7719.0	6.29131823249e-05	0.990412031014
7722.0	7.54958187899e-06	0.990419580596
7724.0	2.2648745637e-05	0.990442229341
7746.0	1.7615691051e-05	0.990459845032
7748.0	0.00010066109172	0.990560506124
7751.0	5.53636004459e-05	0.990615869724
7753.0	7.54958187899e-06	0.990623419306
7755.0	5.53636004459e-05	0.990678782907
7757.0	5.78801277389e-05	0.990736663034
7794.0	3.2714854809e-05	0.990769377889
7796.0	8.80784552549e-05	0.990857456345
7798.0	2.516527293e-06	0.990859972872
7802.0	2.516527293e-06	0.990862489399
7806.0	1.2582636465e-05	0.990875072036
7808.0	4.78140185669e-05	0.990922886054
7812.0	2.0132218344e-05	0.990943018273
7815.0	2.7681800223e-05	0.990970700073
7818.0	0.000241586620128	0.991212286693
7820.0	0.000518404622357	0.991730691315
7822.0	1.7615691051e-05	0.991748307006
7824.0	1.7615691051e-05	0.991765922697
7826.0	8.55619279619e-05	0.991851484625
7828.0	2.516527293e-06	0.991854001153
7836.0	2.516527293e-06	0.99185651768
7839.0	2.516527293e-06	0.991859034207
7878.0	2.516527293e-06	0.991861550734
7881.0	7.54958187899e-06	0.991869100316
7883.0	3.2714854809e-05	0.991901815171
7886.0	7.54958187899e-06	0.991909364753
7889.0	7.54958187899e-06	0.991916914335
7898.0	2.516527293e-06	0.991919430862
7916.0	5.03305458599e-06	0.991924463917
7918.0	1.5099163758e-05	0.991939563081
7920.0	2.516527293e-05	0.991964728353
7932.0	1.0066109172e-05	0.991974794463
7935.0	2.516527293e-05	0.991999959736
7937.0	7.54958187899e-06	0.992007509317
7956.0	2.516527293e-06	0.992010025845
7985.0	4.02644366879e-05	0.992050290281
7987.0	3.2714854809e-05	0.992083005136
7989.0	9.05949825479e-05	0.992173600119
7992.0	1.0066109172e-05	0.992183666228
8004.0	2.516527293e-06	0.992186182755
8043.0	0.000115760255478	0.992301943011
8045.0	0.000385028675829	0.992686971687
8055.0	2.516527293e-06	0.992689488214
8061.0	5.03305458599e-06	0.992694521268
8063.0	2.7681800223e-05	0.992722203069
8091.0	2.516527293e-06	0.992724719596
8094.0	2.516527293e-06	0.992727236123
8097.0	2.516527293e-06	0.992729752651
8133.0	2.516527293e-06	0.992732269178
8148.0	2.516527293e-06	0.992734785705
8154.0	2.516527293e-06	0.992737302232
8175.0	2.516527293e-06	0.99273981876
8180.0	2.516527293e-06	0.992742335287
8196.0	2.516527293e-06	0.992744851814
8205.0	2.516527293e-06	0.992747368342
8223.0	2.516527293e-06	0.992749884869
8225.0	0.000108210673599	0.992858095542
8227.0	4.78140185669e-05	0.992905909561
8229.0	0.000130859419236	0.99303676898
8265.0	2.516527293e-06	0.993039285508
8312.0	0.000105694146306	0.993144979654
8314.0	2.516527293e-06	0.993147496181
8316.0	2.516527293e-05	0.993172661454
8325.0	1.2582636465e-05	0.993185244091
8327.0	4.52974912739e-05	0.993230541582
8342.0	2.516527293e-06	0.993233058109
8355.0	2.516527293e-06	0.993235574636
8400.0	2.516527293e-06	0.993238091164
8411.0	2.516527293e-06	0.993240607691
8472.0	2.516527293e-06	0.993243124218
8487.0	2.516527293e-06	0.993245640746
8550.0	2.516527293e-06	0.993248157273
8624.0	2.516527293e-06	0.9932506738
8654.0	2.516527293e-06	0.993253190327
8672.0	1.7615691051e-05	0.993270806019
8675.0	1.0066109172e-05	0.993280872128
8690.0	2.7681800223e-05	0.993308553928
8693.0	7.54958187899e-06	0.99331610351
8708.0	1.0066109172e-05	0.993326169619
8711.0	1.2582636465e-05	0.993338752255
8714.0	2.516527293e-06	0.993341268783
8724.0	7.54958187899e-06	0.993348818365
8726.0	3.0198327516e-05	0.993379016692
8735.0	1.5099163758e-05	0.993394115856
8738.0	2.516527293e-06	0.993396632383
8751.0	7.54958187899e-06	0.993404181965
8753.0	0.000128342891943	0.993532524857
8766.0	2.516527293e-06	0.993535041384
8816.0	2.516527293e-06	0.993537557912
8837.0	2.516527293e-06	0.993540074439
8865.0	2.516527293e-06	0.993542590966
8910.0	5.03305458599e-06	0.993547624021
8912.0	7.29792914969e-05	0.993620603312
8915.0	0.00020132218344	0.993821925496
8917.0	6.79462369109e-05	0.993889871733
8931.0	2.516527293e-06	0.99389238826
8936.0	0.000203838710733	0.994096226971
8938.0	4.27809639809e-05	0.994139007935
8957.0	2.516527293e-06	0.994141524462
8984.0	2.516527293e-06	0.994144040989
9011.0	2.516527293e-06	0.994146557516
9029.0	2.516527293e-06	0.994149074044
9057.0	2.516527293e-06	0.994151590571
9069.0	2.516527293e-06	0.994154107098
9074.0	2.516527293e-06	0.994156623626
9092.0	2.516527293e-06	0.994159140153
9107.0	2.516527293e-06	0.99416165668
9215.0	2.516527293e-06	0.994164173208
9236.0	2.516527293e-06	0.994166689735
9246.0	7.54958187899e-06	0.994174239317
9248.0	3.7747909395e-05	0.994211987226
9251.0	1.2582636465e-05	0.994224569863
9258.0	2.516527293e-06	0.99422708639
9293.0	2.516527293e-05	0.994252251663
9374.0	0.000231520510956	0.994483772174
9376.0	0.000158541219459	0.994642313393
9378.0	4.78140185669e-05	0.994690127412
9380.0	0.000236553565542	0.994926680977
9399.0	2.516527293e-06	0.994929197505
9401.0	6.54297096179e-05	0.994994627214
9404.0	4.27809639809e-05	0.995037408178
9444.0	2.516527293e-06	0.995039924706
9453.0	2.516527293e-06	0.995042441233
9491.0	2.516527293e-06	0.99504495776
9605.0	2.7681800223e-05	0.99507263956
9608.0	0.000229003983663	0.995301643544
9737.0	8.05288733759e-05	0.995382172417
9740.0	9.05949825479e-05	0.9954727674
9743.0	2.516527293e-06	0.995475283927
9752.0	2.516527293e-06	0.995477800454
9806.0	2.516527293e-06	0.995480316982
9829.0	0.000156024692166	0.995636341674
9831.0	3.2714854809e-05	0.995669056529
9833.0	2.516527293e-06	0.995671573056
9838.0	0.000191256074268	0.99586282913
9840.0	7.54958187899e-05	0.995938324949
9842.0	6.29131823249e-05	0.996001238131
9860.0	1.0066109172e-05	0.996011304241
9863.0	2.2648745637e-05	0.996033952986
9890.0	2.516527293e-06	0.996036469514
9893.0	3.5231382102e-05	0.996071700896
9896.0	3.0198327516e-05	0.996101899223
9898.0	0.00017615691051	0.996278056134
9900.0	3.7747909395e-05	0.996315804043
9909.0	2.516527293e-06	0.99631832057
9911.0	5.03305458599e-06	0.996323353625
9914.0	2.516527293e-06	0.996325870152
9917.0	1.0066109172e-05	0.996335936261
9920.0	1.0066109172e-05	0.996346002371
9923.0	3.2714854809e-05	0.996378717225
9926.0	6.29131823249e-05	0.996441630408
9929.0	2.516527293e-06	0.996444146935
10025.0	5.03305458599e-06	0.99644917999
10034.0	2.516527293e-06	0.996451696517
10040.0	5.28470731529e-05	0.99650454359
10042.0	0.000281851056816	0.996786394647
10064.0	2.516527293e-06	0.996788911174
10104.0	2.516527293e-06	0.996791427701
10182.0	2.516527293e-06	0.996793944229
10199.0	2.516527293e-06	0.996796460756
10218.0	2.516527293e-06	0.996798977283
10253.0	2.516527293e-06	0.996801493811
10289.0	2.516527293e-06	0.996804010338
10291.0	2.516527293e-06	0.996806526865
10406.0	2.516527293e-06	0.996809043392
10436.0	6.29131823249e-05	0.996871956575
10438.0	2.516527293e-06	0.996874473102
10442.0	1.2582636465e-05	0.996887055739
10445.0	5.03305458599e-06	0.996892088793
10478.0	2.516527293e-06	0.99689460532
10517.0	2.516527293e-06	0.996897121848
10874.0	2.516527293e-06	0.996899638375
10940.0	1.0066109172e-05	0.996909704484
10942.0	0.000188739546975	0.997098444031
10944.0	5.03305458599e-06	0.997103477086
11174.0	2.516527293e-06	0.997105993613
11258.0	2.516527293e-06	0.99710851014
11360.0	5.03305458599e-06	0.997113543195
11362.0	0.000105694146306	0.997219237341
11364.0	2.516527293e-06	0.997221753869
11396.0	2.2648745637e-05	0.997244402614
11398.0	0.000140925528408	0.997385328143
11401.0	5.03305458599e-06	0.997390361197
11419.0	2.516527293e-06	0.997392877724
11469.0	2.516527293e-06	0.997395394252
11585.0	2.516527293e-06	0.997397910779
11618.0	2.516527293e-06	0.997400427306
11662.0	2.516527293e-06	0.997402943834
11897.0	2.516527293e-06	0.997405460361
11938.0	2.516527293e-06	0.997407976888
11950.0	2.516527293e-06	0.997410493416
12050.0	2.516527293e-06	0.997413009943
12407.0	2.516527293e-06	0.99741552647
12604.0	1.2582636465e-05	0.997428109107
12643.0	2.516527293e-06	0.997430625634
12653.0	5.03305458599e-06	0.997435658688
12655.0	7.54958187899e-06	0.99744320827
12661.0	1.0066109172e-05	0.997453274379
12664.0	2.7681800223e-05	0.99748095618
12694.0	1.0066109172e-05	0.997491022289
12697.0	3.2714854809e-05	0.997523737144
12700.0	2.0132218344e-05	0.997543869362
12702.0	3.2714854809e-05	0.997576584217
12704.0	7.54958187899e-06	0.997584133799
12721.0	2.516527293e-06	0.997586650326
12796.0	0.000390061730414	0.997976712056
12798.0	7.80123460829e-05	0.998054724403
12835.0	2.516527293e-06	0.99805724093
12868.0	5.03305458599e-06	0.998062273984
12871.0	2.7681800223e-05	0.998089955785
12884.0	5.03305458599e-06	0.998094988839
12886.0	1.5099163758e-05	0.998110088003
12889.0	5.03305458599e-06	0.998115121058
12892.0	5.03305458599e-05	0.998165451603
12895.0	2.516527293e-05	0.998190616876
13364.0	2.516527293e-06	0.998193133404
13887.0	0.00113998686373	0.999333120267
13889.0	5.03305458599e-05	0.999383450813
13999.0	2.516527293e-06	0.999385967341
14230.0	2.516527293e-06	0.999388483868
14258.0	2.516527293e-06	0.999391000395
14374.0	2.516527293e-06	0.999393516922
14916.0	2.516527293e-06	0.99939603345
15411.0	0.000259202311179	0.999655235761
15413.0	0.000135892473822	0.999791128235
15600.0	8.55619279619e-05	0.999876690163
15602.0	1.7615691051e-05	0.999894305854
15604.0	5.03305458599e-06	0.999899338908
15627.0	2.516527293e-06	0.999901855436
15636.0	3.5231382102e-05	0.999937086818
15638.0	3.5231382102e-05	0.9999723182
15640.0	2.0132218344e-05	0.999992450418
17126.0	2.516527293e-06	0.999994966945
17130.0	2.516527293e-06	0.999997483473
17575.0	2.516527293e-06	1.0
19701.0	2.516527293e-06	1.0
