#
# Generated On: 2012-02-09T14:00:02.725475
#           By: cwa.analyze.statistics
#      Version: 11.11.23
#       Author: Thomas A. de Ruiter <thomas@de-ruiter.cx>
#
#  Commandline: /home/af10028/bin/cwa analyze
#     Work Dir: /scratch/af10028/var/thesis-project/result/workload-analyses/workload-06h-03708l-2s
#

Value	PDF	CDF
0.0	0.154478923192	0.154481244299
2.0	0.0560616857268	0.210542930026
4.0	0.0401829960379	0.250725926063
6.0	0.0312931580743	0.282019084138
8.0	0.0272242583484	0.309243342486
10.0	0.0231414319835	0.33238477447
12.0	0.0208458576373	0.353230632107
14.0	0.0184644023499	0.371695034457
16.0	0.0166980402898	0.388393074747
18.0	0.015560698096	0.403953772843
20.0	0.0142515940199	0.418205366862
22.0	0.0134879499755	0.431693316838
24.0	0.0127266270376	0.444419943876
26.0	0.0113641375116	0.455784081387
28.0	0.0109857971492	0.466769878536
30.0	0.0102384008505	0.477008279387
32.0	0.0100271801573	0.487035459544
34.0	0.00966276643401	0.496698225978
36.0	0.00913123304142	0.50582945902
38.0	0.00848596542944	0.514315424449
40.0	0.00811923059961	0.522434655049
42.0	0.00781052343273	0.530245178481
44.0	0.00766661482862	0.53791179331
46.0	0.0075087795854	0.545420572896
48.0	0.00697260397977	0.552393176875
50.0	0.00667318123896	0.559066358114
52.0	0.00659194251083	0.565658300625
54.0	0.00616718001806	0.571825480643
56.0	0.00610683124859	0.577932311892
58.0	0.00594203268582	0.583874344578
60.0	0.00576330748394	0.589637652061
62.0	0.00547084806269	0.595108500124
64.0	0.00534782941724	0.600456329541
66.0	0.00509018659375	0.605546516135
68.0	0.00506233331554	0.610608849451
70.0	0.00498109458741	0.615589944038
72.0	0.00480236938553	0.620392313424
74.0	0.00444259787526	0.624834911299
76.0	0.00451687328383	0.629351784583
78.0	0.00448437779258	0.633836162375
80.0	0.00432190033633	0.638158062712
82.0	0.00417334951918	0.642331412231
84.0	0.00398533989123	0.646316752122
86.0	0.00416638619963	0.650483138322
88.0	0.00375555034596	0.654238688668
90.0	0.00384607350016	0.658084762168
92.0	0.00374626591989	0.661831028088
94.0	0.00370680710909	0.665537835197
96.0	0.00354897186587	0.669086807063
98.0	0.00357218293105	0.672658989994
100.0	0.0033841733031	0.676043163297
102.0	0.00322633805988	0.679269501357
104.0	0.0032936501489	0.682563151506
106.0	0.00325651244461	0.68581966395
108.0	0.00317063150345	0.688990295454
110.0	0.00310331941443	0.692093614868
112.0	0.00303832843193	0.6951319433
114.0	0.00293387863862	0.698065821939
116.0	0.00288281429523	0.700948636234
118.0	0.00282246552577	0.70377110176
120.0	0.00271337351942	0.706484475279
122.0	0.00265302474996	0.709137500029
124.0	0.00265302474996	0.711790524779
126.0	0.0026715936021	0.714462118381
128.0	0.00253232721103	0.716994445592
130.0	0.00239073971344	0.719385185306
132.0	0.00238145528736	0.721766640593
134.0	0.00250911614585	0.724275756739
136.0	0.00249054729371	0.726766304032
138.0	0.00238377639388	0.729150080426
140.0	0.00236984975478	0.731519930181
142.0	0.00242091409817	0.733940844279
144.0	0.00217951902031	0.7361203633
146.0	0.00211220693129	0.738232570231
148.0	0.00219576676593	0.740428336997
150.0	0.00217487680727	0.742603213804
152.0	0.00207042701397	0.744673640818
154.0	0.00218184012683	0.746855480945
156.0	0.00211452803781	0.748970008983
158.0	0.00213541799647	0.751105426979
160.0	0.00187545406646	0.752980881046
162.0	0.00208667475959	0.755067555805
164.0	0.00185688521432	0.75692444102
166.0	0.00190330734468	0.758827748364
168.0	0.00186152742736	0.760689275792
170.0	0.0019706194337	0.762659895225
172.0	0.00189402291861	0.764553918144
174.0	0.00191723398378	0.766471152128
176.0	0.00180582087093	0.768276972999
178.0	0.00175243542101	0.77002940842
180.0	0.00179189423182	0.771821302651
182.0	0.00159692128431	0.773418223936
184.0	0.00173154546235	0.775149769398
186.0	0.00167119669289	0.776820966091
188.0	0.0016340589886	0.77845502508
190.0	0.00164102230815	0.780096047388
192.0	0.0016595911603	0.781755638548
194.0	0.00157371021914	0.783329348767
196.0	0.00142748050851	0.784756829276
198.0	0.00154585694092	0.786302686217
200.0	0.00166423337333	0.78796691959
202.0	0.00157138911262	0.789538308703
204.0	0.00157603132565	0.791114340028
206.0	0.00146693931931	0.792581279347
208.0	0.00153657251485	0.794117851862
210.0	0.00136945284556	0.795487304708
212.0	0.0014785448519	0.79696584956
214.0	0.00135320509994	0.79831905466
216.0	0.00148550817146	0.799804562831
218.0	0.00143676493458	0.801241327766
220.0	0.00139034280422	0.80263167057
222.0	0.00129749854351	0.803929169113
224.0	0.00131142518261	0.805240594296
226.0	0.00138570059119	0.806626294887
228.0	0.00135320509994	0.807979499987
230.0	0.00123714977404	0.809216649761
232.0	0.00127428747833	0.81049093724
234.0	0.0012185809219	0.811709518161
236.0	0.00127196637181	0.812981484533
238.0	0.00136945284556	0.814350937379
240.0	0.00124643420011	0.815597371579
242.0	0.00120465428279	0.816802025862
244.0	0.00125339751967	0.818055423381
246.0	0.00111645223511	0.819171875617
248.0	0.00117912211109	0.820350997728
250.0	0.00108627785038	0.821437275578
252.0	0.00106074567868	0.822498021257
254.0	0.00104681903957	0.823544840296
256.0	0.00114198440681	0.824686824703
258.0	0.00104681903957	0.825733643743
260.0	0.00104914014609	0.826782783889
262.0	0.00113037887422	0.827913162763
264.0	0.00110484670252	0.829018009465
266.0	0.00106074567868	0.830078755144
268.0	0.00106538789172	0.831144143036
270.0	0.000958616991892	0.832102760028
272.0	0.00100271801573	0.833105478043
274.0	0.000979506950553	0.834084984994
276.0	0.000972543631	0.835057528625
278.0	0.000940048139749	0.835997576765
280.0	0.000905231541981	0.836902808307
282.0	0.000967901417964	0.837870709725
284.0	0.000977185844036	0.838847895569
286.0	0.000963259204928	0.839811154774
288.0	0.00102128686788	0.840832441642
290.0	0.000895947115909	0.841728388757
292.0	0.000984149163589	0.842712537921
294.0	0.000986470270107	0.843699008191
296.0	0.000923800394124	0.844622808585
298.0	0.000888983796355	0.845511792382
300.0	0.000821671707336	0.846333464089
302.0	0.000823992813854	0.847157456903
304.0	0.000865772731176	0.848023229634
306.0	0.000940048139749	0.848963277774
308.0	0.000800781748675	0.849764059522
310.0	0.000865772731176	0.850629832254
312.0	0.000893626009391	0.851523458263
314.0	0.000791497322604	0.852314955586
316.0	0.000810066174747	0.85312502176
318.0	0.00088434158332	0.854009363344
320.0	0.000782212896532	0.85479157624
322.0	0.000803102855193	0.855594679095
324.0	0.000793818429122	0.856388497525
326.0	0.000777570683496	0.857166068208
328.0	0.00074043297921	0.857906501187
330.0	0.000779891790014	0.858686392977
332.0	0.000761322937871	0.859447715915
334.0	0.000830956133408	0.860278672049
336.0	0.000791497322604	0.861070169371
338.0	0.000733469659656	0.861803639031
340.0	0.000698653061888	0.862502292093
342.0	0.000687047529298	0.863189339622
344.0	0.000761322937871	0.86395066256
346.0	0.000712579700995	0.864663242261
348.0	0.000670799783673	0.865334042045
350.0	0.000726506340102	0.866060548385
352.0	0.000721864127067	0.866782412512
354.0	0.000717221914031	0.867499634426
356.0	0.000654552038048	0.868154186464
358.0	0.00074043297921	0.868894619443
360.0	0.000689368635816	0.869583988079
362.0	0.000707937487959	0.870291925567
364.0	0.000670799783673	0.87096272535
366.0	0.000705616381441	0.871668341732
368.0	0.00069633195537	0.872364673687
370.0	0.000635983185904	0.873000656873
372.0	0.000673120890191	0.873673777763
374.0	0.000587239949029	0.874261017712
376.0	0.000524570073045	0.874785587785
378.0	0.000622056546797	0.875407644332
380.0	0.000673120890191	0.876080765222
382.0	0.000622056546797	0.876702821769
384.0	0.000587239949029	0.877290061718
386.0	0.0005965243751	0.877886586093
388.0	0.000594203268582	0.878480789362
390.0	0.000589561055546	0.879070350417
392.0	0.000568671096885	0.879639021514
394.0	0.000577955522957	0.880216977037
396.0	0.000580276629475	0.880797253667
398.0	0.00055242335126	0.881349677018
400.0	0.000554744457778	0.881904421476
402.0	0.000543138925188	0.882447560401
404.0	0.000524570073045	0.882972130474
406.0	0.000570992203403	0.883543122677
408.0	0.000603487694654	0.884146610372
410.0	0.000550102244742	0.884696712617
412.0	0.000568671096885	0.885265383714
414.0	0.000570992203403	0.885836375917
416.0	0.000494395688313	0.886330771605
418.0	0.000545460031706	0.886876231637
420.0	0.000526891179563	0.887403122817
422.0	0.000522248966527	0.887925371783
424.0	0.000526891179563	0.888452262963
426.0	0.000543138925188	0.888995401888
428.0	0.000515285646974	0.889510687535
430.0	0.000482790155723	0.889993477691
432.0	0.000434046918847	0.89042752461
434.0	0.000480469049205	0.890907993659
436.0	0.000529212286081	0.891437205945
438.0	0.000522248966527	0.891959454911
440.0	0.000526891179563	0.892486346091
442.0	0.000478147942687	0.892964494034
444.0	0.000524570073045	0.893489064107
446.0	0.00046422130358	0.89395328541
448.0	0.000434046918847	0.894387332329
450.0	0.000392267001525	0.894779599331
452.0	0.000510643433938	0.895290242765
454.0	0.000434046918847	0.895724289683
456.0	0.000471184623134	0.896195474307
458.0	0.000424762492776	0.896620236799
460.0	0.000485111262241	0.897105348062
462.0	0.000399230321079	0.897504578383
464.0	0.00049671679483	0.898001295177
466.0	0.000427083599293	0.898428378777
468.0	0.000399230321079	0.898827609098
470.0	0.000417799173222	0.899245408271
472.0	0.000454936877508	0.899700345149
474.0	0.000487432368759	0.900187777517
476.0	0.000454936877508	0.900642714395
478.0	0.000480469049205	0.901123183444
480.0	0.000447973557955	0.901571157002
482.0	0.000415478066704	0.901986635069
484.0	0.0003760192559	0.902362654325
486.0	0.000429404705811	0.90279205903
488.0	0.000424762492776	0.903216821523
490.0	0.000382982575453	0.903599804099
492.0	0.00045261577099	0.90405241987
494.0	0.000387624788489	0.904440044658
496.0	0.000415478066704	0.904855522725
498.0	0.00042012027974	0.905275643005
500.0	0.000436368025365	0.90571201103
502.0	0.000406193640632	0.906118204671
504.0	0.000434046918847	0.906552251589
506.0	0.00042012027974	0.906972371869
508.0	0.00036441372331	0.907336785592
510.0	0.000410835853668	0.907747621446
512.0	0.000371377042864	0.908118998489
514.0	0.000415478066704	0.908534476556
516.0	0.000369055936346	0.908903532492
518.0	0.0003760192559	0.909279551748
520.0	0.000389945895007	0.909669497643
522.0	0.000392267001525	0.910061764644
524.0	0.000345844871167	0.910407609516
526.0	0.000399230321079	0.910806839837
528.0	0.000415478066704	0.911222317903
530.0	0.000352808190721	0.911575126094
532.0	0.000373698149382	0.911948824243
534.0	0.000373698149382	0.912322522393
536.0	0.000336560445095	0.912659082838
538.0	0.000352808190721	0.913011891029
540.0	0.000343523764649	0.913355414793
542.0	0.000322633805988	0.913678048599
544.0	0.000350487084203	0.914028535684
546.0	0.000373698149382	0.914402233833
548.0	0.000322633805988	0.914724867639
550.0	0.000366734829828	0.915091602469
552.0	0.00033191823206	0.915423520701
554.0	0.000336560445095	0.915760081146
556.0	0.000336560445095	0.916096641591
558.0	0.000362092616792	0.916458734208
560.0	0.000317991592952	0.916776725801
562.0	0.000327276019024	0.91710400182
564.0	0.000290138314737	0.917394140134
566.0	0.000355129297239	0.917749269432
568.0	0.000317991592952	0.918067261025
570.0	0.000338881551613	0.918406142576
572.0	0.000334239338577	0.918740381915
574.0	0.000350487084203	0.919090868999
576.0	0.000299422740809	0.91939029174
578.0	0.000327276019024	0.919717567759
580.0	0.000322633805988	0.920040201565
582.0	0.000357450403756	0.920397651969
584.0	0.000297101634291	0.920694753603
586.0	0.000269248356076	0.920964001959
588.0	0.000290138314737	0.921254140274
590.0	0.000327276019024	0.921581416293
592.0	0.000273890569112	0.921855306862
594.0	0.000327276019024	0.922182582881
596.0	0.00028781720822	0.922470400089
598.0	0.000266927249558	0.922737327339
600.0	0.000283174995184	0.923020502334
602.0	0.000341202658131	0.923361704992
604.0	0.000273890569112	0.923635595561
606.0	0.000290138314737	0.923925733876
608.0	0.000311028273398	0.924236762149
610.0	0.000280853888666	0.924517616038
612.0	0.000248358397415	0.924765974435
614.0	0.000264606143041	0.925030580578
616.0	0.000271569462594	0.925302150041
618.0	0.000294780527773	0.925596930569
620.0	0.000257642823487	0.925854573392
622.0	0.000280853888666	0.926135427281
624.0	0.000266927249558	0.92640235453
626.0	0.000290138314737	0.926692492845
628.0	0.000229789545272	0.92692228239
630.0	0.000304064953845	0.927226347344
632.0	0.000250679503933	0.927477026848
634.0	0.000250679503933	0.927727706352
636.0	0.000283174995184	0.928010881347
638.0	0.000255321716969	0.928266203064
640.0	0.000255321716969	0.928521524781
642.0	0.00028781720822	0.92880934199
644.0	0.000299422740809	0.92910876473
646.0	0.000227468438754	0.929336233169
648.0	0.000259963930005	0.929596197099
650.0	0.000264606143041	0.929860803242
652.0	0.000262285036523	0.930123088279
654.0	0.000317991592952	0.930441079872
656.0	0.000241395077862	0.930682474949
658.0	0.0002205051192	0.930902980069
660.0	0.000280853888666	0.931183833957
662.0	0.00023211065179	0.931415944609
664.0	0.000218184012683	0.931634128622
666.0	0.000239073971344	0.931873202593
668.0	0.000253000610451	0.932126203204
670.0	0.000271569462594	0.932397772666
672.0	0.000250679503933	0.93264845217
674.0	0.000264606143041	0.932913058313
676.0	0.000243716184379	0.933156774498
678.0	0.000234431758308	0.933391206256
680.0	0.000239073971344	0.933630280227
682.0	0.000253000610451	0.933883280838
684.0	0.000241395077862	0.934124675916
686.0	0.000215862906165	0.934340538822
688.0	0.000250679503933	0.934591218326
690.0	0.00023211065179	0.934823328977
692.0	0.000266927249558	0.935090256227
694.0	0.000222826225718	0.935313082453
696.0	0.000246037290897	0.935559119744
698.0	0.000225147332236	0.935784267076
700.0	0.000208899586611	0.935993166662
702.0	0.000234431758308	0.936227598421
704.0	0.000257642823487	0.936485241244
706.0	0.000264606143041	0.936749847387
708.0	0.000208899586611	0.936958746974
710.0	0.000255321716969	0.937214068691
712.0	0.000255321716969	0.937469390408
714.0	0.000201936267057	0.937671326675
716.0	0.000227468438754	0.937898795114
718.0	0.000222826225718	0.938121621339
720.0	0.000213541799647	0.938335163139
722.0	0.000183367414914	0.938518530554
724.0	0.000227468438754	0.938745998993
726.0	0.000190330734468	0.938936329727
728.0	0.000204257373575	0.939140587101
730.0	0.000183367414914	0.939323954516
732.0	0.000183367414914	0.939507321931
734.0	0.000206578480093	0.939713900411
736.0	0.000236752864826	0.939950653275
738.0	0.000215862906165	0.940166516182
740.0	0.0002205051192	0.940387021301
742.0	0.000208899586611	0.940595920887
744.0	0.000181046308396	0.940776967196
746.0	0.000204257373575	0.940981224569
748.0	0.00018800962795	0.941169234197
750.0	0.000206578480093	0.941375812677
752.0	0.000213541799647	0.941589354477
754.0	0.00023211065179	0.941821465129
756.0	0.000190330734468	0.942011795863
758.0	0.000181046308396	0.942192842172
760.0	0.00018800962795	0.9423808518
762.0	0.000183367414914	0.942564219215
764.0	0.000204257373575	0.942768476588
766.0	0.0002205051192	0.942988981707
768.0	0.000174082988842	0.943163064696
770.0	0.000185688521432	0.943348753218
772.0	0.000227468438754	0.943576221656
774.0	0.000169440775807	0.943745662432
776.0	0.000169440775807	0.943915103208
778.0	0.00018800962795	0.944103112836
780.0	0.000181046308396	0.944284159144
782.0	0.000225147332236	0.944509306477
784.0	0.000208899586611	0.944718206063
786.0	0.000218184012683	0.944936390076
788.0	0.000171761882325	0.945108151958
790.0	0.000201936267057	0.945310088225
792.0	0.000185688521432	0.945495776747
794.0	0.0002205051192	0.945716281866
796.0	0.000174082988842	0.945890364855
798.0	0.000169440775807	0.946059805631
800.0	0.000190330734468	0.946250136365
802.0	0.000171761882325	0.946421898247
804.0	0.000183367414914	0.946605265662
806.0	0.000201936267057	0.946807201929
808.0	0.000162477456253	0.946969679386
810.0	0.000192651840986	0.947162331227
812.0	0.000192651840986	0.947354983068
814.0	0.000157835243217	0.947512818311
816.0	0.00018800962795	0.947700827939
818.0	0.000153193030181	0.947854020969
820.0	0.000160156349735	0.948014177319
822.0	0.000171761882325	0.948185939201
824.0	0.00013230307152	0.948318242272
826.0	0.000167119669289	0.948485361942
828.0	0.000155514136699	0.948640876078
830.0	0.000171761882325	0.948812637961
832.0	0.000146229710628	0.948958867671
834.0	0.000190330734468	0.949149198406
836.0	0.000141587497592	0.949290785903
838.0	0.00017640409536	0.949467189999
840.0	0.000167119669289	0.949634309668
842.0	0.00018800962795	0.949822319296
844.0	0.000160156349735	0.949982475646
846.0	0.000157835243217	0.950140310889
848.0	0.000125339751967	0.950265650641
850.0	0.000146229710628	0.950411880352
852.0	0.000162477456253	0.950574357808
854.0	0.000190330734468	0.950764688542
856.0	0.000141587497592	0.95090627604
858.0	0.000178725201878	0.951085001242
860.0	0.000160156349735	0.951245157592
862.0	0.000139266391074	0.951384423983
864.0	0.000164798562771	0.951549222545
866.0	0.00013230307152	0.951681525617
868.0	0.000169440775807	0.951850966393
870.0	0.000146229710628	0.951997196103
872.0	0.000160156349735	0.952157352453
874.0	0.000139266391074	0.952296618844
876.0	0.000164798562771	0.952461417407
878.0	0.000123018645449	0.952584436052
880.0	0.000146229710628	0.952730665763
882.0	0.000171761882325	0.952902427645
884.0	0.000155514136699	0.953057941782
886.0	0.000136945284556	0.953194887067
888.0	0.000153193030181	0.953348080097
890.0	0.000171761882325	0.953519841979
892.0	0.000136945284556	0.953656787264
894.0	0.000157835243217	0.953814622507
896.0	0.000129981965002	0.953944604472
898.0	0.000150871923663	0.954095476396
900.0	0.000157835243217	0.954253311639
902.0	0.000104449793305	0.954357761432
904.0	0.000123018645449	0.954480780077
906.0	0.000136945284556	0.954617725362
908.0	0.000141587497592	0.95475931286
910.0	0.000125339751967	0.954884652612
912.0	0.000113734219377	0.954998386831
914.0	0.000155514136699	0.955153900968
916.0	0.000129981965002	0.955283882933
918.0	0.000141587497592	0.95542547043
920.0	0.000155514136699	0.955580984567
922.0	0.000125339751967	0.955706324319
924.0	0.000136945284556	0.955843269603
926.0	0.000123018645449	0.955966288249
928.0	0.00014390860411	0.956110196853
930.0	0.000141587497592	0.956251784351
932.0	0.000125339751967	0.956377124103
934.0	0.000150871923663	0.956527996026
936.0	0.000153193030181	0.956681189056
938.0	0.000109092006341	0.956790281063
940.0	0.000102128686788	0.95689240975
942.0	0.000146229710628	0.95703863946
944.0	0.000134624178038	0.957173263638
946.0	0.000134624178038	0.957307887816
948.0	0.000123018645449	0.957430906462
950.0	0.000120697538931	0.957551604001
952.0	0.000125339751967	0.957676943753
954.0	0.000139266391074	0.957816210144
956.0	0.000120697538931	0.957936907683
958.0	0.000120697538931	0.958057605222
960.0	0.000113734219377	0.958171339441
962.0	0.000118376432413	0.958289715873
964.0	0.000116055325895	0.958405771199
966.0	0.000127660858484	0.958533432058
968.0	0.000134624178038	0.958668056236
970.0	0.000118376432413	0.958786432668
972.0	0.000157835243217	0.958944267911
974.0	0.000120697538931	0.95906496545
976.0	0.000102128686788	0.959167094137
978.0	9.98075802697e-05	0.959266901717
980.0	0.000136945284556	0.959403847002
982.0	0.000139266391074	0.959543113393
984.0	0.000104449793305	0.959647563186
986.0	0.000106770899823	0.959754334086
988.0	0.000113734219377	0.959868068306
990.0	0.00014390860411	0.96001197691
992.0	9.05231541981e-05	0.960102500064
994.0	0.000109092006341	0.96021159207
996.0	0.000104449793305	0.960316041863
998.0	9.74864737518e-05	0.960413528337
1000.0	9.51653672339e-05	0.960508693704
1002.0	0.000113734219377	0.960622427924
1004.0	0.000104449793305	0.960726877717
1006.0	9.74864737518e-05	0.960824364191
1008.0	0.000139266391074	0.960963630582
1010.0	9.98075802697e-05	0.961063438162
1012.0	0.000141587497592	0.96120502566
1014.0	0.00013230307152	0.961337328731
1016.0	0.000106770899823	0.961444099631
1018.0	8.12387281265e-05	0.961525338359
1020.0	0.000106770899823	0.961632109259
1022.0	0.000109092006341	0.961741201265
1024.0	9.74864737518e-05	0.961838687739
1026.0	0.000118376432413	0.961957064172
1028.0	0.000111413112859	0.962068477284
1030.0	9.98075802697e-05	0.962168284865
1032.0	0.000136945284556	0.962305230149
1034.0	0.000109092006341	0.962414322156
1036.0	0.000109092006341	0.962523414162
1038.0	7.65965150907e-05	0.962600010677
1040.0	9.51653672339e-05	0.962695176044
1042.0	0.000120697538931	0.962815873583
1044.0	9.98075802697e-05	0.962915681164
1046.0	0.000113734219377	0.963029415383
1048.0	0.000102128686788	0.96313154407
1050.0	0.000116055325895	0.963247599396
1052.0	0.000136945284556	0.96338454468
1054.0	0.000120697538931	0.963505242219
1056.0	0.000129981965002	0.963635224184
1058.0	0.000113734219377	0.963748958403
1060.0	9.2844260716e-05	0.963841802664
1062.0	9.2844260716e-05	0.963934646925
1064.0	0.000129981965002	0.96406462889
1066.0	0.000104449793305	0.964169078683
1068.0	0.000120697538931	0.964289776222
1070.0	8.35598346444e-05	0.964373336057
1072.0	0.000113734219377	0.964487070276
1074.0	8.12387281265e-05	0.964568309004
1076.0	9.74864737518e-05	0.964665795478
1078.0	6.73120890191e-05	0.964733107567
1080.0	9.74864737518e-05	0.964830594041
1082.0	9.05231541981e-05	0.964921117195
1084.0	0.000113734219377	0.965034851414
1086.0	9.2844260716e-05	0.965127695675
1088.0	0.000120697538931	0.965248393214
1090.0	9.2844260716e-05	0.965341237475
1092.0	8.82020476802e-05	0.965429439522
1094.0	0.000102128686788	0.965531568209
1096.0	8.82020476802e-05	0.965619770257
1098.0	9.74864737518e-05	0.965717256731
1100.0	0.000104449793305	0.965821706524
1102.0	9.2844260716e-05	0.965914550785
1104.0	0.000104449793305	0.966019000578
1106.0	6.26698759833e-05	0.966081670454
1108.0	0.000102128686788	0.966183799141
1110.0	9.2844260716e-05	0.966276643401
1112.0	9.51653672339e-05	0.966371808769
1114.0	8.58809411623e-05	0.96645768971
1116.0	0.000111413112859	0.966569102823
1118.0	8.12387281265e-05	0.966650341551
1120.0	8.12387281265e-05	0.966731580279
1122.0	9.05231541981e-05	0.966822103433
1124.0	0.000106770899823	0.966928874333
1126.0	9.51653672339e-05	0.9670240397
1128.0	0.000104449793305	0.967128489494
1130.0	9.51653672339e-05	0.967223654861
1132.0	0.000106770899823	0.967330425761
1134.0	7.89176216086e-05	0.967409343382
1136.0	0.000102128686788	0.967511472069
1138.0	0.000109092006341	0.967620564075
1140.0	9.74864737518e-05	0.967718050549
1142.0	8.35598346444e-05	0.967801610384
1144.0	6.73120890191e-05	0.967868922473
1146.0	9.74864737518e-05	0.967966408946
1148.0	7.65965150907e-05	0.968043005462
1150.0	9.2844260716e-05	0.968135849722
1152.0	0.000106770899823	0.968242620622
1154.0	7.65965150907e-05	0.968319217137
1156.0	8.35598346444e-05	0.968402776972
1158.0	7.89176216086e-05	0.968481694593
1160.0	7.65965150907e-05	0.968558291109
1162.0	8.35598346444e-05	0.968641850943
1164.0	9.05231541981e-05	0.968732374097
1166.0	8.58809411623e-05	0.968818255039
1168.0	9.2844260716e-05	0.968911099299
1170.0	9.05231541981e-05	0.969001622453
1172.0	8.82020476802e-05	0.969089824501
1174.0	0.000111413112859	0.969201237614
1176.0	6.26698759833e-05	0.96926390749
1178.0	8.82020476802e-05	0.969352109538
1180.0	7.89176216086e-05	0.969431027159
1182.0	6.49909825012e-05	0.969496018142
1184.0	8.35598346444e-05	0.969579577976
1186.0	8.58809411623e-05	0.969665458918
1188.0	8.35598346444e-05	0.969749018752
1190.0	9.05231541981e-05	0.969839541906
1192.0	9.2844260716e-05	0.969932386167
1194.0	9.05231541981e-05	0.970022909321
1196.0	0.000102128686788	0.970125038008
1198.0	7.89176216086e-05	0.97020395563
1200.0	5.80276629475e-05	0.970261983293
1202.0	6.49909825012e-05	0.970326974275
1204.0	9.05231541981e-05	0.970417497429
1206.0	7.89176216086e-05	0.970496415051
1208.0	7.42754085728e-05	0.97057069046
1210.0	8.58809411623e-05	0.970656571401
1212.0	6.73120890191e-05	0.97072388349
1214.0	7.65965150907e-05	0.970800480005
1216.0	9.51653672339e-05	0.970895645372
1218.0	8.35598346444e-05	0.970979205207
1220.0	7.65965150907e-05	0.971055801722
1222.0	6.49909825012e-05	0.971120792704
1224.0	7.65965150907e-05	0.971197389219
1226.0	6.9633195537e-05	0.971267022415
1228.0	6.49909825012e-05	0.971332013397
1230.0	9.74864737518e-05	0.971429499871
1232.0	6.26698759833e-05	0.971492169747
1234.0	5.57065564296e-05	0.971547876304
1236.0	8.82020476802e-05	0.971636078351
1238.0	7.65965150907e-05	0.971712674866
1240.0	8.35598346444e-05	0.971796234701
1242.0	6.49909825012e-05	0.971861225684
1244.0	8.58809411623e-05	0.971947106625
1246.0	5.80276629475e-05	0.972005134288
1248.0	6.73120890191e-05	0.972072446377
1250.0	5.33854499117e-05	0.972125831827
1252.0	7.89176216086e-05	0.972204749448
1254.0	6.03487694654e-05	0.972265098218
1256.0	8.58809411623e-05	0.972350979159
1258.0	8.12387281265e-05	0.972432217887
1260.0	9.2844260716e-05	0.972525062148
1262.0	6.73120890191e-05	0.972592374237
1264.0	9.74864737518e-05	0.97268986071
1266.0	5.10643433938e-05	0.972740925054
1268.0	6.9633195537e-05	0.972810558249
1270.0	3.94588108043e-05	0.97285001706
1272.0	8.12387281265e-05	0.972931255788
1274.0	5.33854499117e-05	0.972984641238
1276.0	6.73120890191e-05	0.973051953327
1278.0	7.89176216086e-05	0.973130870949
1280.0	5.10643433938e-05	0.973181935292
1282.0	7.19543020549e-05	0.973253889594
1284.0	8.35598346444e-05	0.973337449429
1286.0	3.71377042864e-05	0.973374587133
1288.0	7.19543020549e-05	0.973446541435
1290.0	5.80276629475e-05	0.973504569098
1292.0	8.35598346444e-05	0.973588128933
1294.0	6.26698759833e-05	0.973650798809
1296.0	6.26698759833e-05	0.973713468685
1298.0	5.57065564296e-05	0.973769175241
1300.0	9.74864737518e-05	0.973866661715
1302.0	5.80276629475e-05	0.973924689378
1304.0	6.9633195537e-05	0.973994322573
1306.0	6.03487694654e-05	0.974054671343
1308.0	6.03487694654e-05	0.974115020112
1310.0	5.80276629475e-05	0.974173047775
1312.0	9.05231541981e-05	0.97426357093
1314.0	7.19543020549e-05	0.974335525232
1316.0	6.73120890191e-05	0.974402837321
1318.0	7.65965150907e-05	0.974479433836
1320.0	6.9633195537e-05	0.974549067031
1322.0	6.73120890191e-05	0.97461637912
1324.0	6.73120890191e-05	0.974683691209
1326.0	9.74864737518e-05	0.974781177683
1328.0	7.65965150907e-05	0.974857774198
1330.0	5.33854499117e-05	0.974911159648
1332.0	4.87432368759e-05	0.974959902885
1334.0	7.65965150907e-05	0.9750364994
1336.0	6.26698759833e-05	0.975099169276
1338.0	7.19543020549e-05	0.975171123578
1340.0	7.42754085728e-05	0.975245398987
1342.0	6.26698759833e-05	0.975308068863
1344.0	6.9633195537e-05	0.975377702058
1346.0	7.65965150907e-05	0.975454298573
1348.0	7.19543020549e-05	0.975526252875
1350.0	5.57065564296e-05	0.975581959432
1352.0	6.9633195537e-05	0.975651592627
1354.0	6.03487694654e-05	0.975711941397
1356.0	6.03487694654e-05	0.975772290166
1358.0	6.49909825012e-05	0.975837281149
1360.0	7.65965150907e-05	0.975913877664
1362.0	7.42754085728e-05	0.975988153072
1364.0	6.49909825012e-05	0.976053144055
1366.0	7.89176216086e-05	0.976132061676
1368.0	7.19543020549e-05	0.976204015978
1370.0	4.41010238401e-05	0.976248117002
1372.0	6.73120890191e-05	0.976315429091
1374.0	7.19543020549e-05	0.976387383393
1376.0	5.57065564296e-05	0.97644308995
1378.0	3.71377042864e-05	0.976480227654
1380.0	5.80276629475e-05	0.976538255317
1382.0	4.87432368759e-05	0.976586998554
1384.0	5.33854499117e-05	0.976640384004
1386.0	4.87432368759e-05	0.976689127241
1388.0	7.42754085728e-05	0.976763402649
1390.0	6.9633195537e-05	0.976833035845
1392.0	4.41010238401e-05	0.976877136869
1394.0	5.80276629475e-05	0.976935164532
1396.0	6.03487694654e-05	0.976995513301
1398.0	4.87432368759e-05	0.977044256538
1400.0	5.33854499117e-05	0.977097641988
1402.0	5.80276629475e-05	0.977155669651
1404.0	7.65965150907e-05	0.977232266166
1406.0	6.03487694654e-05	0.977292614935
1408.0	4.41010238401e-05	0.977336715959
1410.0	4.17799173222e-05	0.977378495877
1412.0	4.87432368759e-05	0.977427239113
1414.0	5.57065564296e-05	0.97748294567
1416.0	7.42754085728e-05	0.977557221078
1418.0	5.80276629475e-05	0.977615248741
1420.0	7.19543020549e-05	0.977687203043
1422.0	5.10643433938e-05	0.977738267387
1424.0	5.33854499117e-05	0.977791652837
1426.0	4.6422130358e-05	0.977838074967
1428.0	6.26698759833e-05	0.977900744843
1430.0	4.87432368759e-05	0.97794948808
1432.0	6.26698759833e-05	0.978012157956
1434.0	3.48165977685e-05	0.978046974554
1436.0	5.33854499117e-05	0.978100360004
1438.0	6.73120890191e-05	0.978167672093
1440.0	4.87432368759e-05	0.97821641533
1442.0	6.73120890191e-05	0.978283727419
1444.0	6.49909825012e-05	0.978348718401
1446.0	6.03487694654e-05	0.978409067171
1448.0	4.6422130358e-05	0.978455489301
1450.0	5.10643433938e-05	0.978506553644
1452.0	3.24954912506e-05	0.978539049136
1454.0	3.94588108043e-05	0.978578507946
1456.0	4.17799173222e-05	0.978620287864
1458.0	6.26698759833e-05	0.97868295774
1460.0	4.87432368759e-05	0.978731700976
1462.0	6.03487694654e-05	0.978792049746
1464.0	5.57065564296e-05	0.978847756302
1466.0	2.78532782148e-05	0.978875609581
1468.0	5.57065564296e-05	0.978931316137
1470.0	5.80276629475e-05	0.9789893438
1472.0	4.41010238401e-05	0.979033444824
1474.0	5.57065564296e-05	0.97908915138
1476.0	3.94588108043e-05	0.979128610191
1478.0	3.94588108043e-05	0.979168069002
1480.0	6.03487694654e-05	0.979228417771
1482.0	5.80276629475e-05	0.979286445434
1484.0	4.87432368759e-05	0.979335188671
1486.0	6.49909825012e-05	0.979400179654
1488.0	5.57065564296e-05	0.97945588621
1490.0	4.17799173222e-05	0.979497666127
1492.0	3.01743847327e-05	0.979527840512
1494.0	4.87432368759e-05	0.979576583749
1496.0	4.17799173222e-05	0.979618363666
1498.0	5.33854499117e-05	0.979671749116
1500.0	4.87432368759e-05	0.979720492353
1502.0	4.41010238401e-05	0.979764593377
1504.0	5.57065564296e-05	0.979820299933
1506.0	3.94588108043e-05	0.979859758744
1508.0	4.41010238401e-05	0.979903859768
1510.0	5.33854499117e-05	0.979957245218
1512.0	3.94588108043e-05	0.979996704029
1514.0	4.87432368759e-05	0.980045447266
1516.0	4.17799173222e-05	0.980087227183
1518.0	5.33854499117e-05	0.980140612633
1520.0	5.10643433938e-05	0.980191676976
1522.0	6.49909825012e-05	0.980256667959
1524.0	4.87432368759e-05	0.980305411196
1526.0	5.80276629475e-05	0.980363438859
1528.0	5.10643433938e-05	0.980414503202
1530.0	3.94588108043e-05	0.980453962013
1532.0	4.87432368759e-05	0.98050270525
1534.0	3.48165977685e-05	0.980537521847
1536.0	6.9633195537e-05	0.980607155043
1538.0	3.48165977685e-05	0.980641971641
1540.0	6.03487694654e-05	0.98070232041
1542.0	3.71377042864e-05	0.980739458114
1544.0	2.3211065179e-05	0.98076266918
1546.0	5.80276629475e-05	0.980820696843
1548.0	3.71377042864e-05	0.980857834547
1550.0	3.48165977685e-05	0.980892651145
1552.0	2.3211065179e-05	0.98091586221
1554.0	5.57065564296e-05	0.980971568766
1556.0	3.71377042864e-05	0.981008706471
1558.0	3.71377042864e-05	0.981045844175
1560.0	4.41010238401e-05	0.981089945199
1562.0	3.94588108043e-05	0.981129404009
1564.0	4.41010238401e-05	0.981173505033
1566.0	5.33854499117e-05	0.981226890483
1568.0	3.24954912506e-05	0.981259385974
1570.0	2.78532782148e-05	0.981287239253
1572.0	5.10643433938e-05	0.981338303596
1574.0	3.24954912506e-05	0.981370799087
1576.0	4.17799173222e-05	0.981412579005
1578.0	4.87432368759e-05	0.981461322242
1580.0	3.71377042864e-05	0.981498459946
1582.0	3.71377042864e-05	0.98153559765
1584.0	4.41010238401e-05	0.981579698674
1586.0	3.48165977685e-05	0.981614515272
1588.0	3.71377042864e-05	0.981651652976
1590.0	5.57065564296e-05	0.981707359532
1592.0	6.26698759833e-05	0.981770029408
1594.0	5.10643433938e-05	0.981821093752
1596.0	4.17799173222e-05	0.981862873669
1598.0	4.17799173222e-05	0.981904653586
1600.0	5.33854499117e-05	0.981958039036
1602.0	5.10643433938e-05	0.98200910338
1604.0	2.3211065179e-05	0.982032314445
1606.0	3.71377042864e-05	0.982069452149
1608.0	3.71377042864e-05	0.982106589854
1610.0	4.17799173222e-05	0.982148369771
1612.0	5.33854499117e-05	0.982201755221
1614.0	6.73120890191e-05	0.98226906731
1616.0	4.17799173222e-05	0.982310847227
1618.0	5.10643433938e-05	0.98236191157
1620.0	4.87432368759e-05	0.982410654807
1622.0	4.41010238401e-05	0.982454755831
1624.0	4.87432368759e-05	0.982503499068
1626.0	4.41010238401e-05	0.982547600092
1628.0	3.01743847327e-05	0.982577774477
1630.0	4.17799173222e-05	0.982619554394
1632.0	2.55321716969e-05	0.982645086566
1634.0	3.94588108043e-05	0.982684545376
1636.0	3.24954912506e-05	0.982717040868
1638.0	5.10643433938e-05	0.982768105211
1640.0	3.48165977685e-05	0.982802921809
1642.0	4.6422130358e-05	0.982849343939
1644.0	3.48165977685e-05	0.982884160537
1646.0	2.78532782148e-05	0.982912013815
1648.0	4.41010238401e-05	0.982956114839
1650.0	3.94588108043e-05	0.98299557365
1652.0	4.17799173222e-05	0.983037353567
1654.0	2.55321716969e-05	0.983062885739
1656.0	3.48165977685e-05	0.983097702337
1658.0	3.48165977685e-05	0.983132518934
1660.0	3.71377042864e-05	0.983169656639
1662.0	5.10643433938e-05	0.983220720982
1664.0	2.55321716969e-05	0.983246253154
1666.0	4.41010238401e-05	0.983290354178
1668.0	4.87432368759e-05	0.983339097415
1670.0	4.17799173222e-05	0.983380877332
1672.0	5.33854499117e-05	0.983434262782
1674.0	3.71377042864e-05	0.983471400486
1676.0	4.17799173222e-05	0.983513180403
1678.0	3.48165977685e-05	0.983547997001
1680.0	3.94588108043e-05	0.983587455812
1682.0	3.71377042864e-05	0.983624593516
1684.0	3.48165977685e-05	0.983659410114
1686.0	4.6422130358e-05	0.983705832244
1688.0	3.24954912506e-05	0.983738327736
1690.0	3.24954912506e-05	0.983770823227
1692.0	3.71377042864e-05	0.983807960931
1694.0	3.94588108043e-05	0.983847419742
1696.0	3.71377042864e-05	0.983884557446
1698.0	2.78532782148e-05	0.983912410724
1700.0	3.24954912506e-05	0.983944906216
1702.0	3.71377042864e-05	0.98398204392
1704.0	2.08899586611e-05	0.984002933879
1706.0	3.48165977685e-05	0.984037750476
1708.0	3.48165977685e-05	0.984072567074
1710.0	4.17799173222e-05	0.984114346991
1712.0	1.62477456253e-05	0.984130594737
1714.0	3.48165977685e-05	0.984165411335
1716.0	2.78532782148e-05	0.984193264613
1718.0	2.3211065179e-05	0.984216475678
1720.0	3.01743847327e-05	0.984246650063
1722.0	3.71377042864e-05	0.984283787767
1724.0	4.17799173222e-05	0.984325567685
1726.0	2.78532782148e-05	0.984353420963
1728.0	3.71377042864e-05	0.984390558667
1730.0	3.48165977685e-05	0.984425375265
1732.0	2.78532782148e-05	0.984453228543
1734.0	3.48165977685e-05	0.984488045141
1736.0	3.71377042864e-05	0.984525182845
1738.0	2.08899586611e-05	0.984546072804
1740.0	3.48165977685e-05	0.984580889402
1742.0	2.55321716969e-05	0.984606421573
1744.0	3.24954912506e-05	0.984638917065
1746.0	4.87432368759e-05	0.984687660301
1748.0	3.48165977685e-05	0.984722476899
1750.0	3.94588108043e-05	0.98476193571
1752.0	4.41010238401e-05	0.984806036734
1754.0	4.41010238401e-05	0.984850137758
1756.0	3.48165977685e-05	0.984884954355
1758.0	1.62477456253e-05	0.984901202101
1760.0	3.24954912506e-05	0.984933697592
1762.0	4.17799173222e-05	0.98497547751
1764.0	3.24954912506e-05	0.985007973001
1766.0	3.48165977685e-05	0.985042789599
1768.0	3.01743847327e-05	0.985072963983
1770.0	4.87432368759e-05	0.98512170722
1772.0	4.41010238401e-05	0.985165808244
1774.0	5.10643433938e-05	0.985216872587
1776.0	3.24954912506e-05	0.985249368079
1778.0	3.01743847327e-05	0.985279542463
1780.0	3.01743847327e-05	0.985309716848
1782.0	3.48165977685e-05	0.985344533446
1784.0	3.48165977685e-05	0.985379350044
1786.0	2.3211065179e-05	0.985402561109
1788.0	2.55321716969e-05	0.985428093281
1790.0	2.55321716969e-05	0.985453625452
1792.0	3.48165977685e-05	0.98548844205
1794.0	2.08899586611e-05	0.985509332009
1796.0	2.78532782148e-05	0.985537185287
1798.0	3.01743847327e-05	0.985567359672
1800.0	4.41010238401e-05	0.985611460696
1802.0	3.94588108043e-05	0.985650919506
1804.0	3.24954912506e-05	0.985683414998
1806.0	4.41010238401e-05	0.985727516021
1808.0	3.01743847327e-05	0.985757690406
1810.0	4.87432368759e-05	0.985806433643
1812.0	2.08899586611e-05	0.985827323602
1814.0	3.71377042864e-05	0.985864461306
1816.0	3.71377042864e-05	0.98590159901
1818.0	2.55321716969e-05	0.985927131182
1820.0	4.6422130358e-05	0.985973553312
1822.0	2.78532782148e-05	0.986001406591
1824.0	3.94588108043e-05	0.986040865401
1826.0	4.41010238401e-05	0.986084966425
1828.0	2.55321716969e-05	0.986110498597
1830.0	3.01743847327e-05	0.986140672982
1832.0	2.55321716969e-05	0.986166205153
1834.0	2.78532782148e-05	0.986194058432
1836.0	2.55321716969e-05	0.986219590603
1838.0	4.17799173222e-05	0.986261370521
1840.0	1.85688521432e-05	0.986279939373
1842.0	4.17799173222e-05	0.98632171929
1844.0	2.55321716969e-05	0.986347251462
1846.0	3.01743847327e-05	0.986377425846
1848.0	3.01743847327e-05	0.986407600231
1850.0	1.85688521432e-05	0.986426169083
1852.0	2.3211065179e-05	0.986449380149
1854.0	2.55321716969e-05	0.98647491232
1856.0	3.01743847327e-05	0.986505086705
1858.0	4.41010238401e-05	0.986549187729
1860.0	5.10643433938e-05	0.986600252072
1862.0	3.71377042864e-05	0.986637389776
1864.0	2.78532782148e-05	0.986665243055
1866.0	3.01743847327e-05	0.986695417439
1868.0	2.55321716969e-05	0.986720949611
1870.0	3.01743847327e-05	0.986751123996
1872.0	2.55321716969e-05	0.986776656168
1874.0	3.71377042864e-05	0.986813793872
1876.0	2.08899586611e-05	0.98683468383
1878.0	3.01743847327e-05	0.986864858215
1880.0	2.78532782148e-05	0.986892711493
1882.0	9.2844260716e-06	0.986901995919
1884.0	3.48165977685e-05	0.986936812517
1886.0	2.08899586611e-05	0.986957702476
1888.0	3.01743847327e-05	0.986987876861
1890.0	3.01743847327e-05	0.987018051245
1892.0	3.48165977685e-05	0.987052867843
1894.0	2.55321716969e-05	0.987078400015
1896.0	2.3211065179e-05	0.98710161108
1898.0	3.71377042864e-05	0.987138748784
1900.0	1.39266391074e-05	0.987152675423
1902.0	3.01743847327e-05	0.987182849808
1904.0	2.78532782148e-05	0.987210703086
1906.0	1.85688521432e-05	0.987229271939
1908.0	2.78532782148e-05	0.987257125217
1910.0	3.24954912506e-05	0.987289620708
1912.0	2.08899586611e-05	0.987310510667
1914.0	3.01743847327e-05	0.987340685051
1916.0	2.55321716969e-05	0.987366217223
1918.0	1.39266391074e-05	0.987380143862
1920.0	2.3211065179e-05	0.987403354927
1922.0	3.24954912506e-05	0.987435850419
1924.0	1.62477456253e-05	0.987452098164
1927.0	2.78532782148e-05	0.987479951442
1929.0	2.08899586611e-05	0.987500841401
1931.0	3.24954912506e-05	0.987533336892
1933.0	3.71377042864e-05	0.987570474597
1935.0	2.3211065179e-05	0.987593685662
1937.0	2.55321716969e-05	0.987619217834
1939.0	2.08899586611e-05	0.987640107792
1941.0	1.62477456253e-05	0.987656355538
1943.0	1.62477456253e-05	0.987672603283
1945.0	2.3211065179e-05	0.987695814349
1947.0	4.17799173222e-05	0.987737594266
1949.0	2.55321716969e-05	0.987763126438
1951.0	2.3211065179e-05	0.987786337503
1953.0	2.55321716969e-05	0.987811869675
1955.0	2.3211065179e-05	0.98783508074
1957.0	3.24954912506e-05	0.987867576231
1959.0	1.16055325895e-05	0.987879181764
1961.0	2.55321716969e-05	0.987904713935
1963.0	4.17799173222e-05	0.987946493853
1965.0	2.78532782148e-05	0.987974347131
1967.0	3.48165977685e-05	0.988009163729
1969.0	3.71377042864e-05	0.988046301433
1971.0	1.62477456253e-05	0.988062549178
1973.0	3.48165977685e-05	0.988097365776
1975.0	2.08899586611e-05	0.988118255735
1977.0	2.08899586611e-05	0.988139145694
1979.0	3.71377042864e-05	0.988176283398
1981.0	1.62477456253e-05	0.988192531143
1983.0	3.24954912506e-05	0.988225026635
1985.0	4.17799173222e-05	0.988266806552
1987.0	1.16055325895e-05	0.988278412085
1989.0	2.3211065179e-05	0.98830162315
1991.0	1.85688521432e-05	0.988320192002
1993.0	2.55321716969e-05	0.988345724174
1995.0	3.24954912506e-05	0.988378219665
1997.0	2.78532782148e-05	0.988406072943
1999.0	1.62477456253e-05	0.988422320689
2001.0	1.85688521432e-05	0.988440889541
2003.0	1.62477456253e-05	0.988457137286
2005.0	2.78532782148e-05	0.988484990565
2007.0	2.78532782148e-05	0.988512843843
2009.0	2.08899586611e-05	0.988533733802
2011.0	1.16055325895e-05	0.988545339334
2013.0	3.24954912506e-05	0.988577834825
2015.0	1.62477456253e-05	0.988594082571
2017.0	3.01743847327e-05	0.988624256956
2019.0	2.78532782148e-05	0.988652110234
2021.0	1.39266391074e-05	0.988666036873
2023.0	3.24954912506e-05	0.988698532364
2025.0	2.08899586611e-05	0.988719422323
2027.0	2.3211065179e-05	0.988742633388
2029.0	2.55321716969e-05	0.98876816556
2031.0	3.01743847327e-05	0.988798339945
2033.0	3.01743847327e-05	0.988828514329
2035.0	2.3211065179e-05	0.988851725395
2037.0	1.62477456253e-05	0.98886797314
2039.0	3.24954912506e-05	0.988900468631
2041.0	1.16055325895e-05	0.988912074164
2043.0	1.16055325895e-05	0.988923679697
2045.0	2.55321716969e-05	0.988949211868
2047.0	1.85688521432e-05	0.98896778072
2049.0	2.78532782148e-05	0.988995633999
2051.0	2.78532782148e-05	0.989023487277
2053.0	1.39266391074e-05	0.989037413916
2055.0	1.62477456253e-05	0.989053661662
2057.0	2.3211065179e-05	0.989076872727
2059.0	2.3211065179e-05	0.989100083792
2061.0	2.3211065179e-05	0.989123294857
2063.0	2.3211065179e-05	0.989146505922
2065.0	3.24954912506e-05	0.989179001414
2067.0	2.3211065179e-05	0.989202212479
2069.0	1.62477456253e-05	0.989218460224
2071.0	2.55321716969e-05	0.989243992396
2073.0	2.55321716969e-05	0.989269524568
2075.0	1.62477456253e-05	0.989285772313
2077.0	2.55321716969e-05	0.989311304485
2079.0	1.39266391074e-05	0.989325231124
2081.0	1.62477456253e-05	0.98934147887
2083.0	2.55321716969e-05	0.989367011042
2085.0	2.3211065179e-05	0.989390222107
2087.0	1.62477456253e-05	0.989406469852
2089.0	1.62477456253e-05	0.989422717598
2091.0	2.55321716969e-05	0.98944824977
2093.0	1.39266391074e-05	0.989462176409
2095.0	1.62477456253e-05	0.989478424154
2097.0	1.39266391074e-05	0.989492350793
2099.0	1.62477456253e-05	0.989508598539
2101.0	1.39266391074e-05	0.989522525178
2103.0	1.62477456253e-05	0.989538772924
2105.0	2.08899586611e-05	0.989559662882
2107.0	2.3211065179e-05	0.989582873948
2109.0	1.62477456253e-05	0.989599121693
2111.0	2.3211065179e-05	0.989622332758
2113.0	3.01743847327e-05	0.989652507143
2115.0	2.55321716969e-05	0.989678039315
2117.0	6.9633195537e-06	0.989685002634
2119.0	2.55321716969e-05	0.989710534806
2121.0	2.3211065179e-05	0.989733745871
2123.0	3.24954912506e-05	0.989766241363
2125.0	2.3211065179e-05	0.989789452428
2127.0	2.55321716969e-05	0.989814984599
2129.0	2.55321716969e-05	0.989840516771
2131.0	9.2844260716e-06	0.989849801197
2133.0	1.16055325895e-05	0.98986140673
2135.0	1.62477456253e-05	0.989877654475
2137.0	1.62477456253e-05	0.989893902221
2139.0	6.9633195537e-06	0.989900865541
2141.0	2.08899586611e-05	0.989921755499
2143.0	2.3211065179e-05	0.989944966564
2145.0	1.85688521432e-05	0.989963535417
2147.0	9.2844260716e-06	0.989972819843
2149.0	3.01743847327e-05	0.990002994227
2151.0	3.71377042864e-05	0.990040131932
2153.0	2.3211065179e-05	0.990063342997
2155.0	2.3211065179e-05	0.990086554062
2157.0	1.85688521432e-05	0.990105122914
2159.0	2.08899586611e-05	0.990126012873
2161.0	2.55321716969e-05	0.990151545045
2163.0	1.62477456253e-05	0.99016779279
2165.0	9.2844260716e-06	0.990177077216
2167.0	2.3211065179e-05	0.990200288281
2169.0	1.62477456253e-05	0.990216536027
2171.0	1.62477456253e-05	0.990232783773
2173.0	2.08899586611e-05	0.990253673731
2175.0	2.08899586611e-05	0.99027456369
2177.0	2.3211065179e-05	0.990297774755
2179.0	2.3211065179e-05	0.99032098582
2181.0	1.85688521432e-05	0.990339554673
2183.0	1.85688521432e-05	0.990358123525
2185.0	2.08899586611e-05	0.990379013483
2187.0	2.08899586611e-05	0.990399903442
2189.0	1.85688521432e-05	0.990418472294
2191.0	6.9633195537e-06	0.990425435614
2193.0	3.71377042864e-05	0.990462573318
2195.0	2.3211065179e-05	0.990485784383
2197.0	2.08899586611e-05	0.990506674342
2199.0	2.55321716969e-05	0.990532206513
2201.0	2.08899586611e-05	0.990553096472
2203.0	1.62477456253e-05	0.990569344218
2205.0	2.3211065179e-05	0.990592555283
2207.0	3.24954912506e-05	0.990625050774
2209.0	1.62477456253e-05	0.99064129852
2211.0	1.85688521432e-05	0.990659867372
2213.0	2.78532782148e-05	0.99068772065
2215.0	1.39266391074e-05	0.990701647289
2217.0	1.16055325895e-05	0.990713252822
2219.0	1.62477456253e-05	0.990729500568
2221.0	1.16055325895e-05	0.9907411061
2223.0	2.08899586611e-05	0.990761996059
2225.0	1.85688521432e-05	0.990780564911
2227.0	2.3211065179e-05	0.990803775976
2229.0	1.16055325895e-05	0.990815381509
2231.0	1.16055325895e-05	0.990826987041
2233.0	1.62477456253e-05	0.990843234787
2235.0	9.2844260716e-06	0.990852519213
2237.0	1.62477456253e-05	0.990868766959
2239.0	1.39266391074e-05	0.990882693598
2241.0	2.78532782148e-05	0.990910546876
2243.0	2.78532782148e-05	0.990938400154
2245.0	6.9633195537e-06	0.990945363474
2247.0	1.16055325895e-05	0.990956969006
2249.0	1.62477456253e-05	0.990973216752
2251.0	1.85688521432e-05	0.990991785604
2253.0	2.3211065179e-05	0.991014996669
2255.0	2.55321716969e-05	0.991040528841
2257.0	9.2844260716e-06	0.991049813267
2260.0	1.85688521432e-05	0.991068382119
2262.0	2.3211065179e-05	0.991091593184
2264.0	2.3211065179e-05	0.991114804249
2266.0	1.62477456253e-05	0.991131051995
2268.0	9.2844260716e-06	0.991140336421
2270.0	2.08899586611e-05	0.99116122638
2272.0	2.3211065179e-05	0.991184437445
2274.0	2.3211065179e-05	0.99120764851
2276.0	2.08899586611e-05	0.991228538469
2279.0	4.6422130358e-06	0.991233180682
2281.0	6.9633195537e-06	0.991240144001
2283.0	1.16055325895e-05	0.991251749534
2285.0	2.78532782148e-05	0.991279602812
2287.0	9.2844260716e-06	0.991288887238
2289.0	1.85688521432e-05	0.99130745609
2291.0	9.2844260716e-06	0.991316740517
2293.0	1.39266391074e-05	0.991330667156
2295.0	1.85688521432e-05	0.991349236008
2297.0	1.85688521432e-05	0.99136780486
2299.0	1.62477456253e-05	0.991384052606
2301.0	1.85688521432e-05	0.991402621458
2303.0	2.08899586611e-05	0.991423511416
2305.0	2.08899586611e-05	0.991444401375
2307.0	2.08899586611e-05	0.991465291334
2309.0	9.2844260716e-06	0.99147457576
2311.0	2.3211065179e-05	0.991497786825
2313.0	9.2844260716e-06	0.991507071251
2315.0	2.3211065179e-05	0.991530282316
2317.0	6.9633195537e-06	0.991537245636
2319.0	2.08899586611e-05	0.991558135594
2322.0	2.08899586611e-05	0.991579025553
2324.0	2.08899586611e-05	0.991599915512
2326.0	2.55321716969e-05	0.991625447683
2328.0	1.16055325895e-05	0.991637053216
2330.0	1.85688521432e-05	0.991655622068
2332.0	1.16055325895e-05	0.991667227601
2334.0	6.9633195537e-06	0.99167419092
2336.0	2.3211065179e-05	0.991697401985
2338.0	2.08899586611e-05	0.991718291944
2340.0	6.9633195537e-06	0.991725255264
2342.0	1.39266391074e-05	0.991739181903
2345.0	2.78532782148e-05	0.991767035181
2347.0	1.62477456253e-05	0.991783282927
2350.0	1.62477456253e-05	0.991799530672
2352.0	1.39266391074e-05	0.991813457311
2354.0	2.3211065179e-05	0.991836668377
2356.0	2.08899586611e-05	0.991857558335
2358.0	1.39266391074e-05	0.991871484974
2360.0	6.9633195537e-06	0.991878448294
2362.0	1.39266391074e-05	0.991892374933
2364.0	9.2844260716e-06	0.991901659359
2366.0	1.85688521432e-05	0.991920228211
2368.0	1.39266391074e-05	0.99193415485
2370.0	1.62477456253e-05	0.991950402596
2372.0	1.62477456253e-05	0.991966650342
2374.0	2.3211065179e-06	0.991968971448
2376.0	1.16055325895e-05	0.991980576981
2378.0	2.55321716969e-05	0.992006109152
2380.0	1.85688521432e-05	0.992024678004
2382.0	1.16055325895e-05	0.992036283537
2384.0	1.85688521432e-05	0.992054852389
2386.0	2.55321716969e-05	0.992080384561
2388.0	9.2844260716e-06	0.992089668987
2390.0	1.16055325895e-05	0.99210127452
2392.0	1.16055325895e-05	0.992112880052
2394.0	1.85688521432e-05	0.992131448904
2396.0	2.08899586611e-05	0.992152338863
2398.0	1.85688521432e-05	0.992170907715
2400.0	1.16055325895e-05	0.992182513248
2402.0	1.16055325895e-05	0.99219411878
2404.0	1.62477456253e-05	0.992210366526
2406.0	1.16055325895e-05	0.992221972059
2408.0	1.85688521432e-05	0.992240540911
2410.0	1.16055325895e-05	0.992252146443
2413.0	6.9633195537e-06	0.992259109763
2415.0	2.08899586611e-05	0.992279999721
2417.0	2.08899586611e-05	0.99230088968
2419.0	2.3211065179e-05	0.992324100745
2421.0	1.62477456253e-05	0.992340348491
2423.0	6.9633195537e-06	0.99234731181
2425.0	1.62477456253e-05	0.992363559556
2427.0	2.3211065179e-05	0.992386770621
2429.0	1.39266391074e-05	0.99240069726
2431.0	4.6422130358e-06	0.992405339473
2433.0	2.55321716969e-05	0.992430871645
2435.0	1.39266391074e-05	0.992444798284
2437.0	1.62477456253e-05	0.99246104603
2439.0	9.2844260716e-06	0.992470330456
2441.0	1.39266391074e-05	0.992484257095
2443.0	9.2844260716e-06	0.992493541521
2445.0	1.39266391074e-05	0.99250746816
2448.0	1.39266391074e-05	0.992521394799
2450.0	6.9633195537e-06	0.992528358119
2453.0	1.16055325895e-05	0.992539963651
2455.0	1.16055325895e-05	0.992551569184
2457.0	1.39266391074e-05	0.992565495823
2459.0	9.2844260716e-06	0.992574780249
2461.0	1.85688521432e-05	0.992593349101
2463.0	9.2844260716e-06	0.992602633527
2465.0	1.16055325895e-05	0.99261423906
2467.0	1.39266391074e-05	0.992628165699
2469.0	1.16055325895e-05	0.992639771232
2471.0	1.39266391074e-05	0.992653697871
2473.0	1.85688521432e-05	0.992672266723
2475.0	1.62477456253e-05	0.992688514469
2477.0	1.39266391074e-05	0.992702441108
2479.0	1.16055325895e-05	0.99271404664
2481.0	2.78532782148e-05	0.992741899919
2483.0	1.62477456253e-05	0.992758147664
2485.0	9.2844260716e-06	0.99276743209
2487.0	1.62477456253e-05	0.992783679836
2489.0	1.85688521432e-05	0.992802248688
2491.0	9.2844260716e-06	0.992811533114
2493.0	1.39266391074e-05	0.992825459753
2495.0	1.85688521432e-05	0.992844028605
2497.0	9.2844260716e-06	0.992853313031
2499.0	1.16055325895e-05	0.992864918564
2501.0	4.6422130358e-06	0.992869560777
2503.0	9.2844260716e-06	0.992878845203
2505.0	6.9633195537e-06	0.992885808523
2507.0	1.39266391074e-05	0.992899735162
2509.0	2.3211065179e-05	0.992922946227
2511.0	1.16055325895e-05	0.99293455176
2513.0	2.08899586611e-05	0.992955441718
2515.0	9.2844260716e-06	0.992964726144
2517.0	1.62477456253e-05	0.99298097389
2519.0	4.6422130358e-06	0.992985616103
2521.0	1.85688521432e-05	0.993004184955
2523.0	1.16055325895e-05	0.993015790488
2525.0	1.85688521432e-05	0.99303435934
2527.0	1.39266391074e-05	0.993048285979
2529.0	4.6422130358e-06	0.993052928192
2531.0	1.62477456253e-05	0.993069175938
2533.0	9.2844260716e-06	0.993078460364
2535.0	2.08899586611e-05	0.993099350322
2537.0	9.2844260716e-06	0.993108634748
2540.0	1.85688521432e-05	0.993127203601
2543.0	2.3211065179e-05	0.993150414666
2545.0	1.39266391074e-05	0.993164341305
2547.0	9.2844260716e-06	0.993173625731
2549.0	1.16055325895e-05	0.993185231263
2551.0	1.62477456253e-05	0.993201479009
2553.0	1.16055325895e-05	0.993213084542
2555.0	1.85688521432e-05	0.993231653394
2557.0	1.85688521432e-05	0.993250222246
2559.0	6.9633195537e-06	0.993257185566
2561.0	1.16055325895e-05	0.993268791098
2563.0	1.39266391074e-05	0.993282717737
2566.0	2.3211065179e-05	0.993305928802
2568.0	6.9633195537e-06	0.993312892122
2570.0	4.6422130358e-06	0.993317534335
2572.0	1.39266391074e-05	0.993331460974
2574.0	1.16055325895e-05	0.993343066507
2576.0	9.2844260716e-06	0.993352350933
2578.0	1.62477456253e-05	0.993368598678
2580.0	6.9633195537e-06	0.993375561998
2582.0	6.9633195537e-06	0.993382525317
2584.0	1.85688521432e-05	0.99340109417
2586.0	1.62477456253e-05	0.993417341915
2588.0	1.39266391074e-05	0.993431268554
2590.0	2.3211065179e-05	0.99345447962
2592.0	4.6422130358e-06	0.993459121833
2594.0	6.9633195537e-06	0.993466085152
2596.0	4.6422130358e-06	0.993470727365
2598.0	1.39266391074e-05	0.993484654004
2600.0	2.3211065179e-06	0.993486975111
2602.0	1.62477456253e-05	0.993503222856
2604.0	2.78532782148e-05	0.993531076135
2606.0	1.16055325895e-05	0.993542681667
2608.0	1.62477456253e-05	0.993558929413
2610.0	9.2844260716e-06	0.993568213839
2612.0	9.2844260716e-06	0.993577498265
2614.0	2.08899586611e-05	0.993598388224
2616.0	9.2844260716e-06	0.99360767265
2618.0	4.6422130358e-06	0.993612314863
2620.0	2.3211065179e-05	0.993635525928
2622.0	6.9633195537e-06	0.993642489247
2624.0	2.08899586611e-05	0.993663379206
2626.0	1.39266391074e-05	0.993677305845
2628.0	1.39266391074e-05	0.993691232484
2631.0	9.2844260716e-06	0.99370051691
2633.0	6.9633195537e-06	0.99370748023
2635.0	1.16055325895e-05	0.993719085763
2637.0	1.16055325895e-05	0.993730691295
2639.0	1.16055325895e-05	0.993742296828
2643.0	1.62477456253e-05	0.993758544573
2645.0	1.16055325895e-05	0.993770150106
2647.0	2.3211065179e-05	0.993793361171
2649.0	1.39266391074e-05	0.99380728781
2651.0	6.9633195537e-06	0.99381425113
2653.0	1.16055325895e-05	0.993825856662
2655.0	1.39266391074e-05	0.993839783301
2657.0	1.62477456253e-05	0.993856031047
2659.0	9.2844260716e-06	0.993865315473
2663.0	9.2844260716e-06	0.993874599899
2665.0	4.6422130358e-06	0.993879242112
2667.0	1.16055325895e-05	0.993890847645
2669.0	1.39266391074e-05	0.993904774284
2671.0	4.6422130358e-06	0.993909416497
2673.0	1.16055325895e-05	0.99392102203
2675.0	1.85688521432e-05	0.993939590882
2677.0	2.3211065179e-05	0.993962801947
2679.0	9.2844260716e-06	0.993972086373
2681.0	1.16055325895e-05	0.993983691906
2683.0	1.62477456253e-05	0.993999939651
2685.0	6.9633195537e-06	0.994006902971
2687.0	6.9633195537e-06	0.99401386629
2689.0	6.9633195537e-06	0.99402082961
2691.0	1.16055325895e-05	0.994032435142
2693.0	1.16055325895e-05	0.994044040675
2695.0	9.2844260716e-06	0.994053325101
2697.0	9.2844260716e-06	0.994062609527
2699.0	2.3211065179e-06	0.994064930634
2701.0	9.2844260716e-06	0.99407421506
2703.0	1.16055325895e-05	0.994085820592
2705.0	9.2844260716e-06	0.994095105018
2707.0	9.2844260716e-06	0.994104389445
2709.0	2.3211065179e-05	0.99412760051
2711.0	1.39266391074e-05	0.994141527149
2713.0	1.62477456253e-05	0.994157774894
2715.0	1.85688521432e-05	0.994176343747
2717.0	1.39266391074e-05	0.994190270386
2719.0	6.9633195537e-06	0.994197233705
2721.0	4.6422130358e-06	0.994201875918
2723.0	1.85688521432e-05	0.99422044477
2725.0	1.62477456253e-05	0.994236692516
2727.0	6.9633195537e-06	0.994243655836
2729.0	1.85688521432e-05	0.994262224688
2731.0	1.62477456253e-05	0.994278472433
2733.0	1.62477456253e-05	0.994294720179
2735.0	2.3211065179e-06	0.994297041286
2737.0	6.9633195537e-06	0.994304004605
2739.0	6.9633195537e-06	0.994310967925
2741.0	1.16055325895e-05	0.994322573457
2743.0	6.9633195537e-06	0.994329536777
2746.0	1.16055325895e-05	0.994341142309
2748.0	1.85688521432e-05	0.994359711162
2750.0	1.62477456253e-05	0.994375958907
2752.0	6.9633195537e-06	0.994382922227
2754.0	1.16055325895e-05	0.994394527759
2756.0	1.62477456253e-05	0.994410775505
2758.0	1.16055325895e-05	0.994422381037
2760.0	2.3211065179e-06	0.994424702144
2762.0	4.6422130358e-06	0.994429344357
2764.0	1.39266391074e-05	0.994443270996
2766.0	1.16055325895e-05	0.994454876529
2768.0	1.16055325895e-05	0.994466482061
2770.0	9.2844260716e-06	0.994475766487
2772.0	1.39266391074e-05	0.994489693127
2775.0	9.2844260716e-06	0.994498977553
2777.0	6.9633195537e-06	0.994505940872
2779.0	6.9633195537e-06	0.994512904192
2781.0	1.62477456253e-05	0.994529151937
2783.0	9.2844260716e-06	0.994538436363
2785.0	9.2844260716e-06	0.994547720789
2788.0	9.2844260716e-06	0.994557005216
2790.0	1.16055325895e-05	0.994568610748
2792.0	1.16055325895e-05	0.994580216281
2794.0	1.39266391074e-05	0.99459414292
2796.0	1.39266391074e-05	0.994608069559
2798.0	1.16055325895e-05	0.994619675092
2800.0	1.16055325895e-05	0.994631280624
2802.0	1.85688521432e-05	0.994649849476
2804.0	9.2844260716e-06	0.994659133902
2807.0	9.2844260716e-06	0.994668418328
2810.0	9.2844260716e-06	0.994677702754
2812.0	1.16055325895e-05	0.994689308287
2814.0	1.39266391074e-05	0.994703234926
2816.0	6.9633195537e-06	0.994710198246
2820.0	1.62477456253e-05	0.994726445991
2822.0	4.6422130358e-06	0.994731088204
2825.0	2.3211065179e-06	0.994733409311
2827.0	9.2844260716e-06	0.994742693737
2830.0	6.9633195537e-06	0.994749657057
2832.0	9.2844260716e-06	0.994758941483
2834.0	4.6422130358e-06	0.994763583696
2837.0	9.2844260716e-06	0.994772868122
2839.0	4.6422130358e-06	0.994777510335
2841.0	4.6422130358e-06	0.994782152548
2843.0	1.62477456253e-05	0.994798400293
2845.0	1.62477456253e-05	0.994814648039
2848.0	4.6422130358e-06	0.994819290252
2850.0	1.39266391074e-05	0.994833216891
2852.0	2.3211065179e-06	0.994835537998
2854.0	1.39266391074e-05	0.994849464637
2856.0	1.16055325895e-05	0.994861070169
2858.0	2.3211065179e-06	0.994863391276
2860.0	1.85688521432e-05	0.994881960128
2862.0	6.9633195537e-06	0.994888923448
2864.0	1.85688521432e-05	0.9949074923
2866.0	9.2844260716e-06	0.994916776726
2868.0	6.9633195537e-06	0.994923740045
2870.0	1.16055325895e-05	0.994935345578
2872.0	1.16055325895e-05	0.994946951111
2874.0	6.9633195537e-06	0.99495391443
2876.0	2.3211065179e-06	0.994956235537
2878.0	9.2844260716e-06	0.994965519963
2880.0	9.2844260716e-06	0.994974804389
2882.0	4.6422130358e-06	0.994979446602
2884.0	9.2844260716e-06	0.994988731028
2887.0	1.39266391074e-05	0.995002657667
2889.0	9.2844260716e-06	0.995011942093
2892.0	4.6422130358e-06	0.995016584306
2894.0	9.2844260716e-06	0.995025868732
2896.0	1.39266391074e-05	0.995039795371
2898.0	6.9633195537e-06	0.995046758691
2900.0	1.62477456253e-05	0.995063006436
2902.0	1.16055325895e-05	0.995074611969
2905.0	9.2844260716e-06	0.995083896395
2907.0	1.16055325895e-05	0.995095501928
2911.0	2.3211065179e-06	0.995097823034
2913.0	4.6422130358e-06	0.995102465247
2915.0	1.39266391074e-05	0.995116391886
2917.0	6.9633195537e-06	0.995123355206
2919.0	9.2844260716e-06	0.995132639632
2921.0	6.9633195537e-06	0.995139602952
2923.0	9.2844260716e-06	0.995148887378
2925.0	1.16055325895e-05	0.99516049291
2928.0	1.16055325895e-05	0.995172098443
2930.0	4.6422130358e-06	0.995176740656
2933.0	1.39266391074e-05	0.995190667295
2936.0	1.16055325895e-05	0.995202272828
2938.0	1.39266391074e-05	0.995216199467
2941.0	9.2844260716e-06	0.995225483893
2943.0	4.6422130358e-06	0.995230126106
2945.0	1.62477456253e-05	0.995246373851
2947.0	6.9633195537e-06	0.995253337171
2949.0	4.6422130358e-06	0.995257979384
2951.0	1.16055325895e-05	0.995269584917
2953.0	1.85688521432e-05	0.995288153769
2955.0	4.6422130358e-06	0.995292795982
2959.0	4.6422130358e-06	0.995297438195
2961.0	4.6422130358e-06	0.995302080408
2963.0	1.62477456253e-05	0.995318328153
2965.0	1.16055325895e-05	0.995329933686
2967.0	4.6422130358e-06	0.995334575899
2969.0	1.39266391074e-05	0.995348502538
2971.0	1.16055325895e-05	0.995360108071
2973.0	6.9633195537e-06	0.99536707139
2976.0	4.6422130358e-06	0.995371713603
2978.0	9.2844260716e-06	0.995380998029
2980.0	4.6422130358e-06	0.995385640242
2982.0	1.16055325895e-05	0.995397245775
2984.0	6.9633195537e-06	0.995404209095
2986.0	1.16055325895e-05	0.995415814627
2988.0	4.6422130358e-06	0.99542045684
2992.0	1.39266391074e-05	0.995434383479
2994.0	1.39266391074e-05	0.995448310118
2996.0	4.6422130358e-06	0.995452952331
2998.0	2.3211065179e-06	0.995455273438
3000.0	2.3211065179e-06	0.995457594544
3002.0	9.2844260716e-06	0.995466878971
3004.0	6.9633195537e-06	0.99547384229
3006.0	1.62477456253e-05	0.995490090036
3008.0	2.3211065179e-06	0.995492411142
3011.0	9.2844260716e-06	0.995501695568
3013.0	4.6422130358e-06	0.995506337781
3015.0	1.16055325895e-05	0.995517943314
3017.0	1.39266391074e-05	0.995531869953
3019.0	1.16055325895e-05	0.995543475486
3021.0	1.39266391074e-05	0.995557402125
3023.0	1.39266391074e-05	0.995571328764
3026.0	6.9633195537e-06	0.995578292083
3029.0	6.9633195537e-06	0.995585255403
3031.0	1.16055325895e-05	0.995596860936
3033.0	4.6422130358e-06	0.995601503149
3035.0	9.2844260716e-06	0.995610787575
3037.0	1.39266391074e-05	0.995624714214
3039.0	9.2844260716e-06	0.99563399864
3042.0	1.16055325895e-05	0.995645604172
3045.0	2.08899586611e-05	0.995666494131
3047.0	6.9633195537e-06	0.995673457451
3049.0	9.2844260716e-06	0.995682741877
3051.0	1.39266391074e-05	0.995696668516
3053.0	1.16055325895e-05	0.995708274048
3055.0	9.2844260716e-06	0.995717558474
3057.0	4.6422130358e-06	0.995722200688
3059.0	4.6422130358e-06	0.995726842901
3061.0	2.08899586611e-05	0.995747732859
3065.0	4.6422130358e-06	0.995752375072
3067.0	1.39266391074e-05	0.995766301711
3069.0	9.2844260716e-06	0.995775586137
3072.0	6.9633195537e-06	0.995782549457
3074.0	4.6422130358e-06	0.99578719167
3076.0	6.9633195537e-06	0.99579415499
3078.0	2.3211065179e-06	0.995796476096
3080.0	1.39266391074e-05	0.995810402735
3082.0	1.16055325895e-05	0.995822008268
3085.0	1.16055325895e-05	0.9958336138
3087.0	1.39266391074e-05	0.995847540439
3089.0	9.2844260716e-06	0.995856824866
3091.0	6.9633195537e-06	0.995863788185
3093.0	1.39266391074e-05	0.995877714824
3095.0	1.39266391074e-05	0.995891641463
3097.0	6.9633195537e-06	0.995898604783
3099.0	9.2844260716e-06	0.995907889209
3101.0	6.9633195537e-06	0.995914852528
3103.0	6.9633195537e-06	0.995921815848
3105.0	4.6422130358e-06	0.995926458061
3107.0	6.9633195537e-06	0.995933421381
3109.0	6.9633195537e-06	0.9959403847
3112.0	2.3211065179e-06	0.995942705807
3114.0	1.16055325895e-05	0.995954311339
3116.0	4.6422130358e-06	0.995958953552
3118.0	1.62477456253e-05	0.995975201298
3120.0	2.3211065179e-06	0.995977522404
3124.0	4.6422130358e-06	0.995982164618
3126.0	1.16055325895e-05	0.99599377015
3128.0	9.2844260716e-06	0.996003054576
3130.0	2.3211065179e-06	0.996005375683
3133.0	6.9633195537e-06	0.996012339002
3135.0	2.3211065179e-06	0.996014660109
3137.0	4.6422130358e-06	0.996019302322
3139.0	6.9633195537e-06	0.996026265641
3141.0	9.2844260716e-06	0.996035550067
3144.0	4.6422130358e-06	0.99604019228
3147.0	2.3211065179e-06	0.996042513387
3149.0	4.6422130358e-06	0.9960471556
3151.0	6.9633195537e-06	0.99605411892
3153.0	6.9633195537e-06	0.996061082239
3155.0	4.6422130358e-06	0.996065724452
3158.0	6.9633195537e-06	0.996072687772
3160.0	6.9633195537e-06	0.996079651091
3162.0	2.3211065179e-06	0.996081972198
3164.0	9.2844260716e-06	0.996091256624
3166.0	1.16055325895e-05	0.996102862156
3169.0	4.6422130358e-06	0.996107504369
3171.0	9.2844260716e-06	0.996116788796
3174.0	1.16055325895e-05	0.996128394328
3176.0	9.2844260716e-06	0.996137678754
3179.0	4.6422130358e-06	0.996142320967
3181.0	4.6422130358e-06	0.99614696318
3183.0	6.9633195537e-06	0.9961539265
3185.0	6.9633195537e-06	0.996160889819
3188.0	6.9633195537e-06	0.996167853139
3190.0	6.9633195537e-06	0.996174816459
3192.0	4.6422130358e-06	0.996179458672
3194.0	1.39266391074e-05	0.996193385311
3196.0	9.2844260716e-06	0.996202669737
3198.0	2.3211065179e-06	0.996204990843
3202.0	4.6422130358e-06	0.996209633056
3204.0	6.9633195537e-06	0.996216596376
3206.0	1.16055325895e-05	0.996228201908
3208.0	1.62477456253e-05	0.996244449654
3210.0	9.2844260716e-06	0.99625373408
3214.0	4.6422130358e-06	0.996258376293
3218.0	1.16055325895e-05	0.996269981826
3221.0	1.16055325895e-05	0.996281587358
3223.0	4.6422130358e-06	0.996286229571
3226.0	6.9633195537e-06	0.996293192891
3228.0	2.3211065179e-06	0.996295513997
3230.0	6.9633195537e-06	0.996302477317
3233.0	4.6422130358e-06	0.99630711953
3235.0	4.6422130358e-06	0.996311761743
3237.0	9.2844260716e-06	0.996321046169
3241.0	4.6422130358e-06	0.996325688382
3246.0	6.9633195537e-06	0.996332651702
3249.0	9.2844260716e-06	0.996341936128
3251.0	6.9633195537e-06	0.996348899447
3255.0	2.3211065179e-06	0.996351220554
3259.0	1.16055325895e-05	0.996362826086
3261.0	6.9633195537e-06	0.996369789406
3266.0	9.2844260716e-06	0.996379073832
3268.0	4.6422130358e-06	0.996383716045
3272.0	1.39266391074e-05	0.996397642684
3275.0	2.3211065179e-06	0.996399963791
3277.0	6.9633195537e-06	0.99640692711
3279.0	6.9633195537e-06	0.99641389043
3281.0	6.9633195537e-06	0.996420853749
3283.0	6.9633195537e-06	0.996427817069
3285.0	2.3211065179e-06	0.996430138175
3287.0	6.9633195537e-06	0.996437101495
3289.0	2.3211065179e-06	0.996439422602
3291.0	1.16055325895e-05	0.996451028134
3296.0	1.39266391074e-05	0.996464954773
3298.0	9.2844260716e-06	0.996474239199
3300.0	4.6422130358e-06	0.996478881412
3302.0	4.6422130358e-06	0.996483523625
3305.0	4.6422130358e-06	0.996488165838
3307.0	9.2844260716e-06	0.996497450264
3310.0	9.2844260716e-06	0.996506734691
3312.0	6.9633195537e-06	0.99651369801
3314.0	4.6422130358e-06	0.996518340223
3317.0	2.3211065179e-06	0.99652066133
3319.0	6.9633195537e-06	0.996527624649
3321.0	6.9633195537e-06	0.996534587969
3323.0	9.2844260716e-06	0.996543872395
3326.0	9.2844260716e-06	0.996553156821
3328.0	4.6422130358e-06	0.996557799034
3330.0	9.2844260716e-06	0.99656708346
3333.0	6.9633195537e-06	0.99657404678
3335.0	4.6422130358e-06	0.996578688993
3338.0	4.6422130358e-06	0.996583331206
3340.0	9.2844260716e-06	0.996592615632
3347.0	9.2844260716e-06	0.996601900058
3353.0	9.2844260716e-06	0.996611184484
3356.0	9.2844260716e-06	0.99662046891
3358.0	9.2844260716e-06	0.996629753336
3360.0	9.2844260716e-06	0.996639037762
3363.0	6.9633195537e-06	0.996646001082
3367.0	6.9633195537e-06	0.996652964401
3369.0	4.6422130358e-06	0.996657606614
3371.0	9.2844260716e-06	0.99666689104
3374.0	6.9633195537e-06	0.99667385436
3377.0	2.3211065179e-06	0.996676175466
3379.0	6.9633195537e-06	0.996683138786
3381.0	4.6422130358e-06	0.996687780999
3383.0	9.2844260716e-06	0.996697065425
3386.0	6.9633195537e-06	0.996704028745
3389.0	4.6422130358e-06	0.996708670958
3391.0	6.9633195537e-06	0.996715634277
3393.0	2.3211065179e-06	0.996717955384
3395.0	6.9633195537e-06	0.996724918703
3397.0	6.9633195537e-06	0.996731882023
3399.0	1.39266391074e-05	0.996745808662
3403.0	9.2844260716e-06	0.996755093088
3405.0	2.3211065179e-06	0.996757414194
3407.0	9.2844260716e-06	0.996766698621
3410.0	2.3211065179e-06	0.996769019727
3414.0	9.2844260716e-06	0.996778304153
3417.0	6.9633195537e-06	0.996785267473
3420.0	1.16055325895e-05	0.996796873005
3422.0	2.3211065179e-06	0.996799194112
3424.0	1.85688521432e-05	0.996817762964
3426.0	2.3211065179e-06	0.99682008407
3428.0	4.6422130358e-06	0.996824726284
3432.0	6.9633195537e-06	0.996831689603
3434.0	4.6422130358e-06	0.996836331816
3437.0	6.9633195537e-06	0.996843295136
3439.0	4.6422130358e-06	0.996847937349
3441.0	4.6422130358e-06	0.996852579562
3444.0	4.6422130358e-06	0.996857221775
3447.0	4.6422130358e-06	0.996861863988
3454.0	4.6422130358e-06	0.996866506201
3456.0	6.9633195537e-06	0.99687346952
3459.0	4.6422130358e-06	0.996878111733
3461.0	2.3211065179e-06	0.99688043284
3465.0	2.3211065179e-06	0.996882753946
3468.0	6.9633195537e-06	0.996889717266
3470.0	6.9633195537e-06	0.996896680586
3472.0	1.62477456253e-05	0.996912928331
3475.0	4.6422130358e-06	0.996917570544
3479.0	9.2844260716e-06	0.99692685497
3481.0	6.9633195537e-06	0.99693381829
3484.0	2.3211065179e-06	0.996936139396
3487.0	4.6422130358e-06	0.996940781609
3489.0	6.9633195537e-06	0.996947744929
3491.0	4.6422130358e-06	0.996952387142
3497.0	9.2844260716e-06	0.996961671568
3500.0	2.3211065179e-06	0.996963992675
3502.0	6.9633195537e-06	0.996970955994
3506.0	4.6422130358e-06	0.996975598207
3508.0	2.3211065179e-06	0.996977919314
3510.0	2.3211065179e-06	0.99698024042
3514.0	6.9633195537e-06	0.99698720374
3517.0	1.16055325895e-05	0.996998809272
3519.0	2.3211065179e-06	0.997001130379
3522.0	6.9633195537e-06	0.997008093698
3525.0	6.9633195537e-06	0.997015057018
3528.0	4.6422130358e-06	0.997019699231
3530.0	9.2844260716e-06	0.997028983657
3532.0	6.9633195537e-06	0.997035946977
3534.0	6.9633195537e-06	0.997042910296
3536.0	4.6422130358e-06	0.997047552509
3540.0	9.2844260716e-06	0.997056836935
3542.0	6.9633195537e-06	0.997063800255
3544.0	1.16055325895e-05	0.997075405787
3546.0	6.9633195537e-06	0.997082369107
3552.0	9.2844260716e-06	0.997091653533
3556.0	4.6422130358e-06	0.997096295746
3558.0	6.9633195537e-06	0.997103259066
3562.0	6.9633195537e-06	0.997110222385
3564.0	4.6422130358e-06	0.997114864598
3567.0	4.6422130358e-06	0.997119506811
3570.0	2.3211065179e-06	0.997121827918
3572.0	2.3211065179e-06	0.997124149024
3576.0	4.6422130358e-06	0.997128791237
3578.0	6.9633195537e-06	0.997135754557
3580.0	2.3211065179e-06	0.997138075663
3583.0	9.2844260716e-06	0.99714736009
3585.0	6.9633195537e-06	0.997154323409
3587.0	1.16055325895e-05	0.997165928942
3589.0	2.3211065179e-06	0.997168250048
3592.0	2.3211065179e-06	0.997170571155
3594.0	6.9633195537e-06	0.997177534474
3596.0	2.3211065179e-06	0.997179855581
3598.0	4.6422130358e-06	0.997184497794
3600.0	4.6422130358e-06	0.997189140007
3602.0	2.3211065179e-06	0.997191461113
3604.0	6.9633195537e-06	0.997198424433
3607.0	4.6422130358e-06	0.997203066646
3610.0	2.3211065179e-06	0.997205387752
3612.0	6.9633195537e-06	0.997212351072
3614.0	4.6422130358e-06	0.997216993285
3616.0	6.9633195537e-06	0.997223956605
3618.0	4.6422130358e-06	0.997228598818
3624.0	6.9633195537e-06	0.997235562137
3626.0	2.3211065179e-06	0.997237883244
3628.0	6.9633195537e-06	0.997244846563
3630.0	4.6422130358e-06	0.997249488776
3632.0	1.62477456253e-05	0.997265736522
3634.0	6.9633195537e-06	0.997272699841
3636.0	4.6422130358e-06	0.997277342055
3639.0	6.9633195537e-06	0.997284305374
3641.0	4.6422130358e-06	0.997288947587
3643.0	9.2844260716e-06	0.997298232013
3645.0	9.2844260716e-06	0.997307516439
3647.0	4.6422130358e-06	0.997312158652
3649.0	9.2844260716e-06	0.997321443078
3651.0	4.6422130358e-06	0.997326085291
3653.0	9.2844260716e-06	0.997335369717
3659.0	1.39266391074e-05	0.997349296357
3661.0	6.9633195537e-06	0.997356259676
3663.0	4.6422130358e-06	0.997360901889
3667.0	6.9633195537e-06	0.997367865209
3673.0	4.6422130358e-06	0.997372507422
3675.0	6.9633195537e-06	0.997379470741
3677.0	4.6422130358e-06	0.997384112954
3679.0	4.6422130358e-06	0.997388755167
3683.0	2.3211065179e-06	0.997391076274
3687.0	4.6422130358e-06	0.997395718487
3689.0	4.6422130358e-06	0.9974003607
3696.0	4.6422130358e-06	0.997405002913
3699.0	2.3211065179e-06	0.99740732402
3701.0	4.6422130358e-06	0.997411966233
3703.0	6.9633195537e-06	0.997418929552
3705.0	2.3211065179e-06	0.997421250659
3707.0	9.2844260716e-06	0.997430535085
3709.0	6.9633195537e-06	0.997437498404
3713.0	2.3211065179e-06	0.997439819511
3715.0	2.3211065179e-06	0.997442140617
3718.0	4.6422130358e-06	0.99744678283
3720.0	2.3211065179e-06	0.997449103937
3724.0	2.3211065179e-06	0.997451425043
3726.0	6.9633195537e-06	0.997458388363
3728.0	4.6422130358e-06	0.997463030576
3730.0	4.6422130358e-06	0.997467672789
3733.0	6.9633195537e-06	0.997474636109
3735.0	1.16055325895e-05	0.997486241641
3737.0	4.6422130358e-06	0.997490883854
3739.0	2.3211065179e-06	0.997493204961
3742.0	6.9633195537e-06	0.99750016828
3744.0	6.9633195537e-06	0.9975071316
3749.0	4.6422130358e-06	0.997511773813
3752.0	2.3211065179e-06	0.997514094919
3754.0	9.2844260716e-06	0.997523379345
3761.0	4.6422130358e-06	0.997528021558
3763.0	6.9633195537e-06	0.997534984878
3771.0	4.6422130358e-06	0.997539627091
3774.0	2.3211065179e-06	0.997541948198
3776.0	2.3211065179e-06	0.997544269304
3778.0	4.6422130358e-06	0.997548911517
3780.0	9.2844260716e-06	0.997558195943
3782.0	4.6422130358e-06	0.997562838156
3784.0	9.2844260716e-06	0.997572122582
3786.0	2.3211065179e-06	0.997574443689
3788.0	4.6422130358e-06	0.997579085902
3792.0	2.3211065179e-06	0.997581407008
3795.0	4.6422130358e-06	0.997586049221
3798.0	9.2844260716e-06	0.997595333647
3801.0	2.3211065179e-06	0.997597654754
3803.0	2.3211065179e-06	0.99759997586
3805.0	9.2844260716e-06	0.997609260287
3809.0	4.6422130358e-06	0.9976139025
3811.0	6.9633195537e-06	0.997620865819
3815.0	2.3211065179e-06	0.997623186926
3817.0	9.2844260716e-06	0.997632471352
3819.0	2.3211065179e-06	0.997634792458
3821.0	1.16055325895e-05	0.997646397991
3825.0	4.6422130358e-06	0.997651040204
3827.0	2.3211065179e-06	0.99765336131
3834.0	4.6422130358e-06	0.997658003523
3836.0	2.3211065179e-06	0.99766032463
3838.0	9.2844260716e-06	0.997669609056
3841.0	1.16055325895e-05	0.997681214589
3843.0	6.9633195537e-06	0.997688177908
3847.0	4.6422130358e-06	0.997692820121
3850.0	4.6422130358e-06	0.997697462334
3856.0	4.6422130358e-06	0.997702104547
3861.0	2.3211065179e-06	0.997704425654
3863.0	4.6422130358e-06	0.997709067867
3865.0	4.6422130358e-06	0.99771371008
3867.0	4.6422130358e-06	0.997718352293
3870.0	2.3211065179e-06	0.997720673399
3872.0	9.2844260716e-06	0.997729957825
3875.0	2.3211065179e-06	0.997732278932
3877.0	6.9633195537e-06	0.997739242252
3879.0	4.6422130358e-06	0.997743884465
3881.0	4.6422130358e-06	0.997748526678
3884.0	4.6422130358e-06	0.997753168891
3886.0	2.3211065179e-06	0.997755489997
3889.0	9.2844260716e-06	0.997764774423
3891.0	2.3211065179e-06	0.99776709553
3893.0	4.6422130358e-06	0.997771737743
3895.0	6.9633195537e-06	0.997778701062
3897.0	6.9633195537e-06	0.997785664382
3899.0	6.9633195537e-06	0.997792627701
3902.0	4.6422130358e-06	0.997797269915
3906.0	2.3211065179e-06	0.997799591021
3908.0	4.6422130358e-06	0.997804233234
3910.0	2.3211065179e-06	0.997806554341
3912.0	9.2844260716e-06	0.997815838767
3914.0	2.3211065179e-06	0.997818159873
3916.0	2.3211065179e-06	0.99782048098
3918.0	4.6422130358e-06	0.997825123193
3921.0	2.3211065179e-06	0.997827444299
3923.0	4.6422130358e-06	0.997832086512
3925.0	6.9633195537e-06	0.997839049832
3928.0	4.6422130358e-06	0.997843692045
3931.0	4.6422130358e-06	0.997848334258
3933.0	2.3211065179e-06	0.997850655364
3935.0	2.3211065179e-06	0.997852976471
3937.0	2.3211065179e-06	0.997855297577
3940.0	2.3211065179e-06	0.997857618684
3944.0	4.6422130358e-06	0.997862260897
3946.0	4.6422130358e-06	0.99786690311
3951.0	2.3211065179e-06	0.997869224217
3953.0	4.6422130358e-06	0.99787386643
3956.0	2.3211065179e-06	0.997876187536
3960.0	2.3211065179e-06	0.997878508643
3967.0	2.3211065179e-06	0.997880829749
3969.0	2.3211065179e-06	0.997883150856
3971.0	4.6422130358e-06	0.997887793069
3976.0	4.6422130358e-06	0.997892435282
3979.0	6.9633195537e-06	0.997899398601
3984.0	2.3211065179e-06	0.997901719708
3989.0	4.6422130358e-06	0.997906361921
3992.0	2.3211065179e-06	0.997908683027
3999.0	2.3211065179e-06	0.997911004134
4003.0	4.6422130358e-06	0.997915646347
4006.0	4.6422130358e-06	0.99792028856
4008.0	6.9633195537e-06	0.99792725188
4010.0	2.3211065179e-06	0.997929572986
4014.0	4.6422130358e-06	0.997934215199
4016.0	2.3211065179e-06	0.997936536306
4021.0	2.3211065179e-06	0.997938857412
4026.0	2.3211065179e-06	0.997941178519
4028.0	9.2844260716e-06	0.997950462945
4032.0	2.3211065179e-06	0.997952784051
4034.0	2.3211065179e-06	0.997955105158
4036.0	2.3211065179e-06	0.997957426264
4038.0	2.3211065179e-06	0.997959747371
4040.0	4.6422130358e-06	0.997964389584
4043.0	6.9633195537e-06	0.997971352903
4048.0	2.3211065179e-06	0.99797367401
4050.0	2.3211065179e-06	0.997975995116
4054.0	2.3211065179e-06	0.997978316223
4056.0	2.3211065179e-06	0.997980637329
4061.0	6.9633195537e-06	0.997987600649
4063.0	4.6422130358e-06	0.997992242862
4069.0	6.9633195537e-06	0.997999206182
4072.0	4.6422130358e-06	0.998003848395
4074.0	2.3211065179e-06	0.998006169501
4079.0	6.9633195537e-06	0.998013132821
4082.0	2.3211065179e-06	0.998015453927
4087.0	4.6422130358e-06	0.99802009614
4089.0	2.3211065179e-06	0.998022417247
4091.0	6.9633195537e-06	0.998029380566
4093.0	4.6422130358e-06	0.998034022779
4096.0	2.3211065179e-06	0.998036343886
4098.0	6.9633195537e-06	0.998043307205
4101.0	9.2844260716e-06	0.998052591631
4106.0	2.3211065179e-06	0.998054912738
4110.0	6.9633195537e-06	0.998061876058
4113.0	4.6422130358e-06	0.998066518271
4115.0	4.6422130358e-06	0.998071160484
4120.0	2.3211065179e-06	0.99807348159
4123.0	2.3211065179e-06	0.998075802697
4125.0	9.2844260716e-06	0.998085087123
4129.0	6.9633195537e-06	0.998092050442
4136.0	2.3211065179e-06	0.998094371549
4140.0	6.9633195537e-06	0.998101334868
4144.0	2.3211065179e-06	0.998103655975
4146.0	2.3211065179e-06	0.998105977081
4150.0	2.3211065179e-06	0.998108298188
4159.0	4.6422130358e-06	0.998112940401
4162.0	2.3211065179e-06	0.998115261507
4164.0	2.3211065179e-06	0.998117582614
4166.0	4.6422130358e-06	0.998122224827
4168.0	2.3211065179e-06	0.998124545934
4175.0	9.2844260716e-06	0.99813383036
4177.0	2.3211065179e-06	0.998136151466
4179.0	2.3211065179e-06	0.998138472573
4181.0	2.3211065179e-06	0.998140793679
4184.0	9.2844260716e-06	0.998150078105
4187.0	4.6422130358e-06	0.998154720318
4191.0	2.3211065179e-06	0.998157041425
4196.0	2.3211065179e-06	0.998159362531
4199.0	6.9633195537e-06	0.998166325851
4207.0	4.6422130358e-06	0.998170968064
4209.0	2.3211065179e-06	0.99817328917
4211.0	2.3211065179e-06	0.998175610277
4216.0	6.9633195537e-06	0.998182573596
4223.0	2.3211065179e-06	0.998184894703
4229.0	2.3211065179e-06	0.99818721581
4232.0	6.9633195537e-06	0.998194179129
4240.0	2.3211065179e-06	0.998196500236
4242.0	4.6422130358e-06	0.998201142449
4244.0	2.3211065179e-06	0.998203463555
4246.0	2.3211065179e-06	0.998205784662
4248.0	2.3211065179e-06	0.998208105768
4260.0	2.3211065179e-06	0.998210426875
4263.0	4.6422130358e-06	0.998215069088
4266.0	4.6422130358e-06	0.998219711301
4268.0	4.6422130358e-06	0.998224353514
4271.0	4.6422130358e-06	0.998228995727
4273.0	2.3211065179e-06	0.998231316833
4276.0	2.3211065179e-06	0.99823363794
4287.0	6.9633195537e-06	0.998240601259
4289.0	2.3211065179e-06	0.998242922366
4295.0	2.3211065179e-06	0.998245243472
4298.0	6.9633195537e-06	0.998252206792
4300.0	4.6422130358e-06	0.998256849005
4302.0	4.6422130358e-06	0.998261491218
4305.0	4.6422130358e-06	0.998266133431
4307.0	2.3211065179e-06	0.998268454538
4317.0	2.3211065179e-06	0.998270775644
4319.0	2.3211065179e-06	0.998273096751
4323.0	2.3211065179e-06	0.998275417857
4327.0	2.3211065179e-06	0.998277738964
4329.0	2.3211065179e-06	0.99828006007
4331.0	6.9633195537e-06	0.99828702339
4333.0	2.3211065179e-06	0.998289344496
4338.0	4.6422130358e-06	0.998293986709
4341.0	6.9633195537e-06	0.998300950029
4343.0	6.9633195537e-06	0.998307913348
4346.0	6.9633195537e-06	0.998314876668
4348.0	4.6422130358e-06	0.998319518881
4350.0	2.3211065179e-06	0.998321839988
4352.0	4.6422130358e-06	0.998326482201
4359.0	2.3211065179e-06	0.998328803307
4362.0	6.9633195537e-06	0.998335766627
4365.0	4.6422130358e-06	0.99834040884
4369.0	6.9633195537e-06	0.998347372159
4371.0	2.3211065179e-06	0.998349693266
4376.0	9.2844260716e-06	0.998358977692
4380.0	4.6422130358e-06	0.998363619905
4382.0	2.3211065179e-06	0.998365941011
4386.0	2.3211065179e-06	0.998368262118
4391.0	2.3211065179e-06	0.998370583224
4393.0	4.6422130358e-06	0.998375225437
4395.0	6.9633195537e-06	0.998382188757
4400.0	4.6422130358e-06	0.99838683097
4404.0	2.3211065179e-06	0.998389152077
4408.0	2.3211065179e-06	0.998391473183
4413.0	2.3211065179e-06	0.99839379429
4416.0	2.3211065179e-06	0.998396115396
4418.0	2.3211065179e-06	0.998398436503
4423.0	2.3211065179e-06	0.998400757609
4425.0	4.6422130358e-06	0.998405399822
4432.0	2.3211065179e-06	0.998407720929
4437.0	4.6422130358e-06	0.998412363142
4442.0	4.6422130358e-06	0.998417005355
4448.0	2.3211065179e-06	0.998419326461
4451.0	2.3211065179e-06	0.998421647568
4453.0	4.6422130358e-06	0.998426289781
4457.0	2.3211065179e-06	0.998428610887
4460.0	2.3211065179e-06	0.998430931994
4463.0	2.3211065179e-06	0.9984332531
4466.0	2.3211065179e-06	0.998435574207
4472.0	6.9633195537e-06	0.998442537526
4474.0	6.9633195537e-06	0.998449500846
4476.0	2.3211065179e-06	0.998451821953
4481.0	2.3211065179e-06	0.998454143059
4486.0	4.6422130358e-06	0.998458785272
4492.0	2.3211065179e-06	0.998461106379
4499.0	2.3211065179e-06	0.998463427485
4503.0	2.3211065179e-06	0.998465748592
4510.0	6.9633195537e-06	0.998472711911
4513.0	2.3211065179e-06	0.998475033018
4523.0	4.6422130358e-06	0.998479675231
4526.0	4.6422130358e-06	0.998484317444
4532.0	4.6422130358e-06	0.998488959657
4537.0	2.3211065179e-06	0.998491280763
4539.0	4.6422130358e-06	0.998495922976
4544.0	2.3211065179e-06	0.998498244083
4548.0	6.9633195537e-06	0.998505207402
4551.0	4.6422130358e-06	0.998509849616
4559.0	4.6422130358e-06	0.998514491829
4561.0	6.9633195537e-06	0.998521455148
4563.0	4.6422130358e-06	0.998526097361
4567.0	2.3211065179e-06	0.998528418468
4573.0	2.3211065179e-06	0.998530739574
4578.0	2.3211065179e-06	0.998533060681
4582.0	9.2844260716e-06	0.998542345107
4584.0	2.3211065179e-06	0.998544666213
4587.0	9.2844260716e-06	0.998553950639
4591.0	4.6422130358e-06	0.998558592852
4600.0	6.9633195537e-06	0.998565556172
4604.0	2.3211065179e-06	0.998567877278
4607.0	4.6422130358e-06	0.998572519491
4609.0	2.3211065179e-06	0.998574840598
4612.0	2.3211065179e-06	0.998577161705
4614.0	4.6422130358e-06	0.998581803918
4620.0	2.3211065179e-06	0.998584125024
4624.0	4.6422130358e-06	0.998588767237
4628.0	2.3211065179e-06	0.998591088344
4635.0	2.3211065179e-06	0.99859340945
4641.0	9.2844260716e-06	0.998602693876
4645.0	2.3211065179e-06	0.998605014983
4648.0	2.3211065179e-06	0.998607336089
4658.0	4.6422130358e-06	0.998611978302
4663.0	2.3211065179e-06	0.998614299409
4665.0	2.3211065179e-06	0.998616620515
4673.0	2.3211065179e-06	0.998618941622
4676.0	2.3211065179e-06	0.998621262728
4679.0	6.9633195537e-06	0.998628226048
4683.0	2.3211065179e-06	0.998630547154
4689.0	2.3211065179e-06	0.998632868261
4692.0	2.3211065179e-06	0.998635189367
4694.0	4.6422130358e-06	0.998639831581
4696.0	2.3211065179e-06	0.998642152687
4699.0	2.3211065179e-06	0.998644473794
4704.0	2.3211065179e-06	0.9986467949
4706.0	2.3211065179e-06	0.998649116007
4710.0	2.3211065179e-06	0.998651437113
4712.0	4.6422130358e-06	0.998656079326
4719.0	2.3211065179e-06	0.998658400433
4721.0	4.6422130358e-06	0.998663042646
4723.0	2.3211065179e-06	0.998665363752
4725.0	2.3211065179e-06	0.998667684859
4728.0	4.6422130358e-06	0.998672327072
4732.0	2.3211065179e-06	0.998674648178
4737.0	4.6422130358e-06	0.998679290391
4743.0	4.6422130358e-06	0.998683932604
4746.0	6.9633195537e-06	0.998690895924
4748.0	2.3211065179e-06	0.99869321703
4750.0	4.6422130358e-06	0.998697859243
4753.0	2.3211065179e-06	0.99870018035
4758.0	4.6422130358e-06	0.998704822563
4761.0	2.3211065179e-06	0.99870714367
4778.0	4.6422130358e-06	0.998711785883
4780.0	4.6422130358e-06	0.998716428096
4785.0	2.3211065179e-06	0.998718749202
4791.0	2.3211065179e-06	0.998721070309
4796.0	2.3211065179e-06	0.998723391415
4798.0	4.6422130358e-06	0.998728033628
4801.0	2.3211065179e-06	0.998730354735
4803.0	6.9633195537e-06	0.998737318054
4813.0	2.3211065179e-06	0.998739639161
4816.0	6.9633195537e-06	0.99874660248
4821.0	2.3211065179e-06	0.998748923587
4823.0	2.3211065179e-06	0.998751244693
4831.0	2.3211065179e-06	0.9987535658
4835.0	6.9633195537e-06	0.998760529119
4837.0	4.6422130358e-06	0.998765171332
4842.0	4.6422130358e-06	0.998769813546
4848.0	2.3211065179e-06	0.998772134652
4852.0	2.3211065179e-06	0.998774455759
4855.0	2.3211065179e-06	0.998776776865
4857.0	2.3211065179e-06	0.998779097972
4893.0	4.6422130358e-06	0.998783740185
4897.0	4.6422130358e-06	0.998788382398
4906.0	4.6422130358e-06	0.998793024611
4908.0	4.6422130358e-06	0.998797666824
4910.0	2.3211065179e-06	0.99879998793
4912.0	6.9633195537e-06	0.99880695125
4914.0	6.9633195537e-06	0.998813914569
4921.0	2.3211065179e-06	0.998816235676
4928.0	2.3211065179e-06	0.998818556782
4933.0	2.3211065179e-06	0.998820877889
4942.0	2.3211065179e-06	0.998823198995
4945.0	4.6422130358e-06	0.998827841208
4954.0	2.3211065179e-06	0.998830162315
4960.0	2.3211065179e-06	0.998832483421
4965.0	2.3211065179e-06	0.998834804528
4971.0	4.6422130358e-06	0.998839446741
4974.0	2.3211065179e-06	0.998841767848
4988.0	2.3211065179e-06	0.998844088954
4991.0	2.3211065179e-06	0.998846410061
4994.0	4.6422130358e-06	0.998851052274
4997.0	6.9633195537e-06	0.998858015593
5001.0	2.3211065179e-06	0.9988603367
5003.0	4.6422130358e-06	0.998864978913
5005.0	2.3211065179e-06	0.998867300019
5014.0	6.9633195537e-06	0.998874263339
5016.0	6.9633195537e-06	0.998881226658
5023.0	2.3211065179e-06	0.998883547765
5026.0	4.6422130358e-06	0.998888189978
5029.0	4.6422130358e-06	0.998892832191
5035.0	2.3211065179e-06	0.998895153297
5041.0	2.3211065179e-06	0.998897474404
5043.0	2.3211065179e-06	0.998899795511
5045.0	2.3211065179e-06	0.998902116617
5052.0	2.3211065179e-06	0.998904437724
5063.0	4.6422130358e-06	0.998909079937
5066.0	2.3211065179e-06	0.998911401043
5068.0	4.6422130358e-06	0.998916043256
5070.0	2.3211065179e-06	0.998918364363
5072.0	4.6422130358e-06	0.998923006576
5087.0	4.6422130358e-06	0.998927648789
5090.0	2.3211065179e-06	0.998929969895
5092.0	4.6422130358e-06	0.998934612108
5094.0	2.3211065179e-06	0.998936933215
5096.0	2.3211065179e-06	0.998939254321
5105.0	2.3211065179e-06	0.998941575428
5107.0	2.3211065179e-06	0.998943896534
5110.0	2.3211065179e-06	0.998946217641
5128.0	2.3211065179e-06	0.998948538747
5130.0	2.3211065179e-06	0.998950859854
5138.0	2.3211065179e-06	0.99895318096
5143.0	4.6422130358e-06	0.998957823173
5146.0	2.3211065179e-06	0.99896014428
5157.0	2.3211065179e-06	0.998962465386
5162.0	2.3211065179e-06	0.998964786493
5168.0	2.3211065179e-06	0.9989671076
5173.0	2.3211065179e-06	0.998969428706
5176.0	4.6422130358e-06	0.998974070919
5178.0	4.6422130358e-06	0.998978713132
5183.0	6.9633195537e-06	0.998985676452
5187.0	2.3211065179e-06	0.998987997558
5190.0	4.6422130358e-06	0.998992639771
5193.0	6.9633195537e-06	0.998999603091
5198.0	2.3211065179e-06	0.999001924197
5201.0	4.6422130358e-06	0.99900656641
5211.0	4.6422130358e-06	0.999011208623
5225.0	4.6422130358e-06	0.999015850836
5235.0	2.3211065179e-06	0.999018171943
5237.0	4.6422130358e-06	0.999022814156
5240.0	2.3211065179e-06	0.999025135262
5248.0	2.3211065179e-06	0.999027456369
5258.0	4.6422130358e-06	0.999032098582
5262.0	2.3211065179e-06	0.999034419689
5265.0	4.6422130358e-06	0.999039061902
5273.0	4.6422130358e-06	0.999043704115
5275.0	2.3211065179e-06	0.999046025221
5283.0	2.3211065179e-06	0.999048346328
5291.0	2.3211065179e-06	0.999050667434
5295.0	4.6422130358e-06	0.999055309647
5302.0	2.3211065179e-06	0.999057630754
5311.0	2.3211065179e-06	0.99905995186
5314.0	2.3211065179e-06	0.999062272967
5316.0	2.3211065179e-06	0.999064594073
5318.0	4.6422130358e-06	0.999069236286
5321.0	2.3211065179e-06	0.999071557393
5325.0	2.3211065179e-06	0.999073878499
5329.0	2.3211065179e-06	0.999076199606
5331.0	4.6422130358e-06	0.999080841819
5344.0	2.3211065179e-06	0.999083162925
5349.0	2.3211065179e-06	0.999085484032
5352.0	2.3211065179e-06	0.999087805138
5359.0	4.6422130358e-06	0.999092447352
5372.0	2.3211065179e-06	0.999094768458
5379.0	2.3211065179e-06	0.999097089565
5382.0	2.3211065179e-06	0.999099410671
5384.0	2.3211065179e-06	0.999101731778
5390.0	2.3211065179e-06	0.999104052884
5399.0	2.3211065179e-06	0.999106373991
5410.0	4.6422130358e-06	0.999111016204
5420.0	2.3211065179e-06	0.99911333731
5429.0	2.3211065179e-06	0.999115658417
5431.0	2.3211065179e-06	0.999117979523
5435.0	4.6422130358e-06	0.999122621736
5437.0	2.3211065179e-06	0.999124942843
5447.0	2.3211065179e-06	0.999127263949
5452.0	2.3211065179e-06	0.999129585056
5455.0	2.3211065179e-06	0.999131906162
5460.0	4.6422130358e-06	0.999136548375
5464.0	4.6422130358e-06	0.999141190588
5476.0	4.6422130358e-06	0.999145832801
5478.0	4.6422130358e-06	0.999150475014
5481.0	2.3211065179e-06	0.999152796121
5483.0	2.3211065179e-06	0.999155117227
5488.0	2.3211065179e-06	0.999157438334
5504.0	2.3211065179e-06	0.999159759441
5511.0	2.3211065179e-06	0.999162080547
5522.0	2.3211065179e-06	0.999164401654
5525.0	2.3211065179e-06	0.99916672276
5527.0	2.3211065179e-06	0.999169043867
5529.0	2.3211065179e-06	0.999171364973
5535.0	6.9633195537e-06	0.999178328293
5547.0	2.3211065179e-06	0.999180649399
5552.0	2.3211065179e-06	0.999182970506
5562.0	4.6422130358e-06	0.999187612719
5568.0	2.3211065179e-06	0.999189933825
5571.0	2.3211065179e-06	0.999192254932
5581.0	4.6422130358e-06	0.999196897145
5592.0	2.3211065179e-06	0.999199218251
5605.0	2.3211065179e-06	0.999201539358
5608.0	2.3211065179e-06	0.999203860464
5613.0	2.3211065179e-06	0.999206181571
5616.0	2.3211065179e-06	0.999208502677
5620.0	4.6422130358e-06	0.99921314489
5622.0	2.3211065179e-06	0.999215465997
5626.0	2.3211065179e-06	0.999217787103
5646.0	4.6422130358e-06	0.999222429317
5653.0	2.3211065179e-06	0.999224750423
5665.0	2.3211065179e-06	0.99922707153
5669.0	2.3211065179e-06	0.999229392636
5674.0	4.6422130358e-06	0.999234034849
5677.0	2.3211065179e-06	0.999236355956
5681.0	4.6422130358e-06	0.999240998169
5686.0	2.3211065179e-06	0.999243319275
5689.0	4.6422130358e-06	0.999247961488
5695.0	2.3211065179e-06	0.999250282595
5697.0	2.3211065179e-06	0.999252603701
5701.0	2.3211065179e-06	0.999254924808
5709.0	2.3211065179e-06	0.999257245914
5735.0	2.3211065179e-06	0.999259567021
5749.0	6.9633195537e-06	0.99926653034
5754.0	2.3211065179e-06	0.999268851447
5756.0	2.3211065179e-06	0.999271172553
5764.0	2.3211065179e-06	0.99927349366
5766.0	2.3211065179e-06	0.999275814766
5776.0	2.3211065179e-06	0.999278135873
5778.0	2.3211065179e-06	0.999280456979
5780.0	2.3211065179e-06	0.999282778086
5789.0	4.6422130358e-06	0.999287420299
5798.0	4.6422130358e-06	0.999292062512
5805.0	4.6422130358e-06	0.999296704725
5823.0	2.3211065179e-06	0.999299025832
5832.0	2.3211065179e-06	0.999301346938
5834.0	2.3211065179e-06	0.999303668045
5836.0	4.6422130358e-06	0.999308310258
5838.0	2.3211065179e-06	0.999310631364
5854.0	2.3211065179e-06	0.999312952471
5862.0	2.3211065179e-06	0.999315273577
5880.0	4.6422130358e-06	0.99931991579
5885.0	4.6422130358e-06	0.999324558003
5889.0	2.3211065179e-06	0.99932687911
5892.0	4.6422130358e-06	0.999331521323
5897.0	2.3211065179e-06	0.999333842429
5899.0	2.3211065179e-06	0.999336163536
5909.0	4.6422130358e-06	0.999340805749
5912.0	2.3211065179e-06	0.999343126855
5919.0	4.6422130358e-06	0.999347769068
5936.0	2.3211065179e-06	0.999350090175
5941.0	2.3211065179e-06	0.999352411282
5948.0	2.3211065179e-06	0.999354732388
5954.0	2.3211065179e-06	0.999357053495
5964.0	4.6422130358e-06	0.999361695708
5979.0	2.3211065179e-06	0.999364016814
5994.0	2.3211065179e-06	0.999366337921
6011.0	2.3211065179e-06	0.999368659027
6013.0	2.3211065179e-06	0.999370980134
6023.0	2.3211065179e-06	0.99937330124
6041.0	2.3211065179e-06	0.999375622347
6052.0	2.3211065179e-06	0.999377943453
6059.0	4.6422130358e-06	0.999382585666
6075.0	4.6422130358e-06	0.999387227879
6083.0	2.3211065179e-06	0.999389548986
6098.0	4.6422130358e-06	0.999394191199
6111.0	2.3211065179e-06	0.999396512305
6122.0	2.3211065179e-06	0.999398833412
6135.0	2.3211065179e-06	0.999401154518
6141.0	4.6422130358e-06	0.999405796731
6159.0	2.3211065179e-06	0.999408117838
6165.0	2.3211065179e-06	0.999410438944
6194.0	2.3211065179e-06	0.999412760051
6200.0	2.3211065179e-06	0.999415081157
6206.0	2.3211065179e-06	0.999417402264
6210.0	2.3211065179e-06	0.999419723371
6213.0	2.3211065179e-06	0.999422044477
6216.0	2.3211065179e-06	0.999424365584
6219.0	2.3211065179e-06	0.99942668669
6228.0	2.3211065179e-06	0.999429007797
6244.0	2.3211065179e-06	0.999431328903
6252.0	4.6422130358e-06	0.999435971116
6264.0	2.3211065179e-06	0.999438292223
6301.0	4.6422130358e-06	0.999442934436
6310.0	2.3211065179e-06	0.999445255542
6323.0	2.3211065179e-06	0.999447576649
6345.0	2.3211065179e-06	0.999449897755
6349.0	2.3211065179e-06	0.999452218862
6353.0	2.3211065179e-06	0.999454539968
6362.0	4.6422130358e-06	0.999459182181
6366.0	2.3211065179e-06	0.999461503288
6389.0	2.3211065179e-06	0.999463824394
6392.0	2.3211065179e-06	0.999466145501
6397.0	4.6422130358e-06	0.999470787714
6420.0	2.3211065179e-06	0.99947310882
6437.0	4.6422130358e-06	0.999477751033
6440.0	2.3211065179e-06	0.99948007214
6453.0	2.3211065179e-06	0.999482393247
6456.0	2.3211065179e-06	0.999484714353
6462.0	2.3211065179e-06	0.99948703546
6472.0	2.3211065179e-06	0.999489356566
6484.0	4.6422130358e-06	0.999493998779
6496.0	2.3211065179e-06	0.999496319886
6509.0	2.3211065179e-06	0.999498640992
6520.0	4.6422130358e-06	0.999503283205
6522.0	2.3211065179e-06	0.999505604312
6533.0	6.9633195537e-06	0.999512567631
6536.0	2.3211065179e-06	0.999514888738
6559.0	4.6422130358e-06	0.999519530951
6570.0	2.3211065179e-06	0.999521852057
6574.0	4.6422130358e-06	0.99952649427
6577.0	2.3211065179e-06	0.999528815377
6582.0	2.3211065179e-06	0.999531136483
6587.0	2.3211065179e-06	0.99953345759
6597.0	2.3211065179e-06	0.999535778696
6599.0	2.3211065179e-06	0.999538099803
6601.0	2.3211065179e-06	0.999540420909
6611.0	2.3211065179e-06	0.999542742016
6621.0	2.3211065179e-06	0.999545063122
6657.0	2.3211065179e-06	0.999547384229
6666.0	2.3211065179e-06	0.999549705336
6713.0	4.6422130358e-06	0.999554347549
6735.0	2.3211065179e-06	0.999556668655
6738.0	2.3211065179e-06	0.999558989762
6749.0	2.3211065179e-06	0.999561310868
6758.0	2.3211065179e-06	0.999563631975
6784.0	2.3211065179e-06	0.999565953081
6795.0	2.3211065179e-06	0.999568274188
6798.0	2.3211065179e-06	0.999570595294
6801.0	4.6422130358e-06	0.999575237507
6816.0	2.3211065179e-06	0.999577558614
6827.0	2.3211065179e-06	0.99957987972
6854.0	2.3211065179e-06	0.999582200827
6865.0	2.3211065179e-06	0.999584521933
6868.0	2.3211065179e-06	0.99958684304
6872.0	2.3211065179e-06	0.999589164146
6876.0	2.3211065179e-06	0.999591485253
6888.0	2.3211065179e-06	0.999593806359
6902.0	6.9633195537e-06	0.999600769679
6908.0	4.6422130358e-06	0.999605411892
6924.0	4.6422130358e-06	0.999610054105
6959.0	2.3211065179e-06	0.999612375212
6968.0	2.3211065179e-06	0.999614696318
6987.0	2.3211065179e-06	0.999617017425
7001.0	2.3211065179e-06	0.999619338531
7009.0	2.3211065179e-06	0.999621659638
7011.0	4.6422130358e-06	0.999626301851
7048.0	2.3211065179e-06	0.999628622957
7094.0	2.3211065179e-06	0.999630944064
7098.0	2.3211065179e-06	0.99963326517
7103.0	2.3211065179e-06	0.999635586277
7125.0	2.3211065179e-06	0.999637907383
7138.0	2.3211065179e-06	0.99964022849
7153.0	2.3211065179e-06	0.999642549596
7156.0	2.3211065179e-06	0.999644870703
7168.0	2.3211065179e-06	0.999647191809
7174.0	2.3211065179e-06	0.999649512916
7177.0	2.3211065179e-06	0.999651834022
7179.0	2.3211065179e-06	0.999654155129
7191.0	2.3211065179e-06	0.999656476235
7200.0	2.3211065179e-06	0.999658797342
7202.0	2.3211065179e-06	0.999661118448
7225.0	2.3211065179e-06	0.999663439555
7247.0	2.3211065179e-06	0.999665760661
7258.0	4.6422130358e-06	0.999670402874
7267.0	2.3211065179e-06	0.999672723981
7305.0	2.3211065179e-06	0.999675045087
7330.0	2.3211065179e-06	0.999677366194
7336.0	2.3211065179e-06	0.999679687301
7356.0	2.3211065179e-06	0.999682008407
7367.0	2.3211065179e-06	0.999684329514
7393.0	2.3211065179e-06	0.99968665062
7400.0	2.3211065179e-06	0.999688971727
7418.0	2.3211065179e-06	0.999691292833
7438.0	2.3211065179e-06	0.99969361394
7458.0	2.3211065179e-06	0.999695935046
7473.0	2.3211065179e-06	0.999698256153
7477.0	2.3211065179e-06	0.999700577259
7479.0	2.3211065179e-06	0.999702898366
7536.0	2.3211065179e-06	0.999705219472
7565.0	2.3211065179e-06	0.999707540579
7586.0	2.3211065179e-06	0.999709861685
7601.0	2.3211065179e-06	0.999712182792
7625.0	2.3211065179e-06	0.999714503898
7648.0	4.6422130358e-06	0.999719146111
7677.0	2.3211065179e-06	0.999721467218
7684.0	2.3211065179e-06	0.999723788324
7699.0	2.3211065179e-06	0.999726109431
7716.0	2.3211065179e-06	0.999728430537
7728.0	4.6422130358e-06	0.99973307275
7748.0	2.3211065179e-06	0.999735393857
7771.0	2.3211065179e-06	0.999737714963
7793.0	2.3211065179e-06	0.99974003607
7804.0	2.3211065179e-06	0.999742357177
7829.0	2.3211065179e-06	0.999744678283
7849.0	2.3211065179e-06	0.99974699939
7851.0	2.3211065179e-06	0.999749320496
7868.0	2.3211065179e-06	0.999751641603
7892.0	2.3211065179e-06	0.999753962709
7923.0	2.3211065179e-06	0.999756283816
8007.0	2.3211065179e-06	0.999758604922
8032.0	2.3211065179e-06	0.999760926029
8036.0	2.3211065179e-06	0.999763247135
8060.0	2.3211065179e-06	0.999765568242
8074.0	4.6422130358e-06	0.999770210455
8106.0	2.3211065179e-06	0.999772531561
8108.0	2.3211065179e-06	0.999774852668
8111.0	4.6422130358e-06	0.999779494881
8119.0	2.3211065179e-06	0.999781815987
8127.0	2.3211065179e-06	0.999784137094
8211.0	2.3211065179e-06	0.9997864582
8224.0	2.3211065179e-06	0.999788779307
8240.0	2.3211065179e-06	0.999791100413
8256.0	4.6422130358e-06	0.999795742626
8290.0	2.3211065179e-06	0.999798063733
8350.0	2.3211065179e-06	0.999800384839
8375.0	2.3211065179e-06	0.999802705946
8382.0	2.3211065179e-06	0.999805027052
8400.0	2.3211065179e-06	0.999807348159
8406.0	2.3211065179e-06	0.999809669266
8450.0	2.3211065179e-06	0.999811990372
8482.0	2.3211065179e-06	0.999814311479
8544.0	2.3211065179e-06	0.999816632585
8547.0	2.3211065179e-06	0.999818953692
8572.0	2.3211065179e-06	0.999821274798
8681.0	2.3211065179e-06	0.999823595905
8769.0	2.3211065179e-06	0.999825917011
8797.0	2.3211065179e-06	0.999828238118
8817.0	2.3211065179e-06	0.999830559224
8896.0	2.3211065179e-06	0.999832880331
8960.0	2.3211065179e-06	0.999835201437
8968.0	2.3211065179e-06	0.999837522544
9037.0	2.3211065179e-06	0.99983984365
9044.0	2.3211065179e-06	0.999842164757
9093.0	2.3211065179e-06	0.999844485863
9107.0	2.3211065179e-06	0.99984680697
9133.0	2.3211065179e-06	0.999849128076
9183.0	2.3211065179e-06	0.999851449183
9208.0	2.3211065179e-06	0.999853770289
9227.0	2.3211065179e-06	0.999856091396
9264.0	2.3211065179e-06	0.999858412502
9277.0	4.6422130358e-06	0.999863054715
9377.0	2.3211065179e-06	0.999865375822
9412.0	2.3211065179e-06	0.999867696928
9428.0	2.3211065179e-06	0.999870018035
9470.0	2.3211065179e-06	0.999872339142
9517.0	2.3211065179e-06	0.999874660248
9521.0	2.3211065179e-06	0.999876981355
9614.0	2.3211065179e-06	0.999879302461
9814.0	2.3211065179e-06	0.999881623568
9842.0	2.3211065179e-06	0.999883944674
9942.0	2.3211065179e-06	0.999886265781
10000.0	2.3211065179e-06	0.999888586887
10106.0	2.3211065179e-06	0.999890907994
10137.0	2.3211065179e-06	0.9998932291
10146.0	2.3211065179e-06	0.999895550207
10168.0	2.3211065179e-06	0.999897871313
10246.0	2.3211065179e-06	0.99990019242
10400.0	2.3211065179e-06	0.999902513526
10442.0	2.3211065179e-06	0.999904834633
10469.0	2.3211065179e-06	0.999907155739
10592.0	2.3211065179e-06	0.999909476846
10724.0	2.3211065179e-06	0.999911797952
10869.0	2.3211065179e-06	0.999914119059
10952.0	2.3211065179e-06	0.999916440165
11004.0	2.3211065179e-06	0.999918761272
11125.0	2.3211065179e-06	0.999921082378
11151.0	2.3211065179e-06	0.999923403485
11164.0	2.3211065179e-06	0.999925724591
11210.0	2.3211065179e-06	0.999928045698
11236.0	2.3211065179e-06	0.999930366804
11251.0	2.3211065179e-06	0.999932687911
11321.0	2.3211065179e-06	0.999935009017
11402.0	2.3211065179e-06	0.999937330124
11521.0	2.3211065179e-06	0.999939651231
12193.0	2.3211065179e-06	0.999941972337
12367.0	2.3211065179e-06	0.999944293444
12407.0	2.3211065179e-06	0.99994661455
12453.0	2.3211065179e-06	0.999948935657
12791.0	2.3211065179e-06	0.999951256763
12827.0	2.3211065179e-06	0.99995357787
12936.0	2.3211065179e-06	0.999955898976
12954.0	2.3211065179e-06	0.999958220083
12969.0	4.6422130358e-06	0.999962862296
13013.0	2.3211065179e-06	0.999965183402
13304.0	2.3211065179e-06	0.999967504509
13999.0	2.3211065179e-06	0.999969825615
14001.0	2.3211065179e-06	0.999972146722
14120.0	2.3211065179e-06	0.999974467828
14137.0	2.3211065179e-06	0.999976788935
14182.0	2.3211065179e-06	0.999979110041
14475.0	2.3211065179e-06	0.999981431148
14646.0	2.3211065179e-06	0.999983752254
14731.0	2.3211065179e-06	0.999986073361
15049.0	2.3211065179e-06	0.999988394467
17680.0	2.3211065179e-06	0.999990715574
18015.0	2.3211065179e-06	0.99999303668
18755.0	2.3211065179e-06	0.999995357787
20361.0	2.3211065179e-06	0.999997678893
22608.0	2.3211065179e-06	1.0
34218.0	2.3211065179e-06	1.0
