#
# Generated On: 2012-02-05T21:20:29.406380
#           By: cwa.analyze.statistics
#      Version: 11.11.23
#       Author: Thomas A. de Ruiter <thomas@de-ruiter.cx>
#
#  Commandline: /home/af10028/bin/cwa analyze
#     Work Dir: /scratch/af10028/var/thesis-project/result/analyses/workload-06h-11124l-0s-fair
#

Time	Sum	Avg	StdDev	CoV	0.000000-Pct	0.010000-Pct	0.100000-Pct	1.000000-Pct	2.000000-Pct	5.000000-Pct	25.000000-Pct	50.000000-Pct	75.000000-Pct	95.000000-Pct	98.000000-Pct	99.000000-Pct	99.900000-Pct	99.990000-Pct	100.000000-Pct
1327128600	2905.0	264.090909091	389.336218337	1.47425074069	3.0	3.0	3.0	3.0	3.0	3.0	10.0	126.0	225.0	1288.0	1288.0	1288.0	1288.0	1288.0	1288.0
1327129200	70586.0	295.338912134	424.197826987	1.43630862565	3.0	3.0	3.0	3.0	3.0	3.0	6.0	112.0	427.0	1051.0	1710.0	1883.0	3122.0	3122.0	3122.0
1327129800	114053.0	378.913621262	492.870374284	1.3007459923	2.0	2.0	2.0	3.0	3.0	3.0	9.0	196.0	572.0	1294.0	1804.0	2377.0	3433.0	3433.0	3433.0
1327130400	97368.0	324.56	433.934600131	1.33699346848	3.0	3.0	3.0	3.0	3.0	3.0	4.0	145.0	481.0	1171.0	1601.0	2041.0	2702.0	2702.0	2702.0
1327131000	111505.0	329.896449704	421.23268088	1.27686333472	3.0	3.0	3.0	3.0	3.0	3.0	9.0	174.0	513.0	1213.0	1601.0	1639.0	2744.0	2744.0	2744.0
1327131600	95989.0	321.033444816	419.512475379	1.30675629643	2.0	2.0	2.0	3.0	3.0	3.0	4.0	168.0	506.0	1122.0	1527.0	2106.0	2451.0	2451.0	2451.0
1327132200	115068.0	331.608069164	431.078666886	1.29996434638	2.0	2.0	2.0	3.0	3.0	3.0	9.0	180.0	513.0	1296.0	1659.0	1946.0	2417.0	2417.0	2417.0
1327132800	107985.0	320.430267062	429.147766382	1.33928598667	3.0	3.0	3.0	3.0	3.0	3.0	4.0	139.0	482.0	1128.0	1598.0	2202.0	2653.0	2653.0	2653.0
1327133400	88784.0	304.054794521	417.039422775	1.37159298354	3.0	3.0	3.0	3.0	3.0	3.0	4.0	130.5	479.0	1148.0	1592.0	1911.0	2652.0	2652.0	2652.0
1327134000	116133.0	358.435185185	480.124872943	1.33950262917	3.0	3.0	3.0	3.0	3.0	3.0	4.0	160.0	522.0	1343.0	1795.0	2030.0	2540.0	2540.0	2540.0
1327134600	87052.0	326.037453184	471.115392317	1.4449732315	3.0	3.0	3.0	3.0	3.0	3.0	3.0	113.0	517.0	1224.0	1614.0	2560.0	2759.0	2759.0	2759.0
1327135200	111017.0	331.394029851	440.91147423	1.33047500714	2.0	2.0	2.0	3.0	3.0	3.0	4.0	163.0	516.0	1260.0	1509.0	1732.0	3045.0	3045.0	3045.0
1327135800	99145.0	300.439393939	408.112853484	1.35838662212	3.0	3.0	3.0	3.0	3.0	3.0	4.0	119.5	483.0	1152.0	1346.0	1968.0	2275.0	2275.0	2275.0
1327136400	89112.0	363.72244898	466.892575169	1.28365069706	2.0	2.0	2.0	3.0	3.0	3.0	9.0	193.0	566.0	1271.0	1619.0	2201.0	2925.0	2925.0	2925.0
1327137000	98680.0	326.754966887	401.939946373	1.23009590398	2.0	2.0	2.0	3.0	3.0	3.0	4.0	167.0	541.0	1124.0	1401.0	1672.0	2174.0	2174.0	2174.0
1327137600	96953.0	341.383802817	457.375116345	1.33976806331	3.0	3.0	3.0	3.0	3.0	3.0	9.0	191.5	519.0	1060.0	1914.0	2303.0	3371.0	3371.0	3371.0
1327138200	109216.0	359.263157895	477.426983505	1.32890604843	2.0	2.0	2.0	3.0	3.0	3.0	3.0	176.5	513.0	1438.0	1726.0	1982.0	2338.0	2338.0	2338.0
1327138800	113771.0	344.760606061	444.847947411	1.29030968037	3.0	3.0	3.0	3.0	3.0	3.0	3.0	141.5	532.0	1206.0	1579.0	1915.0	2309.0	2309.0	2309.0
1327139400	98969.0	324.48852459	409.288889939	1.26133548314	3.0	3.0	3.0	3.0	3.0	3.0	4.0	167.0	507.0	1082.0	1575.0	1687.0	2185.0	2185.0	2185.0
1327140000	99236.0	341.017182131	426.484251697	1.25062393933	2.0	2.0	2.0	3.0	3.0	3.0	4.0	171.0	578.0	1209.0	1562.0	1779.0	2846.0	2846.0	2846.0
1327140600	113640.0	349.661538462	504.204515779	1.44197877181	2.0	2.0	2.0	3.0	3.0	3.0	3.0	147.0	534.0	1353.0	1775.0	2067.0	3900.0	3900.0	3900.0
1327141200	96755.0	322.516666667	384.070362303	1.19085430924	2.0	2.0	2.0	3.0	3.0	3.0	9.0	170.5	533.0	1042.0	1447.0	1762.0	1902.0	1902.0	1902.0
1327141800	88543.0	291.259868421	385.683519391	1.32419039218	2.0	2.0	2.0	3.0	3.0	3.0	3.0	137.5	457.0	1008.0	1431.0	1665.0	2318.0	2318.0	2318.0
1327142400	98747.0	326.976821192	435.226793278	1.3310631368	2.0	2.0	2.0	3.0	3.0	3.0	3.0	174.5	507.0	1080.0	1628.0	2069.0	2678.0	2678.0	2678.0
1327143000	78064.0	290.200743494	443.241364623	1.52736123032	3.0	3.0	3.0	3.0	3.0	3.0	3.0	96.0	409.0	1118.0	1704.0	2101.0	2942.0	2942.0	2942.0
1327143600	97429.0	321.547854785	411.320515427	1.27918911386	3.0	3.0	3.0	3.0	3.0	3.0	3.0	184.0	499.0	1154.0	1608.0	1787.0	2507.0	2507.0	2507.0
1327144200	97906.0	342.328671329	418.005771407	1.22106562031	2.0	2.0	2.0	3.0	3.0	3.0	9.0	204.5	532.0	1069.0	1494.0	1791.0	2951.0	2951.0	2951.0
1327144800	83924.0	301.884892086	418.961430018	1.3878184732	3.0	3.0	3.0	3.0	3.0	3.0	3.0	154.5	473.0	1107.0	1516.0	1781.0	2963.0	2963.0	2963.0
1327145400	109712.0	326.523809524	460.284979244	1.40965211669	3.0	3.0	3.0	3.0	3.0	3.0	4.0	147.0	485.0	1198.0	1760.0	2366.0	2764.0	2764.0	2764.0
1327146000	93632.0	325.111111111	453.915441497	1.39618556851	3.0	3.0	3.0	3.0	3.0	3.0	3.0	150.0	483.0	1207.0	1688.0	2210.0	3320.0	3320.0	3320.0
1327146600	113162.0	319.666666667	429.142344718	1.34246823165	3.0	3.0	3.0	3.0	3.0	3.0	4.0	166.0	459.0	1229.0	1398.0	1854.0	2885.0	2885.0	2885.0
1327147200	102996.0	343.32	452.408889846	1.31774697031	2.0	2.0	2.0	3.0	3.0	3.0	9.0	144.5	587.0	1225.0	1634.0	1881.0	2864.0	2864.0	2864.0
1327147800	94473.0	314.91	416.614386522	1.32296334356	2.0	2.0	2.0	3.0	3.0	3.0	3.0	117.5	518.0	1225.0	1466.0	1778.0	2205.0	2205.0	2205.0
1327148400	124491.0	338.29076087	474.064556844	1.40135236217	3.0	3.0	3.0	3.0	3.0	3.0	3.0	156.5	495.0	1247.0	1682.0	2458.0	3307.0	3307.0	3307.0
1327149000	80913.0	303.04494382	397.675290998	1.31226505872	2.0	2.0	2.0	3.0	3.0	3.0	3.0	132.0	478.0	998.0	1574.0	1701.0	2242.0	2242.0	2242.0
1327149600	91108.0	338.691449814	449.745564016	1.32789169689	3.0	3.0	3.0	3.0	3.0	3.0	9.0	171.0	476.0	1269.0	1635.0	1965.0	3053.0	3053.0	3053.0
1327150200	102377.0	318.931464174	481.42702748	1.50949994453	3.0	3.0	3.0	3.0	3.0	3.0	3.0	138.0	469.0	1051.0	1545.0	1993.0	4868.0	4868.0	4868.0
