#
# Generated On: 2012-02-05T21:20:29.411418
#           By: cwa.analyze.statistics
#      Version: 11.11.23
#       Author: Thomas A. de Ruiter <thomas@de-ruiter.cx>
#
#  Commandline: /home/af10028/bin/cwa analyze
#     Work Dir: /scratch/af10028/var/thesis-project/result/analyses/workload-06h-11124l-0s-fair
#

Time	Sum	Avg	StdDev	CoV	0.000000-Pct	0.010000-Pct	0.100000-Pct	1.000000-Pct	2.000000-Pct	5.000000-Pct	25.000000-Pct	50.000000-Pct	75.000000-Pct	95.000000-Pct	98.000000-Pct	99.000000-Pct	99.900000-Pct	99.990000-Pct	100.000000-Pct
1327128600	2534243.0	1186.44335206	2535.97549681	2.13746024402	2.0	2.0	3.0	3.0	3.0	3.0	12.0	345.0	1183.0	5123.0	8844.0	11303.0	30041.0	35152.0	35152.0
1327132200	3236306.0	1230.06689472	3101.20300748	2.5211661421	2.0	2.0	2.0	3.0	3.0	3.0	9.0	282.0	942.0	5918.0	10784.0	16634.0	31277.0	36725.0	36725.0
1327135800	4630459.0	1770.73001912	4300.63843348	2.42873751901	2.0	2.0	2.0	3.0	3.0	3.0	10.0	318.0	1102.0	9629.0	20089.0	23602.0	30468.0	34130.0	34130.0
1327139400	3745978.0	1472.47562893	3572.62342425	2.42626998645	2.0	2.0	2.0	3.0	3.0	3.0	9.0	297.5	945.0	7933.0	14800.0	19129.0	28772.0	32016.0	32016.0
1327143000	3703493.0	1520.94168378	3557.32848378	2.33889867161	2.0	2.0	3.0	3.0	3.0	3.0	9.0	288.0	907.0	9350.0	15432.0	18428.0	23450.0	28569.0	28569.0
1327146600	3661832.0	1416.56943907	3090.77795708	2.18187536158	2.0	2.0	2.0	3.0	3.0	3.0	9.0	289.0	958.0	8281.0	12634.0	15806.0	22883.0	26192.0	26192.0
1327150200	571279.0	1283.77303371	2773.97264161	2.16079678321	3.0	3.0	3.0	3.0	3.0	3.0	9.0	273.0	950.0	8020.0	12830.0	13818.0	18624.0	18624.0	18624.0
