#
# Generated On: 2012-02-09T15:21:12.898487
#           By: cwa.analyze.jobs_per_executableid
#      Version: 11.3.16
#       Author: Thomas A. de Ruiter <thomas@de-ruiter.cx>
#
#  Commandline: /home/af10028/bin/cwa analyze
#     Work Dir: /scratch/af10028/var/thesis-project/result/workload-analyses/workload-06h-07416l-5s
#

Time	ID_-1
0	7876
600	12573
1200	15361
1800	18322
2400	17104
3000	16582
3600	19052
4200	18819
4800	19335
5400	19013
6000	19582
6600	21254
7200	21072
7800	22172
8400	23476
9000	24308
9600	21282
10200	20669
10800	21608
11400	21835
12000	24004
12600	24309
13200	25948
13800	23087
14400	23648
15000	24567
15600	25414
16200	23820
16800	24156
17400	26986
18000	26388
18600	26285
19200	24129
19800	28035
20400	28175
21000	27195
21600	19238
22200	14352
22800	12540
23400	10607
24000	9945
24600	8374
25200	7840
25800	7059
26400	6327
27000	5867
27600	5372
28200	4503
28800	4371
29400	4160
30000	3915
30600	3492
31200	3124
31800	2820
32400	2718
33000	2607
33600	2470
34200	2024
34800	2102
35400	1892
36000	1759
36600	1657
37200	1393
37800	1324
38400	1085
39000	979
39600	1124
40200	1131
40800	1069
41400	969
42000	935
42600	792
43200	933
43800	900
44400	828
45000	773
45600	676
46200	602
46800	653
47400	504
48000	521
48600	425
49200	418
49800	345
50400	310
51000	254
51600	228
52200	149
52800	107
53400	85
54000	83
54600	80
55200	106
55800	56
56400	66
57000	59
57600	93
58200	69
58800	93
59400	61
60000	60
60600	47
61200	9
61800	6
62400	2
63000	2
63600	1
