#
# Generated On: 2012-02-09T15:22:18.603971
#           By: cwa.analyze.statistics
#      Version: 11.11.23
#       Author: Thomas A. de Ruiter <thomas@de-ruiter.cx>
#
#  Commandline: /home/af10028/bin/cwa analyze
#     Work Dir: /scratch/af10028/var/thesis-project/result/workload-analyses/workload-06h-07416l-5s
#

Time	Sum	Avg	StdDev	CoV	0.000000-Pct	0.010000-Pct	0.100000-Pct	1.000000-Pct	2.000000-Pct	5.000000-Pct	25.000000-Pct	50.000000-Pct	75.000000-Pct	95.000000-Pct	98.000000-Pct	99.000000-Pct	99.900000-Pct	99.990000-Pct	100.000000-Pct
1326896400	42972.0	69.8731707317	180.643079023	2.5852995811	0.0	0.0	0.0	0.0	0.0	0.0	2.0	13.0	57.0	283.0	735.0	864.0	2275.0	2275.0	2275.0
1326897000	1054191.0	112.603183081	309.385938409	2.74757719937	0.0	0.0	0.0	0.0	0.0	0.0	3.0	21.0	88.0	503.0	962.0	1548.0	3979.0	5811.0	5811.0
1326897600	1741533.0	125.038268237	340.259222327	2.72124068196	0.0	0.0	0.0	0.0	0.0	0.0	3.0	22.0	101.0	559.0	1048.0	1534.0	3978.0	6725.0	7054.0
1326898200	2304361.0	147.121304986	389.804612798	2.64954564422	0.0	0.0	0.0	0.0	0.0	0.0	4.0	27.0	121.0	665.0	1262.0	1729.0	4630.0	8936.0	9016.0
1326898800	2558155.0	144.979030887	391.60135291	2.70108960251	0.0	0.0	0.0	0.0	0.0	0.0	4.0	27.0	119.0	652.0	1253.0	1833.0	4116.0	11360.0	14475.0
1326899400	2503358.0	158.923184358	407.918458206	2.56676494279	0.0	0.0	0.0	0.0	0.0	0.0	4.0	29.0	129.0	743.0	1363.0	1951.0	4451.0	7740.0	9743.0
1326900000	2536205.0	164.315192744	442.090658745	2.69050385033	0.0	0.0	0.0	0.0	0.0	0.0	4.0	31.0	135.0	739.0	1390.0	1925.0	5053.0	11189.0	12387.0
1326900600	2958269.0	167.020607498	438.831917394	2.62741181444	0.0	0.0	0.0	0.0	0.0	0.0	5.0	31.0	138.0	773.0	1411.0	2033.0	4751.0	10733.0	12222.0
1326901200	2809199.0	158.649065341	394.104744744	2.48412900446	0.0	0.0	0.0	0.0	0.0	0.0	5.0	31.0	136.0	735.0	1288.0	1888.0	4269.0	9562.0	9929.0
1326901800	2848280.0	168.18895778	431.514591461	2.56565351946	0.0	0.0	0.0	0.0	0.0	0.0	5.0	32.0	138.0	773.0	1373.0	2082.0	4956.0	8203.0	10542.0
1326902400	2834678.0	166.442252363	422.604553072	2.53904610801	0.0	0.0	0.0	0.0	0.0	0.0	5.0	32.0	139.0	770.0	1418.0	2037.0	4671.0	8732.0	10707.0
1326903000	2934810.0	173.002240038	453.421828923	2.62090149136	0.0	0.0	0.0	0.0	0.0	0.0	5.0	33.0	142.0	808.0	1460.0	2084.0	4927.0	10944.0	15414.0
1326903600	3034937.0	155.279457662	421.021835515	2.71138141422	0.0	0.0	0.0	0.0	0.0	0.0	4.0	28.0	122.0	707.0	1298.0	1945.0	4917.0	9068.0	11023.0
1326904200	3075636.0	160.733524954	439.20384465	2.73249681281	0.0	0.0	0.0	0.0	0.0	0.0	4.0	29.0	130.0	737.0	1369.0	2004.0	4889.0	8782.0	19428.0
1326904800	3333671.0	168.673902044	456.707659468	2.70763677091	0.0	0.0	0.0	0.0	0.0	0.0	5.0	31.0	138.0	763.0	1431.0	2044.0	5262.0	10950.0	15612.0
1326905400	3581581.0	164.209848242	445.812265934	2.7148935993	0.0	0.0	0.0	0.0	0.0	0.0	5.0	30.0	134.0	759.0	1383.0	1993.0	5365.0	11188.0	13967.0
1326906000	3549789.0	166.821232201	440.336423862	2.63957062331	0.0	0.0	0.0	0.0	0.0	0.0	5.0	32.0	139.0	748.0	1384.0	2048.0	4881.0	8234.0	14121.0
1326906600	3248438.0	187.825267418	471.059130352	2.50796464622	0.0	0.0	0.0	0.0	0.0	0.0	5.0	36.0	164.0	838.0	1599.0	2231.0	5259.0	9179.0	14361.0
1326907200	3212078.0	181.442580354	463.775533318	2.55604573312	0.0	0.0	0.0	0.0	0.0	0.0	5.0	35.0	148.0	844.0	1519.0	2256.0	5257.0	9104.0	11274.0
1326907800	3211848.0	165.59331821	417.252247453	2.5197408444	0.0	0.0	0.0	0.0	0.0	0.0	5.0	33.0	141.0	765.0	1343.0	1976.0	4353.0	9607.0	11608.0
1326908400	3340219.0	179.572012257	452.425503152	2.5194655752	0.0	0.0	0.0	0.0	0.0	0.0	5.0	35.0	150.0	828.0	1547.0	2269.0	4787.0	7666.0	14398.0
1326909000	3490931.0	168.416200309	433.371391185	2.57321677125	0.0	0.0	0.0	0.0	0.0	0.0	4.0	30.0	134.0	794.0	1453.0	2000.0	4725.0	9999.0	10251.0
1326909600	3703352.0	175.672501304	452.942704537	2.57833583044	0.0	0.0	0.0	0.0	0.0	0.0	5.0	32.0	144.0	818.0	1527.0	2125.0	4809.0	9153.0	11945.0
1326910200	3770600.0	169.09278443	462.20023863	2.73341195598	0.0	0.0	0.0	0.0	0.0	0.0	5.0	31.0	136.0	775.0	1432.0	2113.0	4969.0	13598.0	19699.0
1326910800	3464941.0	178.715752012	443.308019008	2.48052012214	0.0	0.0	0.0	0.0	0.0	0.0	5.0	35.0	151.0	813.0	1495.0	2116.0	5071.0	9479.0	9481.0
1326911400	3686889.0	182.546368273	455.402485868	2.49472224607	0.0	0.0	0.0	0.0	0.0	0.0	6.0	35.0	156.0	849.0	1478.0	2204.0	5450.0	8450.0	9551.0
1326912000	3790688.0	174.092403784	441.408842282	2.5354859413	0.0	0.0	0.0	0.0	0.0	0.0	5.0	33.0	144.0	826.0	1473.0	2049.0	5174.0	7545.0	9910.0
1326912600	3755006.0	169.266408222	417.497083357	2.46650878779	0.0	0.0	0.0	0.0	0.0	0.0	5.0	33.0	145.0	790.0	1451.0	2000.0	4371.0	8416.0	13397.0
1326913200	3704141.0	181.593342485	464.535625062	2.55810933763	0.0	0.0	0.0	0.0	0.0	0.0	6.0	36.0	155.0	825.0	1462.0	2099.0	5322.0	10002.0	12632.0
1326913800	3883772.0	187.205822809	478.382795336	2.55538416571	0.0	0.0	0.0	0.0	0.0	0.0	5.0	34.0	156.0	859.0	1550.0	2323.0	5571.0	7967.0	11794.0
1326914400	3944048.0	171.749172618	450.399103756	2.62242371763	0.0	0.0	0.0	0.0	0.0	0.0	5.0	32.0	143.0	788.0	1441.0	2071.0	4644.0	11742.0	16401.0
1326915000	4098014.0	175.933284678	430.702552023	2.44810157902	0.0	0.0	0.0	0.0	0.0	0.0	5.0	34.0	149.0	813.0	1499.0	2064.0	4838.0	7773.0	9107.0
1326915600	3812463.0	173.089212749	434.861809078	2.51235650202	0.0	0.0	0.0	0.0	0.0	0.0	5.0	33.0	143.0	803.0	1456.0	2047.0	4987.0	8081.0	11111.0
1326916200	3653557.0	178.867962401	449.419180225	2.51257505365	0.0	0.0	0.0	0.0	0.0	0.0	5.0	35.0	157.0	817.0	1484.0	2095.0	5193.0	9645.0	10048.0
1326916800	4144705.0	166.280389954	436.779076444	2.62676240153	0.0	0.0	0.0	0.0	0.0	0.0	5.0	31.0	138.0	757.0	1385.0	2007.0	5088.0	10616.0	12328.0
1326917400	3961630.0	159.331965894	403.879060235	2.5348275719	0.0	0.0	0.0	0.0	0.0	0.0	5.0	30.0	132.0	747.0	1349.0	1973.0	4321.0	8322.0	9243.0
1326918000	3962960.0	170.890901251	448.815451397	2.62632737093	0.0	0.0	0.0	0.0	0.0	0.0	5.0	31.0	139.0	806.0	1472.0	2083.0	4680.0	9972.0	17536.0
1326918600	2915848.0	216.711111111	485.504852195	2.24033207022	0.0	0.0	0.0	0.0	0.0	0.0	8.0	49.0	197.0	1002.0	1762.0	2375.0	5070.0	7407.0	10599.0
1326919200	2235660.0	233.026891807	516.685363985	2.21727784282	0.0	0.0	0.0	0.0	0.0	0.0	10.0	57.0	227.0	1063.0	1793.0	2424.0	5255.0	10018.0	10018.0
1326919800	2087394.0	242.128987356	535.705701117	2.21248065738	0.0	0.0	0.0	0.0	0.0	0.0	9.0	60.0	244.0	1067.0	1835.0	2576.0	5533.0	13433.0	13433.0
1326920400	1780936.0	250.730114036	605.871110732	2.41642737276	0.0	0.0	0.0	0.0	0.0	0.0	10.0	61.0	234.0	1108.0	1891.0	2544.0	7213.0	17882.0	17882.0
1326921000	1561483.0	233.231217326	487.808136485	2.09152163281	0.0	0.0	0.0	0.0	0.0	0.0	10.0	58.0	228.0	1083.0	1783.0	2511.0	4805.0	9094.0	9094.0
1326921600	1317488.0	226.606123151	504.720611411	2.22730350086	0.0	0.0	0.0	0.0	0.0	0.0	10.0	54.0	218.0	1009.0	1812.0	2357.0	5693.0	8523.0	8523.0
1326922200	1195911.0	241.062487402	531.380082485	2.20432506199	0.0	0.0	0.0	0.0	0.0	0.0	10.0	52.0	226.0	1113.0	1997.0	2590.0	5945.0	6874.0	6874.0
1326922800	1044533.0	228.913653298	495.176013676	2.16315631043	0.0	0.0	0.0	0.0	0.0	0.0	10.0	55.0	211.0	1031.0	1889.0	2668.0	4880.0	5681.0	5681.0
1326923400	1001579.0	255.765832482	582.892695813	2.27900924121	0.0	0.0	0.0	0.0	0.0	0.0	11.0	62.0	240.0	1098.0	1979.0	2891.0	7560.0	9861.0	9861.0
1326924000	859253.0	231.168415389	522.848689429	2.26176525262	0.0	0.0	0.0	0.0	0.0	0.0	9.0	53.0	217.0	1041.0	1773.0	2484.0	5414.0	10527.0	10527.0
1326924600	822713.0	252.288561791	562.566641577	2.22985393228	0.0	0.0	0.0	0.0	0.0	0.0	11.0	58.0	226.0	1185.0	2038.0	2819.0	5194.0	8685.0	8685.0
1326925200	654326.0	228.785314685	517.339971145	2.26124640848	0.0	0.0	0.0	0.0	0.0	0.0	9.0	56.0	215.0	1014.0	1855.0	2451.0	5923.0	8217.0	8217.0
1326925800	652752.0	229.680506685	487.853437399	2.12405242586	0.0	0.0	0.0	0.0	0.0	0.0	7.0	53.0	215.0	1069.0	1847.0	2579.0	4494.0	5008.0	5008.0
1326926400	688823.0	251.946964155	560.833171335	2.22599694033	0.0	0.0	0.0	0.0	0.0	0.0	9.0	58.0	231.0	1166.0	2058.0	2560.0	6292.0	8171.0	8171.0
1326927000	507347.0	234.2322253	495.220445555	2.11422849661	0.0	0.0	0.0	0.0	0.0	0.0	10.0	61.0	227.0	1059.0	1764.0	2279.0	5450.0	6888.0	6888.0
1326927600	436591.0	217.751122195	481.726475928	2.21228010709	0.0	0.0	0.0	0.0	0.0	0.0	9.0	51.0	205.0	944.0	1703.0	2132.0	5166.0	6698.0	6698.0
1326928200	447828.0	253.726912181	588.452139809	2.31923423002	0.0	0.0	0.0	0.0	0.0	0.0	10.0	54.0	237.0	1155.0	1827.0	2665.0	7258.0	7374.0	7374.0
1326928800	378443.0	233.318742293	503.53091831	2.15812460397	0.0	0.0	0.0	0.0	0.0	0.0	10.0	51.0	218.0	1059.0	1980.0	2671.0	5007.0	5900.0	5900.0
1326929400	392474.0	235.014371257	514.815287167	2.19056938694	0.0	0.0	0.0	0.0	0.0	0.0	9.0	58.0	236.0	992.0	1856.0	2315.0	5515.0	7026.0	7026.0
1326930000	432602.0	258.269850746	556.23050113	2.15367957012	0.0	0.0	0.0	0.0	0.0	0.0	10.0	63.0	241.0	1184.0	2303.0	2858.0	5121.0	6181.0	6181.0
1326930600	395154.0	252.979513444	691.593198844	2.73379132337	0.0	0.0	0.0	0.0	0.0	0.0	9.0	56.5	225.0	1054.0	1870.0	3067.0	9778.0	12769.0	12769.0
1326931200	300441.0	229.519480519	458.253687898	1.99657862095	0.0	0.0	0.0	0.0	0.0	0.0	10.0	59.0	238.0	999.0	1877.0	2358.0	4469.0	4543.0	4543.0
1326931800	293154.0	226.899380805	485.886300719	2.14141748204	0.0	0.0	0.0	0.0	0.0	0.0	8.0	48.0	223.0	1097.0	1733.0	2238.0	4978.0	5792.0	5792.0
1326932400	194039.0	206.644302449	452.12586837	2.18794258061	0.0	0.0	0.0	0.0	0.0	0.0	8.0	54.0	209.0	821.0	1619.0	2383.0	5767.0	5767.0	5767.0
1326933000	255405.0	243.474737846	516.054086517	2.11953852413	0.0	0.0	0.0	0.0	0.0	0.0	10.0	57.0	270.0	1058.0	1539.0	1994.0	3443.0	10109.0	10109.0
1326933600	238887.0	252.523255814	593.685718426	2.35101403438	0.0	0.0	0.0	0.0	0.0	0.0	13.0	69.0	237.0	1104.0	2065.0	2893.0	8064.0	8064.0	8064.0
1326934200	249883.0	256.29025641	585.352852445	2.2839450108	0.0	0.0	0.0	0.0	0.0	0.0	8.0	63.0	250.0	1222.0	2016.0	2845.0	7393.0	7393.0	7393.0
1326934800	184171.0	211.690804598	436.160995585	2.06036816958	0.0	0.0	0.0	0.0	0.0	0.0	7.0	51.5	207.0	1091.0	1516.0	2386.0	3687.0	3687.0	3687.0
1326935400	144319.0	193.198125837	379.4125498	1.96385212412	0.0	0.0	0.0	0.0	0.0	0.0	8.0	44.0	207.0	902.0	1399.0	1985.0	3227.0	3227.0	3227.0
1326936000	173152.0	249.139568345	499.332236313	2.00422694649	0.0	0.0	0.0	0.0	0.0	0.0	7.0	54.0	243.0	1186.0	2017.0	2716.0	4602.0	4602.0	4602.0
1326936600	159864.0	228.703862661	447.570000127	1.9569848752	0.0	0.0	0.0	0.0	0.0	0.0	9.0	50.0	233.0	1112.0	1697.0	2328.0	4150.0	4150.0	4150.0
1326937200	167412.0	232.516666667	479.899818301	2.06393728751	0.0	0.0	0.0	0.0	0.0	0.0	8.0	61.0	236.0	1006.0	1709.0	2195.0	5026.0	5026.0	5026.0
1326937800	124292.0	201.772727273	420.113121007	2.08211053439	0.0	0.0	0.0	0.0	0.0	0.0	9.0	54.0	214.0	859.0	1398.0	1811.0	5903.0	5903.0	5903.0
1326938400	95864.0	218.867579909	605.028346859	2.76435800639	0.0	0.0	0.0	0.0	0.0	0.0	9.0	42.5	196.0	979.0	1680.0	2674.0	9342.0	9342.0	9342.0
1326939000	149840.0	260.138888889	562.224449825	2.16124721769	0.0	0.0	0.0	0.0	0.0	0.0	11.0	66.0	268.0	1190.0	2114.0	3246.0	5488.0	5488.0	5488.0
1326939600	98235.0	249.961832061	575.672354082	2.30304102564	0.0	0.0	0.0	0.0	0.0	0.0	9.0	50.0	214.0	1162.0	2025.0	3016.0	6177.0	6177.0	6177.0
1326940200	90875.0	241.047745358	482.689294641	2.00246342866	0.0	0.0	0.0	0.0	0.0	0.0	12.0	76.0	233.0	1101.0	2080.0	2595.0	3976.0	3976.0	3976.0
1326940800	85467.0	266.252336449	820.039748581	3.07993446938	0.0	0.0	0.0	0.0	0.0	0.0	9.0	50.0	184.0	1125.0	1931.0	5256.0	8221.0	8221.0	8221.0
1326941400	62961.0	299.814285714	732.381446085	2.44278368638	0.0	0.0	0.0	0.0	0.0	0.0	12.0	64.0	254.0	1477.0	2564.0	3504.0	6980.0	6980.0	6980.0
1326942000	54592.0	197.083032491	334.170870389	1.69558417163	0.0	0.0	0.0	0.0	0.0	0.0	9.0	61.0	241.0	823.0	1434.0	1787.0	2077.0	2077.0	2077.0
1326942600	95641.0	301.706624606	659.356657381	2.18542320124	0.0	0.0	0.0	0.0	0.0	0.0	9.0	54.0	219.0	1644.0	2751.0	3508.0	4889.0	4889.0	4889.0
1326943200	52691.0	252.110047847	682.977560692	2.70904538127	0.0	0.0	0.0	0.0	0.0	0.0	8.0	47.0	206.0	1126.0	1697.0	2459.0	8029.0	8029.0	8029.0
1326943800	57810.0	302.670157068	875.557982149	2.89277935635	0.0	0.0	0.0	0.0	0.0	0.0	8.0	53.0	259.0	1093.0	2517.0	6977.0	8313.0	8313.0	8313.0
1326944400	18947.0	212.887640449	339.33706889	1.59397261473	0.0	0.0	0.0	0.0	0.0	0.0	15.0	92.0	254.0	906.0	1457.0	2101.0	2101.0	2101.0	2101.0
1326945000	33165.0	249.360902256	483.479032455	1.93887264636	0.0	0.0	0.0	0.0	0.0	0.0	11.0	54.0	266.0	1193.0	1885.0	2668.0	3491.0	3491.0	3491.0
1326945600	31861.0	306.355769231	815.049547821	2.66046743584	0.0	0.0	0.0	0.0	0.0	0.0	6.0	42.5	194.0	1309.0	2435.0	3876.0	6429.0	6429.0	6429.0
1326946200	26382.0	244.277777778	596.131764794	2.44038475467	0.0	0.0	0.0	0.0	0.0	0.0	10.0	56.0	305.0	719.0	1286.0	2718.0	5229.0	5229.0	5229.0
1326946800	12429.0	214.293103448	425.923022805	1.98757223612	0.0	0.0	0.0	0.0	0.0	0.0	3.0	40.0	216.0	1293.0	1438.0	2458.0	2458.0	2458.0	2458.0
1326947400	19338.0	276.257142857	619.419051939	2.242182937	0.0	0.0	0.0	0.0	0.0	0.0	4.0	53.5	246.0	988.0	2723.0	3580.0	3580.0	3580.0	3580.0
1326948000	15294.0	299.882352941	713.389448956	2.37889773093	0.0	0.0	0.0	0.0	0.0	0.0	5.0	43.0	223.0	1998.0	2148.0	4173.0	4173.0	4173.0	4173.0
1326948600	7843.0	156.86	252.753005998	1.61132861149	0.0	0.0	0.0	0.0	0.0	0.0	5.0	42.5	174.0	885.0	1062.0	1062.0	1062.0	1062.0	1062.0
1326949200	0	0	0	0															
1326949800	0	0	0	0															
1326950400	0	0	0	0															
1326951000	0	0	0	0															
1326951600	0	0	0	0															
1326952200	0	0	0	0															
1326952800	0	0	0	0															
1326953400	0	0	0	0															
1326954000	0	0	0	0															
1326954600	0	0	0	0															
1326955200	0	0	0	0															
1326955800	0	0	0	0															
1326956400	0	0	0	0															
1326957000	0	0	0	0															
1326957600	0	0	0	0															
