#
# Generated On: 2012-02-09T16:08:23.676396
#           By: cwa.analyze.statistics
#      Version: 11.11.23
#       Author: Thomas A. de Ruiter <thomas@de-ruiter.cx>
#
#  Commandline: /home/af10028/bin/cwa analyze
#     Work Dir: /scratch/af10028/var/thesis-project/result/workload-analyses/workload-06h-09888l-2s
#

Time	Sum	Avg	StdDev	CoV	0.000000-Pct	0.010000-Pct	0.100000-Pct	1.000000-Pct	2.000000-Pct	5.000000-Pct	25.000000-Pct	50.000000-Pct	75.000000-Pct	95.000000-Pct	98.000000-Pct	99.000000-Pct	99.900000-Pct	99.990000-Pct	100.000000-Pct
1326892200	4506345.0	429.093982099	514.689121458	1.19947876906	0.0	0.0	0.0	2.0	3.0	7.0	59.0	250.0	616.0	1487.0	1903.0	2291.0	3574.0	4939.0	5662.0
