#
# Generated On: 2012-02-05T19:44:42.158982
#           By: cwa.analyze.statistics
#      Version: 11.11.23
#       Author: Thomas A. de Ruiter <thomas@de-ruiter.cx>
#
#  Commandline: /home/af10028/bin/cwa analyze
#     Work Dir: /scratch/af10028/var/thesis-project/result/analyses/workload-06h-08652l-0s-fair
#

Value	PDF	CDF
2.0	0.175391824204	0.1754726127
4.0	0.0389400549362	0.214412667636
6.0	0.00218128938439	0.216593957021
8.0	0.0246404911941	0.241234448215
10.0	0.0204394894167	0.261673937631
12.0	0.00961383099047	0.271287768622
14.0	0.00597834868315	0.277266117305
16.0	0.00379705929876	0.281063176604
18.0	0.00379705929876	0.284860235902
20.0	0.0035546938116	0.288414929714
22.0	0.00242365487155	0.290838584586
24.0	0.00306996283729	0.293908547423
26.0	0.0026660203587	0.296574567782
28.0	0.00113103894005	0.297705606722
30.0	0.00331232832445	0.301017935046
32.0	0.0026660203587	0.303683955405
34.0	0.00210050088867	0.305784456293
36.0	0.00250444336726	0.308288899661
38.0	0.00242365487155	0.310712554532
40.0	0.000484730974309	0.311197285507
42.0	0.0026660203587	0.313863305865
44.0	0.00161576991436	0.31547907578
46.0	0.00137340442721	0.316852480207
48.0	0.00226207788011	0.319114558087
50.0	0.00210050088867	0.321215058976
52.0	0.00105025044434	0.32226530942
54.0	0.00201971239296	0.324285021813
56.0	0.00226207788011	0.326547099693
58.0	0.00113103894005	0.327678138633
60.0	0.00210050088867	0.329778639522
62.0	0.00153498141865	0.33131362094
64.0	0.0017773469058	0.333090967846
66.0	0.00161576991436	0.334706737761
68.0	0.00137340442721	0.336080142188
70.0	0.00121182743577	0.337291969624
72.0	0.00193892389724	0.339230893521
74.0	0.00129261593149	0.340523509452
76.0	0.00169655841008	0.342220067862
78.0	0.00185813540152	0.344078203264
80.0	0.00210050088867	0.346178704153
82.0	0.00129261593149	0.347471320084
84.0	0.00226207788011	0.349733397964
86.0	0.00201971239296	0.351753110357
88.0	0.00129261593149	0.353045726289
90.0	0.00201971239296	0.355065438682
92.0	0.00137340442721	0.356438843109
94.0	0.00169655841008	0.358135401519
96.0	0.00161576991436	0.359751171433
98.0	0.00137340442721	0.36112457586
100.0	0.00153498141865	0.362659557279
102.0	0.0017773469058	0.364436904185
104.0	0.00226207788011	0.366698982065
106.0	0.00113103894005	0.367830021005
108.0	0.00210050088867	0.369930521894
110.0	0.00113103894005	0.371061560834
112.0	0.00113103894005	0.372192599774
114.0	0.00185813540152	0.374050735175
116.0	0.00129261593149	0.375343351107
118.0	0.00129261593149	0.376635967038
120.0	0.00210050088867	0.378736467927
122.0	0.00161576991436	0.380352237841
124.0	0.0008886734529	0.381240911294
126.0	0.00137340442721	0.382614315721
128.0	0.00169655841008	0.384310874132
130.0	0.00121182743577	0.385522701567
132.0	0.00161576991436	0.387138471482
134.0	0.00145419292293	0.388592664405
136.0	0.00169655841008	0.390289222815
138.0	0.00169655841008	0.391985781225
140.0	0.00137340442721	0.393359185652
142.0	0.00145419292293	0.394813378575
144.0	0.00105025044434	0.395863629019
146.0	0.00193892389724	0.397802552916
148.0	0.00121182743577	0.399014380352
150.0	0.00185813540152	0.400872515754
152.0	0.00105025044434	0.401922766198
154.0	0.00113103894005	0.403053805138
156.0	0.00153498141865	0.404588786557
158.0	0.00137340442721	0.405962190984
160.0	0.000727096461464	0.406689287445
162.0	0.00201971239296	0.408708999838
164.0	0.00121182743577	0.409920827274
166.0	0.000727096461464	0.410647923736
168.0	0.00145419292293	0.412102116659
170.0	0.00105025044434	0.413152367103
172.0	0.000484730974309	0.413637098077
174.0	0.0017773469058	0.415414444983
176.0	0.00105025044434	0.416464695427
178.0	0.000807884957182	0.417272580385
180.0	0.00201971239296	0.419292292778
182.0	0.0017773469058	0.421069639683
184.0	0.000969461948619	0.422039101632
186.0	0.00145419292293	0.423493294555
188.0	0.000969461948619	0.424462756503
190.0	0.00113103894005	0.425593795444
192.0	0.00169655841008	0.427290353854
194.0	0.00153498141865	0.428825335272
196.0	0.00129261593149	0.430117951204
198.0	0.00161576991436	0.431733721118
200.0	0.00137340442721	0.433107125545
202.0	0.000969461948619	0.434076587494
204.0	0.00161576991436	0.435692357408
206.0	0.000807884957182	0.436500242365
208.0	0.00121182743577	0.437712069801
210.0	0.00185813540152	0.439570205203
212.0	0.00161576991436	0.441185975117
214.0	0.000646307965746	0.441832283083
216.0	0.00153498141865	0.443367264502
218.0	0.00137340442721	0.444740668929
220.0	0.00113103894005	0.445871707869
222.0	0.00153498141865	0.447406689287
224.0	0.00137340442721	0.448780093715
226.0	0.000565519470027	0.449345613185
228.0	0.00129261593149	0.450638229116
230.0	0.00105025044434	0.451688479561
232.0	0.00121182743577	0.452900306996
234.0	0.00105025044434	0.453950557441
236.0	0.00129261593149	0.455243173372
238.0	0.0008886734529	0.456131846825
240.0	0.00153498141865	0.457666828244
242.0	0.00161576991436	0.459282598158
244.0	0.000969461948619	0.460252060107
246.0	0.00161576991436	0.461867830021
248.0	0.00129261593149	0.463160445952
250.0	0.00137340442721	0.46453385038
252.0	0.000807884957182	0.465341735337
254.0	0.00105025044434	0.466391985781
256.0	0.00137340442721	0.467765390208
258.0	0.00153498141865	0.469300371627
260.0	0.00201971239296	0.47132008402
262.0	0.000484730974309	0.471804814994
264.0	0.00121182743577	0.47301664243
266.0	0.0017773469058	0.474793989336
268.0	0.000807884957182	0.475601874293
270.0	0.00121182743577	0.476813701729
272.0	0.00145419292293	0.478267894652
274.0	0.000727096461464	0.478994991113
276.0	0.00169655841008	0.480691549523
278.0	0.00121182743577	0.481903376959
280.0	0.00169655841008	0.483599935369
282.0	0.00121182743577	0.484811762805
284.0	0.00153498141865	0.486346744224
286.0	0.00121182743577	0.487558571659
288.0	0.00153498141865	0.489093553078
290.0	0.0008886734529	0.489982226531
292.0	0.000807884957182	0.490790111488
294.0	0.00145419292293	0.492244304411
296.0	0.00153498141865	0.49377928583
298.0	0.00121182743577	0.494991113265
300.0	0.0017773469058	0.496768460171
302.0	0.00153498141865	0.49830344159
304.0	0.00105025044434	0.499353692034
306.0	0.00161576991436	0.500969461949
308.0	0.000807884957182	0.501777346906
310.0	0.00105025044434	0.50282759735
312.0	0.00129261593149	0.504120213282
314.0	0.00113103894005	0.505251252222
316.0	0.000646307965746	0.505897560187
318.0	0.00113103894005	0.507028599127
320.0	0.00113103894005	0.508159638068
322.0	0.00129261593149	0.509452253999
324.0	0.0008886734529	0.510340927452
326.0	0.000565519470027	0.510906446922
328.0	0.00105025044434	0.511956697366
330.0	0.00121182743577	0.513168524802
332.0	0.00169655841008	0.514865083212
334.0	0.00129261593149	0.516157699144
336.0	0.00153498141865	0.517692680562
338.0	0.00121182743577	0.518904507998
340.0	0.000565519470027	0.519470027468
342.0	0.00121182743577	0.520681854904
344.0	0.000969461948619	0.521651316852
346.0	0.00105025044434	0.522701567297
348.0	0.00105025044434	0.523751817741
350.0	0.00161576991436	0.525367587656
352.0	0.00105025044434	0.5264178381
354.0	0.0017773469058	0.528195185006
356.0	0.00121182743577	0.529407012441
358.0	0.000807884957182	0.530214897399
360.0	0.000727096461464	0.53094199386
362.0	0.00137340442721	0.532315398287
364.0	0.000161576991436	0.532476975279
366.0	0.000646307965746	0.533123283244
368.0	0.000323153982873	0.533446437227
370.0	0.000969461948619	0.534415899176
372.0	0.0017773469058	0.536193246082
374.0	0.0008886734529	0.537081919535
376.0	0.000727096461464	0.537809015996
378.0	0.000484730974309	0.53829374697
380.0	0.00121182743577	0.539505574406
382.0	0.000727096461464	0.540232670868
384.0	0.00105025044434	0.541282921312
386.0	0.00137340442721	0.542656325739
388.0	0.0008886734529	0.543544999192
390.0	0.00105025044434	0.544595249636
392.0	0.00105025044434	0.545645500081
394.0	0.000484730974309	0.546130231055
396.0	0.000969461948619	0.547099693004
398.0	0.00137340442721	0.548473097431
400.0	0.000242365487155	0.548715462918
402.0	0.00137340442721	0.550088867345
404.0	0.00129261593149	0.551381483277
406.0	0.000969461948619	0.552350945225
408.0	0.000969461948619	0.553320407174
410.0	0.000807884957182	0.554128292131
412.0	0.000807884957182	0.554936177088
414.0	0.000807884957182	0.555744062046
416.0	0.00129261593149	0.557036677977
418.0	0.000727096461464	0.557763774439
420.0	0.00129261593149	0.55905639037
422.0	0.0008886734529	0.559945063823
424.0	0.000565519470027	0.560510583293
426.0	0.000727096461464	0.561237679754
428.0	0.000969461948619	0.562207141703
430.0	0.000403942478591	0.562611084182
432.0	0.000969461948619	0.56358054613
434.0	0.000727096461464	0.564307642592
436.0	0.000727096461464	0.565034739053
438.0	0.00113103894005	0.566165777993
440.0	0.0017773469058	0.567943124899
442.0	0.00121182743577	0.569154952335
444.0	0.0008886734529	0.570043625788
446.0	0.000565519470027	0.570609145258
448.0	0.000969461948619	0.571578607206
450.0	0.00105025044434	0.572628857651
452.0	0.00105025044434	0.573679108095
454.0	0.00121182743577	0.574890935531
456.0	0.00153498141865	0.576425916949
458.0	0.000807884957182	0.577233801907
460.0	0.000807884957182	0.578041686864
462.0	0.000807884957182	0.578849571821
464.0	0.000807884957182	0.579657456778
466.0	0.000646307965746	0.580303764744
468.0	0.00145419292293	0.581757957667
470.0	0.000727096461464	0.582485054128
472.0	0.000484730974309	0.582969785103
474.0	0.00121182743577	0.584181612538
476.0	0.000969461948619	0.585151074487
478.0	0.000565519470027	0.585716593957
480.0	0.000565519470027	0.586282113427
482.0	0.00113103894005	0.587413152367
484.0	0.0008886734529	0.58830182582
486.0	0.0008886734529	0.589190499273
488.0	0.00121182743577	0.590402326709
490.0	0.000807884957182	0.591210211666
492.0	0.00137340442721	0.592583616093
494.0	0.00113103894005	0.593714655033
496.0	0.000969461948619	0.594684116982
498.0	0.000807884957182	0.595492001939
500.0	0.000565519470027	0.596057521409
502.0	0.00129261593149	0.59735013734
504.0	0.0008886734529	0.598238810793
506.0	0.000646307965746	0.598885118759
508.0	0.000646307965746	0.599531426725
510.0	0.000484730974309	0.600016157699
512.0	0.00105025044434	0.601066408143
514.0	0.000565519470027	0.601631927614
516.0	0.000484730974309	0.602116658588
518.0	0.000484730974309	0.602601389562
520.0	0.000969461948619	0.603570851511
522.0	0.000646307965746	0.604217159476
525.0	0.00145419292293	0.605671352399
527.0	0.000565519470027	0.606236871869
529.0	0.000807884957182	0.607044756827
531.0	0.000403942478591	0.607448699305
533.0	0.000969461948619	0.608418161254
535.0	0.00105025044434	0.609468411698
537.0	0.00113103894005	0.610599450638
539.0	0.000727096461464	0.6113265471
541.0	0.00113103894005	0.61245758604
543.0	0.00105025044434	0.613507836484
545.0	0.00105025044434	0.614558086928
547.0	0.0008886734529	0.615446760381
549.0	0.0008886734529	0.616335433834
551.0	0.000484730974309	0.616820164809
553.0	0.000565519470027	0.617385684279
555.0	0.000646307965746	0.618031992244
557.0	0.000565519470027	0.618597511714
559.0	0.000565519470027	0.619163031184
561.0	0.000646307965746	0.61980933915
563.0	0.000646307965746	0.620455647116
565.0	0.00121182743577	0.621667474552
567.0	0.000646307965746	0.622313782517
569.0	0.0008886734529	0.62320245597
571.0	0.000646307965746	0.623848763936
573.0	0.0008886734529	0.624737437389
575.0	0.00113103894005	0.625868476329
577.0	0.000807884957182	0.626676361286
579.0	0.000727096461464	0.627403457748
581.0	0.000565519470027	0.627968977218
583.0	0.000565519470027	0.628534496688
585.0	0.000646307965746	0.629180804653
587.0	0.000646307965746	0.629827112619
589.0	0.000807884957182	0.630634997576
591.0	0.000565519470027	0.631200517046
593.0	0.000565519470027	0.631766036516
595.0	0.0008886734529	0.632654709969
597.0	0.000565519470027	0.633220229439
599.0	0.000646307965746	0.633866537405
601.0	0.000565519470027	0.634432056875
603.0	0.000807884957182	0.635239941832
605.0	0.000727096461464	0.635967038294
607.0	0.0008886734529	0.636855711747
609.0	0.000646307965746	0.637502019712
611.0	0.000646307965746	0.638148327678
613.0	0.000403942478591	0.638552270157
615.0	0.000727096461464	0.639279366618
617.0	0.000403942478591	0.639683309097
619.0	0.000727096461464	0.640410405558
621.0	0.000727096461464	0.64113750202
623.0	0.000484730974309	0.641622232994
625.0	0.000484730974309	0.642106963968
627.0	0.00113103894005	0.643238002908
629.0	0.000565519470027	0.643803522378
631.0	0.000646307965746	0.644449830344
633.0	0.000727096461464	0.645176926806
635.0	0.000403942478591	0.645580869284
637.0	0.000646307965746	0.64622717725
639.0	0.000727096461464	0.646954273711
641.0	0.000727096461464	0.647681370173
643.0	0.000646307965746	0.648327678139
645.0	0.000565519470027	0.648893197609
647.0	0.00105025044434	0.649943448053
649.0	0.000403942478591	0.650347390532
651.0	0.000565519470027	0.650912910002
653.0	0.000727096461464	0.651640006463
655.0	0.000403942478591	0.652043948942
657.0	0.000727096461464	0.652771045403
659.0	0.000403942478591	0.653174987882
661.0	0.000646307965746	0.653821295847
663.0	0.0008886734529	0.6547099693
665.0	0.000646307965746	0.655356277266
667.0	0.000484730974309	0.65584100824
669.0	0.000403942478591	0.656244950719
671.0	0.000565519470027	0.656810470189
673.0	0.000646307965746	0.657456778155
675.0	0.000969461948619	0.658426240103
677.0	0.000565519470027	0.658991759573
679.0	0.000807884957182	0.659799644531
681.0	0.000969461948619	0.660769106479
683.0	0.000484730974309	0.661253837454
685.0	0.0008886734529	0.662142510906
687.0	0.0008886734529	0.663031184359
689.0	0.000161576991436	0.663192761351
691.0	0.000323153982873	0.663515915334
693.0	0.000484730974309	0.664000646308
695.0	0.000484730974309	0.664485377282
697.0	0.000242365487155	0.664727742769
699.0	0.000807884957182	0.665535627727
701.0	0.000484730974309	0.666020358701
703.0	0.000807884957182	0.666828243658
705.0	0.000646307965746	0.667474551624
707.0	0.000323153982873	0.667797705607
709.0	0.000323153982873	0.66812085959
711.0	0.000323153982873	0.668444013572
713.0	0.000484730974309	0.668928744547
715.0	0.000646307965746	0.669575052513
717.0	0.000727096461464	0.670302148974
719.0	0.000403942478591	0.670706091453
721.0	0.000565519470027	0.671271610923
723.0	0.000565519470027	0.671837130393
725.0	0.000403942478591	0.672241072871
727.0	0.000242365487155	0.672483438358
729.0	0.00105025044434	0.673533688803
731.0	0.000969461948619	0.674503150751
733.0	0.0008886734529	0.675391824204
735.0	0.000646307965746	0.67603813217
737.0	0.0008886734529	0.676926805623
739.0	0.000646307965746	0.677573113589
741.0	0.000484730974309	0.678057844563
743.0	0.000403942478591	0.678461787042
745.0	0.000484730974309	0.678946518016
747.0	0.000484730974309	0.67943124899
749.0	0.000565519470027	0.67999676846
751.0	0.000565519470027	0.68056228793
753.0	0.000646307965746	0.681208595896
755.0	0.000807884957182	0.682016480853
757.0	0.000403942478591	0.682420423332
759.0	0.000484730974309	0.682905154306
761.0	0.000323153982873	0.683228308289
763.0	0.000323153982873	0.683551462272
765.0	0.000323153982873	0.683874616255
767.0	0.000646307965746	0.68452092422
769.0	0.000242365487155	0.684763289708
771.0	0.000565519470027	0.685328809178
773.0	0.000484730974309	0.685813540152
775.0	0.000646307965746	0.686459848118
777.0	0.000242365487155	0.686702213605
779.0	0.000646307965746	0.687348521571
781.0	0.000727096461464	0.688075618032
783.0	0.000242365487155	0.688317983519
785.0	0.000807884957182	0.689125868476
787.0	0.000484730974309	0.689610599451
789.0	0.000484730974309	0.690095330425
791.0	0.000323153982873	0.690418484408
793.0	0.000323153982873	0.690741638391
795.0	0.000484730974309	0.691226369365
797.0	0.000484730974309	0.691711100339
799.0	0.000242365487155	0.691953465826
801.0	0.00113103894005	0.693084504767
803.0	0.000484730974309	0.693569235741
805.0	0.000484730974309	0.694053966715
807.0	0.000807884957182	0.694861851672
809.0	0.000565519470027	0.695427371142
811.0	0.000403942478591	0.695831313621
813.0	0.000646307965746	0.696477621587
815.0	0.000807884957182	0.697285506544
817.0	0.000727096461464	0.698012603005
819.0	0.000242365487155	0.698254968492
821.0	0.000403942478591	0.698658910971
823.0	0.000403942478591	0.69906285345
825.0	0.00105025044434	0.700113103894
827.0	0.000403942478591	0.700517046373
829.0	0.000565519470027	0.701082565843
831.0	0.000646307965746	0.701728873808
833.0	0.000565519470027	0.702294393278
835.0	0.000403942478591	0.702698335757
837.0	0.000323153982873	0.70302148974
839.0	0.000646307965746	0.703667797706
841.0	0.000403942478591	0.704071740184
843.0	0.000646307965746	0.70471804815
845.0	0.0008886734529	0.705606721603
847.0	0.000403942478591	0.706010664081
849.0	0.000646307965746	0.706656972047
851.0	0.000323153982873	0.70698012603
853.0	0.000403942478591	0.707384068509
855.0	0.000323153982873	0.707707222492
858.0	0.000403942478591	0.70811116497
860.0	0.000565519470027	0.70867668444
862.0	0.000403942478591	0.709080626919
864.0	0.000727096461464	0.70980772338
866.0	0.000242365487155	0.710050088867
868.0	0.000484730974309	0.710534819842
870.0	0.000565519470027	0.711100339312
872.0	0.000323153982873	0.711423493295
874.0	0.000565519470027	0.711989012765
876.0	0.000242365487155	0.712231378252
878.0	0.000727096461464	0.712958474713
880.0	0.000484730974309	0.713443205688
882.0	0.000242365487155	0.713685571175
884.0	0.000484730974309	0.714170302149
886.0	0.000242365487155	0.714412667636
888.0	0.000323153982873	0.714735821619
890.0	0.000484730974309	0.715220552593
892.0	8.07884957182e-05	0.715301341089
894.0	0.000403942478591	0.715705283568
896.0	0.000161576991436	0.715866860559
899.0	0.000727096461464	0.716593957021
901.0	0.000969461948619	0.717563418969
903.0	0.000484730974309	0.718048149943
905.0	0.000484730974309	0.718532880918
907.0	0.000161576991436	0.718694457909
909.0	0.000727096461464	0.719421554371
911.0	0.000484730974309	0.719906285345
913.0	0.000161576991436	0.720067862336
915.0	0.000484730974309	0.720552593311
917.0	0.000807884957182	0.721360478268
919.0	0.000403942478591	0.721764420746
921.0	0.000323153982873	0.722087574729
923.0	0.000646307965746	0.722733882695
925.0	0.000242365487155	0.722976248182
927.0	0.000242365487155	0.723218613669
929.0	0.000646307965746	0.723864921635
931.0	0.000484730974309	0.724349652609
933.0	0.000403942478591	0.724753595088
935.0	0.000242365487155	0.724995960575
937.0	0.000403942478591	0.725399903054
939.0	0.000484730974309	0.725884634028
941.0	0.000646307965746	0.726530941994
943.0	0.000242365487155	0.726773307481
945.0	0.000484730974309	0.727258038455
947.0	0.000646307965746	0.727904346421
949.0	0.000403942478591	0.7283082889
951.0	8.07884957182e-05	0.728389077395
953.0	0.000403942478591	0.728793019874
955.0	0.000323153982873	0.729116173857
957.0	0.000646307965746	0.729762481823
959.0	0.000484730974309	0.730247212797
961.0	0.000403942478591	0.730651155275
963.0	0.000242365487155	0.730893520763
965.0	0.000646307965746	0.731539828728
967.0	0.000484730974309	0.732024559703
969.0	0.000646307965746	0.732670867668
971.0	0.000403942478591	0.733074810147
973.0	0.000727096461464	0.733801906608
975.0	0.000565519470027	0.734367426079
977.0	0.000565519470027	0.734932945549
979.0	0.000242365487155	0.735175311036
981.0	0.000161576991436	0.735336888027
983.0	0.000403942478591	0.735740830506
985.0	0.000242365487155	0.735983195993
987.0	8.07884957182e-05	0.736063984489
989.0	0.000727096461464	0.73679108095
991.0	0.000969461948619	0.737760542899
993.0	0.000323153982873	0.738083696882
995.0	0.000323153982873	0.738406850864
997.0	0.000565519470027	0.738972370334
999.0	0.000323153982873	0.739295524317
1001.0	0.000323153982873	0.7396186783
1003.0	0.000323153982873	0.739941832283
1005.0	0.000242365487155	0.74018419777
1007.0	0.000484730974309	0.740668928745
1009.0	0.000242365487155	0.740911294232
1011.0	0.000161576991436	0.741072871223
1013.0	0.000403942478591	0.741476813702
1015.0	0.000242365487155	0.741719179189
1017.0	0.000323153982873	0.742042333172
1019.0	0.000242365487155	0.742284698659
1021.0	0.000403942478591	0.742688641138
1023.0	0.000807884957182	0.743496526095
1025.0	0.000565519470027	0.744062045565
1028.0	0.000323153982873	0.744385199548
1030.0	0.000323153982873	0.74470835353
1032.0	0.000403942478591	0.745112296009
1034.0	0.000565519470027	0.745677815479
1036.0	0.000161576991436	0.745839392471
1038.0	0.000565519470027	0.746404911941
1040.0	0.000727096461464	0.747132008402
1042.0	0.000242365487155	0.747374373889
1045.0	0.000403942478591	0.747778316368
1047.0	0.000323153982873	0.748101470351
1049.0	0.000323153982873	0.748424624333
1051.0	0.000323153982873	0.748747778316
1053.0	0.000161576991436	0.748909355308
1055.0	0.000807884957182	0.749717240265
1057.0	0.000484730974309	0.750201971239
1059.0	0.000161576991436	0.750363548231
1061.0	0.000161576991436	0.750525125222
1063.0	0.000565519470027	0.751090644692
1065.0	0.000403942478591	0.751494587171
1067.0	0.000242365487155	0.751736952658
1069.0	0.000161576991436	0.751898529649
1071.0	0.000403942478591	0.752302472128
1073.0	0.000403942478591	0.752706414607
1075.0	0.000323153982873	0.753029568589
1077.0	0.000403942478591	0.753433511068
1079.0	0.000646307965746	0.754079819034
1081.0	0.000403942478591	0.754483761512
1083.0	0.000565519470027	0.755049280982
1085.0	0.000646307965746	0.755695588948
1088.0	0.000646307965746	0.756341896914
1090.0	0.000403942478591	0.756745839392
1092.0	0.000242365487155	0.75698820488
1094.0	0.000242365487155	0.757230570367
1097.0	0.000484730974309	0.757715301341
1099.0	0.000242365487155	0.757957666828
1101.0	0.000242365487155	0.758200032315
1103.0	0.000484730974309	0.75868476329
1105.0	0.000484730974309	0.759169494264
1108.0	0.000323153982873	0.759492648247
1110.0	0.000242365487155	0.759735013734
1114.0	0.000323153982873	0.760058167717
1116.0	0.000323153982873	0.7603813217
1118.0	0.000484730974309	0.760866052674
1121.0	0.000161576991436	0.761027629666
1123.0	0.000484730974309	0.76151236064
1125.0	0.000161576991436	0.761673937631
1128.0	0.000484730974309	0.762158668606
1130.0	0.000484730974309	0.76264339958
1132.0	0.000323153982873	0.762966553563
1134.0	0.000565519470027	0.763532073033
1136.0	0.000646307965746	0.764178380999
1138.0	0.000323153982873	0.764501534981
1140.0	0.000323153982873	0.764824688964
1142.0	0.000403942478591	0.765228631443
1145.0	0.000242365487155	0.76547099693
1147.0	0.000323153982873	0.765794150913
1149.0	0.000403942478591	0.766198093392
1151.0	0.000242365487155	0.766440458879
1153.0	0.000242365487155	0.766682824366
1155.0	0.000403942478591	0.767086766844
1157.0	0.000242365487155	0.767329132332
1160.0	0.000484730974309	0.767813863306
1162.0	0.000323153982873	0.768137017289
1164.0	0.000242365487155	0.768379382776
1166.0	0.000403942478591	0.768783325254
1168.0	0.000323153982873	0.769106479237
1170.0	0.000242365487155	0.769348844725
1172.0	8.07884957182e-05	0.76942963322
1174.0	0.000403942478591	0.769833575699
1176.0	0.000161576991436	0.76999515269
1178.0	0.000565519470027	0.77056067216
1181.0	0.000161576991436	0.770722249152
1184.0	0.000161576991436	0.770883826143
1186.0	0.000161576991436	0.771045403135
1189.0	0.000323153982873	0.771368557117
1191.0	0.000403942478591	0.771772499596
1193.0	0.000161576991436	0.771934076587
1195.0	0.000242365487155	0.772176442075
1198.0	0.000403942478591	0.772580384553
1200.0	0.000323153982873	0.772903538536
1202.0	0.000323153982873	0.773226692519
1205.0	0.000403942478591	0.773630634998
1207.0	0.000161576991436	0.773792211989
1209.0	0.000242365487155	0.774034577476
1212.0	0.000565519470027	0.774600096946
1214.0	0.000323153982873	0.774923250929
1216.0	0.000403942478591	0.775327193408
1218.0	0.000484730974309	0.775811924382
1220.0	0.000323153982873	0.776135078365
1222.0	0.000242365487155	0.776377443852
1224.0	0.000242365487155	0.776619809339
1226.0	0.000323153982873	0.776942963322
1228.0	0.000403942478591	0.777346905801
1230.0	0.000323153982873	0.777670059783
1233.0	0.000484730974309	0.778154790758
1235.0	0.000242365487155	0.778397156245
1237.0	8.07884957182e-05	0.778477944741
1239.0	0.000242365487155	0.778720310228
1241.0	0.000242365487155	0.778962675715
1243.0	8.07884957182e-05	0.779043464211
1245.0	0.000403942478591	0.779447406689
1247.0	0.000403942478591	0.779851349168
1249.0	0.000484730974309	0.780336080142
1251.0	8.07884957182e-05	0.780416868638
1253.0	0.000161576991436	0.780578445629
1255.0	0.000484730974309	0.781063176604
1257.0	0.000323153982873	0.781386330587
1259.0	0.000484730974309	0.781871061561
1262.0	0.000323153982873	0.782194215544
1264.0	0.000161576991436	0.782355792535
1266.0	0.000646307965746	0.783002100501
1268.0	0.000242365487155	0.783244465988
1271.0	0.000403942478591	0.783648408467
1274.0	0.000161576991436	0.783809985458
1276.0	0.000161576991436	0.78397156245
1279.0	0.000565519470027	0.78453708192
1281.0	0.000242365487155	0.784779447407
1284.0	0.000161576991436	0.784941024398
1286.0	0.000323153982873	0.785264178381
1288.0	0.000323153982873	0.785587332364
1291.0	0.000242365487155	0.785829697851
1293.0	0.000403942478591	0.78623364033
1296.0	0.000323153982873	0.786556794312
1298.0	0.000161576991436	0.786718371304
1300.0	0.000323153982873	0.787041525287
1303.0	0.000484730974309	0.787526256261
1305.0	8.07884957182e-05	0.787607044757
1307.0	0.000161576991436	0.787768621748
1310.0	8.07884957182e-05	0.787849410244
1312.0	0.000403942478591	0.788253352723
1314.0	0.000323153982873	0.788576506705
1316.0	0.000242365487155	0.788818872193
1319.0	8.07884957182e-05	0.788899660688
1323.0	0.000161576991436	0.78906123768
1325.0	0.000323153982873	0.789384391663
1328.0	0.000323153982873	0.789707545646
1331.0	0.000323153982873	0.790030699628
1333.0	0.000242365487155	0.790273065116
1335.0	0.000242365487155	0.790515430603
1337.0	0.000403942478591	0.790919373081
1339.0	0.000161576991436	0.791080950073
1344.0	0.000161576991436	0.791242527064
1346.0	0.000161576991436	0.791404104056
1348.0	0.000161576991436	0.791565681047
1350.0	0.000242365487155	0.791808046534
1352.0	0.000161576991436	0.791969623526
1354.0	0.000323153982873	0.792292777508
1356.0	0.000242365487155	0.792535142996
1358.0	0.000242365487155	0.792777508483
1360.0	0.000242365487155	0.79301987397
1362.0	8.07884957182e-05	0.793100662466
1364.0	0.000242365487155	0.793343027953
1367.0	0.000242365487155	0.79358539344
1370.0	0.000161576991436	0.793746970431
1372.0	0.000161576991436	0.793908547423
1374.0	0.000242365487155	0.79415091291
1376.0	0.000242365487155	0.794393278397
1378.0	0.000161576991436	0.794554855389
1380.0	0.000242365487155	0.794797220876
1383.0	0.000323153982873	0.795120374859
1385.0	0.000323153982873	0.795443528841
1387.0	0.000242365487155	0.795685894329
1389.0	8.07884957182e-05	0.795766682824
1391.0	0.000161576991436	0.795928259816
1393.0	8.07884957182e-05	0.796009048312
1395.0	0.000484730974309	0.796493779286
1397.0	8.07884957182e-05	0.796574567782
1399.0	0.000242365487155	0.796816933269
1401.0	0.000161576991436	0.79697851026
1407.0	0.000242365487155	0.797220875747
1409.0	0.000161576991436	0.797382452739
1411.0	8.07884957182e-05	0.797463241234
1414.0	0.000403942478591	0.797867183713
1416.0	0.000242365487155	0.7981095492
1418.0	8.07884957182e-05	0.798190337696
1420.0	0.000242365487155	0.798432703183
1422.0	0.000323153982873	0.798755857166
1425.0	0.000242365487155	0.798998222653
1427.0	0.000161576991436	0.799159799645
1429.0	0.000242365487155	0.799402165132
1431.0	0.000646307965746	0.800048473097
1433.0	0.000323153982873	0.80037162708
1435.0	0.000242365487155	0.800613992567
1437.0	0.000161576991436	0.800775569559
1439.0	0.000242365487155	0.801017935046
1445.0	0.000161576991436	0.801179512037
1449.0	8.07884957182e-05	0.801260300533
1451.0	0.000323153982873	0.801583454516
1453.0	0.000161576991436	0.801745031508
1456.0	0.000323153982873	0.80206818549
1458.0	0.000403942478591	0.802472127969
1461.0	8.07884957182e-05	0.802552916465
1463.0	0.000242365487155	0.802795281952
1466.0	0.000161576991436	0.802956858943
1468.0	0.000161576991436	0.803118435935
1470.0	0.000242365487155	0.803360801422
1472.0	0.000242365487155	0.803603166909
1474.0	0.000242365487155	0.803845532396
1476.0	0.000403942478591	0.804249474875
1478.0	0.000161576991436	0.804411051866
1480.0	0.000161576991436	0.804572628858
1482.0	0.000161576991436	0.804734205849
1484.0	0.000242365487155	0.804976571336
1487.0	0.000403942478591	0.805380513815
1490.0	0.000161576991436	0.805542090806
1492.0	0.000161576991436	0.805703667798
1494.0	0.000323153982873	0.806026821781
1496.0	0.000161576991436	0.806188398772
1499.0	0.000161576991436	0.806349975763
1501.0	8.07884957182e-05	0.806430764259
1503.0	0.000242365487155	0.806673129746
1505.0	0.000161576991436	0.806834706738
1507.0	0.000323153982873	0.807157860721
1509.0	0.000565519470027	0.807723380191
1511.0	0.000242365487155	0.807965745678
1516.0	0.000242365487155	0.808208111165
1518.0	8.07884957182e-05	0.808288899661
1520.0	0.000161576991436	0.808450476652
1522.0	0.000242365487155	0.808692842139
1524.0	8.07884957182e-05	0.808773630635
1526.0	0.000161576991436	0.808935207626
1528.0	0.000242365487155	0.809177573114
1531.0	0.000403942478591	0.809581515592
1533.0	0.000161576991436	0.809743092584
1535.0	0.000161576991436	0.809904669575
1537.0	0.000242365487155	0.810147035062
1539.0	0.000403942478591	0.810550977541
1541.0	0.000242365487155	0.810793343028
1543.0	0.000403942478591	0.811197285507
1545.0	8.07884957182e-05	0.811278074002
1548.0	8.07884957182e-05	0.811358862498
1552.0	8.07884957182e-05	0.811439650994
1554.0	0.000161576991436	0.811601227985
1556.0	0.000161576991436	0.811762804977
1559.0	0.000161576991436	0.811924381968
1562.0	0.000323153982873	0.812247535951
1565.0	0.000323153982873	0.812570689934
1568.0	0.000323153982873	0.812893843917
1570.0	0.000161576991436	0.813055420908
1572.0	0.000323153982873	0.813378574891
1575.0	0.000323153982873	0.813701728874
1579.0	0.000242365487155	0.813944094361
1581.0	0.000161576991436	0.814105671352
1583.0	8.07884957182e-05	0.814186459848
1587.0	0.000242365487155	0.814428825335
1589.0	0.000161576991436	0.814590402327
1591.0	0.000161576991436	0.814751979318
1595.0	8.07884957182e-05	0.814832767814
1597.0	0.000161576991436	0.814994344805
1599.0	0.000323153982873	0.815317498788
1601.0	0.000403942478591	0.815721441267
1603.0	8.07884957182e-05	0.815802229762
1606.0	0.000242365487155	0.81604459525
1608.0	8.07884957182e-05	0.816125383745
1611.0	0.000403942478591	0.816529326224
1613.0	0.000323153982873	0.816852480207
1616.0	8.07884957182e-05	0.816933268703
1619.0	8.07884957182e-05	0.817014057198
1621.0	8.07884957182e-05	0.817094845694
1624.0	0.000242365487155	0.817337211181
1628.0	0.000161576991436	0.817498788173
1630.0	0.000323153982873	0.817821942155
1632.0	8.07884957182e-05	0.817902730651
1636.0	0.000161576991436	0.818064307643
1639.0	0.000403942478591	0.818468250121
1641.0	0.000403942478591	0.8188721926
1643.0	0.000161576991436	0.819033769591
1645.0	0.000161576991436	0.819195346583
1647.0	8.07884957182e-05	0.819276135078
1649.0	0.000161576991436	0.81943771207
1652.0	0.000161576991436	0.819599289061
1654.0	8.07884957182e-05	0.819680077557
1656.0	0.000323153982873	0.82000323154
1658.0	0.000161576991436	0.820164808531
1661.0	8.07884957182e-05	0.820245597027
1663.0	0.000161576991436	0.820407174018
1665.0	8.07884957182e-05	0.820487962514
1670.0	0.000403942478591	0.820891904993
1673.0	0.000323153982873	0.821215058976
1675.0	0.000242365487155	0.821457424463
1679.0	8.07884957182e-05	0.821538212958
1681.0	8.07884957182e-05	0.821619001454
1683.0	0.000242365487155	0.821861366941
1685.0	0.000403942478591	0.82226530942
1687.0	8.07884957182e-05	0.822346097916
1689.0	0.000323153982873	0.822669251899
1692.0	0.000403942478591	0.823073194377
1697.0	8.07884957182e-05	0.823153982873
1699.0	8.07884957182e-05	0.823234771369
1701.0	8.07884957182e-05	0.823315559864
1704.0	8.07884957182e-05	0.82339634836
1710.0	8.07884957182e-05	0.823477136856
1713.0	8.07884957182e-05	0.823557925351
1715.0	8.07884957182e-05	0.823638713847
1718.0	0.000161576991436	0.823800290839
1720.0	8.07884957182e-05	0.823881079334
1722.0	0.000161576991436	0.824042656326
1725.0	8.07884957182e-05	0.824123444821
1727.0	0.000403942478591	0.8245273873
1730.0	0.000242365487155	0.824769752787
1732.0	0.000403942478591	0.825173695266
1734.0	8.07884957182e-05	0.825254483762
1736.0	0.000161576991436	0.825416060753
1743.0	0.000161576991436	0.825577637744
1745.0	8.07884957182e-05	0.82565842624
1747.0	8.07884957182e-05	0.825739214736
1749.0	0.000323153982873	0.826062368719
1751.0	0.000242365487155	0.826304734206
1753.0	0.000323153982873	0.826627888189
1756.0	8.07884957182e-05	0.826708676684
1758.0	0.000161576991436	0.826870253676
1760.0	0.000242365487155	0.827112619163
1762.0	0.000323153982873	0.827435773146
1764.0	8.07884957182e-05	0.827516561642
1767.0	0.000161576991436	0.827678138633
1770.0	0.000242365487155	0.82792050412
1773.0	0.000242365487155	0.828162869607
1776.0	8.07884957182e-05	0.828243658103
1779.0	0.000161576991436	0.828405235095
1781.0	0.000242365487155	0.828647600582
1784.0	8.07884957182e-05	0.828728389077
1788.0	0.000242365487155	0.828970754565
1790.0	8.07884957182e-05	0.82905154306
1792.0	0.000161576991436	0.829213120052
1794.0	0.000161576991436	0.829374697043
1796.0	0.000161576991436	0.829536274035
1800.0	0.000323153982873	0.829859428017
1802.0	0.000323153982873	0.830182582
1804.0	0.000323153982873	0.830505735983
1806.0	0.000323153982873	0.830828889966
1809.0	8.07884957182e-05	0.830909678462
1811.0	8.07884957182e-05	0.830990466958
1813.0	0.000161576991436	0.831152043949
1817.0	0.000161576991436	0.83131362094
1819.0	0.000161576991436	0.831475197932
1821.0	8.07884957182e-05	0.831555986428
1824.0	0.000242365487155	0.831798351915
1826.0	8.07884957182e-05	0.83187914041
1828.0	0.000242365487155	0.832121505898
1830.0	0.000242365487155	0.832363871385
1832.0	8.07884957182e-05	0.83244465988
1834.0	8.07884957182e-05	0.832525448376
1836.0	8.07884957182e-05	0.832606236872
1839.0	8.07884957182e-05	0.832687025368
1842.0	0.000242365487155	0.832929390855
1844.0	0.000323153982873	0.833252544838
1846.0	0.000161576991436	0.833414121829
1849.0	0.000403942478591	0.833818064308
1855.0	0.000323153982873	0.834141218291
1857.0	0.000242365487155	0.834383583778
1859.0	0.000323153982873	0.834706737761
1861.0	8.07884957182e-05	0.834787526256
1863.0	0.000242365487155	0.835029891743
1866.0	8.07884957182e-05	0.835110680239
1870.0	0.000161576991436	0.835272257231
1872.0	0.000242365487155	0.835514622718
1874.0	0.000161576991436	0.835676199709
1877.0	0.000242365487155	0.835918565196
1880.0	0.000161576991436	0.836080142188
1882.0	0.000242365487155	0.836322507675
1885.0	0.000242365487155	0.836564873162
1887.0	0.000161576991436	0.836726450153
1889.0	0.000242365487155	0.836968815641
1892.0	0.000161576991436	0.837130392632
1896.0	0.000242365487155	0.837372758119
1899.0	0.000161576991436	0.837534335111
1901.0	0.000242365487155	0.837776700598
1906.0	0.000161576991436	0.837938277589
1909.0	8.07884957182e-05	0.838019066085
1913.0	8.07884957182e-05	0.838099854581
1916.0	0.000323153982873	0.838423008564
1919.0	0.000242365487155	0.838665374051
1922.0	0.000242365487155	0.838907739538
1926.0	8.07884957182e-05	0.838988528034
1930.0	0.000161576991436	0.839150105025
1932.0	0.000161576991436	0.839311682016
1934.0	8.07884957182e-05	0.839392470512
1938.0	0.000242365487155	0.839634835999
1941.0	8.07884957182e-05	0.839715624495
1943.0	0.000161576991436	0.839877201487
1948.0	0.000323153982873	0.840200355469
1950.0	0.000161576991436	0.840361932461
1954.0	0.000161576991436	0.840523509452
1956.0	0.000242365487155	0.840765874939
1959.0	0.000161576991436	0.840927451931
1964.0	0.000242365487155	0.841169817418
1967.0	8.07884957182e-05	0.841250605914
1969.0	0.000161576991436	0.841412182905
1973.0	0.000161576991436	0.841573759897
1975.0	0.000161576991436	0.841735336888
1977.0	0.000161576991436	0.841896913879
1981.0	8.07884957182e-05	0.841977702375
1983.0	8.07884957182e-05	0.842058490871
1985.0	8.07884957182e-05	0.842139279367
1995.0	0.000161576991436	0.842300856358
1998.0	8.07884957182e-05	0.842381644854
2001.0	0.000242365487155	0.842624010341
2004.0	8.07884957182e-05	0.842704798837
2007.0	0.000242365487155	0.842947164324
2010.0	8.07884957182e-05	0.84302795282
2013.0	0.000242365487155	0.843270318307
2016.0	0.000323153982873	0.84359347229
2020.0	8.07884957182e-05	0.843674260785
2022.0	0.000323153982873	0.843997414768
2028.0	8.07884957182e-05	0.844078203264
2030.0	8.07884957182e-05	0.84415899176
2032.0	0.000161576991436	0.844320568751
2034.0	8.07884957182e-05	0.844401357247
2036.0	0.000161576991436	0.844562934238
2039.0	0.000242365487155	0.844805299725
2042.0	8.07884957182e-05	0.844886088221
2045.0	0.000161576991436	0.845047665212
2048.0	0.000242365487155	0.8452900307
2050.0	8.07884957182e-05	0.845370819195
2052.0	0.000161576991436	0.845532396187
2054.0	8.07884957182e-05	0.845613184683
2056.0	8.07884957182e-05	0.845693973178
2061.0	0.000161576991436	0.84585555017
2066.0	8.07884957182e-05	0.845936338665
2070.0	8.07884957182e-05	0.846017127161
2075.0	0.000161576991436	0.846178704153
2078.0	8.07884957182e-05	0.846259492648
2081.0	8.07884957182e-05	0.846340281144
2084.0	8.07884957182e-05	0.84642106964
2087.0	0.000323153982873	0.846744223623
2090.0	8.07884957182e-05	0.846825012118
2092.0	8.07884957182e-05	0.846905800614
2099.0	0.000161576991436	0.847067377605
2104.0	0.000403942478591	0.847471320084
2106.0	0.000242365487155	0.847713685571
2112.0	8.07884957182e-05	0.847794474067
2115.0	8.07884957182e-05	0.847875262563
2119.0	0.000161576991436	0.848036839554
2122.0	0.000161576991436	0.848198416545
2124.0	0.000242365487155	0.848440782033
2126.0	0.000323153982873	0.848763936016
2130.0	0.000242365487155	0.849006301503
2135.0	0.000161576991436	0.849167878494
2138.0	0.000161576991436	0.849329455486
2140.0	8.07884957182e-05	0.849410243981
2142.0	8.07884957182e-05	0.849491032477
2147.0	8.07884957182e-05	0.849571820973
2150.0	0.000242365487155	0.84981418646
2156.0	0.000242365487155	0.850056551947
2162.0	8.07884957182e-05	0.850137340443
2165.0	8.07884957182e-05	0.850218128938
2171.0	0.000242365487155	0.850460494426
2173.0	0.000161576991436	0.850622071417
2175.0	0.000161576991436	0.850783648408
2178.0	0.000161576991436	0.8509452254
2181.0	0.000161576991436	0.851106802391
2183.0	0.000323153982873	0.851429956374
2187.0	8.07884957182e-05	0.85151074487
2189.0	8.07884957182e-05	0.851591533366
2192.0	0.000161576991436	0.851753110357
2195.0	8.07884957182e-05	0.851833898853
2199.0	0.000161576991436	0.851995475844
2202.0	0.000161576991436	0.852157052836
2204.0	0.000161576991436	0.852318629827
2207.0	0.000161576991436	0.852480206819
2209.0	0.000161576991436	0.85264178381
2213.0	0.000161576991436	0.852803360801
2218.0	8.07884957182e-05	0.852884149297
2221.0	0.000161576991436	0.853045726289
2226.0	8.07884957182e-05	0.853126514784
2228.0	0.000161576991436	0.853288091776
2232.0	0.000161576991436	0.853449668767
2234.0	8.07884957182e-05	0.853530457263
2237.0	0.000323153982873	0.853853611246
2239.0	8.07884957182e-05	0.853934399741
2241.0	0.000161576991436	0.854095976733
2243.0	0.000161576991436	0.854257553724
2245.0	0.000161576991436	0.854419130716
2247.0	8.07884957182e-05	0.854499919212
2253.0	0.000161576991436	0.854661496203
2255.0	8.07884957182e-05	0.854742284699
2262.0	8.07884957182e-05	0.854823073194
2265.0	8.07884957182e-05	0.85490386169
2268.0	0.000161576991436	0.855065438682
2270.0	8.07884957182e-05	0.855146227177
2272.0	8.07884957182e-05	0.855227015673
2279.0	0.000161576991436	0.855388592664
2281.0	8.07884957182e-05	0.85546938116
2283.0	0.000242365487155	0.855711746647
2285.0	8.07884957182e-05	0.855792535143
2289.0	0.000161576991436	0.855954112134
2291.0	8.07884957182e-05	0.85603490063
2293.0	8.07884957182e-05	0.856115689126
2297.0	8.07884957182e-05	0.856196477622
2301.0	0.000242365487155	0.856438843109
2303.0	8.07884957182e-05	0.856519631604
2305.0	8.07884957182e-05	0.8566004201
2308.0	8.07884957182e-05	0.856681208596
2311.0	0.000161576991436	0.856842785587
2314.0	0.000403942478591	0.857246728066
2320.0	8.07884957182e-05	0.857327516562
2322.0	8.07884957182e-05	0.857408305057
2328.0	8.07884957182e-05	0.857489093553
2330.0	8.07884957182e-05	0.857569882049
2332.0	8.07884957182e-05	0.857650670545
2336.0	8.07884957182e-05	0.85773145904
2339.0	0.000161576991436	0.857893036032
2341.0	0.000161576991436	0.858054613023
2348.0	0.000242365487155	0.85829697851
2351.0	8.07884957182e-05	0.858377767006
2353.0	8.07884957182e-05	0.858458555502
2355.0	0.000323153982873	0.858781709485
2359.0	0.000161576991436	0.858943286476
2361.0	0.000161576991436	0.859104863467
2363.0	8.07884957182e-05	0.859185651963
2371.0	0.000242365487155	0.85942801745
2373.0	0.000161576991436	0.859589594442
2376.0	0.000242365487155	0.859831959929
2378.0	0.000242365487155	0.860074325416
2383.0	8.07884957182e-05	0.860155113912
2385.0	0.000242365487155	0.860397479399
2388.0	0.000161576991436	0.86055905639
2392.0	0.000161576991436	0.860720633382
2394.0	8.07884957182e-05	0.860801421878
2397.0	0.000161576991436	0.860962998869
2400.0	0.000161576991436	0.86112457586
2403.0	0.000242365487155	0.861366941348
2405.0	0.000161576991436	0.861528518339
2409.0	0.000161576991436	0.86169009533
2411.0	0.000242365487155	0.861932460818
2413.0	0.000161576991436	0.862094037809
2415.0	8.07884957182e-05	0.862174826305
2417.0	0.000161576991436	0.862336403296
2419.0	8.07884957182e-05	0.862417191792
2421.0	0.000161576991436	0.862578768783
2425.0	0.000242365487155	0.86282113427
2428.0	0.000242365487155	0.863063499758
2430.0	0.000161576991436	0.863225076749
2432.0	0.000242365487155	0.863467442236
2436.0	8.07884957182e-05	0.863548230732
2438.0	0.000161576991436	0.863709807723
2444.0	0.000161576991436	0.863871384715
2447.0	0.000161576991436	0.864032961706
2449.0	0.000161576991436	0.864194538698
2452.0	0.000161576991436	0.864356115689
2458.0	0.000161576991436	0.864517692681
2461.0	0.000161576991436	0.864679269672
2464.0	0.000242365487155	0.864921635159
2466.0	8.07884957182e-05	0.865002423655
2468.0	0.000161576991436	0.865164000646
2476.0	0.000161576991436	0.865325577638
2483.0	0.000161576991436	0.865487154629
2486.0	0.000161576991436	0.865648731621
2489.0	0.000161576991436	0.865810308612
2494.0	0.000161576991436	0.865971885603
2498.0	0.000242365487155	0.866214251091
2501.0	0.000161576991436	0.866375828082
2503.0	8.07884957182e-05	0.866456616578
2506.0	0.000242365487155	0.866698982065
2508.0	0.000242365487155	0.866941347552
2511.0	8.07884957182e-05	0.867022136048
2513.0	8.07884957182e-05	0.867102924544
2515.0	0.000161576991436	0.867264501535
2526.0	0.000161576991436	0.867426078526
2529.0	0.000161576991436	0.867587655518
2533.0	8.07884957182e-05	0.867668444014
2536.0	0.000242365487155	0.867910809501
2538.0	0.000161576991436	0.868072386492
2540.0	0.000161576991436	0.868233963484
2542.0	8.07884957182e-05	0.868314751979
2545.0	0.000161576991436	0.868476328971
2549.0	8.07884957182e-05	0.868557117466
2551.0	0.000161576991436	0.868718694458
2554.0	0.000161576991436	0.868880271449
2558.0	0.000161576991436	0.869041848441
2562.0	0.000161576991436	0.869203425432
2564.0	8.07884957182e-05	0.869284213928
2573.0	8.07884957182e-05	0.869365002424
2575.0	0.000161576991436	0.869526579415
2588.0	8.07884957182e-05	0.869607367911
2590.0	8.07884957182e-05	0.869688156407
2592.0	8.07884957182e-05	0.869768944902
2601.0	0.000161576991436	0.869930521894
2603.0	0.000161576991436	0.870092098885
2605.0	0.000161576991436	0.870253675877
2607.0	0.000242365487155	0.870496041364
2609.0	8.07884957182e-05	0.870576829859
2611.0	8.07884957182e-05	0.870657618355
2614.0	8.07884957182e-05	0.870738406851
2619.0	8.07884957182e-05	0.870819195347
2623.0	0.000242365487155	0.871061560834
2630.0	8.07884957182e-05	0.871142349329
2632.0	0.000161576991436	0.871303926321
2637.0	0.000161576991436	0.871465503312
2645.0	8.07884957182e-05	0.871546291808
2648.0	8.07884957182e-05	0.871627080304
2650.0	8.07884957182e-05	0.871707868799
2652.0	8.07884957182e-05	0.871788657295
2658.0	8.07884957182e-05	0.871869445791
2660.0	8.07884957182e-05	0.871950234287
2663.0	8.07884957182e-05	0.872031022782
2668.0	0.000161576991436	0.872192599774
2670.0	8.07884957182e-05	0.87227338827
2675.0	0.000242365487155	0.872515753757
2677.0	0.000242365487155	0.872758119244
2679.0	0.000161576991436	0.872919696235
2681.0	0.000161576991436	0.873081273227
2686.0	8.07884957182e-05	0.873162061722
2688.0	8.07884957182e-05	0.873242850218
2694.0	0.000161576991436	0.87340442721
2701.0	8.07884957182e-05	0.873485215705
2709.0	0.000242365487155	0.873727581192
2711.0	0.000242365487155	0.87396994668
2713.0	0.000161576991436	0.874131523671
2717.0	0.000161576991436	0.874293100662
2721.0	8.07884957182e-05	0.874373889158
2725.0	8.07884957182e-05	0.874454677654
2728.0	0.000242365487155	0.874697043141
2731.0	8.07884957182e-05	0.874777831637
2736.0	0.000161576991436	0.874939408628
2738.0	0.000161576991436	0.87510098562
2747.0	0.000242365487155	0.875343351107
2750.0	0.000161576991436	0.875504928098
2758.0	0.000161576991436	0.87566650509
2760.0	8.07884957182e-05	0.875747293585
2766.0	0.000242365487155	0.875989659073
2771.0	8.07884957182e-05	0.876070447568
2774.0	0.000161576991436	0.87623202456
2780.0	0.000161576991436	0.876393601551
2784.0	0.000242365487155	0.876635967038
2786.0	0.000242365487155	0.876878332525
2791.0	8.07884957182e-05	0.876959121021
2795.0	0.000242365487155	0.877201486508
2798.0	8.07884957182e-05	0.877282275004
2800.0	0.000161576991436	0.877443851995
2802.0	8.07884957182e-05	0.877524640491
2806.0	0.000161576991436	0.877686217483
2808.0	8.07884957182e-05	0.877767005978
2811.0	8.07884957182e-05	0.877847794474
2813.0	8.07884957182e-05	0.87792858297
2816.0	8.07884957182e-05	0.878009371466
2818.0	0.000161576991436	0.878170948457
2823.0	0.000161576991436	0.878332525448
2831.0	0.000242365487155	0.878574890936
2843.0	8.07884957182e-05	0.878655679431
2846.0	0.000323153982873	0.878978833414
2848.0	8.07884957182e-05	0.87905962191
2851.0	0.000161576991436	0.879221198901
2854.0	0.000161576991436	0.879382775893
2856.0	8.07884957182e-05	0.879463564388
2858.0	0.000161576991436	0.87962514138
2860.0	8.07884957182e-05	0.879705929876
2863.0	8.07884957182e-05	0.879786718371
2869.0	8.07884957182e-05	0.879867506867
2874.0	8.07884957182e-05	0.879948295363
2881.0	8.07884957182e-05	0.880029083858
2883.0	8.07884957182e-05	0.880109872354
2885.0	8.07884957182e-05	0.88019066085
2889.0	8.07884957182e-05	0.880271449346
2894.0	0.000242365487155	0.880513814833
2896.0	0.000242365487155	0.88075618032
2899.0	8.07884957182e-05	0.880836968816
2903.0	8.07884957182e-05	0.880917757311
2907.0	8.07884957182e-05	0.880998545807
2909.0	8.07884957182e-05	0.881079334303
2912.0	0.000161576991436	0.881240911294
2918.0	8.07884957182e-05	0.88132169979
2928.0	0.000242365487155	0.881564065277
2931.0	0.000161576991436	0.881725642269
2933.0	8.07884957182e-05	0.881806430764
2944.0	8.07884957182e-05	0.88188721926
2947.0	8.07884957182e-05	0.881968007756
2954.0	0.000161576991436	0.882129584747
2959.0	0.000242365487155	0.882371950234
2964.0	8.07884957182e-05	0.88245273873
2970.0	0.000161576991436	0.882614315721
2972.0	0.000161576991436	0.882775892713
2982.0	0.000161576991436	0.882937469704
2985.0	0.000161576991436	0.883099046696
2990.0	0.000242365487155	0.883341412183
2994.0	0.000161576991436	0.883502989174
2997.0	0.000161576991436	0.883664566166
2999.0	8.07884957182e-05	0.883745354661
3001.0	8.07884957182e-05	0.883826143157
3004.0	0.000161576991436	0.883987720149
3006.0	0.000242365487155	0.884230085636
3012.0	8.07884957182e-05	0.884310874132
3016.0	0.000161576991436	0.884472451123
3018.0	8.07884957182e-05	0.884553239619
3020.0	0.000242365487155	0.884795605106
3022.0	8.07884957182e-05	0.884876393602
3025.0	8.07884957182e-05	0.884957182097
3030.0	8.07884957182e-05	0.885037970593
3032.0	0.000161576991436	0.885199547584
3036.0	8.07884957182e-05	0.88528033608
3038.0	0.000242365487155	0.885522701567
3040.0	8.07884957182e-05	0.885603490063
3043.0	0.000242365487155	0.88584585555
3045.0	0.000242365487155	0.886088221037
3048.0	0.000161576991436	0.886249798029
3052.0	0.000161576991436	0.88641137502
3072.0	0.000161576991436	0.886572952012
3075.0	0.000161576991436	0.886734529003
3079.0	0.000161576991436	0.886896105995
3082.0	0.000242365487155	0.887138471482
3084.0	0.000161576991436	0.887300048473
3093.0	8.07884957182e-05	0.887380836969
3096.0	0.000323153982873	0.887703990952
3099.0	0.000161576991436	0.887865567943
3103.0	0.000161576991436	0.888027144935
3106.0	8.07884957182e-05	0.88810793343
3111.0	0.000242365487155	0.888350298917
3113.0	8.07884957182e-05	0.888431087413
3115.0	8.07884957182e-05	0.888511875909
3118.0	8.07884957182e-05	0.888592664405
3121.0	0.000161576991436	0.888754241396
3131.0	8.07884957182e-05	0.888835029892
3133.0	0.000161576991436	0.888996606883
3135.0	8.07884957182e-05	0.889077395379
3140.0	0.000161576991436	0.88923897237
3144.0	8.07884957182e-05	0.889319760866
3147.0	8.07884957182e-05	0.889400549362
3156.0	0.000242365487155	0.889642914849
3158.0	0.000161576991436	0.88980449184
3162.0	0.000161576991436	0.889966068832
3164.0	8.07884957182e-05	0.890046857328
3167.0	8.07884957182e-05	0.890127645823
3170.0	8.07884957182e-05	0.890208434319
3174.0	0.000242365487155	0.890450799806
3186.0	0.000161576991436	0.890612376798
3188.0	8.07884957182e-05	0.890693165293
3192.0	8.07884957182e-05	0.890773953789
3194.0	0.000161576991436	0.89093553078
3197.0	0.000161576991436	0.891097107772
3201.0	8.07884957182e-05	0.891177896268
3219.0	0.000161576991436	0.891339473259
3221.0	8.07884957182e-05	0.891420261755
3225.0	8.07884957182e-05	0.89150105025
3227.0	0.000242365487155	0.891743415738
3230.0	8.07884957182e-05	0.891824204233
3232.0	8.07884957182e-05	0.891904992729
3236.0	0.000161576991436	0.89206656972
3238.0	0.000161576991436	0.892228146712
3241.0	0.000161576991436	0.892389723703
3243.0	8.07884957182e-05	0.892470512199
3245.0	8.07884957182e-05	0.892551300695
3256.0	8.07884957182e-05	0.89263208919
3258.0	8.07884957182e-05	0.892712877686
3260.0	8.07884957182e-05	0.892793666182
3263.0	0.000161576991436	0.892955243173
3268.0	8.07884957182e-05	0.893036031669
3271.0	0.000161576991436	0.893197608661
3274.0	8.07884957182e-05	0.893278397156
3276.0	8.07884957182e-05	0.893359185652
3280.0	8.07884957182e-05	0.893439974148
3282.0	0.000161576991436	0.893601551139
3284.0	0.000161576991436	0.893763128131
3286.0	8.07884957182e-05	0.893843916626
3289.0	0.000161576991436	0.894005493618
3293.0	0.000242365487155	0.894247859105
3295.0	8.07884957182e-05	0.894328647601
3297.0	0.000161576991436	0.894490224592
3299.0	8.07884957182e-05	0.894571013088
3302.0	0.000161576991436	0.894732590079
3314.0	8.07884957182e-05	0.894813378575
3316.0	8.07884957182e-05	0.894894167071
3318.0	8.07884957182e-05	0.894974955566
3321.0	8.07884957182e-05	0.895055744062
3325.0	0.000161576991436	0.895217321053
3327.0	0.000161576991436	0.895378898045
3329.0	8.07884957182e-05	0.895459686541
3332.0	0.000161576991436	0.895621263532
3334.0	0.000242365487155	0.895863629019
3336.0	8.07884957182e-05	0.895944417515
3338.0	8.07884957182e-05	0.896025206011
3340.0	8.07884957182e-05	0.896105994506
3343.0	0.000161576991436	0.896267571498
3357.0	0.000161576991436	0.896429148489
3361.0	8.07884957182e-05	0.896509936985
3366.0	8.07884957182e-05	0.896590725481
3370.0	8.07884957182e-05	0.896671513976
3377.0	8.07884957182e-05	0.896752302472
3381.0	0.000242365487155	0.896994667959
3384.0	8.07884957182e-05	0.897075456455
3387.0	8.07884957182e-05	0.897156244951
3389.0	0.000161576991436	0.897317821942
3395.0	8.07884957182e-05	0.897398610438
3400.0	8.07884957182e-05	0.897479398934
3402.0	0.000161576991436	0.897640975925
3404.0	0.000161576991436	0.897802552916
3406.0	8.07884957182e-05	0.897883341412
3408.0	8.07884957182e-05	0.897964129908
3412.0	8.07884957182e-05	0.898044918404
3414.0	0.000161576991436	0.898206495395
3418.0	8.07884957182e-05	0.898287283891
3424.0	0.000161576991436	0.898448860882
3427.0	8.07884957182e-05	0.898529649378
3429.0	0.000161576991436	0.898691226369
3431.0	0.000161576991436	0.898852803361
3433.0	8.07884957182e-05	0.898933591857
3436.0	8.07884957182e-05	0.899014380352
3438.0	8.07884957182e-05	0.899095168848
3440.0	8.07884957182e-05	0.899175957344
3446.0	0.000242365487155	0.899418322831
3449.0	8.07884957182e-05	0.899499111327
3452.0	8.07884957182e-05	0.899579899822
3459.0	8.07884957182e-05	0.899660688318
3462.0	0.000242365487155	0.899903053805
3470.0	8.07884957182e-05	0.899983842301
3476.0	8.07884957182e-05	0.900064630797
3481.0	8.07884957182e-05	0.900145419292
3483.0	8.07884957182e-05	0.900226207788
3485.0	0.000242365487155	0.900468573275
3489.0	8.07884957182e-05	0.900549361771
3491.0	0.000242365487155	0.900791727258
3497.0	8.07884957182e-05	0.900872515754
3500.0	0.000161576991436	0.901034092745
3512.0	0.000161576991436	0.901195669737
3515.0	8.07884957182e-05	0.901276458232
3524.0	0.000161576991436	0.901438035224
3532.0	0.000161576991436	0.901599612215
3534.0	0.000161576991436	0.901761189207
3544.0	8.07884957182e-05	0.901841977702
3566.0	8.07884957182e-05	0.901922766198
3569.0	8.07884957182e-05	0.902003554694
3576.0	0.000242365487155	0.902245920181
3581.0	8.07884957182e-05	0.902326708677
3583.0	0.000161576991436	0.902488285668
3585.0	8.07884957182e-05	0.902569074164
3588.0	8.07884957182e-05	0.90264986266
3591.0	8.07884957182e-05	0.902730651155
3598.0	0.000323153982873	0.903053805138
3601.0	8.07884957182e-05	0.903134593634
3604.0	8.07884957182e-05	0.90321538213
3609.0	0.000161576991436	0.903376959121
3611.0	8.07884957182e-05	0.903457747617
3613.0	0.000161576991436	0.903619324608
3617.0	0.000242365487155	0.903861690095
3619.0	8.07884957182e-05	0.903942478591
3621.0	8.07884957182e-05	0.904023267087
3627.0	8.07884957182e-05	0.904104055582
3631.0	8.07884957182e-05	0.904184844078
3637.0	8.07884957182e-05	0.904265632574
3643.0	8.07884957182e-05	0.90434642107
3646.0	8.07884957182e-05	0.904427209565
3649.0	8.07884957182e-05	0.904507998061
3653.0	8.07884957182e-05	0.904588786557
3655.0	0.000161576991436	0.904750363548
3662.0	0.000161576991436	0.90491194054
3664.0	0.000242365487155	0.905154306027
3669.0	0.000161576991436	0.905315883018
3671.0	8.07884957182e-05	0.905396671514
3680.0	8.07884957182e-05	0.90547746001
3690.0	0.000161576991436	0.905639037001
3692.0	8.07884957182e-05	0.905719825497
3694.0	0.000161576991436	0.905881402488
3697.0	0.000161576991436	0.90604297948
3700.0	8.07884957182e-05	0.906123767975
3703.0	0.000161576991436	0.906285344967
3713.0	0.000161576991436	0.906446921958
3721.0	8.07884957182e-05	0.906527710454
3723.0	0.000161576991436	0.906689287445
3725.0	8.07884957182e-05	0.906770075941
3727.0	8.07884957182e-05	0.906850864437
3733.0	8.07884957182e-05	0.906931652933
3735.0	8.07884957182e-05	0.907012441428
3737.0	8.07884957182e-05	0.907093229924
3742.0	8.07884957182e-05	0.90717401842
3744.0	0.000161576991436	0.907335595411
3748.0	8.07884957182e-05	0.907416383907
3751.0	8.07884957182e-05	0.907497172403
3753.0	0.000242365487155	0.90773953789
3761.0	8.07884957182e-05	0.907820326386
3765.0	0.000161576991436	0.907981903377
3770.0	0.000161576991436	0.908143480368
3772.0	8.07884957182e-05	0.908224268864
3774.0	0.000161576991436	0.908385845856
3779.0	0.000242365487155	0.908628211343
3781.0	8.07884957182e-05	0.908708999838
3783.0	8.07884957182e-05	0.908789788334
3788.0	8.07884957182e-05	0.90887057683
3791.0	8.07884957182e-05	0.908951365326
3794.0	8.07884957182e-05	0.909032153821
3801.0	8.07884957182e-05	0.909112942317
3806.0	0.000161576991436	0.909274519308
3808.0	8.07884957182e-05	0.909355307804
3811.0	0.000161576991436	0.909516884796
3813.0	8.07884957182e-05	0.909597673291
3821.0	0.000161576991436	0.909759250283
3833.0	8.07884957182e-05	0.909840038778
3841.0	8.07884957182e-05	0.909920827274
3843.0	8.07884957182e-05	0.91000161577
3845.0	8.07884957182e-05	0.910082404266
3864.0	8.07884957182e-05	0.910163192761
3870.0	8.07884957182e-05	0.910243981257
3875.0	8.07884957182e-05	0.910324769753
3878.0	8.07884957182e-05	0.910405558249
3882.0	0.000161576991436	0.91056713524
3892.0	8.07884957182e-05	0.910647923736
3897.0	0.000161576991436	0.910809500727
3901.0	0.000161576991436	0.910971077719
3905.0	8.07884957182e-05	0.911051866214
3913.0	8.07884957182e-05	0.91113265471
3916.0	0.000242365487155	0.911375020197
3919.0	0.000161576991436	0.911536597189
3921.0	0.000161576991436	0.91169817418
3926.0	0.000161576991436	0.911859751171
3933.0	8.07884957182e-05	0.911940539667
3936.0	8.07884957182e-05	0.912021328163
3938.0	0.000161576991436	0.912182905154
3948.0	0.000161576991436	0.912344482146
3953.0	8.07884957182e-05	0.912425270641
3958.0	8.07884957182e-05	0.912506059137
3963.0	8.07884957182e-05	0.912586847633
3967.0	8.07884957182e-05	0.912667636129
3972.0	8.07884957182e-05	0.912748424624
3977.0	0.000161576991436	0.912910001616
3983.0	0.000161576991436	0.913071578607
3990.0	0.000161576991436	0.913233155599
4005.0	0.000161576991436	0.91339473259
4008.0	0.000242365487155	0.913637098077
4014.0	8.07884957182e-05	0.913717886573
4018.0	8.07884957182e-05	0.913798675069
4020.0	0.000161576991436	0.91396025206
4022.0	0.000242365487155	0.914202617547
4031.0	0.000161576991436	0.914364194539
4038.0	8.07884957182e-05	0.914444983034
4047.0	0.000161576991436	0.914606560026
4050.0	8.07884957182e-05	0.914687348522
4056.0	0.000161576991436	0.914848925513
4059.0	8.07884957182e-05	0.914929714009
4063.0	0.000242365487155	0.915172079496
4067.0	0.000161576991436	0.915333656487
4070.0	8.07884957182e-05	0.915414444983
4072.0	8.07884957182e-05	0.915495233479
4075.0	8.07884957182e-05	0.915576021974
4086.0	8.07884957182e-05	0.91565681047
4089.0	8.07884957182e-05	0.915737598966
4101.0	8.07884957182e-05	0.915818387462
4108.0	0.000161576991436	0.915979964453
4113.0	8.07884957182e-05	0.916060752949
4116.0	0.000161576991436	0.91622232994
4118.0	8.07884957182e-05	0.916303118436
4128.0	8.07884957182e-05	0.916383906932
4133.0	8.07884957182e-05	0.916464695427
4140.0	0.000242365487155	0.916707060915
4148.0	8.07884957182e-05	0.91678784941
4150.0	8.07884957182e-05	0.916868637906
4154.0	0.000161576991436	0.917030214897
4161.0	8.07884957182e-05	0.917111003393
4163.0	8.07884957182e-05	0.917191791889
4165.0	0.000161576991436	0.91735336888
4191.0	8.07884957182e-05	0.917434157376
4193.0	0.000242365487155	0.917676522863
4199.0	8.07884957182e-05	0.917757311359
4204.0	0.000161576991436	0.91791888835
4209.0	8.07884957182e-05	0.917999676846
4211.0	8.07884957182e-05	0.918080465342
4219.0	8.07884957182e-05	0.918161253837
4223.0	0.000161576991436	0.918322830829
4229.0	0.000161576991436	0.91848440782
4233.0	0.000161576991436	0.918645984812
4241.0	8.07884957182e-05	0.918726773307
4243.0	8.07884957182e-05	0.918807561803
4251.0	0.000161576991436	0.918969138795
4261.0	0.000242365487155	0.919211504282
4264.0	0.000161576991436	0.919373081273
4266.0	8.07884957182e-05	0.919453869769
4276.0	8.07884957182e-05	0.919534658265
4280.0	0.000161576991436	0.919696235256
4292.0	8.07884957182e-05	0.919777023752
4294.0	8.07884957182e-05	0.919857812248
4299.0	8.07884957182e-05	0.919938600743
4301.0	0.000161576991436	0.920100177735
4305.0	8.07884957182e-05	0.92018096623
4307.0	0.000161576991436	0.920342543222
4309.0	8.07884957182e-05	0.920423331718
4319.0	8.07884957182e-05	0.920504120213
4322.0	0.000242365487155	0.9207464857
4324.0	0.000161576991436	0.920908062692
4327.0	0.000161576991436	0.921069639683
4329.0	8.07884957182e-05	0.921150428179
4335.0	8.07884957182e-05	0.921231216675
4337.0	8.07884957182e-05	0.92131200517
4339.0	8.07884957182e-05	0.921392793666
4348.0	0.000161576991436	0.921554370658
4353.0	0.000161576991436	0.921715947649
4360.0	8.07884957182e-05	0.921796736145
4366.0	0.000242365487155	0.922039101632
4369.0	8.07884957182e-05	0.922119890128
4372.0	0.000161576991436	0.922281467119
4377.0	0.000161576991436	0.922443044111
4382.0	8.07884957182e-05	0.922523832606
4386.0	0.000242365487155	0.922766198093
4388.0	8.07884957182e-05	0.922846986589
4400.0	8.07884957182e-05	0.922927775085
4403.0	0.000161576991436	0.923089352076
4405.0	8.07884957182e-05	0.923170140572
4407.0	0.000161576991436	0.923331717563
4412.0	8.07884957182e-05	0.923412506059
4414.0	8.07884957182e-05	0.923493294555
4422.0	8.07884957182e-05	0.923574083051
4434.0	0.000161576991436	0.923735660042
4438.0	0.000161576991436	0.923897237033
4445.0	8.07884957182e-05	0.923978025529
4454.0	8.07884957182e-05	0.924058814025
4461.0	0.000161576991436	0.924220391016
4464.0	8.07884957182e-05	0.924301179512
4469.0	8.07884957182e-05	0.924381968008
4472.0	8.07884957182e-05	0.924462756503
4475.0	0.000323153982873	0.924785910486
4478.0	0.000161576991436	0.924947487478
4488.0	8.07884957182e-05	0.925028275974
4491.0	8.07884957182e-05	0.925109064469
4499.0	8.07884957182e-05	0.925189852965
4502.0	8.07884957182e-05	0.925270641461
4509.0	0.000161576991436	0.925432218452
4511.0	0.000161576991436	0.925593795444
4513.0	8.07884957182e-05	0.925674583939
4517.0	8.07884957182e-05	0.925755372435
4521.0	8.07884957182e-05	0.925836160931
4523.0	8.07884957182e-05	0.925916949426
4526.0	8.07884957182e-05	0.925997737922
4536.0	0.000161576991436	0.926159314914
4538.0	8.07884957182e-05	0.926240103409
4542.0	8.07884957182e-05	0.926320891905
4544.0	8.07884957182e-05	0.926401680401
4550.0	8.07884957182e-05	0.926482468896
4557.0	0.000161576991436	0.926644045888
4559.0	8.07884957182e-05	0.926724834384
4573.0	8.07884957182e-05	0.926805622879
4575.0	8.07884957182e-05	0.926886411375
4577.0	0.000161576991436	0.927047988366
4580.0	8.07884957182e-05	0.927128776862
4583.0	0.000323153982873	0.927451930845
4598.0	8.07884957182e-05	0.927532719341
4600.0	0.000161576991436	0.927694296332
4608.0	8.07884957182e-05	0.927775084828
4613.0	0.000161576991436	0.927936661819
4617.0	8.07884957182e-05	0.928017450315
4619.0	8.07884957182e-05	0.928098238811
4621.0	8.07884957182e-05	0.928179027307
4624.0	8.07884957182e-05	0.928259815802
4643.0	8.07884957182e-05	0.928340604298
4646.0	8.07884957182e-05	0.928421392794
4651.0	0.000161576991436	0.928582969785
4654.0	8.07884957182e-05	0.928663758281
4660.0	0.000161576991436	0.928825335272
4664.0	8.07884957182e-05	0.928906123768
4672.0	8.07884957182e-05	0.928986912264
4699.0	0.000161576991436	0.929148489255
4706.0	8.07884957182e-05	0.929229277751
4709.0	8.07884957182e-05	0.929310066247
4719.0	8.07884957182e-05	0.929390854742
4721.0	8.07884957182e-05	0.929471643238
4731.0	8.07884957182e-05	0.929552431734
4743.0	0.000161576991436	0.929714008725
4745.0	0.000242365487155	0.929956374212
4750.0	8.07884957182e-05	0.930037162708
4754.0	8.07884957182e-05	0.930117951204
4759.0	8.07884957182e-05	0.930198739699
4768.0	8.07884957182e-05	0.930279528195
4772.0	0.000161576991436	0.930441105187
4774.0	8.07884957182e-05	0.930521893682
4778.0	0.000161576991436	0.930683470674
4784.0	8.07884957182e-05	0.930764259169
4786.0	8.07884957182e-05	0.930845047665
4792.0	8.07884957182e-05	0.930925836161
4795.0	8.07884957182e-05	0.931006624657
4797.0	8.07884957182e-05	0.931087413152
4811.0	8.07884957182e-05	0.931168201648
4824.0	8.07884957182e-05	0.931248990144
4834.0	8.07884957182e-05	0.93132977864
4838.0	8.07884957182e-05	0.931410567135
4847.0	8.07884957182e-05	0.931491355631
4849.0	8.07884957182e-05	0.931572144127
4855.0	0.000161576991436	0.931733721118
4870.0	8.07884957182e-05	0.931814509614
4880.0	8.07884957182e-05	0.93189529811
4884.0	0.000161576991436	0.932056875101
4887.0	8.07884957182e-05	0.932137663597
4892.0	8.07884957182e-05	0.932218452092
4901.0	8.07884957182e-05	0.932299240588
4904.0	8.07884957182e-05	0.932380029084
4909.0	8.07884957182e-05	0.93246081758
4912.0	8.07884957182e-05	0.932541606075
4926.0	8.07884957182e-05	0.932622394571
4929.0	8.07884957182e-05	0.932703183067
4936.0	8.07884957182e-05	0.932783971562
4944.0	8.07884957182e-05	0.932864760058
4951.0	8.07884957182e-05	0.932945548554
4953.0	0.000242365487155	0.933187914041
4957.0	8.07884957182e-05	0.933268702537
4959.0	8.07884957182e-05	0.933349491032
4963.0	8.07884957182e-05	0.933430279528
4968.0	8.07884957182e-05	0.933511068024
4971.0	8.07884957182e-05	0.93359185652
4998.0	8.07884957182e-05	0.933672645015
5006.0	8.07884957182e-05	0.933753433511
5014.0	8.07884957182e-05	0.933834222007
5016.0	8.07884957182e-05	0.933915010503
5018.0	8.07884957182e-05	0.933995798998
5025.0	0.000161576991436	0.93415737599
5027.0	8.07884957182e-05	0.934238164485
5031.0	8.07884957182e-05	0.934318952981
5039.0	8.07884957182e-05	0.934399741477
5052.0	8.07884957182e-05	0.934480529973
5054.0	8.07884957182e-05	0.934561318468
5056.0	0.000161576991436	0.93472289546
5061.0	8.07884957182e-05	0.934803683955
5068.0	8.07884957182e-05	0.934884472451
5075.0	8.07884957182e-05	0.934965260947
5078.0	0.000161576991436	0.935126837938
5080.0	8.07884957182e-05	0.935207626434
5082.0	8.07884957182e-05	0.93528841493
5085.0	8.07884957182e-05	0.935369203425
5087.0	0.000242365487155	0.935611568913
5096.0	8.07884957182e-05	0.935692357408
5101.0	8.07884957182e-05	0.935773145904
5107.0	0.000161576991436	0.935934722895
5117.0	8.07884957182e-05	0.936015511391
5127.0	8.07884957182e-05	0.936096299887
5129.0	0.000161576991436	0.936257876878
5132.0	8.07884957182e-05	0.936338665374
5137.0	8.07884957182e-05	0.93641945387
5144.0	8.07884957182e-05	0.936500242365
5156.0	0.000161576991436	0.936661819357
5159.0	8.07884957182e-05	0.936742607853
5162.0	8.07884957182e-05	0.936823396348
5166.0	0.000161576991436	0.93698497334
5170.0	8.07884957182e-05	0.937065761836
5189.0	0.000161576991436	0.937227338827
5197.0	8.07884957182e-05	0.937308127323
5203.0	8.07884957182e-05	0.937388915818
5224.0	8.07884957182e-05	0.937469704314
5230.0	0.000161576991436	0.937631281306
5244.0	8.07884957182e-05	0.937712069801
5254.0	8.07884957182e-05	0.937792858297
5258.0	8.07884957182e-05	0.937873646793
5281.0	0.000161576991436	0.938035223784
5294.0	8.07884957182e-05	0.93811601228
5299.0	8.07884957182e-05	0.938196800776
5303.0	8.07884957182e-05	0.938277589271
5310.0	0.000161576991436	0.938439166263
5323.0	8.07884957182e-05	0.938519954758
5331.0	0.000161576991436	0.93868153175
5334.0	8.07884957182e-05	0.938762320246
5340.0	0.000161576991436	0.938923897237
5344.0	8.07884957182e-05	0.939004685733
5347.0	8.07884957182e-05	0.939085474228
5358.0	8.07884957182e-05	0.939166262724
5360.0	8.07884957182e-05	0.93924705122
5372.0	0.000242365487155	0.939489416707
5376.0	8.07884957182e-05	0.939570205203
5384.0	0.000161576991436	0.939731782194
5386.0	8.07884957182e-05	0.93981257069
5390.0	8.07884957182e-05	0.939893359186
5392.0	8.07884957182e-05	0.939974147681
5394.0	0.000161576991436	0.940135724673
5406.0	8.07884957182e-05	0.940216513169
5408.0	0.000242365487155	0.940458878656
5418.0	8.07884957182e-05	0.940539667151
5424.0	8.07884957182e-05	0.940620455647
5426.0	8.07884957182e-05	0.940701244143
5453.0	8.07884957182e-05	0.940782032639
5471.0	8.07884957182e-05	0.940862821134
5495.0	0.000242365487155	0.941105186621
5497.0	8.07884957182e-05	0.941185975117
5499.0	0.000161576991436	0.941347552109
5503.0	8.07884957182e-05	0.941428340604
5514.0	8.07884957182e-05	0.9415091291
5516.0	8.07884957182e-05	0.941589917596
5523.0	8.07884957182e-05	0.941670706091
5538.0	8.07884957182e-05	0.941751494587
5548.0	0.000161576991436	0.941913071579
5558.0	0.000242365487155	0.942155437066
5560.0	0.000161576991436	0.942317014057
5565.0	8.07884957182e-05	0.942397802553
5567.0	0.000242365487155	0.94264016804
5572.0	0.000161576991436	0.942801745032
5581.0	8.07884957182e-05	0.942882533527
5585.0	0.000161576991436	0.943044110519
5587.0	8.07884957182e-05	0.943124899014
5590.0	8.07884957182e-05	0.94320568751
5605.0	8.07884957182e-05	0.943286476006
5614.0	8.07884957182e-05	0.943367264502
5616.0	0.000161576991436	0.943528841493
5625.0	8.07884957182e-05	0.943609629989
5630.0	8.07884957182e-05	0.943690418484
5640.0	8.07884957182e-05	0.94377120698
5642.0	8.07884957182e-05	0.943851995476
5651.0	8.07884957182e-05	0.943932783972
5653.0	8.07884957182e-05	0.944013572467
5658.0	8.07884957182e-05	0.944094360963
5662.0	8.07884957182e-05	0.944175149459
5669.0	8.07884957182e-05	0.944255937954
5674.0	8.07884957182e-05	0.94433672645
5680.0	0.000161576991436	0.944498303442
5691.0	8.07884957182e-05	0.944579091937
5700.0	8.07884957182e-05	0.944659880433
5703.0	8.07884957182e-05	0.944740668929
5705.0	0.000161576991436	0.94490224592
5707.0	0.000161576991436	0.945063822912
5710.0	8.07884957182e-05	0.945144611407
5713.0	8.07884957182e-05	0.945225399903
5730.0	8.07884957182e-05	0.945306188399
5734.0	8.07884957182e-05	0.945386976894
5749.0	8.07884957182e-05	0.94546776539
5752.0	0.000161576991436	0.945629342382
5759.0	8.07884957182e-05	0.945710130877
5783.0	8.07884957182e-05	0.945790919373
5785.0	8.07884957182e-05	0.945871707869
5787.0	8.07884957182e-05	0.945952496365
5797.0	8.07884957182e-05	0.94603328486
5802.0	8.07884957182e-05	0.946114073356
5804.0	8.07884957182e-05	0.946194861852
5806.0	0.000161576991436	0.946356438843
5813.0	0.000161576991436	0.946518015835
5818.0	8.07884957182e-05	0.94659880433
5821.0	8.07884957182e-05	0.946679592826
5823.0	8.07884957182e-05	0.946760381322
5842.0	8.07884957182e-05	0.946841169817
5844.0	8.07884957182e-05	0.946921958313
5856.0	8.07884957182e-05	0.947002746809
5862.0	8.07884957182e-05	0.947083535305
5869.0	8.07884957182e-05	0.9471643238
5879.0	8.07884957182e-05	0.947245112296
5892.0	8.07884957182e-05	0.947325900792
5902.0	0.000161576991436	0.947487477783
5916.0	0.000161576991436	0.947649054775
5918.0	8.07884957182e-05	0.94772984327
5923.0	8.07884957182e-05	0.947810631766
5926.0	8.07884957182e-05	0.947891420262
5935.0	0.000161576991436	0.948052997253
5948.0	0.000161576991436	0.948214574245
5957.0	0.000161576991436	0.948376151236
5961.0	8.07884957182e-05	0.948456939732
5969.0	0.000323153982873	0.948780093715
5976.0	0.000161576991436	0.948941670706
5980.0	0.000242365487155	0.949184036193
5987.0	8.07884957182e-05	0.949264824689
5989.0	8.07884957182e-05	0.949345613185
5991.0	8.07884957182e-05	0.94942640168
5993.0	8.07884957182e-05	0.949507190176
5995.0	8.07884957182e-05	0.949587978672
5997.0	8.07884957182e-05	0.949668767168
6001.0	8.07884957182e-05	0.949749555663
6012.0	8.07884957182e-05	0.949830344159
6014.0	8.07884957182e-05	0.949911132655
6018.0	8.07884957182e-05	0.94999192115
6027.0	0.000161576991436	0.950153498142
6035.0	8.07884957182e-05	0.950234286638
6038.0	8.07884957182e-05	0.950315075133
6040.0	0.000242365487155	0.95055744062
6051.0	8.07884957182e-05	0.950638229116
6072.0	8.07884957182e-05	0.950719017612
6074.0	8.07884957182e-05	0.950799806108
6080.0	8.07884957182e-05	0.950880594603
6083.0	8.07884957182e-05	0.950961383099
6087.0	0.000161576991436	0.95112296009
6094.0	8.07884957182e-05	0.951203748586
6096.0	8.07884957182e-05	0.951284537082
6107.0	8.07884957182e-05	0.951365325578
6116.0	8.07884957182e-05	0.951446114073
6123.0	8.07884957182e-05	0.951526902569
6131.0	8.07884957182e-05	0.951607691065
6141.0	8.07884957182e-05	0.951688479561
6143.0	8.07884957182e-05	0.951769268056
6149.0	8.07884957182e-05	0.951850056552
6153.0	0.000242365487155	0.952092422039
6161.0	8.07884957182e-05	0.952173210535
6167.0	8.07884957182e-05	0.952253999031
6177.0	8.07884957182e-05	0.952334787526
6183.0	8.07884957182e-05	0.952415576022
6190.0	0.000242365487155	0.952657941509
6200.0	8.07884957182e-05	0.952738730005
6202.0	8.07884957182e-05	0.952819518501
6205.0	8.07884957182e-05	0.952900306996
6211.0	8.07884957182e-05	0.952981095492
6215.0	0.000161576991436	0.953142672483
6217.0	0.000242365487155	0.953385037971
6222.0	8.07884957182e-05	0.953465826466
6227.0	0.000161576991436	0.953627403458
6241.0	8.07884957182e-05	0.953708191953
6243.0	8.07884957182e-05	0.953788980449
6260.0	8.07884957182e-05	0.953869768945
6281.0	8.07884957182e-05	0.953950557441
6286.0	8.07884957182e-05	0.954031345936
6304.0	8.07884957182e-05	0.954112134432
6313.0	8.07884957182e-05	0.954192922928
6316.0	8.07884957182e-05	0.954273711423
6324.0	8.07884957182e-05	0.954354499919
6328.0	8.07884957182e-05	0.954435288415
6344.0	8.07884957182e-05	0.954516076911
6346.0	8.07884957182e-05	0.954596865406
6354.0	0.000161576991436	0.954758442398
6358.0	8.07884957182e-05	0.954839230894
6360.0	8.07884957182e-05	0.954920019389
6371.0	8.07884957182e-05	0.955000807885
6376.0	8.07884957182e-05	0.955081596381
6379.0	8.07884957182e-05	0.955162384876
6381.0	8.07884957182e-05	0.955243173372
6389.0	8.07884957182e-05	0.955323961868
6401.0	8.07884957182e-05	0.955404750364
6407.0	8.07884957182e-05	0.955485538859
6426.0	0.000161576991436	0.955647115851
6429.0	8.07884957182e-05	0.955727904346
6431.0	8.07884957182e-05	0.955808692842
6433.0	0.000161576991436	0.955970269834
6445.0	8.07884957182e-05	0.956051058329
6449.0	8.07884957182e-05	0.956131846825
6456.0	8.07884957182e-05	0.956212635321
6466.0	8.07884957182e-05	0.956293423816
6478.0	8.07884957182e-05	0.956374212312
6490.0	0.000161576991436	0.956535789304
6501.0	0.000161576991436	0.956697366295
6504.0	8.07884957182e-05	0.956778154791
6517.0	8.07884957182e-05	0.956858943286
6519.0	8.07884957182e-05	0.956939731782
6529.0	8.07884957182e-05	0.957020520278
6545.0	8.07884957182e-05	0.957101308774
6559.0	8.07884957182e-05	0.957182097269
6561.0	8.07884957182e-05	0.957262885765
6570.0	8.07884957182e-05	0.957343674261
6576.0	0.000242365487155	0.957586039748
6582.0	8.07884957182e-05	0.957666828244
6590.0	8.07884957182e-05	0.957747616739
6600.0	8.07884957182e-05	0.957828405235
6602.0	0.000161576991436	0.957989982227
6605.0	8.07884957182e-05	0.958070770722
6613.0	8.07884957182e-05	0.958151559218
6627.0	0.000161576991436	0.958313136209
6630.0	0.000161576991436	0.958474713201
6636.0	0.000161576991436	0.958636290192
6640.0	8.07884957182e-05	0.958717078688
6649.0	8.07884957182e-05	0.958797867184
6653.0	8.07884957182e-05	0.958878655679
6665.0	8.07884957182e-05	0.958959444175
6667.0	8.07884957182e-05	0.959040232671
6676.0	8.07884957182e-05	0.959121021167
6682.0	8.07884957182e-05	0.959201809662
6684.0	0.000161576991436	0.959363386654
6686.0	8.07884957182e-05	0.959444175149
6690.0	8.07884957182e-05	0.959524963645
6698.0	8.07884957182e-05	0.959605752141
6703.0	8.07884957182e-05	0.959686540637
6706.0	8.07884957182e-05	0.959767329132
6708.0	8.07884957182e-05	0.959848117628
6714.0	8.07884957182e-05	0.959928906124
6723.0	8.07884957182e-05	0.960009694619
6733.0	8.07884957182e-05	0.960090483115
6748.0	8.07884957182e-05	0.960171271611
6750.0	8.07884957182e-05	0.960252060107
6755.0	8.07884957182e-05	0.960332848602
6760.0	0.000161576991436	0.960494425594
6788.0	8.07884957182e-05	0.96057521409
6812.0	8.07884957182e-05	0.960656002585
6816.0	8.07884957182e-05	0.960736791081
6836.0	8.07884957182e-05	0.960817579577
6843.0	8.07884957182e-05	0.960898368072
6845.0	8.07884957182e-05	0.960979156568
6854.0	8.07884957182e-05	0.961059945064
6858.0	8.07884957182e-05	0.96114073356
6860.0	8.07884957182e-05	0.961221522055
6862.0	8.07884957182e-05	0.961302310551
6870.0	8.07884957182e-05	0.961383099047
6875.0	8.07884957182e-05	0.961463887542
6879.0	8.07884957182e-05	0.961544676038
6883.0	8.07884957182e-05	0.961625464534
6886.0	8.07884957182e-05	0.96170625303
6894.0	8.07884957182e-05	0.961787041525
6901.0	0.000161576991436	0.961948618517
6903.0	8.07884957182e-05	0.962029407012
6909.0	8.07884957182e-05	0.962110195508
6912.0	8.07884957182e-05	0.962190984004
6915.0	8.07884957182e-05	0.9622717725
6922.0	8.07884957182e-05	0.962352560995
6926.0	8.07884957182e-05	0.962433349491
6945.0	8.07884957182e-05	0.962514137987
6955.0	8.07884957182e-05	0.962594926482
6976.0	0.000161576991436	0.962756503474
6981.0	0.000161576991436	0.962918080465
6985.0	0.000161576991436	0.963079657457
7005.0	8.07884957182e-05	0.963160445952
7008.0	8.07884957182e-05	0.963241234448
7015.0	8.07884957182e-05	0.963322022944
7024.0	8.07884957182e-05	0.96340281144
7037.0	8.07884957182e-05	0.963483599935
7040.0	0.000161576991436	0.963645176927
7054.0	8.07884957182e-05	0.963725965423
7069.0	0.000161576991436	0.963887542414
7087.0	0.000161576991436	0.964049119405
7108.0	8.07884957182e-05	0.964129907901
7128.0	8.07884957182e-05	0.964210696397
7131.0	8.07884957182e-05	0.964291484893
7137.0	8.07884957182e-05	0.964372273388
7142.0	8.07884957182e-05	0.964453061884
7166.0	8.07884957182e-05	0.96453385038
7172.0	8.07884957182e-05	0.964614638875
7193.0	8.07884957182e-05	0.964695427371
7196.0	8.07884957182e-05	0.964776215867
7208.0	8.07884957182e-05	0.964857004363
7212.0	8.07884957182e-05	0.964937792858
7220.0	8.07884957182e-05	0.965018581354
7223.0	8.07884957182e-05	0.96509936985
7227.0	8.07884957182e-05	0.965180158345
7247.0	8.07884957182e-05	0.965260946841
7251.0	8.07884957182e-05	0.965341735337
7292.0	8.07884957182e-05	0.965422523833
7295.0	8.07884957182e-05	0.965503312328
7335.0	8.07884957182e-05	0.965584100824
7345.0	8.07884957182e-05	0.96566488932
7348.0	8.07884957182e-05	0.965745677815
7351.0	8.07884957182e-05	0.965826466311
7360.0	8.07884957182e-05	0.965907254807
7363.0	8.07884957182e-05	0.965988043303
7369.0	8.07884957182e-05	0.966068831798
7375.0	8.07884957182e-05	0.966149620294
7390.0	8.07884957182e-05	0.96623040879
7430.0	8.07884957182e-05	0.966311197286
7455.0	8.07884957182e-05	0.966391985781
7472.0	8.07884957182e-05	0.966472774277
7476.0	8.07884957182e-05	0.966553562773
7480.0	8.07884957182e-05	0.966634351268
7493.0	0.000161576991436	0.96679592826
7499.0	8.07884957182e-05	0.966876716756
7507.0	8.07884957182e-05	0.966957505251
7529.0	8.07884957182e-05	0.967038293747
7555.0	0.000242365487155	0.967280659234
7570.0	8.07884957182e-05	0.96736144773
7579.0	8.07884957182e-05	0.967442236226
7581.0	8.07884957182e-05	0.967523024721
7618.0	8.07884957182e-05	0.967603813217
7630.0	8.07884957182e-05	0.967684601713
7648.0	0.000161576991436	0.967846178704
7669.0	8.07884957182e-05	0.9679269672
7679.0	8.07884957182e-05	0.968007755696
7683.0	8.07884957182e-05	0.968088544191
7689.0	8.07884957182e-05	0.968169332687
7707.0	8.07884957182e-05	0.968250121183
7722.0	8.07884957182e-05	0.968330909678
7724.0	8.07884957182e-05	0.968411698174
7733.0	8.07884957182e-05	0.96849248667
7761.0	0.000161576991436	0.968654063661
7765.0	8.07884957182e-05	0.968734852157
7770.0	0.000161576991436	0.968896429148
7788.0	8.07884957182e-05	0.968977217644
7791.0	8.07884957182e-05	0.96905800614
7800.0	8.07884957182e-05	0.969138794636
7820.0	0.000161576991436	0.969300371627
7823.0	8.07884957182e-05	0.969381160123
7839.0	8.07884957182e-05	0.969461948619
7851.0	8.07884957182e-05	0.969542737114
7863.0	8.07884957182e-05	0.96962352561
7877.0	8.07884957182e-05	0.969704314106
7889.0	8.07884957182e-05	0.969785102601
7891.0	8.07884957182e-05	0.969865891097
7898.0	0.000161576991436	0.970027468089
7911.0	8.07884957182e-05	0.970108256584
7933.0	8.07884957182e-05	0.97018904508
7985.0	8.07884957182e-05	0.970269833576
7989.0	8.07884957182e-05	0.970350622071
7994.0	8.07884957182e-05	0.970431410567
8001.0	8.07884957182e-05	0.970512199063
8003.0	8.07884957182e-05	0.970592987559
8006.0	8.07884957182e-05	0.970673776054
8015.0	0.000161576991436	0.970835353046
8025.0	8.07884957182e-05	0.970916141541
8028.0	8.07884957182e-05	0.970996930037
8039.0	8.07884957182e-05	0.971077718533
8046.0	8.07884957182e-05	0.971158507029
8049.0	0.000161576991436	0.97132008402
8057.0	8.07884957182e-05	0.971400872516
8059.0	8.07884957182e-05	0.971481661011
8064.0	8.07884957182e-05	0.971562449507
8075.0	8.07884957182e-05	0.971643238003
8109.0	8.07884957182e-05	0.971724026499
8118.0	0.000161576991436	0.97188560349
8123.0	8.07884957182e-05	0.971966391986
8125.0	8.07884957182e-05	0.972047180481
8133.0	8.07884957182e-05	0.972127968977
8138.0	0.000161576991436	0.972289545969
8141.0	8.07884957182e-05	0.972370334464
8144.0	8.07884957182e-05	0.97245112296
8149.0	8.07884957182e-05	0.972531911456
8154.0	0.000161576991436	0.972693488447
8161.0	8.07884957182e-05	0.972774276943
8169.0	0.000161576991436	0.972935853934
8175.0	8.07884957182e-05	0.97301664243
8178.0	8.07884957182e-05	0.973097430926
8211.0	8.07884957182e-05	0.973178219422
8227.0	8.07884957182e-05	0.973259007917
8233.0	8.07884957182e-05	0.973339796413
8240.0	8.07884957182e-05	0.973420584909
8247.0	8.07884957182e-05	0.973501373404
8262.0	8.07884957182e-05	0.9735821619
8276.0	8.07884957182e-05	0.973662950396
8278.0	8.07884957182e-05	0.973743738892
8285.0	0.000161576991436	0.973905315883
8292.0	8.07884957182e-05	0.973986104379
8327.0	8.07884957182e-05	0.974066892874
8333.0	8.07884957182e-05	0.97414768137
8377.0	8.07884957182e-05	0.974228469866
8380.0	8.07884957182e-05	0.974309258362
8396.0	8.07884957182e-05	0.974390046857
8406.0	8.07884957182e-05	0.974470835353
8434.0	8.07884957182e-05	0.974551623849
8436.0	8.07884957182e-05	0.974632412344
8449.0	8.07884957182e-05	0.97471320084
8453.0	0.000161576991436	0.974874777832
8488.0	8.07884957182e-05	0.974955566327
8493.0	8.07884957182e-05	0.975036354823
8497.0	8.07884957182e-05	0.975117143319
8514.0	8.07884957182e-05	0.975197931815
8518.0	8.07884957182e-05	0.97527872031
8521.0	8.07884957182e-05	0.975359508806
8530.0	0.000161576991436	0.975521085797
8575.0	8.07884957182e-05	0.975601874293
8604.0	8.07884957182e-05	0.975682662789
8607.0	8.07884957182e-05	0.975763451285
8636.0	8.07884957182e-05	0.97584423978
8677.0	0.000161576991436	0.976005816772
8694.0	8.07884957182e-05	0.976086605267
8696.0	0.000161576991436	0.976248182259
8716.0	8.07884957182e-05	0.976328970755
8725.0	8.07884957182e-05	0.97640975925
8740.0	8.07884957182e-05	0.976490547746
8742.0	8.07884957182e-05	0.976571336242
8761.0	8.07884957182e-05	0.976652124737
8773.0	8.07884957182e-05	0.976732913233
8791.0	8.07884957182e-05	0.976813701729
8800.0	8.07884957182e-05	0.976894490225
8823.0	8.07884957182e-05	0.97697527872
8835.0	8.07884957182e-05	0.977056067216
8840.0	8.07884957182e-05	0.977136855712
8848.0	8.07884957182e-05	0.977217644207
8863.0	8.07884957182e-05	0.977298432703
8879.0	8.07884957182e-05	0.977379221199
8884.0	8.07884957182e-05	0.977460009695
8891.0	8.07884957182e-05	0.97754079819
8911.0	8.07884957182e-05	0.977621586686
8945.0	8.07884957182e-05	0.977702375182
8963.0	8.07884957182e-05	0.977783163677
8967.0	8.07884957182e-05	0.977863952173
8969.0	8.07884957182e-05	0.977944740669
8977.0	8.07884957182e-05	0.978025529165
9044.0	8.07884957182e-05	0.97810631766
9067.0	8.07884957182e-05	0.978187106156
9079.0	8.07884957182e-05	0.978267894652
9100.0	8.07884957182e-05	0.978348683148
9113.0	8.07884957182e-05	0.978429471643
9141.0	8.07884957182e-05	0.978510260139
9143.0	8.07884957182e-05	0.978591048635
9155.0	8.07884957182e-05	0.97867183713
9157.0	8.07884957182e-05	0.978752625626
9168.0	8.07884957182e-05	0.978833414122
9170.0	8.07884957182e-05	0.978914202618
9195.0	8.07884957182e-05	0.978994991113
9254.0	0.000161576991436	0.979156568105
9266.0	8.07884957182e-05	0.9792373566
9275.0	8.07884957182e-05	0.979318145096
9299.0	8.07884957182e-05	0.979398933592
9335.0	8.07884957182e-05	0.979479722088
9359.0	8.07884957182e-05	0.979560510583
9361.0	8.07884957182e-05	0.979641299079
9370.0	8.07884957182e-05	0.979722087575
9387.0	8.07884957182e-05	0.97980287607
9442.0	8.07884957182e-05	0.979883664566
9444.0	8.07884957182e-05	0.979964453062
9457.0	8.07884957182e-05	0.980045241558
9479.0	8.07884957182e-05	0.980126030053
9497.0	8.07884957182e-05	0.980206818549
9501.0	8.07884957182e-05	0.980287607045
9601.0	8.07884957182e-05	0.98036839554
9604.0	8.07884957182e-05	0.980449184036
9628.0	8.07884957182e-05	0.980529972532
9652.0	8.07884957182e-05	0.980610761028
9667.0	8.07884957182e-05	0.980691549523
9669.0	8.07884957182e-05	0.980772338019
9680.0	8.07884957182e-05	0.980853126515
9695.0	8.07884957182e-05	0.980933915011
9716.0	8.07884957182e-05	0.981014703506
9718.0	8.07884957182e-05	0.981095492002
9725.0	0.000161576991436	0.981257068993
9757.0	8.07884957182e-05	0.981337857489
9769.0	8.07884957182e-05	0.981418645985
9805.0	8.07884957182e-05	0.981499434481
9810.0	8.07884957182e-05	0.981580222976
9823.0	8.07884957182e-05	0.981661011472
9857.0	8.07884957182e-05	0.981741799968
9882.0	8.07884957182e-05	0.981822588463
9928.0	8.07884957182e-05	0.981903376959
9944.0	8.07884957182e-05	0.981984165455
9946.0	8.07884957182e-05	0.982064953951
9972.0	8.07884957182e-05	0.982145742446
9974.0	8.07884957182e-05	0.982226530942
10018.0	8.07884957182e-05	0.982307319438
10030.0	8.07884957182e-05	0.982388107933
10060.0	8.07884957182e-05	0.982468896429
10074.0	8.07884957182e-05	0.982549684925
10082.0	8.07884957182e-05	0.982630473421
10111.0	8.07884957182e-05	0.982711261916
10134.0	8.07884957182e-05	0.982792050412
10183.0	8.07884957182e-05	0.982872838908
10212.0	8.07884957182e-05	0.982953627403
10237.0	8.07884957182e-05	0.983034415899
10242.0	0.000161576991436	0.983195992891
10244.0	0.000161576991436	0.983357569882
10246.0	8.07884957182e-05	0.983438358378
10251.0	8.07884957182e-05	0.983519146873
10268.0	8.07884957182e-05	0.983599935369
10294.0	8.07884957182e-05	0.983680723865
10313.0	8.07884957182e-05	0.983761512361
10321.0	8.07884957182e-05	0.983842300856
10337.0	8.07884957182e-05	0.983923089352
10362.0	8.07884957182e-05	0.984003877848
10370.0	8.07884957182e-05	0.984084666344
10373.0	8.07884957182e-05	0.984165454839
10397.0	8.07884957182e-05	0.984246243335
10405.0	8.07884957182e-05	0.984327031831
10407.0	8.07884957182e-05	0.984407820326
10413.0	8.07884957182e-05	0.984488608822
10439.0	8.07884957182e-05	0.984569397318
10449.0	8.07884957182e-05	0.984650185814
10489.0	8.07884957182e-05	0.984730974309
10504.0	8.07884957182e-05	0.984811762805
10532.0	8.07884957182e-05	0.984892551301
10545.0	8.07884957182e-05	0.984973339796
10550.0	8.07884957182e-05	0.985054128292
10574.0	8.07884957182e-05	0.985134916788
10633.0	8.07884957182e-05	0.985215705284
10646.0	8.07884957182e-05	0.985296493779
10664.0	8.07884957182e-05	0.985377282275
10692.0	8.07884957182e-05	0.985458070771
10708.0	8.07884957182e-05	0.985538859266
10747.0	8.07884957182e-05	0.985619647762
10761.0	8.07884957182e-05	0.985700436258
10784.0	0.000161576991436	0.985862013249
10793.0	8.07884957182e-05	0.985942801745
10847.0	0.000161576991436	0.986104378736
10854.0	8.07884957182e-05	0.986185167232
10870.0	8.07884957182e-05	0.986265955728
10877.0	8.07884957182e-05	0.986346744224
10879.0	8.07884957182e-05	0.986427532719
10907.0	8.07884957182e-05	0.986508321215
10938.0	8.07884957182e-05	0.986589109711
10941.0	8.07884957182e-05	0.986669898206
10975.0	8.07884957182e-05	0.986750686702
10986.0	8.07884957182e-05	0.986831475198
11022.0	8.07884957182e-05	0.986912263694
11068.0	8.07884957182e-05	0.986993052189
11160.0	8.07884957182e-05	0.987073840685
11164.0	8.07884957182e-05	0.987154629181
11178.0	8.07884957182e-05	0.987235417677
11241.0	8.07884957182e-05	0.987316206172
11285.0	8.07884957182e-05	0.987396994668
11359.0	8.07884957182e-05	0.987477783164
11399.0	8.07884957182e-05	0.987558571659
11403.0	8.07884957182e-05	0.987639360155
11423.0	8.07884957182e-05	0.987720148651
11464.0	8.07884957182e-05	0.987800937147
11466.0	8.07884957182e-05	0.987881725642
11487.0	8.07884957182e-05	0.987962514138
11514.0	8.07884957182e-05	0.988043302634
11519.0	8.07884957182e-05	0.988124091129
11547.0	8.07884957182e-05	0.988204879625
11592.0	8.07884957182e-05	0.988285668121
11636.0	8.07884957182e-05	0.988366456617
11659.0	8.07884957182e-05	0.988447245112
11689.0	0.000161576991436	0.988608822104
11697.0	8.07884957182e-05	0.988689610599
11711.0	8.07884957182e-05	0.988770399095
11741.0	8.07884957182e-05	0.988851187591
11745.0	8.07884957182e-05	0.988931976087
11777.0	8.07884957182e-05	0.989012764582
11781.0	8.07884957182e-05	0.989093553078
11845.0	8.07884957182e-05	0.989174341574
11852.0	8.07884957182e-05	0.989255130069
11862.0	8.07884957182e-05	0.989335918565
11872.0	8.07884957182e-05	0.989416707061
11988.0	8.07884957182e-05	0.989497495557
12002.0	8.07884957182e-05	0.989578284052
12027.0	8.07884957182e-05	0.989659072548
12031.0	8.07884957182e-05	0.989739861044
12165.0	8.07884957182e-05	0.98982064954
12192.0	8.07884957182e-05	0.989901438035
12214.0	8.07884957182e-05	0.989982226531
12232.0	8.07884957182e-05	0.990063015027
12258.0	8.07884957182e-05	0.990143803522
12290.0	8.07884957182e-05	0.990224592018
12300.0	8.07884957182e-05	0.990305380514
12306.0	8.07884957182e-05	0.99038616901
12320.0	8.07884957182e-05	0.990466957505
12367.0	8.07884957182e-05	0.990547746001
12383.0	8.07884957182e-05	0.990628534497
12386.0	8.07884957182e-05	0.990709322992
12491.0	8.07884957182e-05	0.990790111488
12522.0	8.07884957182e-05	0.990870899984
12527.0	8.07884957182e-05	0.99095168848
12576.0	8.07884957182e-05	0.991032476975
12652.0	8.07884957182e-05	0.991113265471
12799.0	8.07884957182e-05	0.991194053967
12806.0	8.07884957182e-05	0.991274842462
12828.0	8.07884957182e-05	0.991355630958
12926.0	8.07884957182e-05	0.991436419454
12929.0	8.07884957182e-05	0.99151720795
12941.0	8.07884957182e-05	0.991597996445
12979.0	8.07884957182e-05	0.991678784941
12988.0	8.07884957182e-05	0.991759573437
13066.0	8.07884957182e-05	0.991840361932
13151.0	8.07884957182e-05	0.991921150428
13157.0	8.07884957182e-05	0.992001938924
13267.0	8.07884957182e-05	0.99208272742
13308.0	8.07884957182e-05	0.992163515915
13333.0	8.07884957182e-05	0.992244304411
13340.0	8.07884957182e-05	0.992325092907
13355.0	8.07884957182e-05	0.992405881402
13376.0	8.07884957182e-05	0.992486669898
13506.0	8.07884957182e-05	0.992567458394
13529.0	8.07884957182e-05	0.99264824689
13618.0	8.07884957182e-05	0.992729035385
13692.0	8.07884957182e-05	0.992809823881
13808.0	8.07884957182e-05	0.992890612377
13813.0	0.000161576991436	0.993052189368
13864.0	8.07884957182e-05	0.993132977864
13903.0	8.07884957182e-05	0.99321376636
14013.0	8.07884957182e-05	0.993294554855
14080.0	8.07884957182e-05	0.993375343351
14128.0	8.07884957182e-05	0.993456131847
14185.0	8.07884957182e-05	0.993536920343
14288.0	8.07884957182e-05	0.993617708838
14311.0	8.07884957182e-05	0.993698497334
14390.0	8.07884957182e-05	0.99377928583
14402.0	8.07884957182e-05	0.993860074325
14557.0	8.07884957182e-05	0.993940862821
14598.0	8.07884957182e-05	0.994021651317
14797.0	8.07884957182e-05	0.994102439813
14837.0	8.07884957182e-05	0.994183228308
14888.0	8.07884957182e-05	0.994264016804
14897.0	8.07884957182e-05	0.9943448053
14932.0	8.07884957182e-05	0.994425593795
14986.0	8.07884957182e-05	0.994506382291
15002.0	8.07884957182e-05	0.994587170787
15062.0	8.07884957182e-05	0.994667959283
15102.0	8.07884957182e-05	0.994748747778
15164.0	8.07884957182e-05	0.994829536274
15170.0	8.07884957182e-05	0.99491032477
15228.0	8.07884957182e-05	0.994991113265
15235.0	8.07884957182e-05	0.995071901761
15327.0	8.07884957182e-05	0.995152690257
15593.0	8.07884957182e-05	0.995233478753
15664.0	8.07884957182e-05	0.995314267248
15750.0	8.07884957182e-05	0.995395055744
15825.0	8.07884957182e-05	0.99547584424
15855.0	8.07884957182e-05	0.995556632735
15994.0	8.07884957182e-05	0.995637421231
16375.0	8.07884957182e-05	0.995718209727
16383.0	8.07884957182e-05	0.995798998223
16425.0	8.07884957182e-05	0.995879786718
16716.0	8.07884957182e-05	0.995960575214
16777.0	8.07884957182e-05	0.99604136371
16846.0	8.07884957182e-05	0.996122152206
16902.0	8.07884957182e-05	0.996202940701
16904.0	8.07884957182e-05	0.996283729197
16966.0	8.07884957182e-05	0.996364517693
16997.0	8.07884957182e-05	0.996445306188
17266.0	8.07884957182e-05	0.996526094684
17299.0	8.07884957182e-05	0.99660688318
17342.0	8.07884957182e-05	0.996687671676
17814.0	8.07884957182e-05	0.996768460171
17866.0	8.07884957182e-05	0.996849248667
18022.0	8.07884957182e-05	0.996930037163
18393.0	8.07884957182e-05	0.997010825658
18461.0	8.07884957182e-05	0.997091614154
18603.0	0.000161576991436	0.997253191146
18606.0	8.07884957182e-05	0.997333979641
18656.0	8.07884957182e-05	0.997414768137
18690.0	8.07884957182e-05	0.997495556633
19087.0	8.07884957182e-05	0.997576345128
19168.0	8.07884957182e-05	0.997657133624
19410.0	8.07884957182e-05	0.99773792212
19921.0	8.07884957182e-05	0.997818710616
19929.0	8.07884957182e-05	0.997899499111
20053.0	8.07884957182e-05	0.997980287607
20211.0	8.07884957182e-05	0.998061076103
20241.0	8.07884957182e-05	0.998141864598
20335.0	8.07884957182e-05	0.998222653094
20355.0	8.07884957182e-05	0.99830344159
20699.0	8.07884957182e-05	0.998384230086
20769.0	8.07884957182e-05	0.998465018581
20843.0	8.07884957182e-05	0.998545807077
21361.0	8.07884957182e-05	0.998626595573
21675.0	8.07884957182e-05	0.998707384069
21773.0	8.07884957182e-05	0.998788172564
21819.0	8.07884957182e-05	0.99886896106
21884.0	8.07884957182e-05	0.998949749556
22481.0	8.07884957182e-05	0.999030538051
22495.0	8.07884957182e-05	0.999111326547
23190.0	8.07884957182e-05	0.999192115043
23486.0	8.07884957182e-05	0.999272903539
23579.0	8.07884957182e-05	0.999353692034
24016.0	8.07884957182e-05	0.99943448053
24118.0	8.07884957182e-05	0.999515269026
24127.0	8.07884957182e-05	0.999596057521
24617.0	8.07884957182e-05	0.999676846017
25741.0	8.07884957182e-05	0.999757634513
26184.0	8.07884957182e-05	0.999838423009
26546.0	8.07884957182e-05	0.999919211504
27519.0	8.07884957182e-05	1.0
28396.0	8.07884957182e-05	1.0
