#
# Generated On: 2012-02-05T16:59:24.203161
#           By: cwa.analyze.statistics
#      Version: 11.11.23
#       Author: Thomas A. de Ruiter <thomas@de-ruiter.cx>
#
#  Commandline: /home/af10028/bin/cwa analyze
#     Work Dir: /scratch/af10028/var/thesis-project/result/analyses/workload-01h-07416l-4s-fair
#

Time	Sum	Avg	StdDev	CoV	0.000000-Pct	0.010000-Pct	0.100000-Pct	1.000000-Pct	2.000000-Pct	5.000000-Pct	25.000000-Pct	50.000000-Pct	75.000000-Pct	95.000000-Pct	98.000000-Pct	99.000000-Pct	99.900000-Pct	99.990000-Pct	100.000000-Pct
1326924600	1261591.0	2380.36037736	2320.95953455	0.975045441279	3.0	3.0	3.0	3.0	3.0	3.0	581.0	1850.5	3554.0	6892.0	9349.0	10066.0	14582.0	14582.0	14582.0
1326928200	102308.0	2765.08108108	2823.62541168	1.02117273558	3.0	3.0	3.0	3.0	3.0	3.0	270.0	1744.0	4779.0	9208.0	9549.0	9549.0	9549.0	9549.0	9549.0
