#
# Generated On: 2012-02-05T16:45:16.569527
#           By: cwa.analyze.statistics
#      Version: 11.11.23
#       Author: Thomas A. de Ruiter <thomas@de-ruiter.cx>
#
#  Commandline: /home/af10028/bin/cwa analyze
#     Work Dir: /scratch/af10028/var/thesis-project/result/analyses/workload-01h-03708l-3s-fair
#

Time	Sum	Avg	StdDev	CoV	0.000000-Pct	0.010000-Pct	0.100000-Pct	1.000000-Pct	2.000000-Pct	5.000000-Pct	25.000000-Pct	50.000000-Pct	75.000000-Pct	95.000000-Pct	98.000000-Pct	99.000000-Pct	99.900000-Pct	99.990000-Pct	100.000000-Pct
1326954600	11633423.0	172.807828283	432.316089613	2.50171588815	2.0	2.0	2.0	2.0	2.0	2.0	6.0	33.0	143.0	806.0	1439.0	2039.0	4930.0	8703.0	11176.0
1326958200	2177773.0	170.258228442	414.253682392	2.43309052481	2.0	2.0	2.0	2.0	2.0	2.0	6.0	35.0	146.0	770.0	1382.0	1973.0	4558.0	7152.0	8097.0
