#
# Generated On: 2012-01-25T15:48:02.749140
#           By: cwa.analyze.statistics
#      Version: 11.11.23
#       Author: Thomas A. de Ruiter <thomas@de-ruiter.cx>
#
#  Commandline: /home/af10028/bin/cwa analyze
#     Work Dir: /scratch/af10028/var/thesis-project/result/analyses/workload-01h-07416l-0s-fair
#

Time	Sum	Avg	StdDev	CoV	0.000000-Pct	0.010000-Pct	0.100000-Pct	1.000000-Pct	2.000000-Pct	5.000000-Pct	25.000000-Pct	50.000000-Pct	75.000000-Pct	95.000000-Pct	98.000000-Pct	99.000000-Pct	99.900000-Pct	99.990000-Pct	100.000000-Pct
1326937800	19584793.0	1094.55055049	2128.33107548	1.94447947107	2.0	2.0	2.0	2.0	2.0	2.0	15.0	101.0	626.0	6322.0	7212.0	7341.0	13348.0	13349.0	13349.0
1326938400	12313889.0	909.646819827	1781.87036164	1.95885955165	2.0	2.0	2.0	2.0	2.0	2.0	15.0	95.0	536.0	5368.0	7026.0	7026.0	7818.0	8826.0	8829.0
1326939000	3377558.0	239.085297657	532.972457312	2.22921468838	2.0	2.0	2.0	2.0	2.0	2.0	9.0	59.0	227.0	1088.0	1784.0	2531.0	5874.0	9155.0	11008.0
1326939600	3107420.0	238.738475722	531.395979434	2.22584976228	2.0	2.0	2.0	2.0	2.0	2.0	11.0	56.0	230.0	1076.0	1859.0	2501.0	5902.0	10649.0	12041.0
1326940200	3412855.0	239.330645161	535.108021405	2.2358525004	2.0	2.0	2.0	2.0	2.0	2.0	11.0	57.0	230.0	1058.0	1820.0	2480.0	6138.0	9543.0	9908.0
1326940800	5920404.0	374.709113924	1004.29409234	2.68019659789	2.0	2.0	2.0	2.0	2.0	2.0	11.0	65.0	272.0	1703.0	3514.0	5428.0	10736.0	14880.0	14884.0
1326941400	7366111.0	423.583151236	1108.39784433	2.61671844381	2.0	2.0	2.0	2.0	2.0	2.0	11.0	71.0	302.0	2129.0	3925.0	5793.0	12436.0	14361.0	14436.0
1326942000	4326876.0	948.044697634	1906.05899113	2.01051595552	2.0	2.0	2.0	2.0	2.0	2.0	12.0	113.0	848.0	5137.0	7778.0	9335.0	13579.0	13908.0	13908.0
1326942600	4171687.0	2608.93495935	2678.97827801	1.02684747598	5.0	5.0	5.0	5.0	5.0	5.0	233.0	1904.0	4234.0	8133.0	9327.0	11483.0	13222.0	13273.0	13273.0
1326943200	2599558.0	2756.6892895	2658.99462266	0.964560871184	5.0	5.0	5.0	5.0	5.0	5.0	425.0	2000.0	4126.0	8127.0	10631.0	11087.0	11531.0	11531.0	11531.0
1326943800	5900820.0	3270.96452328	2566.24523206	0.784553061887	5.0	5.0	5.0	5.0	5.0	6.0	1229.0	3017.0	4360.0	7887.0	10403.0	10511.0	10925.0	10931.0	10931.0
1326944400	5165801.0	3476.31292059	2506.37681156	0.720987111579	5.0	5.0	5.0	5.0	6.0	215.0	1859.0	2872.0	5281.0	9392.0	9923.0	10007.0	10229.0	10271.0	10271.0
1326945000	5992940.0	3927.2214941	2414.31721918	0.614764719232	15.0	15.0	18.0	78.0	170.0	977.0	1991.0	3335.5	5503.0	9188.0	9345.0	9581.0	9716.0	9716.0	9716.0
1326945600	1728473.0	4332.01253133	2443.67340718	0.564096569321	965.0	965.0	965.0	1154.0	1154.0	1364.0	2009.0	4366.0	5985.0	8820.0	9030.0	9053.0	9056.0	9056.0	9056.0
1326946200	1653294.0	3917.75829384	2583.74136803	0.659494837161	491.0	491.0	491.0	515.0	518.0	626.0	1247.0	3950.5	5251.0	8292.0	8436.0	8498.0	8502.0	8502.0	8502.0
1326946800	5427948.0	4405.80194805	2413.02766623	0.547693177017	5.0	5.0	5.0	6.0	47.0	242.0	3107.0	4192.0	7089.0	7665.0	7905.0	7908.0	7908.0	7908.0	7908.0
1326947400	937599.0	6794.19565217	320.283903684	0.0471408125525	3059.0	3059.0	3059.0	6819.0	6819.0	6819.0	6822.0	6822.0	6822.0	6823.0	6823.0	6823.0	6823.0	6823.0	6823.0
