#
# Generated On: 2012-02-09T15:04:54.765950
#           By: cwa.analyze.statistics
#      Version: 11.11.23
#       Author: Thomas A. de Ruiter <thomas@de-ruiter.cx>
#
#  Commandline: /home/af10028/bin/cwa analyze
#     Work Dir: /scratch/af10028/var/thesis-project/result/workload-analyses/workload-06h-07416l-2s
#

Time	Sum	Avg	StdDev	CoV	0.000000-Pct	0.010000-Pct	0.100000-Pct	1.000000-Pct	2.000000-Pct	5.000000-Pct	25.000000-Pct	50.000000-Pct	75.000000-Pct	95.000000-Pct	98.000000-Pct	99.000000-Pct	99.900000-Pct	99.990000-Pct	100.000000-Pct
1326891000	285881.0	107.514479127	300.707294011	2.79690044031	0.0	0.0	0.0	0.0	0.0	0.0	2.0	20.0	85.0	492.0	845.0	1479.0	3897.0	6023.0	6023.0
1326891600	1309732.0	122.370550313	349.249986693	2.85403625136	0.0	0.0	0.0	0.0	0.0	0.0	3.0	22.0	96.0	556.0	1052.0	1488.0	4595.0	7868.0	11210.0
1326892200	1793399.0	120.217120257	324.035494029	2.69541886659	0.0	0.0	0.0	0.0	0.0	0.0	4.0	22.0	97.0	542.0	1039.0	1467.0	3838.0	6670.0	7728.0
1326892800	2218999.0	140.336390083	365.125849814	2.60179023841	0.0	0.0	0.0	0.0	0.0	0.0	4.0	28.0	115.0	649.0	1170.0	1751.0	4125.0	6930.0	8075.0
1326893400	2937339.0	163.485222909	409.322725501	2.50372919472	0.0	0.0	0.0	0.0	0.0	0.0	5.0	31.0	135.0	763.0	1408.0	2017.0	4942.0	7399.0	7763.0
1326894000	3023132.0	156.825854645	430.367158576	2.74423601611	0.0	0.0	0.0	0.0	0.0	0.0	4.0	29.0	126.0	692.0	1335.0	1993.0	5401.0	9158.0	9517.0
1326894600	3124179.0	146.764645089	383.90048367	2.61575588207	0.0	0.0	0.0	0.0	0.0	0.0	4.0	27.0	121.0	673.0	1229.0	1791.0	4487.0	7701.0	9521.0
1326895200	3163228.0	159.629995963	422.333095267	2.64570009364	0.0	0.0	0.0	0.0	0.0	0.0	4.0	29.0	128.0	739.0	1386.0	1997.0	5059.0	9133.0	10012.0
1326895800	3294319.0	164.773620767	427.230282232	2.59283179093	0.0	0.0	0.0	0.0	0.0	0.0	5.0	32.0	136.0	757.0	1357.0	2033.0	5029.0	8653.0	11004.0
1326896400	3217632.0	165.737715051	410.695582151	2.47798506227	0.0	0.0	0.0	0.0	0.0	0.0	5.0	32.0	140.0	751.0	1417.0	2082.0	4673.0	6885.0	7367.0
1326897000	3423912.0	176.845824079	455.823958719	2.57752175428	0.0	0.0	0.0	0.0	0.0	0.0	5.0	35.0	148.0	819.0	1468.0	2105.0	5004.0	10498.0	18033.0
1326897600	3363480.0	172.371239686	434.962003139	2.5234024187	0.0	0.0	0.0	0.0	0.0	0.0	5.0	34.0	151.0	772.0	1388.0	1989.0	4665.0	11321.0	13294.0
1326898200	3606990.0	159.990685296	414.440332086	2.59040288076	0.0	0.0	0.0	0.0	0.0	0.0	5.0	30.0	133.0	752.0	1335.0	1869.0	4400.0	10637.0	13304.0
1326898800	3574089.0	156.470055162	400.613609846	2.56032126679	0.0	0.0	0.0	0.0	0.0	0.0	5.0	29.0	131.0	717.0	1337.0	1894.0	4422.0	8241.0	11289.0
1326899400	3735765.0	172.936070734	457.927646567	2.64795912514	0.0	0.0	0.0	0.0	0.0	0.0	5.0	32.0	143.0	785.0	1419.0	2082.0	5511.0	9044.0	13248.0
1326900000	3356848.0	180.699144103	458.340603038	2.53648463757	0.0	0.0	0.0	0.0	0.0	0.0	6.0	35.0	153.0	817.0	1475.0	2125.0	5465.0	8660.0	8812.0
1326900600	3679386.0	192.971416584	488.416259601	2.53102904175	0.0	0.0	0.0	0.0	0.0	0.0	6.0	39.0	168.0	875.0	1560.0	2316.0	5333.0	11468.0	14279.0
1326901200	3696279.0	193.583272232	500.94185941	2.58773319427	0.0	0.0	0.0	0.0	0.0	0.0	6.0	38.0	168.0	902.0	1545.0	2107.0	5482.0	11521.0	18015.0
1326901800	4099292.0	167.605364298	487.84795754	2.91069417487	0.0	0.0	0.0	0.0	0.0	0.0	5.0	32.0	138.0	765.0	1395.0	1996.0	4974.0	14120.0	34218.0
1326902400	4192785.0	184.184897206	486.245745076	2.63998705894	0.0	0.0	0.0	0.0	0.0	0.0	5.0	35.0	152.0	852.0	1475.0	2180.0	5831.0	9446.0	20361.0
1326903000	4175211.0	177.766892323	444.484507516	2.50037845465	0.0	0.0	0.0	0.0	0.0	0.0	5.0	35.0	153.0	811.0	1506.0	2080.0	5000.0	8713.0	9250.0
1326903600	4341930.0	175.332337264	437.342196894	2.49436130105	0.0	0.0	0.0	0.0	0.0	0.0	5.0	33.0	148.0	812.0	1480.0	2111.0	4638.0	8547.0	11236.0
1326904200	4030414.0	175.136401165	428.812205473	2.44844705396	0.0	0.0	0.0	0.0	0.0	0.0	5.0	34.0	151.0	796.0	1490.0	2200.0	4637.0	7466.0	9484.0
1326904800	4063054.0	173.434669399	454.024797758	2.61784336046	0.0	0.0	0.0	0.0	0.0	0.0	5.0	32.0	142.0	807.0	1449.0	2066.0	5240.0	11721.0	12954.0
1326905400	4167633.0	179.175967326	454.403571815	2.53607433294	0.0	0.0	0.0	0.0	0.0	0.0	5.0	34.0	148.0	852.0	1505.0	2076.0	4797.0	9998.0	16895.0
1326906000	3792291.0	166.43805135	419.70824845	2.52170849783	0.0	0.0	0.0	0.0	0.0	0.0	5.0	31.0	138.0	775.0	1411.0	2042.0	5016.0	7389.0	11410.0
1326906600	3932351.0	167.163365074	427.582463846	2.55787183787	0.0	0.0	0.0	0.0	0.0	0.0	5.0	32.0	139.0	775.0	1404.0	2057.0	4970.0	8612.0	10330.0
1326907200	4026811.0	161.414639035	453.021477361	2.80656996212	0.0	0.0	0.0	0.0	0.0	0.0	5.0	29.0	131.0	748.0	1296.0	1946.0	5102.0	9291.0	26360.0
1326907800	3740704.0	184.616720955	470.136669705	2.54655519431	0.0	0.0	0.0	0.0	0.0	0.0	6.0	36.0	158.0	845.0	1516.0	2217.0	5422.0	9876.0	9906.0
1326908400	3879169.0	167.566695464	423.040965812	2.52461245142	0.0	0.0	0.0	0.0	0.0	0.0	4.0	30.0	137.0	781.0	1438.0	2044.0	4795.0	9156.0	9850.0
1326909000	3875224.0	173.426896397	435.406166829	2.5106034639	0.0	0.0	0.0	0.0	0.0	0.0	5.0	32.0	145.0	803.0	1433.0	2027.0	5103.0	7980.0	9462.0
1326909600	3588034.0	163.583204158	405.991758834	2.48186701638	0.0	0.0	0.0	0.0	0.0	0.0	5.0	31.0	136.0	768.0	1400.0	2019.0	4413.0	6864.0	7254.0
1326910200	3618752.0	170.374387947	434.292009972	2.54904516579	0.0	0.0	0.0	0.0	0.0	0.0	5.0	33.0	140.0	788.0	1456.0	2139.0	4792.0	8443.0	12489.0
1326910800	3752954.0	176.63453664	458.475423527	2.59561596643	0.0	0.0	0.0	0.0	0.0	0.0	5.0	35.0	151.0	814.0	1471.0	2051.0	4586.0	11344.0	18032.0
1326911400	3901355.0	177.576467911	445.563512266	2.50913602184	0.0	0.0	0.0	0.0	0.0	0.0	5.0	34.0	152.0	818.0	1452.0	2094.0	5279.0	9234.0	11135.0
1326912000	4071574.0	179.522663139	462.607038456	2.57687263751	0.0	0.0	0.0	0.0	0.0	0.0	5.0	34.0	154.0	816.0	1488.0	2173.0	5326.0	8586.0	17423.0
1326912600	3836363.0	210.823927021	510.131993287	2.41970634214	0.0	0.0	0.0	0.0	0.0	0.0	7.0	43.0	185.0	981.0	1689.0	2424.0	5284.0	12867.0	16713.0
1326913200	2950290.0	228.77558933	518.074321055	2.26455244885	0.0	0.0	0.0	0.0	0.0	0.0	9.0	53.0	219.0	1023.0	1760.0	2471.0	5932.0	8367.0	11969.0
1326913800	2382452.0	243.878800287	572.870139396	2.34899523338	0.0	0.0	0.0	0.0	0.0	0.0	9.0	55.0	228.0	1094.0	1859.0	2626.0	6360.0	13186.0	13186.0
1326914400	2117088.0	248.981300717	550.786748521	2.21216110179	0.0	0.0	0.0	0.0	0.0	0.0	9.0	59.0	234.0	1144.0	1942.0	2832.0	5414.0	10689.0	10689.0
1326915000	1866209.0	235.098135551	509.715663901	2.16809743177	0.0	0.0	0.0	0.0	0.0	0.0	10.0	60.0	230.0	1031.0	1730.0	2352.0	5630.0	8137.0	8137.0
1326915600	1573263.0	227.022077922	472.672260862	2.08205415609	0.0	0.0	0.0	0.0	0.0	0.0	9.0	57.0	226.0	1056.0	1756.0	2278.0	4514.0	7554.0	7554.0
1326916200	1371738.0	235.410674447	502.722647653	2.13551339095	0.0	0.0	0.0	0.0	0.0	0.0	9.0	58.0	242.0	1083.0	1723.0	2294.0	5875.0	11508.0	11508.0
1326916800	1345705.0	244.540250772	512.037185914	2.09387691514	0.0	0.0	0.0	0.0	0.0	0.0	10.0	57.0	238.0	1113.0	1901.0	2522.0	4865.0	6766.0	6766.0
1326917400	1199280.0	239.090909091	562.507071859	2.35269117508	0.0	0.0	0.0	0.0	0.0	0.0	10.0	60.0	231.0	1077.0	1747.0	2277.0	6165.0	15501.0	15501.0
1326918000	1031070.0	235.888812629	537.413230922	2.27824806498	0.0	0.0	0.0	0.0	0.0	0.0	10.0	53.0	219.0	1095.0	1814.0	2481.0	5409.0	12650.0	12650.0
1326918600	861964.0	240.034530771	521.400796366	2.17219078726	0.0	0.0	0.0	0.0	0.0	0.0	9.0	58.0	240.0	1058.0	1834.0	2672.0	5681.0	8618.0	8618.0
1326919200	937846.0	252.312617702	558.003162895	2.21155472911	0.0	0.0	0.0	0.0	0.0	0.0	10.0	59.0	244.0	1181.0	1921.0	2424.0	6453.0	10169.0	10169.0
1326919800	908100.0	235.992723493	499.169196898	2.11518893257	0.0	0.0	0.0	0.0	0.0	0.0	9.0	59.0	245.0	1086.0	1772.0	2523.0	5300.0	6709.0	6709.0
1326920400	870171.0	233.039903589	537.684264556	2.30726264591	0.0	0.0	0.0	0.0	0.0	0.0	9.0	54.0	229.0	1077.0	1768.0	2365.0	6498.0	12209.0	12209.0
1326921000	856123.0	238.740379253	551.287117061	2.30914903791	0.0	0.0	0.0	0.0	0.0	0.0	10.0	59.5	225.0	1097.0	1854.0	2527.0	5968.0	11655.0	11655.0
1326921600	658998.0	224.990781837	463.613515093	2.06058893306	0.0	0.0	0.0	0.0	0.0	0.0	11.0	59.0	230.0	965.0	1631.0	2339.0	4680.0	7173.0	7173.0
1326922200	636979.0	225.001412928	489.390946209	2.17505721337	0.0	0.0	0.0	0.0	0.0	0.0	8.0	52.0	210.0	1056.0	1762.0	2428.0	4603.0	8361.0	8361.0
1326922800	756609.0	253.980866062	551.776386435	2.1725116344	0.0	0.0	0.0	0.0	0.0	0.0	9.0	59.0	248.0	1180.0	1953.0	2799.0	6186.0	7704.0	7704.0
1326923400	662239.0	237.021832498	609.072213169	2.56968822977	0.0	0.0	0.0	0.0	0.0	0.0	10.0	54.0	220.0	1082.0	1789.0	2468.0	6100.0	17289.0	17289.0
1326924000	639756.0	231.879666546	481.035693758	2.07450571636	0.0	0.0	0.0	0.0	0.0	0.0	10.0	60.0	236.0	1072.0	1651.0	2268.0	5897.0	6399.0	6399.0
1326924600	570613.0	245.95387931	582.281472913	2.36744171121	0.0	0.0	0.0	0.0	0.0	0.0	11.0	56.0	230.0	1091.0	1913.0	2744.0	6370.0	12312.0	12312.0
1326925200	572680.0	253.622674934	580.126679564	2.28736125315	0.0	0.0	0.0	0.0	0.0	0.0	10.0	57.0	246.0	1130.0	1939.0	2419.0	6173.0	11668.0	11668.0
1326925800	482732.0	235.364212579	515.825703657	2.19160635342	0.0	0.0	0.0	0.0	0.0	0.0	9.0	55.0	226.0	1080.0	1953.0	2407.0	6183.0	7001.0	7001.0
1326926400	469100.0	245.602094241	532.168503069	2.1667913896	0.0	0.0	0.0	0.0	0.0	0.0	10.0	59.0	231.0	1124.0	2002.0	2807.0	5794.0	6533.0	6533.0
1326927000	398552.0	231.851076207	487.750026553	2.10372120989	0.0	0.0	0.0	0.0	0.0	0.0	10.0	60.0	225.0	1027.0	1751.0	2536.0	4812.0	5458.0	5458.0
1326927600	454226.0	242.253866667	506.936853994	2.0925851916	0.0	0.0	0.0	0.0	0.0	0.0	8.0	55.0	242.0	1113.0	2026.0	2619.0	4687.0	6361.0	6361.0
1326928200	408333.0	231.744040863	470.158475803	2.02878345459	0.0	0.0	0.0	0.0	0.0	0.0	9.0	57.0	259.0	1069.0	1696.0	2134.0	4690.0	6075.0	6075.0
1326928800	372713.0	219.889675516	456.115115993	2.07429073203	0.0	0.0	0.0	0.0	0.0	0.0	9.0	57.0	218.0	959.0	1726.0	2271.0	4423.0	4475.0	4475.0
1326929400	340237.0	237.927972028	495.387846007	2.08209165902	0.0	0.0	0.0	0.0	0.0	0.0	10.0	59.0	240.0	1141.0	1921.0	2497.0	5189.0	6424.0	6424.0
1326930000	347234.0	234.617567568	592.378716111	2.52486939598	0.0	0.0	0.0	0.0	0.0	0.0	9.0	55.0	225.0	1018.0	1814.0	2460.0	5310.0	13820.0	13820.0
1326930600	334979.0	238.249644381	526.027146624	2.20788219009	0.0	0.0	0.0	0.0	0.0	0.0	9.0	56.0	233.0	1094.0	1651.0	2366.0	6200.0	7685.0	7685.0
1326931200	313363.0	232.120740741	465.771510045	2.00659152025	0.0	0.0	0.0	0.0	0.0	0.0	12.0	60.0	230.0	1007.0	1717.0	2654.0	4295.0	4442.0	4442.0
1326931800	278962.0	220.872525732	510.835210322	2.31280558154	0.0	0.0	0.0	0.0	0.0	0.0	9.0	53.0	216.0	933.0	1781.0	2555.0	5562.0	6794.0	6794.0
1326932400	268770.0	231.100601892	472.241260678	2.04344452941	0.0	0.0	0.0	0.0	0.0	0.0	11.0	61.0	235.0	1015.0	1687.0	2284.0	4639.0	5549.0	5549.0
1326933000	284660.0	255.30044843	543.158295423	2.12752581816	0.0	0.0	0.0	0.0	0.0	0.0	9.0	62.0	236.0	1206.0	2069.0	2512.0	5684.0	7166.0	7166.0
1326933600	254222.0	243.741131352	585.700745146	2.40296228174	0.0	0.0	0.0	0.0	0.0	0.0	10.0	55.0	222.0	1092.0	1798.0	2753.0	6988.0	7230.0	7230.0
1326934200	255534.0	241.982954545	474.216851723	1.95971180125	0.0	0.0	0.0	0.0	0.0	0.0	10.0	60.0	227.0	1179.0	1951.0	2311.0	3779.0	4825.0	4825.0
1326934800	230116.0	222.764762827	561.877607294	2.52229122849	0.0	0.0	0.0	0.0	0.0	0.0	12.0	62.0	214.0	927.0	1704.0	2220.0	7464.0	10339.0	10339.0
1326935400	245685.0	234.656160458	468.472608905	1.99642152156	0.0	0.0	0.0	0.0	0.0	0.0	12.0	69.0	257.0	1021.0	1586.0	2101.0	5159.0	5201.0	5201.0
1326936000	233116.0	252.017297297	602.791647473	2.39186616926	0.0	0.0	0.0	0.0	0.0	0.0	9.0	54.0	212.0	1138.0	1944.0	2907.0	9597.0	9597.0	9597.0
1326936600	192398.0	255.848404255	575.086403186	2.24776232183	0.0	0.0	0.0	0.0	0.0	0.0	12.0	63.0	251.0	1254.0	1698.0	2297.0	7989.0	7989.0	7989.0
1326937200	185396.0	242.031331593	463.184209671	1.91373656718	0.0	0.0	0.0	0.0	0.0	0.0	13.0	67.5	240.0	1094.0	1867.0	2398.0	3937.0	3937.0	3937.0
1326937800	204979.0	275.880215343	644.595577613	2.33650527208	0.0	0.0	0.0	0.0	0.0	0.0	10.0	68.0	253.0	1274.0	2155.0	3231.0	8669.0	8669.0	8669.0
1326938400	181226.0	236.587467363	565.738173164	2.39124320265	0.0	0.0	0.0	0.0	0.0	0.0	9.0	51.5	215.0	1058.0	1823.0	2804.0	8739.0	8739.0	8739.0
1326939000	152683.0	261.443493151	593.846718237	2.27141517687	0.0	0.0	0.0	0.0	0.0	0.0	11.0	66.0	266.0	1222.0	2105.0	2443.0	8155.0	8155.0	8155.0
1326939600	125560.0	223.814616756	425.32916396	1.90036365866	0.0	0.0	0.0	0.0	0.0	0.0	13.0	72.0	256.0	917.0	1522.0	2217.0	4204.0	4204.0	4204.0
1326940200	143250.0	226.661392405	461.417123165	2.03571114723	0.0	0.0	0.0	0.0	0.0	0.0	10.0	64.5	225.0	959.0	1791.0	2172.0	6021.0	6021.0	6021.0
1326940800	110712.0	244.938053097	559.975182111	2.28619103904	0.0	0.0	0.0	0.0	0.0	0.0	11.0	64.0	202.0	1155.0	2554.0	3178.0	5536.0	5536.0	5536.0
1326941400	143531.0	269.795112782	613.550555164	2.27413517183	0.0	0.0	0.0	0.0	0.0	0.0	12.0	66.5	261.0	1349.0	2072.0	2666.0	8583.0	8583.0	8583.0
1326942000	121927.0	234.475	439.908139112	1.87614090676	0.0	0.0	0.0	0.0	0.0	0.0	15.0	71.5	252.0	988.0	1344.0	1777.0	5162.0	5162.0	5162.0
1326942600	124615.0	226.985428051	414.769265475	1.82729468159	0.0	0.0	0.0	0.0	0.0	0.0	14.0	73.0	229.0	1153.0	1746.0	1971.0	3690.0	3690.0	3690.0
1326943200	120034.0	231.27938343	519.265583414	2.2451875118	0.0	0.0	0.0	0.0	0.0	0.0	10.0	58.0	231.0	979.0	1866.0	2277.0	6669.0	6669.0	6669.0
1326943800	125292.0	222.939501779	445.241287192	1.99713950932	0.0	0.0	0.0	0.0	0.0	0.0	8.0	49.0	213.0	1068.0	1539.0	2559.0	3305.0	3305.0	3305.0
1326944400	134325.0	219.485294118	413.710887744	1.88491392741	0.0	0.0	0.0	0.0	0.0	0.0	10.0	69.0	263.0	942.0	1472.0	1668.0	4168.0	4168.0	4168.0
1326945000	161801.0	257.235294118	536.557603975	2.08586308428	0.0	0.0	0.0	0.0	0.0	0.0	11.0	70.0	239.0	1182.0	1984.0	2693.0	4919.0	4919.0	4919.0
1326945600	120985.0	239.100790514	491.703101796	2.05646790519	0.0	0.0	0.0	0.0	0.0	0.0	7.0	54.5	240.0	1082.0	1718.0	1954.0	4933.0	4933.0	4933.0
1326946200	106244.0	218.609053498	456.123079158	2.08647845027	0.0	0.0	0.0	0.0	0.0	0.0	8.0	55.5	223.0	952.0	1613.0	2556.0	4110.0	4110.0	4110.0
1326946800	108560.0	230.978723404	412.760217819	1.78700536455	0.0	0.0	0.0	0.0	0.0	0.0	9.0	58.0	246.0	1022.0	1529.0	2035.0	3348.0	3348.0	3348.0
1326947400	107473.0	260.856796117	509.881219294	1.95464035012	0.0	0.0	0.0	0.0	0.0	0.0	11.0	73.5	280.0	1096.0	1826.0	2247.0	4781.0	4781.0	4781.0
1326948000	130127.0	242.322160149	573.216613458	2.36551462361	0.0	0.0	0.0	0.0	0.0	0.0	8.0	52.0	244.0	1099.0	1782.0	2244.0	9390.0	9390.0	9390.0
1326948600	62269.0	205.508250825	454.849308171	2.21328976498	0.0	0.0	0.0	0.0	0.0	0.0	10.0	50.0	206.0	776.0	1819.0	2264.0	4555.0	4555.0	4555.0
1326949200	112838.0	233.619047619	484.177563158	2.07250893321	0.0	0.0	0.0	0.0	0.0	0.0	9.0	63.0	242.0	997.0	1993.0	2393.0	5271.0	5271.0	5271.0
1326949800	82011.0	231.016901408	397.178558866	1.71926190874	0.0	0.0	0.0	0.0	0.0	0.0	13.0	68.0	253.0	1071.0	1503.0	1856.0	2984.0	2984.0	2984.0
1326950400	81202.0	247.567073171	530.362701249	2.14229903216	0.0	0.0	0.0	0.0	0.0	0.0	9.0	52.0	224.0	1164.0	2006.0	2132.0	5307.0	5307.0	5307.0
1326951000	68556.0	228.52	525.906361695	2.301358138	0.0	0.0	0.0	0.0	0.0	0.0	9.0	56.5	229.0	951.0	1660.0	2842.0	5827.0	5827.0	5827.0
1326951600	52880.0	213.225806452	423.755990032	1.98735789577	0.0	0.0	0.0	0.0	0.0	0.0	10.0	54.0	240.0	959.0	1327.0	1684.0	4787.0	4787.0	4787.0
1326952200	35251.0	217.598765432	626.356212623	2.87849157315	0.0	0.0	0.0	0.0	0.0	0.0	5.0	39.0	142.0	869.0	2285.0	2803.0	6131.0	6131.0	6131.0
1326952800	44681.0	413.712962963	939.209938918	2.27019702789	0.0	0.0	0.0	0.0	0.0	1.0	22.0	102.5	445.0	1812.0	3684.0	5599.0	6128.0	6128.0	6128.0
1326953400	22588.0	237.768421053	398.451429343	1.6757962541	0.0	0.0	0.0	0.0	0.0	0.0	8.0	46.0	320.0	1108.0	1669.0	2213.0	2213.0	2213.0	2213.0
1326954000	14169.0	217.984615385	313.39923083	1.43771261232	0.0	0.0	0.0	0.0	0.0	0.0	10.0	67.0	300.0	847.0	961.0	1636.0	1636.0	1636.0	1636.0
1326954600	5461.0	248.227272727	471.151470116	1.89806488602	0.0	0.0	0.0	0.0	0.0	0.0	3.0	79.0	222.0	1030.0	2042.0	2042.0	2042.0	2042.0	2042.0
