#
# Generated On: 2012-02-05T23:24:49.036355
#           By: cwa.analyze.jobs_per_executableid
#      Version: 11.3.16
#       Author: Thomas A. de Ruiter <thomas@de-ruiter.cx>
#
#  Commandline: /home/af10028/bin/cwa analyze
#     Work Dir: /scratch/af10028/var/thesis-project/result/analyses/workload-24h-07416l-0s-fair
#

Time	ID_-1
0	1815
3600	2003
7200	2082
10800	1973
14400	2000
18000	2057
21600	2220
25200	2169
28800	2062
32400	2214
36000	2055
39600	2107
43200	2198
46800	2231
50400	2140
54000	2217
57600	2326
61200	2273
64800	2350
68400	2255
72000	2133
75600	2192
79200	2201
82800	2267
86400	435
90000	248
93600	130
97200	37
100800	9
104400	3
