#
# Generated On: 2012-02-05T16:53:54.554036
#           By: cwa.analyze.statistics
#      Version: 11.11.23
#       Author: Thomas A. de Ruiter <thomas@de-ruiter.cx>
#
#  Commandline: /home/af10028/bin/cwa analyze
#     Work Dir: /scratch/af10028/var/thesis-project/result/analyses/workload-01h-06180l-4s-fair
#

Value	PDF	CDF
2.0	0.149016641452	0.149773071104
4.0	0.0582450832073	0.208018154312
6.0	0.00832072617247	0.216338880484
8.0	0.0113464447806	0.227685325265
10.0	0.0166414523449	0.24432677761
12.0	0.00907715582451	0.253403933434
14.0	0.00680786686838	0.260211800303
16.0	0.00378214826021	0.263993948563
18.0	0.00226928895613	0.266263237519
20.0	0.00378214826021	0.270045385779
22.0	0.00151285930408	0.271558245083
24.0	0.00226928895613	0.273827534039
26.0	0.00302571860817	0.276853252648
28.0	0.0052950075643	0.282148260212
30.0	0.00151285930408	0.283661119516
33.0	0.00453857791225	0.288199697428
35.0	0.00302571860817	0.291225416036
37.0	0.000756429652042	0.291981845688
40.0	0.00226928895613	0.294251134644
42.0	0.00378214826021	0.298033282905
44.0	0.00226928895613	0.300302571861
47.0	0.00302571860817	0.303328290469
50.0	0.00378214826021	0.307110438729
53.0	0.000756429652042	0.307866868381
56.0	0.00151285930408	0.309379727685
58.0	0.000756429652042	0.310136157337
60.0	0.00302571860817	0.313161875946
62.0	0.00378214826021	0.316944024206
66.0	0.00151285930408	0.31845688351
68.0	0.00151285930408	0.319969742814
70.0	0.00226928895613	0.32223903177
73.0	0.00226928895613	0.324508320726
75.0	0.00226928895613	0.326777609682
79.0	0.00151285930408	0.328290468986
84.0	0.00151285930408	0.32980332829
86.0	0.0052950075643	0.335098335855
88.0	0.00378214826021	0.338880484115
90.0	0.00151285930408	0.340393343419
92.0	0.000756429652042	0.341149773071
97.0	0.00226928895613	0.343419062027
99.0	0.000756429652042	0.344175491679
101.0	0.00302571860817	0.347201210287
103.0	0.00151285930408	0.348714069592
105.0	0.00226928895613	0.350983358548
107.0	0.000756429652042	0.3517397882
109.0	0.000756429652042	0.352496217852
112.0	0.000756429652042	0.353252647504
114.0	0.00151285930408	0.354765506808
116.0	0.00226928895613	0.357034795764
120.0	0.00226928895613	0.35930408472
125.0	0.00151285930408	0.360816944024
127.0	0.00226928895613	0.36308623298
130.0	0.00151285930408	0.364599092284
132.0	0.00302571860817	0.367624810893
134.0	0.00226928895613	0.369894099849
136.0	0.000756429652042	0.370650529501
138.0	0.00151285930408	0.372163388805
146.0	0.00226928895613	0.374432677761
151.0	0.00151285930408	0.375945537065
154.0	0.000756429652042	0.376701966717
157.0	0.000756429652042	0.377458396369
159.0	0.00226928895613	0.379727685325
162.0	0.0052950075643	0.38502269289
164.0	0.00151285930408	0.386535552194
166.0	0.00151285930408	0.388048411498
168.0	0.000756429652042	0.38880484115
171.0	0.00302571860817	0.391830559758
174.0	0.00151285930408	0.393343419062
177.0	0.00151285930408	0.394856278366
184.0	0.00226928895613	0.397125567322
187.0	0.00302571860817	0.40015128593
189.0	0.000756429652042	0.400907715582
192.0	0.00151285930408	0.402420574887
194.0	0.000756429652042	0.403177004539
196.0	0.000756429652042	0.403933434191
198.0	0.000756429652042	0.404689863843
200.0	0.00151285930408	0.406202723147
204.0	0.000756429652042	0.406959152799
207.0	0.00226928895613	0.409228441755
209.0	0.00302571860817	0.412254160363
211.0	0.00151285930408	0.413767019667
213.0	0.00151285930408	0.415279878971
215.0	0.00226928895613	0.417549167927
217.0	0.00226928895613	0.419818456884
220.0	0.00226928895613	0.42208774584
224.0	0.00151285930408	0.423600605144
226.0	0.00302571860817	0.426626323752
228.0	0.00151285930408	0.428139183056
230.0	0.00378214826021	0.431921331316
232.0	0.00226928895613	0.434190620272
237.0	0.00151285930408	0.435703479576
242.0	0.00226928895613	0.437972768533
244.0	0.00302571860817	0.440998487141
248.0	0.00151285930408	0.442511346445
252.0	0.000756429652042	0.443267776097
256.0	0.00226928895613	0.445537065053
258.0	0.00226928895613	0.447806354009
262.0	0.00151285930408	0.449319213313
265.0	0.00151285930408	0.450832072617
268.0	0.000756429652042	0.451588502269
274.0	0.00226928895613	0.453857791225
276.0	0.00151285930408	0.45537065053
278.0	0.00151285930408	0.456883509834
281.0	0.00226928895613	0.45915279879
283.0	0.00151285930408	0.460665658094
285.0	0.00151285930408	0.462178517398
287.0	0.00226928895613	0.464447806354
289.0	0.000756429652042	0.465204236006
292.0	0.00302571860817	0.468229954614
294.0	0.00226928895613	0.47049924357
297.0	0.000756429652042	0.471255673222
303.0	0.000756429652042	0.472012102874
305.0	0.000756429652042	0.472768532526
308.0	0.00226928895613	0.475037821483
310.0	0.00151285930408	0.476550680787
312.0	0.00151285930408	0.478063540091
317.0	0.00151285930408	0.479576399395
320.0	0.00302571860817	0.482602118003
323.0	0.00226928895613	0.484871406959
325.0	0.000756429652042	0.485627836611
327.0	0.000756429652042	0.486384266263
330.0	0.00226928895613	0.488653555219
333.0	0.000756429652042	0.489409984871
335.0	0.00226928895613	0.491679273828
337.0	0.00151285930408	0.493192133132
339.0	0.00151285930408	0.494704992436
341.0	0.000756429652042	0.495461422088
343.0	0.000756429652042	0.49621785174
345.0	0.00151285930408	0.497730711044
347.0	0.00151285930408	0.499243570348
349.0	0.000756429652042	0.5
354.0	0.00151285930408	0.501512859304
358.0	0.00151285930408	0.503025718608
360.0	0.000756429652042	0.50378214826
365.0	0.00151285930408	0.505295007564
367.0	0.00151285930408	0.506807866868
369.0	0.00151285930408	0.508320726172
371.0	0.000756429652042	0.509077155825
374.0	0.000756429652042	0.509833585477
376.0	0.00226928895613	0.512102874433
378.0	0.000756429652042	0.512859304085
381.0	0.00151285930408	0.514372163389
383.0	0.00151285930408	0.515885022693
386.0	0.000756429652042	0.516641452345
388.0	0.000756429652042	0.517397881997
390.0	0.00151285930408	0.518910741301
392.0	0.000756429652042	0.519667170953
394.0	0.00226928895613	0.521936459909
396.0	0.000756429652042	0.522692889561
399.0	0.00378214826021	0.526475037821
401.0	0.000756429652042	0.527231467474
404.0	0.000756429652042	0.527987897126
412.0	0.00151285930408	0.52950075643
414.0	0.00151285930408	0.531013615734
416.0	0.00151285930408	0.532526475038
420.0	0.00226928895613	0.534795763994
422.0	0.00151285930408	0.536308623298
425.0	0.000756429652042	0.53706505295
427.0	0.00302571860817	0.540090771558
429.0	0.000756429652042	0.54084720121
432.0	0.00151285930408	0.542360060514
434.0	0.00302571860817	0.545385779123
436.0	0.00151285930408	0.546898638427
441.0	0.00151285930408	0.548411497731
445.0	0.000756429652042	0.549167927383
447.0	0.000756429652042	0.549924357035
449.0	0.000756429652042	0.550680786687
451.0	0.000756429652042	0.551437216339
453.0	0.000756429652042	0.552193645991
455.0	0.000756429652042	0.552950075643
458.0	0.00151285930408	0.554462934947
465.0	0.000756429652042	0.555219364599
467.0	0.000756429652042	0.555975794251
470.0	0.00302571860817	0.559001512859
472.0	0.00151285930408	0.560514372163
474.0	0.00151285930408	0.562027231467
476.0	0.000756429652042	0.56278366112
480.0	0.00151285930408	0.564296520424
485.0	0.00151285930408	0.565809379728
487.0	0.00151285930408	0.567322239032
489.0	0.00151285930408	0.568835098336
491.0	0.00151285930408	0.57034795764
493.0	0.000756429652042	0.571104387292
495.0	0.00302571860817	0.5741301059
497.0	0.00226928895613	0.576399394856
500.0	0.00226928895613	0.578668683812
504.0	0.000756429652042	0.579425113464
508.0	0.00302571860817	0.582450832073
510.0	0.000756429652042	0.583207261725
512.0	0.00151285930408	0.584720121029
515.0	0.00302571860817	0.587745839637
517.0	0.000756429652042	0.588502269289
519.0	0.00151285930408	0.590015128593
521.0	0.00302571860817	0.593040847201
532.0	0.00151285930408	0.594553706505
534.0	0.00151285930408	0.596066565809
539.0	0.00151285930408	0.597579425113
542.0	0.00151285930408	0.599092284418
547.0	0.00302571860817	0.602118003026
549.0	0.00226928895613	0.604387291982
551.0	0.000756429652042	0.605143721634
554.0	0.00151285930408	0.606656580938
557.0	0.00151285930408	0.608169440242
560.0	0.000756429652042	0.608925869894
563.0	0.00226928895613	0.61119515885
565.0	0.000756429652042	0.611951588502
568.0	0.000756429652042	0.612708018154
573.0	0.00151285930408	0.614220877458
576.0	0.000756429652042	0.61497730711
578.0	0.00302571860817	0.618003025719
581.0	0.00226928895613	0.620272314675
584.0	0.00151285930408	0.621785173979
589.0	0.00151285930408	0.623298033283
593.0	0.000756429652042	0.624054462935
595.0	0.000756429652042	0.624810892587
597.0	0.00151285930408	0.626323751891
603.0	0.00151285930408	0.627836611195
606.0	0.000756429652042	0.628593040847
609.0	0.00151285930408	0.630105900151
611.0	0.00302571860817	0.633131618759
615.0	0.000756429652042	0.633888048411
617.0	0.000756429652042	0.634644478064
619.0	0.00151285930408	0.636157337368
623.0	0.00151285930408	0.637670196672
626.0	0.00151285930408	0.639183055976
629.0	0.000756429652042	0.639939485628
631.0	0.00226928895613	0.642208774584
635.0	0.000756429652042	0.642965204236
637.0	0.000756429652042	0.643721633888
642.0	0.00151285930408	0.645234493192
651.0	0.000756429652042	0.645990922844
653.0	0.000756429652042	0.646747352496
661.0	0.00151285930408	0.6482602118
664.0	0.000756429652042	0.649016641452
666.0	0.00151285930408	0.650529500756
668.0	0.000756429652042	0.651285930408
676.0	0.000756429652042	0.652042360061
679.0	0.000756429652042	0.652798789713
683.0	0.00226928895613	0.655068078669
689.0	0.00151285930408	0.656580937973
691.0	0.000756429652042	0.657337367625
697.0	0.00226928895613	0.659606656581
704.0	0.00226928895613	0.661875945537
709.0	0.000756429652042	0.662632375189
715.0	0.000756429652042	0.663388804841
719.0	0.00378214826021	0.667170953101
723.0	0.00226928895613	0.669440242057
730.0	0.00151285930408	0.670953101362
735.0	0.00302571860817	0.67397881997
737.0	0.00226928895613	0.676248108926
741.0	0.000756429652042	0.677004538578
747.0	0.000756429652042	0.67776096823
751.0	0.00151285930408	0.679273827534
755.0	0.000756429652042	0.680030257186
758.0	0.00302571860817	0.683055975794
760.0	0.000756429652042	0.683812405446
765.0	0.00226928895613	0.686081694402
768.0	0.000756429652042	0.686838124054
779.0	0.00151285930408	0.688350983359
785.0	0.000756429652042	0.689107413011
787.0	0.00151285930408	0.690620272315
795.0	0.000756429652042	0.691376701967
797.0	0.00226928895613	0.693645990923
799.0	0.000756429652042	0.694402420575
807.0	0.00151285930408	0.695915279879
815.0	0.00151285930408	0.697428139183
818.0	0.000756429652042	0.698184568835
821.0	0.00151285930408	0.699697428139
823.0	0.00151285930408	0.701210287443
835.0	0.000756429652042	0.701966717095
837.0	0.000756429652042	0.702723146747
839.0	0.000756429652042	0.703479576399
843.0	0.000756429652042	0.704236006051
852.0	0.000756429652042	0.704992435703
855.0	0.00151285930408	0.706505295008
860.0	0.00226928895613	0.708774583964
865.0	0.00151285930408	0.710287443268
868.0	0.00151285930408	0.711800302572
871.0	0.000756429652042	0.712556732224
873.0	0.00151285930408	0.714069591528
876.0	0.00151285930408	0.715582450832
879.0	0.000756429652042	0.716338880484
883.0	0.000756429652042	0.717095310136
890.0	0.000756429652042	0.717851739788
901.0	0.000756429652042	0.71860816944
907.0	0.000756429652042	0.719364599092
909.0	0.00226928895613	0.721633888048
916.0	0.00226928895613	0.723903177005
919.0	0.000756429652042	0.724659606657
924.0	0.000756429652042	0.725416036309
928.0	0.00226928895613	0.727685325265
932.0	0.00151285930408	0.729198184569
935.0	0.000756429652042	0.729954614221
937.0	0.000756429652042	0.730711043873
941.0	0.000756429652042	0.731467473525
944.0	0.000756429652042	0.732223903177
946.0	0.000756429652042	0.732980332829
951.0	0.000756429652042	0.733736762481
958.0	0.00302571860817	0.736762481089
960.0	0.000756429652042	0.737518910741
963.0	0.000756429652042	0.738275340393
969.0	0.00151285930408	0.739788199697
979.0	0.000756429652042	0.740544629349
984.0	0.000756429652042	0.741301059002
989.0	0.000756429652042	0.742057488654
996.0	0.000756429652042	0.742813918306
998.0	0.000756429652042	0.743570347958
1000.0	0.000756429652042	0.74432677761
1002.0	0.00151285930408	0.745839636914
1023.0	0.00151285930408	0.747352496218
1028.0	0.00151285930408	0.748865355522
1030.0	0.000756429652042	0.749621785174
1036.0	0.000756429652042	0.750378214826
1043.0	0.000756429652042	0.751134644478
1052.0	0.000756429652042	0.75189107413
1054.0	0.00226928895613	0.754160363086
1061.0	0.00151285930408	0.75567322239
1063.0	0.00151285930408	0.757186081694
1065.0	0.000756429652042	0.757942511346
1074.0	0.00302571860817	0.760968229955
1076.0	0.00151285930408	0.762481089259
1082.0	0.00151285930408	0.763993948563
1088.0	0.000756429652042	0.764750378215
1094.0	0.000756429652042	0.765506807867
1112.0	0.00151285930408	0.767019667171
1147.0	0.000756429652042	0.767776096823
1151.0	0.000756429652042	0.768532526475
1161.0	0.00226928895613	0.770801815431
1170.0	0.000756429652042	0.771558245083
1181.0	0.00226928895613	0.773827534039
1188.0	0.000756429652042	0.774583963691
1193.0	0.000756429652042	0.775340393343
1202.0	0.000756429652042	0.776096822995
1205.0	0.00151285930408	0.7776096823
1207.0	0.00151285930408	0.779122541604
1214.0	0.00151285930408	0.780635400908
1220.0	0.000756429652042	0.78139183056
1225.0	0.000756429652042	0.782148260212
1232.0	0.00151285930408	0.783661119516
1240.0	0.000756429652042	0.784417549168
1246.0	0.000756429652042	0.78517397882
1248.0	0.000756429652042	0.785930408472
1251.0	0.00151285930408	0.787443267776
1256.0	0.00151285930408	0.78895612708
1269.0	0.000756429652042	0.789712556732
1274.0	0.00151285930408	0.791225416036
1291.0	0.000756429652042	0.791981845688
1294.0	0.000756429652042	0.79273827534
1304.0	0.000756429652042	0.793494704992
1317.0	0.00151285930408	0.795007564297
1322.0	0.000756429652042	0.795763993949
1326.0	0.000756429652042	0.796520423601
1340.0	0.000756429652042	0.797276853253
1357.0	0.00151285930408	0.798789712557
1359.0	0.00151285930408	0.800302571861
1363.0	0.000756429652042	0.801059001513
1372.0	0.000756429652042	0.801815431165
1391.0	0.000756429652042	0.802571860817
1402.0	0.000756429652042	0.803328290469
1406.0	0.000756429652042	0.804084720121
1409.0	0.000756429652042	0.804841149773
1438.0	0.000756429652042	0.805597579425
1444.0	0.000756429652042	0.806354009077
1460.0	0.000756429652042	0.807110438729
1465.0	0.000756429652042	0.807866868381
1475.0	0.000756429652042	0.808623298033
1477.0	0.000756429652042	0.809379727685
1495.0	0.000756429652042	0.810136157337
1506.0	0.000756429652042	0.810892586989
1508.0	0.000756429652042	0.811649016641
1550.0	0.00151285930408	0.813161875946
1565.0	0.000756429652042	0.813918305598
1575.0	0.000756429652042	0.81467473525
1632.0	0.000756429652042	0.815431164902
1645.0	0.000756429652042	0.816187594554
1673.0	0.000756429652042	0.816944024206
1695.0	0.000756429652042	0.817700453858
1707.0	0.000756429652042	0.81845688351
1709.0	0.00151285930408	0.819969742814
1713.0	0.00226928895613	0.82223903177
1738.0	0.000756429652042	0.822995461422
1746.0	0.000756429652042	0.823751891074
1758.0	0.000756429652042	0.824508320726
1762.0	0.000756429652042	0.825264750378
1766.0	0.000756429652042	0.82602118003
1780.0	0.000756429652042	0.826777609682
1788.0	0.00151285930408	0.828290468986
1794.0	0.000756429652042	0.829046898638
1798.0	0.000756429652042	0.82980332829
1803.0	0.000756429652042	0.830559757943
1851.0	0.000756429652042	0.831316187595
1862.0	0.000756429652042	0.832072617247
1866.0	0.000756429652042	0.832829046899
1877.0	0.000756429652042	0.833585476551
1893.0	0.000756429652042	0.834341906203
1895.0	0.000756429652042	0.835098335855
1898.0	0.000756429652042	0.835854765507
1932.0	0.000756429652042	0.836611195159
1944.0	0.000756429652042	0.837367624811
1947.0	0.000756429652042	0.838124054463
1953.0	0.000756429652042	0.838880484115
1963.0	0.000756429652042	0.839636913767
1965.0	0.000756429652042	0.840393343419
1982.0	0.00226928895613	0.842662632375
2007.0	0.000756429652042	0.843419062027
2009.0	0.00151285930408	0.844931921331
2015.0	0.000756429652042	0.845688350983
2033.0	0.000756429652042	0.846444780635
2058.0	0.000756429652042	0.847201210287
2068.0	0.000756429652042	0.847957639939
2077.0	0.000756429652042	0.848714069592
2079.0	0.000756429652042	0.849470499244
2084.0	0.000756429652042	0.850226928896
2098.0	0.000756429652042	0.850983358548
2110.0	0.000756429652042	0.8517397882
2130.0	0.000756429652042	0.852496217852
2142.0	0.000756429652042	0.853252647504
2160.0	0.000756429652042	0.854009077156
2194.0	0.000756429652042	0.854765506808
2211.0	0.000756429652042	0.85552193646
2229.0	0.000756429652042	0.856278366112
2266.0	0.000756429652042	0.857034795764
2282.0	0.000756429652042	0.857791225416
2321.0	0.00151285930408	0.85930408472
2330.0	0.000756429652042	0.860060514372
2332.0	0.00151285930408	0.861573373676
2342.0	0.000756429652042	0.862329803328
2346.0	0.000756429652042	0.86308623298
2348.0	0.000756429652042	0.863842662632
2354.0	0.000756429652042	0.864599092284
2393.0	0.000756429652042	0.865355521936
2404.0	0.00151285930408	0.866868381241
2420.0	0.00151285930408	0.868381240545
2426.0	0.000756429652042	0.869137670197
2431.0	0.000756429652042	0.869894099849
2442.0	0.000756429652042	0.870650529501
2451.0	0.000756429652042	0.871406959153
2472.0	0.000756429652042	0.872163388805
2484.0	0.00151285930408	0.873676248109
2518.0	0.000756429652042	0.874432677761
2532.0	0.000756429652042	0.875189107413
2536.0	0.000756429652042	0.875945537065
2563.0	0.000756429652042	0.876701966717
2569.0	0.000756429652042	0.877458396369
2574.0	0.000756429652042	0.878214826021
2636.0	0.000756429652042	0.878971255673
2652.0	0.000756429652042	0.879727685325
2654.0	0.000756429652042	0.880484114977
2656.0	0.000756429652042	0.881240544629
2687.0	0.000756429652042	0.881996974281
2711.0	0.000756429652042	0.882753403933
2720.0	0.000756429652042	0.883509833585
2729.0	0.000756429652042	0.884266263238
2742.0	0.000756429652042	0.88502269289
2751.0	0.000756429652042	0.885779122542
2773.0	0.000756429652042	0.886535552194
2795.0	0.000756429652042	0.887291981846
2805.0	0.000756429652042	0.888048411498
2909.0	0.000756429652042	0.88880484115
2925.0	0.000756429652042	0.889561270802
2928.0	0.000756429652042	0.890317700454
2955.0	0.000756429652042	0.891074130106
2965.0	0.000756429652042	0.891830559758
2991.0	0.000756429652042	0.89258698941
3004.0	0.000756429652042	0.893343419062
3029.0	0.000756429652042	0.894099848714
3031.0	0.000756429652042	0.894856278366
3089.0	0.000756429652042	0.895612708018
3103.0	0.000756429652042	0.89636913767
3106.0	0.000756429652042	0.897125567322
3132.0	0.000756429652042	0.897881996974
3140.0	0.000756429652042	0.898638426626
3159.0	0.000756429652042	0.899394856278
3162.0	0.000756429652042	0.90015128593
3165.0	0.000756429652042	0.900907715582
3174.0	0.000756429652042	0.901664145234
3205.0	0.000756429652042	0.902420574887
3230.0	0.000756429652042	0.903177004539
3279.0	0.000756429652042	0.903933434191
3298.0	0.000756429652042	0.904689863843
3324.0	0.000756429652042	0.905446293495
3342.0	0.000756429652042	0.906202723147
3355.0	0.000756429652042	0.906959152799
3377.0	0.000756429652042	0.907715582451
3405.0	0.000756429652042	0.908472012103
3412.0	0.000756429652042	0.909228441755
3431.0	0.000756429652042	0.909984871407
3437.0	0.000756429652042	0.910741301059
3456.0	0.000756429652042	0.911497730711
3493.0	0.000756429652042	0.912254160363
3512.0	0.000756429652042	0.913010590015
3516.0	0.00151285930408	0.914523449319
3547.0	0.000756429652042	0.915279878971
3564.0	0.000756429652042	0.916036308623
3614.0	0.000756429652042	0.916792738275
3705.0	0.000756429652042	0.917549167927
3711.0	0.000756429652042	0.918305597579
3777.0	0.000756429652042	0.919062027231
3781.0	0.000756429652042	0.919818456884
3797.0	0.000756429652042	0.920574886536
3802.0	0.000756429652042	0.921331316188
3809.0	0.000756429652042	0.92208774584
3875.0	0.000756429652042	0.922844175492
3887.0	0.000756429652042	0.923600605144
3905.0	0.000756429652042	0.924357034796
3918.0	0.000756429652042	0.925113464448
3940.0	0.000756429652042	0.9258698941
4019.0	0.000756429652042	0.926626323752
4031.0	0.000756429652042	0.927382753404
4079.0	0.000756429652042	0.928139183056
4082.0	0.000756429652042	0.928895612708
4097.0	0.000756429652042	0.92965204236
4159.0	0.000756429652042	0.930408472012
4192.0	0.000756429652042	0.931164901664
4199.0	0.000756429652042	0.931921331316
4226.0	0.000756429652042	0.932677760968
4249.0	0.000756429652042	0.93343419062
4420.0	0.000756429652042	0.934190620272
4453.0	0.000756429652042	0.934947049924
4466.0	0.000756429652042	0.935703479576
4483.0	0.000756429652042	0.936459909228
4514.0	0.000756429652042	0.93721633888
4531.0	0.000756429652042	0.937972768533
4539.0	0.000756429652042	0.938729198185
4590.0	0.000756429652042	0.939485627837
4608.0	0.00151285930408	0.940998487141
4636.0	0.000756429652042	0.941754916793
4748.0	0.000756429652042	0.942511346445
4791.0	0.000756429652042	0.943267776097
4846.0	0.000756429652042	0.944024205749
4858.0	0.000756429652042	0.944780635401
4871.0	0.000756429652042	0.945537065053
4883.0	0.000756429652042	0.946293494705
4930.0	0.000756429652042	0.947049924357
4961.0	0.000756429652042	0.947806354009
4967.0	0.000756429652042	0.948562783661
4991.0	0.000756429652042	0.949319213313
5033.0	0.000756429652042	0.950075642965
5035.0	0.000756429652042	0.950832072617
5068.0	0.000756429652042	0.951588502269
5106.0	0.000756429652042	0.952344931921
5122.0	0.000756429652042	0.953101361573
5245.0	0.000756429652042	0.953857791225
5296.0	0.000756429652042	0.954614220877
5317.0	0.000756429652042	0.95537065053
5375.0	0.000756429652042	0.956127080182
5380.0	0.000756429652042	0.956883509834
5386.0	0.000756429652042	0.957639939486
5398.0	0.000756429652042	0.958396369138
5488.0	0.000756429652042	0.95915279879
5545.0	0.000756429652042	0.959909228442
5589.0	0.000756429652042	0.960665658094
5627.0	0.000756429652042	0.961422087746
5672.0	0.000756429652042	0.962178517398
5768.0	0.000756429652042	0.96293494705
5782.0	0.000756429652042	0.963691376702
5789.0	0.000756429652042	0.964447806354
5881.0	0.000756429652042	0.965204236006
5941.0	0.000756429652042	0.965960665658
6039.0	0.000756429652042	0.96671709531
6112.0	0.000756429652042	0.967473524962
6143.0	0.000756429652042	0.968229954614
6151.0	0.000756429652042	0.968986384266
6182.0	0.000756429652042	0.969742813918
6191.0	0.000756429652042	0.97049924357
6478.0	0.00151285930408	0.972012102874
6481.0	0.000756429652042	0.972768532526
6529.0	0.000756429652042	0.973524962179
6556.0	0.000756429652042	0.974281391831
6719.0	0.000756429652042	0.975037821483
6739.0	0.000756429652042	0.975794251135
6855.0	0.000756429652042	0.976550680787
6869.0	0.000756429652042	0.977307110439
7104.0	0.000756429652042	0.978063540091
7124.0	0.000756429652042	0.978819969743
7162.0	0.000756429652042	0.979576399395
7210.0	0.000756429652042	0.980332829047
7288.0	0.000756429652042	0.981089258699
7341.0	0.000756429652042	0.981845688351
7355.0	0.000756429652042	0.982602118003
7368.0	0.000756429652042	0.983358547655
7438.0	0.000756429652042	0.984114977307
7552.0	0.000756429652042	0.984871406959
7576.0	0.000756429652042	0.985627836611
7623.0	0.000756429652042	0.986384266263
7697.0	0.000756429652042	0.987140695915
7892.0	0.000756429652042	0.987897125567
7951.0	0.000756429652042	0.988653555219
8055.0	0.000756429652042	0.989409984871
8251.0	0.000756429652042	0.990166414523
8435.0	0.000756429652042	0.990922844175
8686.0	0.000756429652042	0.991679273828
8849.0	0.000756429652042	0.99243570348
8856.0	0.000756429652042	0.993192133132
9257.0	0.000756429652042	0.993948562784
9310.0	0.000756429652042	0.994704992436
9422.0	0.000756429652042	0.995461422088
9662.0	0.000756429652042	0.99621785174
9689.0	0.000756429652042	0.996974281392
10125.0	0.000756429652042	0.997730711044
11256.0	0.000756429652042	0.998487140696
11381.0	0.000756429652042	0.999243570348
12098.0	0.000756429652042	1.0
12978.0	0.000756429652042	1.0
