#
# Generated On: 2012-02-05T19:15:20.645181
#           By: cwa.analyze.statistics
#      Version: 11.11.23
#       Author: Thomas A. de Ruiter <thomas@de-ruiter.cx>
#
#  Commandline: /home/af10028/bin/cwa analyze
#     Work Dir: /scratch/af10028/var/thesis-project/result/analyses/workload-06h-07416l-2s-fair
#

Value	PDF	CDF
2.0	0.25690545852	0.256908852699
5.0	0.0791352987896	0.336044151489
8.0	0.0533089857512	0.38935313724
11.0	0.0409236241693	0.43027676141
14.0	0.033283325753	0.463560087163
17.0	0.028321035089	0.491881122252
20.0	0.0244516702758	0.516332792527
23.0	0.0207214668287	0.537054259356
26.0	0.0191567500051	0.556211009361
29.0	0.0167876126019	0.572998621963
32.0	0.0158033005003	0.588801922463
35.0	0.0138889831717	0.602690905635
38.0	0.0130506207955	0.61574152643
41.0	0.0120629145142	0.627804440945
44.0	0.0107595495245	0.638563990469
47.0	0.0100807135923	0.648644704061
50.0	0.00951049140933	0.658155195471
53.0	0.00873661844669	0.666891813917
56.0	0.00846847825349	0.675360292171
59.0	0.00802044653828	0.683380738709
62.0	0.00728730373156	0.690668042441
65.0	0.00685624291465	0.697524285355
68.0	0.00683587783669	0.704360163192
71.0	0.00621134877911	0.710571511971
74.0	0.0060484281554	0.716619940127
77.0	0.00571579854865	0.722335738675
80.0	0.00518970070124	0.727525439377
83.0	0.00511842292836	0.732643862305
86.0	0.00493853140634	0.737582393711
89.0	0.00453122984706	0.742113623558
92.0	0.00436830922334	0.746481932782
95.0	0.00422914785725	0.750711080639
98.0	0.00410356320981	0.754814643849
101.0	0.0040865923115	0.75890123616
104.0	0.00374378016577	0.762645016326
107.0	0.00359783044036	0.766242846766
110.0	0.00354691774545	0.769789764512
113.0	0.00318034634209	0.772970110854
116.0	0.00327198919293	0.776242100047
119.0	0.00314979872515	0.779391898772
122.0	0.00289184107093	0.782283739843
125.0	0.00292238868788	0.785206128531
128.0	0.00289184107093	0.788097969602
131.0	0.00265085431502	0.790748823917
134.0	0.00257618236248	0.793325006279
137.0	0.00255921146418	0.795884217743
140.0	0.00248793369131	0.798372151435
143.0	0.00241665591843	0.800788807353
146.0	0.0022639178337	0.803052725187
149.0	0.00233180142691	0.805384526614
152.0	0.00213493900659	0.80751946562
155.0	0.00192110568797	0.809440571308
158.0	0.00195844166423	0.811399012973
161.0	0.00192449986763	0.81332351284
164.0	0.00186340463373	0.815186917474
167.0	0.00194486494559	0.81713178242
170.0	0.00175818506425	0.818889967484
173.0	0.00181588611848	0.820705853602
176.0	0.00164617713545	0.822352030738
179.0	0.00166993639307	0.824021967131
182.0	0.00161902369816	0.825640990829
185.0	0.00153416920664	0.827175160036
188.0	0.00165296549477	0.82882812553
191.0	0.00154095756597	0.830369083096
194.0	0.00146628561343	0.83183536871
197.0	0.00160205279986	0.83343742151
200.0	0.00144931471513	0.834886736225
203.0	0.00138821948123	0.836274955706
206.0	0.00138482530157	0.837659781008
209.0	0.0013474893253	0.839007270333
212.0	0.00142894963716	0.84043621997
215.0	0.00125924065413	0.841695460624
218.0	0.00123208721684	0.842927547841
221.0	0.0012185104982	0.844146058339
224.0	0.00123887557616	0.845384933915
227.0	0.000987706281269	0.846372640197
230.0	0.00108613749143	0.847458777688
233.0	0.00105558987448	0.848514367563
236.0	0.0010284364372	0.849542804
239.0	0.00106916659313	0.850611970593
242.0	0.00122529885752	0.85183726945
245.0	0.00114383854566	0.852981107996
248.0	0.000950370305001	0.853931478301
251.0	0.00102164807788	0.854953126379
254.0	0.000906245969412	0.855859372348
257.0	0.000865515813483	0.856724888162
260.0	0.000930005227037	0.857654893389
263.0	0.000855333274501	0.858510226663
266.0	0.000790843860947	0.859301070524
269.0	0.000882486711787	0.860183557236
272.0	0.000872304172804	0.861055861409
275.0	0.000814603118572	0.861870464527
278.0	0.000963947023644	0.862834411551
281.0	0.000882486711787	0.863716898263
284.0	0.000841756555858	0.864558654819
287.0	0.000838362376197	0.865397017195
290.0	0.000875698352465	0.866272715547
293.0	0.000750113705019	0.867022829252
296.0	0.000957158664322	0.867979987917
299.0	0.000794238040608	0.868774225957
302.0	0.000672047572822	0.86944627353
305.0	0.000824785657554	0.870271059188
308.0	0.000729748627054	0.871000807815
311.0	0.000824785657554	0.871825593472
314.0	0.000665259213501	0.872490852686
317.0	0.000729748627054	0.873220601313
320.0	0.000644894135536	0.873865495448
323.0	0.000672047572822	0.874537543021
326.0	0.000529492027072	0.875067035048
329.0	0.00061434651859	0.875681381567
332.0	0.000750113705019	0.876431495272
335.0	0.000526097847411	0.876957593119
338.0	0.000570222183001	0.877527815302
341.0	0.000590587260965	0.878118402563
344.0	0.000692412650786	0.878810815214
347.0	0.000607558159268	0.879418373373
350.0	0.000526097847411	0.879944471221
353.0	0.000648288315197	0.880592759536
356.0	0.000722960267733	0.881315719804
359.0	0.000590587260965	0.881906307065
362.0	0.000621134877911	0.882527441943
365.0	0.000699201010108	0.883226642953
368.0	0.000593981440626	0.883820624393
371.0	0.000610952338929	0.884431576732
374.0	0.000577010542322	0.885008587275
377.0	0.000448031715215	0.88545661899
380.0	0.000577010542322	0.886033629532
383.0	0.000512521128768	0.886546150661
386.0	0.000583798901643	0.887129949562
389.0	0.000526097847411	0.88765604741
392.0	0.000546462925376	0.888202510335
395.0	0.000644894135536	0.888847404471
398.0	0.000583798901643	0.889431203372
401.0	0.000590587260965	0.890021790633
404.0	0.000505732769447	0.890527523403
407.0	0.000488761871143	0.891016285274
410.0	0.000546462925376	0.891562748199
413.0	0.000400513199965	0.891963261399
416.0	0.000502338589786	0.892465599989
419.0	0.000420878277929	0.892886478267
422.0	0.000465002613518	0.893351480881
425.0	0.000556645464358	0.893908126345
428.0	0.0004751851525	0.894383311497
431.0	0.000369965583018	0.89475327708
434.0	0.000495550230465	0.895248827311
437.0	0.000485367691483	0.895734195002
440.0	0.000451425894875	0.896185620897
443.0	0.000607558159268	0.896793179057
446.0	0.000468396793179	0.89726157585
449.0	0.0004751851525	0.897736761002
452.0	0.000556645464358	0.898293406467
455.0	0.000546462925376	0.898839869392
458.0	0.000478579332161	0.899318448724
461.0	0.000437849176233	0.8997562979
464.0	0.000502338589786	0.90025863649
467.0	0.000478579332161	0.900737215822
470.0	0.000315658708447	0.901052874531
473.0	0.000465002613518	0.901517877144
476.0	0.000441243355893	0.9019591205
479.0	0.000716171908411	0.902675292409
482.0	0.000420878277929	0.903096170687
485.0	0.000495550230465	0.903591720917
488.0	0.000380148122	0.903971869039
491.0	0.000363177223697	0.904335046263
494.0	0.000336023786411	0.904671070049
497.0	0.000349600505054	0.905020670554
500.0	0.00033262960675	0.905353300161
503.0	0.000393724840643	0.905747025002
506.0	0.000434454996572	0.906181479998
509.0	0.000356388864375	0.906537868862
512.0	0.000386936481322	0.906924805344
515.0	0.000342812145732	0.90726761749
518.0	0.000560039644018	0.907827657134
521.0	0.000448031715215	0.908275688849
524.0	0.00033262960675	0.908608318456
527.0	0.000434454996572	0.909042773452
530.0	0.000339417966072	0.909382191418
533.0	0.000390330660983	0.909772522079
536.0	0.000417484098268	0.910190006177
539.0	0.00032923542709	0.910519241604
542.0	0.000319052888107	0.910838294493
545.0	0.00037675394234	0.911215048435
548.0	0.000302081989804	0.911517130425
551.0	0.000444637535554	0.91196176796
554.0	0.000410695738947	0.912372463699
557.0	0.000352994684715	0.912725458384
560.0	0.000346206325393	0.913071664709
563.0	0.000288505271161	0.913360169981
566.0	0.000349600505054	0.913709770486
569.0	0.000336023786411	0.914045794272
572.0	0.000356388864375	0.914402183136
575.0	0.000420878277929	0.914823061414
578.0	0.000437849176233	0.915260910591
581.0	0.000441243355893	0.915702153946
584.0	0.000431060816911	0.916133214763
587.0	0.000617740698251	0.916750955462
590.0	0.000268140193197	0.917019095655
593.0	0.000278322732179	0.917297418387
596.0	0.000441243355893	0.917738661743
599.0	0.000359783044036	0.918098444787
602.0	0.000244380935572	0.918342825722
605.0	0.000393724840643	0.918736550563
608.0	0.000465002613518	0.919201553177
611.0	0.000312264528786	0.919513817705
614.0	0.000261351833875	0.919775169539
617.0	0.000291899450822	0.92006706899
620.0	0.000414089918608	0.920481158909
623.0	0.000302081989804	0.920783240899
626.0	0.000217227498286	0.921000468397
629.0	0.000230804216929	0.921231272614
632.0	0.000366571403358	0.921597844017
635.0	0.000254563474554	0.921852407492
638.0	0.000563433823679	0.922415841315
641.0	0.000397119020304	0.922812960336
644.0	0.000563433823679	0.923376394159
647.0	0.000196862420322	0.92357325658
650.0	0.000359783044036	0.923933039624
653.0	0.000315658708447	0.924248698332
656.0	0.000485367691483	0.924734066024
659.0	0.000176497342357	0.924910563366
662.0	0.000244380935572	0.925154944302
665.0	0.000356388864375	0.925511333166
668.0	0.000288505271161	0.925799838437
671.0	0.000268140193197	0.92606797863
674.0	0.000278322732179	0.926346301362
677.0	0.000315658708447	0.926661960071
680.0	0.00023759257625	0.926899552647
683.0	0.000509126949108	0.927408679596
686.0	0.000342812145732	0.927751491742
689.0	0.000366571403358	0.928118063145
692.0	0.000515915308429	0.928633978454
695.0	0.000393724840643	0.929027703294
698.0	0.000386936481322	0.929414639776
701.0	0.000465002613518	0.929879642389
704.0	0.000312264528786	0.930191906918
707.0	0.000278322732179	0.93047022965
710.0	0.00028171691184	0.930751946562
713.0	0.000441243355893	0.931193189918
716.0	0.000407301559286	0.931600491477
719.0	0.000583798901643	0.932184290379
722.0	0.00028171691184	0.932466007291
725.0	0.000380148122	0.932846155413
728.0	0.000210439138965	0.933056594552
731.0	0.000227410037268	0.933284004589
734.0	0.000186679881339	0.93347068447
737.0	0.000193468240661	0.933664152711
740.0	0.000325841247429	0.933989993958
743.0	0.00042427245759	0.934414266416
746.0	0.000454820074536	0.93486908649
749.0	0.000407301559286	0.93527638805
752.0	0.000291899450822	0.935568287501
755.0	0.00042427245759	0.935992559958
758.0	0.000336023786411	0.936328583745
761.0	0.000315658708447	0.936644242453
764.0	0.000274928552518	0.936919171006
767.0	0.000417484098268	0.937336655104
770.0	0.00037675394234	0.937713409046
773.0	0.000349600505054	0.938063009551
776.0	0.000349600505054	0.938412610056
779.0	0.000325841247429	0.938738451304
782.0	0.00023759257625	0.93897604388
785.0	0.000434454996572	0.939410498877
788.0	0.00042766663725	0.939838165514
791.0	0.000414089918608	0.940252255432
794.0	0.000295293630482	0.940547549063
797.0	0.000271534372857	0.940819083436
800.0	0.00047179097284	0.941290874409
803.0	0.000346206325393	0.941637080734
806.0	0.000179891522018	0.941816972256
809.0	0.000210439138965	0.942027411395
812.0	0.000274928552518	0.942302339947
815.0	0.000380148122	0.942682488069
818.0	0.000319052888107	0.943001540958
821.0	0.000342812145732	0.943344353103
824.0	0.000207044959304	0.943551398063
827.0	0.000200256599982	0.943751654663
830.0	0.000183285701679	0.943934940364
833.0	0.000291899450822	0.944226839815
836.0	0.000152738084732	0.9443795779
839.0	0.00037675394234	0.944756331842
842.0	0.000383542301661	0.945139874144
845.0	0.000414089918608	0.945553964062
848.0	0.000308870349125	0.945862834412
851.0	0.000268140193197	0.946130974605
854.0	0.000325841247429	0.946456815852
857.0	0.000264746013536	0.946721561866
860.0	0.000254563474554	0.94697612534
863.0	0.000257957654215	0.947234082994
866.0	0.00028171691184	0.947515799906
869.0	0.000302081989804	0.947817881896
872.0	0.000152738084732	0.947970619981
875.0	0.000336023786411	0.948306643767
878.0	0.000359783044036	0.948666426811
881.0	0.000230804216929	0.948897231028
884.0	0.000176497342357	0.949073728371
887.0	0.000319052888107	0.949392781259
890.0	0.000254563474554	0.949647344733
893.0	0.000349600505054	0.949996945238
896.0	0.000220621677947	0.950217566916
899.0	0.000295293630482	0.950512860547
902.0	0.000196862420322	0.950709722967
905.0	0.000190074061	0.950899797028
908.0	0.000162920623714	0.951062717652
911.0	0.000115402108464	0.95117811976
914.0	0.000257957654215	0.951436077414
917.0	0.000315658708447	0.951751736123
920.0	0.000349600505054	0.952101336628
923.0	0.000196862420322	0.952298199048
926.0	0.00028171691184	0.95257991596
929.0	0.000190074061	0.952769990021
932.0	0.000176497342357	0.952946487363
935.0	0.00028171691184	0.953228204275
938.0	0.000210439138965	0.953438643414
941.0	0.000196862420322	0.953635505835
944.0	0.000210439138965	0.953845944974
947.0	0.00023759257625	0.95408353755
950.0	0.000312264528786	0.954395802079
953.0	0.000400513199965	0.954796315279
956.0	0.000196862420322	0.954993177699
959.0	0.000448031715215	0.955441209414
962.0	0.00023419839659	0.955675407811
965.0	0.000203650779643	0.95587905859
968.0	0.000315658708447	0.956194717299
971.0	0.000193468240661	0.956388185539
974.0	0.000186679881339	0.956574865421
977.0	0.000220621677947	0.956795487099
980.0	0.000271534372857	0.957067021472
983.0	0.000302081989804	0.957369103461
986.0	0.000356388864375	0.957725492326
989.0	0.000254563474554	0.9579800558
992.0	0.000369965583018	0.958350021383
995.0	0.000156132264393	0.958506153648
998.0	0.000156132264393	0.958662285912
1001.0	0.000152738084732	0.958815023997
1004.0	0.000274928552518	0.959089952549
1007.0	0.000169708983036	0.959259661532
1010.0	0.000162920623714	0.959422582156
1013.0	0.000132373006768	0.959554955163
1016.0	0.000149343905072	0.959704299068
1019.0	0.000203650779643	0.959907949848
1022.0	0.000346206325393	0.960254156173
1025.0	0.00014255554575	0.960396711719
1028.0	0.000135767186429	0.960532478905
1031.0	0.000417484098268	0.960949963003
1034.0	0.000254563474554	0.961204526478
1037.0	0.000112007928804	0.961316534407
1040.0	0.000135767186429	0.961452301593
1043.0	0.000128978827107	0.96158128042
1046.0	0.000159526444054	0.961740806864
1049.0	0.000288505271161	0.962029312136
1052.0	0.000210439138965	0.962239751275
1055.0	0.000115402108464	0.962355153383
1058.0	0.000169708983036	0.962524862366
1061.0	0.000224015857607	0.962748878224
1064.0	0.000152738084732	0.962901616308
1067.0	0.000162920623714	0.963064536932
1070.0	0.00023759257625	0.963302129508
1073.0	0.000179891522018	0.96348202103
1076.0	0.000139161366089	0.963621182396
1079.0	0.000162920623714	0.96378410302
1082.0	0.000200256599982	0.96398435962
1085.0	0.000145949725411	0.964130309346
1088.0	0.000224015857607	0.964354325203
1091.0	0.000135767186429	0.96449009239
1094.0	0.000302081989804	0.964792174379
1097.0	0.000128978827107	0.964921153206
1100.0	0.000112007928804	0.965033161135
1103.0	0.000179891522018	0.965213052657
1106.0	0.000210439138965	0.965423491796
1109.0	0.0002851110915	0.965708602888
1112.0	0.00033262960675	0.966041232495
1115.0	0.000261351833875	0.966302584328
1118.0	0.000210439138965	0.966513023467
1121.0	0.000254563474554	0.966767586942
1124.0	0.00023419839659	0.967001785339
1127.0	0.00033262960675	0.967334414945
1130.0	0.000268140193197	0.967602555138
1133.0	0.000261351833875	0.967863906972
1136.0	0.000186679881339	0.968050586854
1139.0	0.00032923542709	0.968379822281
1142.0	0.000108613749143	0.96848843603
1145.0	9.16428508394e-05	0.968580078881
1148.0	5.77010542322e-05	0.968637779935
1151.0	0.000227410037268	0.968865189972
1154.0	0.000319052888107	0.96918424286
1157.0	0.000176497342357	0.969360740203
1160.0	0.000105219569482	0.969465959772
1163.0	0.000128978827107	0.969594938599
1166.0	0.000122190467786	0.969717129067
1169.0	0.000176497342357	0.969893626409
1172.0	5.77010542322e-05	0.969951327464
1175.0	0.000166314803375	0.970117642267
1178.0	0.000227410037268	0.970345052304
1181.0	0.000186679881339	0.970531732186
1184.0	0.000128978827107	0.970660711013
1187.0	0.000179891522018	0.970840602535
1190.0	0.000152738084732	0.97099334062
1193.0	0.000115402108464	0.971108742728
1196.0	0.000268140193197	0.971376882921
1199.0	8.48544915179e-05	0.971461737413
1202.0	0.000166314803375	0.971628052216
1205.0	0.000261351833875	0.97188940405
1208.0	0.000139161366089	0.972028565416
1211.0	0.000224015857607	0.972252581274
1214.0	0.000305476169465	0.972558057443
1217.0	9.16428508394e-05	0.972649700294
1220.0	8.82486711787e-05	0.972737948965
1223.0	0.000166314803375	0.972904263768
1226.0	0.000115402108464	0.973019665877
1229.0	3.73359762679e-05	0.973057001853
1232.0	4.751851525e-05	0.973104520368
1235.0	0.000152738084732	0.973257258453
1238.0	7.12777728751e-05	0.973328536226
1241.0	0.000125584647447	0.973454120874
1244.0	0.000128978827107	0.973583099701
1247.0	6.78835932144e-05	0.973650983294
1250.0	0.000135767186429	0.97378675048
1253.0	0.000159526444054	0.973946276924
1256.0	0.000108613749143	0.974054890673
1259.0	7.46719525358e-05	0.974129562626
1262.0	0.000308870349125	0.974438432975
1265.0	0.000190074061	0.974628507036
1268.0	0.000298687810143	0.974927194846
1271.0	0.000101825389822	0.975029020236
1274.0	0.000156132264393	0.9751851525
1277.0	9.84312101608e-05	0.975283583711
1280.0	7.46719525358e-05	0.975358255663
1283.0	0.000179891522018	0.975538147185
1286.0	0.000200256599982	0.975738403785
1289.0	0.000139161366089	0.975877565151
1292.0	4.751851525e-05	0.975925083667
1295.0	6.10952338929e-05	0.9759861789
1298.0	7.12777728751e-05	0.976057456673
1301.0	6.10952338929e-05	0.976118551907
1304.0	4.751851525e-05	0.976166070422
1307.0	3.39417966072e-05	0.976200012219
1310.0	8.48544915179e-05	0.976284866711
1313.0	4.41243355893e-05	0.976328991046
1316.0	0.000342812145732	0.976671803192
1319.0	0.000224015857607	0.976895819049
1322.0	0.00014255554575	0.977038374595
1325.0	5.43068745715e-05	0.97709268147
1328.0	0.000125584647447	0.977218266117
1331.0	4.751851525e-05	0.977265784633
1334.0	0.000112007928804	0.977377792561
1337.0	0.000118796288125	0.977496588849
1340.0	0.000105219569482	0.977601808419
1343.0	9.84312101608e-05	0.977700239629
1346.0	7.46719525358e-05	0.977774911582
1349.0	0.000101825389822	0.977876736971
1352.0	0.000200256599982	0.978076993571
1355.0	7.46719525358e-05	0.978151665524
1358.0	0.000193468240661	0.978345133765
1361.0	0.000166314803375	0.978511448568
1364.0	0.000186679881339	0.978698128449
1367.0	3.39417966072e-05	0.978732070246
1370.0	6.44894135536e-05	0.978796559659
1373.0	0.000336023786411	0.979132583446
1376.0	0.000135767186429	0.979268350632
1379.0	9.84312101608e-05	0.979366781842
1382.0	9.50370305001e-05	0.979461818873
1385.0	8.48544915179e-05	0.979546673365
1388.0	7.12777728751e-05	0.979617951137
1391.0	4.751851525e-05	0.979665469653
1394.0	9.16428508394e-05	0.979757112503
1397.0	0.000135767186429	0.97989287969
1400.0	3.05476169465e-05	0.979923427307
1403.0	0.000169708983036	0.98009313629
1406.0	1.69708983036e-05	0.980110107188
1409.0	5.77010542322e-05	0.980167808242
1412.0	0.000203650779643	0.980371459022
1415.0	0.000112007928804	0.980483466951
1418.0	3.39417966072e-05	0.980517408747
1421.0	3.05476169465e-05	0.980547956364
1424.0	6.78835932144e-05	0.980615839958
1427.0	0.000105219569482	0.980721059527
1430.0	6.78835932144e-06	0.980727847886
1433.0	4.07301559286e-05	0.980768578042
1436.0	0.000166314803375	0.980934892846
1439.0	4.751851525e-05	0.980982411361
1442.0	5.09126949108e-05	0.981033324056
1445.0	7.12777728751e-05	0.981104601829
1448.0	0.000125584647447	0.981230186476
1451.0	0.000200256599982	0.981430443076
1454.0	0.000135767186429	0.981566210263
1457.0	0.000139161366089	0.981705371629
1460.0	0.000169708983036	0.981875080612
1463.0	0.000125584647447	0.982000665259
1466.0	0.000247775115232	0.982248440374
1469.0	0.000122190467786	0.982370630842
1472.0	0.000122190467786	0.98249282131
1475.0	7.46719525358e-05	0.982567493263
1478.0	0.000112007928804	0.982679501191
1481.0	0.000125584647447	0.982805085839
1484.0	3.73359762679e-05	0.982842421815
1487.0	1.35767186429e-05	0.982855998534
1490.0	0.000149343905072	0.983005342439
1493.0	0.000380148122	0.983385490561
1496.0	9.16428508394e-05	0.983477133412
1499.0	0.000122190467786	0.983599323879
1502.0	0.000105219569482	0.983704543449
1505.0	0.000115402108464	0.983819945557
1508.0	0.000135767186429	0.983955712744
1511.0	9.84312101608e-05	0.984054143954
1514.0	7.46719525358e-05	0.984128815906
1517.0	0.000173103162697	0.984301919069
1520.0	5.77010542322e-05	0.984359620123
1523.0	8.14603118572e-05	0.984441080435
1526.0	9.16428508394e-05	0.984532723286
1529.0	2.03650779643e-05	0.984553088364
1532.0	4.07301559286e-05	0.98459381852
1535.0	5.09126949108e-05	0.984644731215
1538.0	1.01825389822e-05	0.984654913754
1541.0	6.78835932144e-06	0.984661702113
1544.0	2.3759257625e-05	0.984685461371
1547.0	3.05476169465e-05	0.984716008988
1550.0	4.07301559286e-05	0.984756739144
1553.0	6.10952338929e-05	0.984817834378
1556.0	3.73359762679e-05	0.984855170354
1559.0	3.39417966072e-05	0.98488911215
1562.0	1.69708983036e-05	0.984906083049
1565.0	6.78835932144e-05	0.984973966642
1568.0	0.000128978827107	0.985102945469
1570.0	0.000132373006768	0.985235318476
1574.0	3.39417966072e-05	0.985269260272
1577.0	0.000190074061	0.985459334333
1580.0	5.43068745715e-05	0.985513641208
1583.0	9.50370305001e-05	0.985608678239
1586.0	0.000108613749143	0.985717291988
1589.0	4.07301559286e-05	0.985758022144
1592.0	8.14603118572e-05	0.985839482455
1595.0	1.01825389822e-05	0.985849664994
1598.0	1.69708983036e-05	0.985866635893
1601.0	3.05476169465e-05	0.98589718351
1604.0	5.77010542322e-05	0.985954884564
1607.0	1.01825389822e-05	0.985965067103
1610.0	6.78835932144e-06	0.985971855462
1613.0	1.01825389822e-05	0.985982038001
1616.0	4.41243355893e-05	0.986026162337
1619.0	0.000112007928804	0.986138170266
1622.0	5.77010542322e-05	0.98619587132
1625.0	9.50370305001e-05	0.98629090835
1628.0	4.41243355893e-05	0.986335032686
1631.0	7.46719525358e-05	0.986409704638
1634.0	7.80661321965e-05	0.986487770771
1637.0	6.44894135536e-05	0.986552260184
1640.0	1.35767186429e-05	0.986565836903
1643.0	0.000169708983036	0.986735545886
1646.0	4.41243355893e-05	0.986779670222
1649.0	9.84312101608e-05	0.986878101432
1652.0	2.03650779643e-05	0.98689846651
1655.0	8.14603118572e-05	0.986979926821
1658.0	4.751851525e-05	0.987027445337
1661.0	0.000105219569482	0.987132664906
1664.0	3.39417966072e-05	0.987166606703
1667.0	9.16428508394e-05	0.987258249554
1670.0	0.000125584647447	0.987383834201
1673.0	0.00014255554575	0.987526389747
1676.0	0.000173103162697	0.98769949291
1679.0	3.05476169465e-05	0.987730040527
1682.0	2.03650779643e-05	0.987750405604
1685.0	6.78835932144e-05	0.987818289198
1688.0	5.09126949108e-05	0.987869201893
1691.0	7.80661321965e-05	0.987947268025
1694.0	5.09126949108e-05	0.98799818072
1697.0	5.77010542322e-05	0.988055881774
1700.0	3.39417966072e-05	0.988089823571
1703.0	3.05476169465e-05	0.988120371187
1706.0	4.41243355893e-05	0.988164495523
1709.0	0.000200256599982	0.988364752123
1712.0	0.000308870349125	0.988673622472
1715.0	4.07301559286e-05	0.988714352628
1718.0	2.71534372857e-05	0.988741506065
1721.0	6.78835932144e-05	0.988809389659
1724.0	0.000190074061	0.98899946372
1727.0	0.000132373006768	0.989131836726
1730.0	7.12777728751e-05	0.989203114499
1733.0	3.05476169465e-05	0.989233662116
1736.0	3.73359762679e-05	0.989270998092
1739.0	3.39417966072e-05	0.989304939889
1742.0	5.09126949108e-05	0.989355852584
1745.0	5.77010542322e-05	0.989413553638
1748.0	3.73359762679e-05	0.989450889614
1751.0	5.77010542322e-05	0.989508590669
1754.0	1.69708983036e-05	0.989525561567
1757.0	6.44894135536e-05	0.989590050981
1760.0	6.78835932144e-05	0.989657934574
1763.0	7.46719525358e-05	0.989732606526
1766.0	3.73359762679e-05	0.989769942503
1772.0	5.77010542322e-05	0.989827643557
1775.0	1.69708983036e-05	0.989844614455
1778.0	9.16428508394e-05	0.989936257306
1781.0	2.3759257625e-05	0.989960016564
1787.0	2.03650779643e-05	0.989980381642
1790.0	2.3759257625e-05	0.990004140899
1796.0	2.71534372857e-05	0.990031294336
1799.0	3.39417966072e-05	0.990065236133
1805.0	6.78835932144e-06	0.990072024492
1808.0	1.01825389822e-05	0.990082207031
1811.0	1.35767186429e-05	0.99009578375
1814.0	8.14603118572e-05	0.990177244062
1817.0	7.80661321965e-05	0.990255310194
1820.0	3.39417966072e-05	0.990289251991
1823.0	3.05476169465e-05	0.990319799608
1826.0	6.10952338929e-05	0.990380894842
1829.0	5.43068745715e-05	0.990435201716
1832.0	2.3759257625e-05	0.990458960974
1835.0	2.71534372857e-05	0.990486114411
1838.0	8.14603118572e-05	0.990567574723
1841.0	8.48544915179e-05	0.990652429214
1844.0	5.43068745715e-05	0.990706736089
1847.0	0.000101825389822	0.990808561479
1850.0	3.05476169465e-05	0.990839109096
1853.0	5.43068745715e-05	0.99089341597
1856.0	1.35767186429e-05	0.990906992689
1859.0	3.39417966072e-05	0.990940934486
1862.0	5.09126949108e-05	0.99099184718
1865.0	3.39417966072e-06	0.99099524136
1871.0	3.39417966072e-06	0.99099863554
1874.0	1.69708983036e-05	0.991015606438
1877.0	2.03650779643e-05	0.991035971516
1880.0	7.80661321965e-05	0.991114037648
1883.0	2.71534372857e-05	0.991141191086
1886.0	1.35767186429e-05	0.991154767804
1889.0	2.71534372857e-05	0.991181921241
1892.0	0.000112007928804	0.99129392917
1894.0	7.46719525358e-05	0.991368601123
1897.0	0.000101825389822	0.991470426513
1901.0	2.3759257625e-05	0.99149418577
1904.0	1.01825389822e-05	0.991504368309
1910.0	3.39417966072e-06	0.991507762489
1916.0	1.01825389822e-05	0.991517945028
1919.0	1.35767186429e-05	0.991531521747
1925.0	2.03650779643e-05	0.991551886824
1928.0	3.73359762679e-05	0.991589222801
1930.0	0.000105219569482	0.99169444237
1934.0	0.000105219569482	0.99179966194
1937.0	4.41243355893e-05	0.991843786275
1939.0	0.000125584647447	0.991969370923
1943.0	4.07301559286e-05	0.992010101079
1946.0	5.43068745715e-05	0.992064407953
1949.0	2.03650779643e-05	0.992084773031
1952.0	4.07301559286e-05	0.992125503187
1955.0	7.46719525358e-05	0.99220017514
1958.0	1.01825389822e-05	0.992210357679
1961.0	1.35767186429e-05	0.992223934397
1964.0	0.000105219569482	0.992329153967
1966.0	0.000271534372857	0.99260068834
1970.0	0.000176497342357	0.992777185682
1973.0	5.09126949108e-05	0.992828098377
1976.0	4.751851525e-05	0.992875616892
1985.0	3.39417966072e-06	0.992879011072
1988.0	4.751851525e-05	0.992926529587
1991.0	3.39417966072e-06	0.992929923767
1994.0	6.78835932144e-06	0.992936712126
1997.0	1.69708983036e-05	0.992953683024
2000.0	2.71534372857e-05	0.992980836462
2003.0	1.35767186429e-05	0.99299441318
2006.0	3.39417966072e-06	0.99299780736
2009.0	2.71534372857e-05	0.993024960797
2012.0	2.03650779643e-05	0.993045325875
2015.0	1.69708983036e-05	0.993062296773
2018.0	1.01825389822e-05	0.993072479312
2021.0	6.78835932144e-06	0.993079267672
2024.0	1.69708983036e-05	0.99309623857
2027.0	2.71534372857e-05	0.993123392007
2030.0	4.751851525e-05	0.993170910523
2033.0	2.03650779643e-05	0.993191275601
2036.0	1.69708983036e-05	0.993208246499
2039.0	6.78835932144e-06	0.993215034858
2042.0	4.751851525e-05	0.993262553373
2045.0	2.71534372857e-05	0.993289706811
2048.0	3.73359762679e-05	0.993327042787
2051.0	4.07301559286e-05	0.993367772943
2054.0	1.01825389822e-05	0.993377955482
2057.0	6.78835932144e-06	0.993384743841
2060.0	3.73359762679e-05	0.993422079818
2062.0	2.03650779643e-05	0.993442444895
2066.0	1.35767186429e-05	0.993456021614
2068.0	1.35767186429e-05	0.993469598333
2071.0	2.03650779643e-05	0.993489963411
2075.0	2.71534372857e-05	0.993517116848
2077.0	1.01825389822e-05	0.993527299387
2081.0	3.39417966072e-06	0.993530693567
2084.0	2.3759257625e-05	0.993554452824
2086.0	6.10952338929e-05	0.993615548058
2093.0	1.01825389822e-05	0.993625730597
2096.0	6.78835932144e-06	0.993632518956
2099.0	3.39417966072e-06	0.993635913136
2108.0	2.3759257625e-05	0.993659672394
2111.0	3.05476169465e-05	0.993690220011
2114.0	0.000135767186429	0.993825987197
2117.0	6.78835932144e-06	0.993832775556
2135.0	2.03650779643e-05	0.993853140634
2138.0	1.35767186429e-05	0.993866717353
2141.0	3.05476169465e-05	0.99389726497
2144.0	2.71534372857e-05	0.993924418407
2147.0	6.78835932144e-06	0.993931206767
2150.0	4.751851525e-05	0.993978725282
2153.0	3.73359762679e-05	0.994016061258
2156.0	2.71534372857e-05	0.994043214695
2159.0	1.35767186429e-05	0.994056791414
2161.0	0.000108613749143	0.994165405163
2164.0	8.82486711787e-05	0.994253653834
2168.0	2.03650779643e-05	0.994274018912
2170.0	5.43068745715e-05	0.994328325787
2174.0	2.3759257625e-05	0.994352085045
2177.0	3.39417966072e-06	0.994355479224
2180.0	1.01825389822e-05	0.994365661763
2182.0	6.44894135536e-05	0.994430151177
2186.0	1.01825389822e-05	0.994440333716
2189.0	2.71534372857e-05	0.994467487153
2192.0	5.09126949108e-05	0.994518399848
2195.0	4.07301559286e-05	0.994559130004
2198.0	3.73359762679e-05	0.99459646598
2201.0	5.09126949108e-05	0.994647378675
2204.0	1.69708983036e-05	0.994664349573
2207.0	3.39417966072e-06	0.994667743753
2210.0	1.01825389822e-05	0.994677926292
2216.0	6.78835932144e-06	0.994684714651
2218.0	3.39417966072e-05	0.994718656448
2222.0	6.78835932144e-06	0.994725444807
2227.0	3.73359762679e-05	0.994762780784
2231.0	2.03650779643e-05	0.994783145861
2237.0	3.39417966072e-06	0.994786540041
2242.0	4.41243355893e-05	0.994830664377
2245.0	2.71534372857e-05	0.994857817814
2248.0	4.07301559286e-05	0.99489854797
2252.0	1.35767186429e-05	0.994912124689
2255.0	1.01825389822e-05	0.994922307228
2257.0	3.73359762679e-05	0.994959643204
2261.0	1.35767186429e-05	0.994973219922
2264.0	3.39417966072e-06	0.994976614102
2270.0	0.000152738084732	0.995129352187
2272.0	0.000315658708447	0.995445010895
2275.0	6.78835932144e-05	0.995512894489
2278.0	2.3759257625e-05	0.995536653746
2281.0	5.09126949108e-05	0.995587566441
2284.0	5.09126949108e-05	0.995638479136
2287.0	2.71534372857e-05	0.995665632573
2290.0	1.01825389822e-05	0.995675815112
2293.0	5.43068745715e-05	0.995730121987
2297.0	4.41243355893e-05	0.995774246322
2300.0	1.69708983036e-05	0.995791217221
2303.0	2.3759257625e-05	0.995814976478
2306.0	2.71534372857e-05	0.995842129916
2309.0	2.71534372857e-05	0.995869283353
2312.0	2.71534372857e-05	0.99589643679
2314.0	4.41243355893e-05	0.995940561126
2317.0	6.78835932144e-05	0.996008444719
2320.0	2.03650779643e-05	0.996028809797
2323.0	6.78835932144e-05	0.99609669339
2326.0	4.751851525e-05	0.996144211905
2330.0	6.78835932144e-06	0.996151000265
2333.0	3.73359762679e-05	0.996188336241
2335.0	7.80661321965e-05	0.996266402373
2338.0	6.78835932144e-06	0.996273190733
2345.0	0.000101825389822	0.996375016122
2347.0	9.84312101608e-05	0.996473447333
2351.0	3.39417966072e-06	0.996476841512
2356.0	6.78835932144e-06	0.996483629871
2363.0	3.39417966072e-06	0.996487024051
2365.0	2.03650779643e-05	0.996507389129
2369.0	1.01825389822e-05	0.996517571668
2378.0	6.78835932144e-06	0.996524360027
2384.0	1.35767186429e-05	0.996537936746
2386.0	1.01825389822e-05	0.996548119285
2390.0	3.39417966072e-06	0.996551513465
2393.0	1.35767186429e-05	0.996565090183
2404.0	4.41243355893e-05	0.996609214519
2407.0	4.07301559286e-05	0.996649944675
2410.0	6.44894135536e-05	0.996714434088
2413.0	5.09126949108e-05	0.996765346783
2416.0	1.01825389822e-05	0.996775529322
2420.0	6.78835932144e-06	0.996782317682
2422.0	6.78835932144e-06	0.996789106041
2426.0	3.39417966072e-06	0.996792500221
2432.0	1.01825389822e-05	0.99680268276
2435.0	6.78835932144e-06	0.996809471119
2437.0	3.39417966072e-06	0.996812865299
2441.0	4.41243355893e-05	0.996856989634
2446.0	1.35767186429e-05	0.996870566353
2449.0	9.50370305001e-05	0.996965603383
2453.0	3.39417966072e-06	0.996968997563
2456.0	7.46719525358e-05	0.997043669516
2458.0	1.69708983036e-05	0.997060640414
2461.0	5.43068745715e-05	0.997114947288
2464.0	7.46719525358e-05	0.997189619241
2467.0	0.000101825389822	0.997291444631
2470.0	9.50370305001e-05	0.997386481661
2473.0	9.50370305001e-05	0.997481518692
2485.0	1.35767186429e-05	0.99749509541
2488.0	6.78835932144e-06	0.99750188377
2492.0	6.78835932144e-06	0.997508672129
2495.0	6.78835932144e-06	0.997515460488
2498.0	1.01825389822e-05	0.997525643027
2500.0	6.78835932144e-06	0.997532431387
2515.0	4.751851525e-05	0.997579949902
2518.0	2.03650779643e-05	0.99760031498
2521.0	6.78835932144e-06	0.997607103339
2528.0	3.39417966072e-06	0.997610497519
2552.0	3.39417966072e-06	0.997613891699
2563.0	0.000210439138965	0.997824330837
2566.0	2.71534372857e-05	0.997851484275
2582.0	1.01825389822e-05	0.997861666814
2584.0	6.78835932144e-06	0.997868455173
2588.0	1.01825389822e-05	0.997878637712
2590.0	6.10952338929e-05	0.997939732946
2593.0	5.43068745715e-05	0.997994039821
2597.0	3.39417966072e-06	0.997997434
2599.0	1.69708983036e-05	0.998014404898
2605.0	3.39417966072e-05	0.998048346695
2609.0	6.78835932144e-06	0.998055135054
2612.0	3.39417966072e-06	0.998058529234
2621.0	1.69708983036e-05	0.998075500132
2624.0	6.78835932144e-06	0.998082288492
2626.0	3.05476169465e-05	0.998112836109
2629.0	6.78835932144e-06	0.998119624468
2632.0	1.35767186429e-05	0.998133201187
2635.0	3.39417966072e-06	0.998136595366
2639.0	3.39417966072e-06	0.998139989546
2641.0	1.01825389822e-05	0.998150172085
2645.0	3.39417966072e-06	0.998153566265
2647.0	6.78835932144e-06	0.998160354624
2651.0	1.35767186429e-05	0.998173931343
2653.0	2.71534372857e-05	0.99820108478
2657.0	3.39417966072e-06	0.998204478959
2659.0	1.35767186429e-05	0.998218055678
2662.0	2.03650779643e-05	0.998238420756
2665.0	4.07301559286e-05	0.998279150912
2669.0	3.39417966072e-06	0.998282545092
2671.0	3.73359762679e-05	0.998319881068
2675.0	3.39417966072e-06	0.998323275248
2677.0	7.12777728751e-05	0.99839455302
2680.0	0.000125584647447	0.998520137668
2683.0	6.78835932144e-06	0.998526926027
2689.0	2.03650779643e-05	0.998547291105
2729.0	2.3759257625e-05	0.998571050363
2731.0	3.39417966072e-05	0.998604992159
2740.0	3.39417966072e-06	0.998608386339
2752.0	3.05476169465e-05	0.998638933956
2756.0	3.39417966072e-06	0.998642328136
2758.0	1.35767186429e-05	0.998655904854
2761.0	1.69708983036e-05	0.998672875753
2764.0	2.3759257625e-05	0.99869663501
2767.0	6.44894135536e-05	0.998761124424
2770.0	1.69708983036e-05	0.998778095322
2810.0	3.39417966072e-06	0.998781489502
2815.0	1.35767186429e-05	0.99879506622
2818.0	6.78835932144e-06	0.99880185458
2824.0	1.35767186429e-05	0.998815431298
2828.0	6.78835932144e-06	0.998822219658
2834.0	3.39417966072e-06	0.998825613837
2837.0	3.39417966072e-06	0.998829008017
2849.0	3.39417966072e-06	0.998832402197
2855.0	3.39417966072e-06	0.998835796376
2857.0	1.01825389822e-05	0.998845978915
2872.0	6.78835932144e-06	0.998852767275
2897.0	3.39417966072e-06	0.998856161454
2903.0	3.39417966072e-06	0.998859555634
2905.0	1.35767186429e-05	0.998873132353
2912.0	3.39417966072e-06	0.998876526532
2924.0	3.39417966072e-06	0.998879920712
2927.0	3.39417966072e-06	0.998883314892
2980.0	4.07301559286e-05	0.998924045048
3091.0	1.35767186429e-05	0.998937621766
3094.0	6.78835932144e-06	0.998944410126
3097.0	1.01825389822e-05	0.998954592664
3100.0	6.78835932144e-05	0.999022476258
3106.0	1.01825389822e-05	0.999032658797
3157.0	6.78835932144e-06	0.999039447156
3160.0	3.39417966072e-06	0.999042841336
3265.0	4.07301559286e-05	0.999083571492
3268.0	1.35767186429e-05	0.99909714821
3271.0	2.3759257625e-05	0.999120907468
3274.0	3.73359762679e-05	0.999158243444
3278.0	3.39417966072e-06	0.999161637624
3281.0	3.39417966072e-06	0.999165031803
3286.0	3.39417966072e-06	0.999168425983
3373.0	3.39417966072e-06	0.999171820163
3382.0	3.39417966072e-05	0.999205761959
3385.0	2.3759257625e-05	0.999229521217
3388.0	6.78835932144e-06	0.999236309576
3394.0	1.35767186429e-05	0.999249886295
3397.0	1.01825389822e-05	0.999260068834
3403.0	5.09126949108e-05	0.999310981529
3406.0	1.01825389822e-05	0.999321164068
3496.0	3.39417966072e-06	0.999324558248
3502.0	3.39417966072e-06	0.999327952427
4054.0	1.01825389822e-05	0.999338134966
4168.0	4.751851525e-05	0.999385653481
4171.0	1.35767186429e-05	0.9993992302
4174.0	3.39417966072e-06	0.99940262438
4180.0	1.35767186429e-05	0.999416201098
4192.0	2.03650779643e-05	0.999436566176
4195.0	3.39417966072e-06	0.999439960356
4201.0	6.78835932144e-06	0.999446748715
4204.0	3.39417966072e-06	0.999450142895
4207.0	6.78835932144e-06	0.999456931254
4216.0	3.39417966072e-06	0.999460325434
4219.0	3.39417966072e-06	0.999463719614
4267.0	3.39417966072e-06	0.999467113793
4270.0	3.39417966072e-06	0.999470507973
4273.0	3.39417966072e-06	0.999473902153
4285.0	1.69708983036e-05	0.999490873051
4288.0	2.71534372857e-05	0.999518026488
4291.0	6.78835932144e-05	0.999585910081
4294.0	3.39417966072e-06	0.999589304261
4300.0	3.39417966072e-06	0.999592698441
4372.0	3.39417966072e-06	0.99959609262
4375.0	3.39417966072e-06	0.9995994868
4378.0	3.39417966072e-06	0.99960288098
4381.0	3.39417966072e-06	0.999606275159
4390.0	1.01825389822e-05	0.999616457698
4393.0	1.35767186429e-05	0.999630034417
4396.0	3.39417966072e-06	0.999633428597
4399.0	1.01825389822e-05	0.999643611136
4402.0	3.39417966072e-06	0.999647005315
4420.0	3.39417966072e-06	0.999650399495
4600.0	0.00023419839659	0.999884597892
4675.0	2.3759257625e-05	0.999908357149
4678.0	1.35767186429e-05	0.999921933868
4681.0	3.39417966072e-06	0.999925328047
4684.0	3.39417966072e-06	0.999928722227
4687.0	1.69708983036e-05	0.999945693125
4690.0	5.77010542322e-05	1.0
