#
# Generated On: 2012-02-05T16:56:10.522184
#           By: cwa.analyze.statistics
#      Version: 11.11.23
#       Author: Thomas A. de Ruiter <thomas@de-ruiter.cx>
#
#  Commandline: /home/af10028/bin/cwa analyze
#     Work Dir: /scratch/af10028/var/thesis-project/result/analyses/workload-01h-07416l-1s-fair
#

Time	Sum	Avg	StdDev	CoV	0.000000-Pct	0.010000-Pct	0.100000-Pct	1.000000-Pct	2.000000-Pct	5.000000-Pct	25.000000-Pct	50.000000-Pct	75.000000-Pct	95.000000-Pct	98.000000-Pct	99.000000-Pct	99.900000-Pct	99.990000-Pct	100.000000-Pct
1326943800	42328.0	436.371134021	586.212797675	1.34338124585	3.0	3.0	3.0	3.0	3.0	3.0	10.0	249.0	596.0	1412.0	2092.0	3977.0	3977.0	3977.0	3977.0
1326944400	78115.0	299.291187739	407.054323863	1.36006117299	3.0	3.0	3.0	3.0	3.0	3.0	4.0	121.0	466.0	1116.0	1687.0	1860.0	1931.0	1931.0	1931.0
1326945000	85498.0	298.944055944	396.890196954	1.3276403697	2.0	2.0	2.0	3.0	3.0	3.0	4.0	145.5	468.0	1119.0	1504.0	1839.0	2576.0	2576.0	2576.0
1326945600	121256.0	376.571428571	470.356585275	1.24905011264	2.0	2.0	2.0	3.0	3.0	3.0	5.0	190.0	593.0	1323.0	1771.0	1792.0	2204.0	2204.0	2204.0
1326946200	98843.0	337.348122867	423.487633415	1.25534308541	3.0	3.0	3.0	3.0	3.0	3.0	4.0	166.0	524.0	1307.0	1629.0	1726.0	2012.0	2012.0	2012.0
1326946800	88877.0	351.292490119	448.67670669	1.27721690418	3.0	3.0	3.0	3.0	3.0	3.0	9.0	187.0	506.0	1324.0	1551.0	2153.0	2448.0	2448.0	2448.0
1326947400	84853.0	377.124444444	531.044399356	1.40814101865	3.0	3.0	3.0	3.0	3.0	3.0	9.0	181.0	516.0	1575.0	1968.0	2021.0	3403.0	3403.0	3403.0
