#
# Generated On: 2012-02-05T17:08:19.644551
#           By: cwa.analyze.statistics
#      Version: 11.11.23
#       Author: Thomas A. de Ruiter <thomas@de-ruiter.cx>
#
#  Commandline: /home/af10028/bin/cwa analyze
#     Work Dir: /scratch/af10028/var/thesis-project/result/analyses/workload-01h-09888l-1s-fair
#

Time	Sum	Avg	StdDev	CoV	0.000000-Pct	0.010000-Pct	0.100000-Pct	1.000000-Pct	2.000000-Pct	5.000000-Pct	25.000000-Pct	50.000000-Pct	75.000000-Pct	95.000000-Pct	98.000000-Pct	99.000000-Pct	99.900000-Pct	99.990000-Pct	100.000000-Pct
1326945600	2006109.0	2853.6401138	2727.34378202	0.955742025365	3.0	3.0	3.0	3.0	3.0	3.0	856.0	2191.0	4212.0	8465.0	9888.0	10366.0	15521.0	15521.0	15521.0
1326949200	314699.0	3458.23076923	3123.39716433	0.903177772901	3.0	3.0	3.0	3.0	3.0	4.0	756.0	2747.0	5118.0	10473.0	11308.0	12430.0	12430.0	12430.0	12430.0
