#
# Generated On: 2012-02-05T20:20:21.758730
#           By: cwa.analyze.statistics
#      Version: 11.11.23
#       Author: Thomas A. de Ruiter <thomas@de-ruiter.cx>
#
#  Commandline: /home/af10028/bin/cwa analyze
#     Work Dir: /scratch/af10028/var/thesis-project/result/analyses/workload-06h-08652l-5s-fair
#

Time	Sum	Avg	StdDev	CoV	0.000000-Pct	0.010000-Pct	0.100000-Pct	1.000000-Pct	2.000000-Pct	5.000000-Pct	25.000000-Pct	50.000000-Pct	75.000000-Pct	95.000000-Pct	98.000000-Pct	99.000000-Pct	99.900000-Pct	99.990000-Pct	100.000000-Pct
1327104000	1700642.0	3026.05338078	3142.97125064	1.03863708109	2.0	2.0	2.0	3.0	3.0	3.0	899.0	2297.0	4117.0	8235.0	11215.0	16014.0	30642.0	30642.0	30642.0
1327107600	1747498.0	2850.73083197	3534.96714922	1.24002136911	2.0	2.0	2.0	3.0	3.0	3.0	495.0	1811.0	3947.0	9065.0	12811.0	15665.0	32474.0	32474.0	32474.0
1327111200	1727617.0	3079.5311943	3591.92296382	1.16638628973	3.0	3.0	3.0	3.0	3.0	3.0	420.0	2010.0	4480.0	9955.0	13607.0	15154.0	26823.0	26823.0	26823.0
1327114800	1795522.0	3043.25762712	3718.35511967	1.22183382916	2.0	2.0	2.0	3.0	3.0	3.0	323.0	1897.5	4203.0	10761.0	15947.0	17582.0	23846.0	23846.0	23846.0
1327118400	1634885.0	3302.7979798	3811.39842831	1.15399078346	2.0	2.0	2.0	3.0	3.0	3.0	331.0	2159.0	4683.0	11807.0	15881.0	17112.0	18899.0	18899.0	18899.0
1327122000	1816213.0	3032.07512521	3231.84179698	1.06588447302	2.0	2.0	2.0	3.0	3.0	3.0	721.0	2066.0	4447.0	9735.0	12836.0	15783.0	18806.0	18806.0	18806.0
1327125600	392393.0	3190.18699187	3266.72162415	1.02399064145	3.0	3.0	3.0	3.0	3.0	3.0	662.0	2027.0	5513.0	9741.0	12529.0	13184.0	14772.0	14772.0	14772.0
