#
# Generated On: 2012-02-05T16:44:45.092269
#           By: cwa.analyze.statistics
#      Version: 11.11.23
#       Author: Thomas A. de Ruiter <thomas@de-ruiter.cx>
#
#  Commandline: /home/af10028/bin/cwa analyze
#     Work Dir: /scratch/af10028/var/thesis-project/result/analyses/workload-01h-03708l-3s-default
#

Value	PDF	CDF
-1326956286.0	0.000823723228995	0.00164744645799
2.0	0.217462932455	0.219110378913
4.0	0.00494233937397	0.224052718287
6.0	0.000823723228995	0.224876441516
8.0	0.0222405271829	0.247116968699
10.0	0.00411861614498	0.251235584843
12.0	0.00329489291598	0.254530477759
14.0	0.00494233937397	0.259472817133
17.0	0.00411861614498	0.263591433278
19.0	0.00247116968699	0.266062602965
21.0	0.00164744645799	0.267710049423
24.0	0.00164744645799	0.269357495881
27.0	0.00329489291598	0.272652388797
29.0	0.00164744645799	0.274299835255
31.0	0.00494233937397	0.279242174629
33.0	0.00247116968699	0.281713344316
35.0	0.00329489291598	0.285008237232
39.0	0.00164744645799	0.28665568369
44.0	0.000823723228995	0.287479406919
47.0	0.000823723228995	0.288303130148
50.0	0.00411861614498	0.292421746293
54.0	0.000823723228995	0.293245469522
57.0	0.000823723228995	0.294069192751
59.0	0.00164744645799	0.295716639209
66.0	0.000823723228995	0.296540362438
68.0	0.00164744645799	0.298187808896
72.0	0.00247116968699	0.300658978583
75.0	0.00164744645799	0.302306425041
77.0	0.000823723228995	0.30313014827
80.0	0.00247116968699	0.305601317957
83.0	0.00329489291598	0.308896210873
89.0	0.00247116968699	0.31136738056
92.0	0.000823723228995	0.312191103789
95.0	0.00164744645799	0.313838550247
98.0	0.00247116968699	0.316309719934
103.0	0.000823723228995	0.317133443163
105.0	0.000823723228995	0.317957166392
107.0	0.00164744645799	0.31960461285
109.0	0.000823723228995	0.320428336079
113.0	0.00329489291598	0.323723228995
115.0	0.00164744645799	0.325370675453
119.0	0.00164744645799	0.327018121911
123.0	0.00164744645799	0.328665568369
125.0	0.00164744645799	0.330313014827
128.0	0.00164744645799	0.331960461285
131.0	0.000823723228995	0.332784184514
135.0	0.000823723228995	0.333607907743
140.0	0.000823723228995	0.334431630972
144.0	0.00164744645799	0.33607907743
146.0	0.00329489291598	0.339373970346
149.0	0.00247116968699	0.341845140033
155.0	0.00164744645799	0.343492586491
159.0	0.000823723228995	0.34431630972
161.0	0.000823723228995	0.345140032949
164.0	0.000823723228995	0.345963756178
167.0	0.00164744645799	0.347611202636
169.0	0.00247116968699	0.350082372323
171.0	0.000823723228995	0.350906095552
173.0	0.00164744645799	0.35255354201
176.0	0.00329489291598	0.355848434926
179.0	0.00164744645799	0.357495881384
182.0	0.000823723228995	0.358319604613
188.0	0.00329489291598	0.361614497529
191.0	0.00164744645799	0.363261943987
194.0	0.00164744645799	0.364909390445
196.0	0.00164744645799	0.366556836903
198.0	0.000823723228995	0.367380560132
202.0	0.00164744645799	0.36902800659
206.0	0.000823723228995	0.369851729819
209.0	0.00164744645799	0.371499176277
213.0	0.000823723228995	0.372322899506
215.0	0.00164744645799	0.373970345964
217.0	0.000823723228995	0.374794069193
219.0	0.00164744645799	0.376441515651
224.0	0.00164744645799	0.378088962109
227.0	0.00164744645799	0.379736408567
233.0	0.00411861614498	0.383855024712
235.0	0.00247116968699	0.386326194399
240.0	0.00164744645799	0.387973640857
242.0	0.00329489291598	0.391268533773
245.0	0.00247116968699	0.39373970346
248.0	0.00247116968699	0.396210873147
254.0	0.00164744645799	0.397858319605
257.0	0.00164744645799	0.399505766063
260.0	0.000823723228995	0.400329489292
262.0	0.00247116968699	0.402800658979
264.0	0.000823723228995	0.403624382208
272.0	0.000823723228995	0.404448105437
278.0	0.00164744645799	0.406095551895
282.0	0.000823723228995	0.406919275124
285.0	0.00164744645799	0.408566721582
290.0	0.000823723228995	0.409390444811
298.0	0.000823723228995	0.41021416804
305.0	0.00164744645799	0.411861614498
307.0	0.00164744645799	0.413509060956
313.0	0.00247116968699	0.415980230643
317.0	0.000823723228995	0.416803953871
323.0	0.00247116968699	0.419275123558
327.0	0.00164744645799	0.420922570016
330.0	0.000823723228995	0.421746293245
332.0	0.00164744645799	0.423393739703
341.0	0.00329489291598	0.426688632619
344.0	0.00329489291598	0.429983525535
346.0	0.00411861614498	0.43410214168
348.0	0.000823723228995	0.434925864909
351.0	0.00329489291598	0.438220757825
354.0	0.000823723228995	0.439044481054
359.0	0.00247116968699	0.441515650741
362.0	0.00164744645799	0.443163097199
374.0	0.000823723228995	0.443986820428
377.0	0.00247116968699	0.446457990115
385.0	0.00164744645799	0.448105436573
387.0	0.000823723228995	0.448929159802
393.0	0.00164744645799	0.45057660626
398.0	0.000823723228995	0.451400329489
401.0	0.000823723228995	0.452224052718
404.0	0.00164744645799	0.453871499176
407.0	0.000823723228995	0.454695222405
414.0	0.000823723228995	0.455518945634
416.0	0.000823723228995	0.456342668863
418.0	0.00164744645799	0.457990115321
422.0	0.00164744645799	0.459637561779
424.0	0.000823723228995	0.460461285008
426.0	0.000823723228995	0.461285008237
428.0	0.000823723228995	0.462108731466
434.0	0.00247116968699	0.464579901153
437.0	0.000823723228995	0.465403624382
440.0	0.000823723228995	0.466227347611
443.0	0.000823723228995	0.46705107084
447.0	0.000823723228995	0.467874794069
449.0	0.000823723228995	0.468698517298
452.0	0.00247116968699	0.471169686985
459.0	0.000823723228995	0.471993410214
462.0	0.000823723228995	0.472817133443
466.0	0.000823723228995	0.473640856672
468.0	0.00164744645799	0.47528830313
470.0	0.00164744645799	0.476935749588
474.0	0.00164744645799	0.478583196046
476.0	0.00164744645799	0.480230642504
478.0	0.000823723228995	0.481054365733
483.0	0.000823723228995	0.481878088962
485.0	0.00164744645799	0.48352553542
488.0	0.000823723228995	0.484349258649
494.0	0.00329489291598	0.487644151565
498.0	0.000823723228995	0.488467874794
500.0	0.000823723228995	0.489291598023
504.0	0.000823723228995	0.490115321252
506.0	0.000823723228995	0.490939044481
509.0	0.00164744645799	0.492586490939
513.0	0.000823723228995	0.493410214168
515.0	0.000823723228995	0.494233937397
522.0	0.000823723228995	0.495057660626
524.0	0.00164744645799	0.496705107084
527.0	0.00164744645799	0.498352553542
530.0	0.000823723228995	0.499176276771
533.0	0.000823723228995	0.5
535.0	0.00164744645799	0.501647446458
540.0	0.000823723228995	0.502471169687
543.0	0.00164744645799	0.504118616145
546.0	0.000823723228995	0.504942339374
548.0	0.00164744645799	0.506589785832
551.0	0.000823723228995	0.507413509061
555.0	0.000823723228995	0.50823723229
560.0	0.000823723228995	0.509060955519
563.0	0.000823723228995	0.509884678748
565.0	0.00164744645799	0.511532125206
569.0	0.00164744645799	0.513179571664
571.0	0.00247116968699	0.515650741351
577.0	0.000823723228995	0.51647446458
581.0	0.00164744645799	0.518121911038
584.0	0.000823723228995	0.518945634267
589.0	0.000823723228995	0.519769357496
591.0	0.000823723228995	0.520593080725
593.0	0.00164744645799	0.522240527183
595.0	0.000823723228995	0.523064250412
597.0	0.00164744645799	0.52471169687
614.0	0.000823723228995	0.525535420099
620.0	0.000823723228995	0.526359143328
625.0	0.000823723228995	0.527182866557
632.0	0.000823723228995	0.528006589786
635.0	0.000823723228995	0.528830313015
638.0	0.000823723228995	0.529654036244
643.0	0.000823723228995	0.530477759473
653.0	0.000823723228995	0.531301482702
656.0	0.000823723228995	0.532125205931
665.0	0.00329489291598	0.535420098847
668.0	0.00164744645799	0.537067545305
673.0	0.00164744645799	0.538714991763
677.0	0.00247116968699	0.54118616145
680.0	0.000823723228995	0.542009884679
687.0	0.00247116968699	0.544481054366
693.0	0.00164744645799	0.546128500824
699.0	0.00164744645799	0.547775947282
701.0	0.00164744645799	0.54942339374
705.0	0.000823723228995	0.550247116969
711.0	0.000823723228995	0.551070840198
716.0	0.000823723228995	0.551894563427
724.0	0.00164744645799	0.553542009885
734.0	0.00164744645799	0.555189456343
737.0	0.000823723228995	0.556013179572
742.0	0.000823723228995	0.556836902801
744.0	0.00164744645799	0.558484349259
746.0	0.00164744645799	0.560131795717
752.0	0.00247116968699	0.562602965404
755.0	0.00164744645799	0.564250411862
758.0	0.000823723228995	0.565074135091
768.0	0.000823723228995	0.56589785832
771.0	0.00164744645799	0.567545304778
775.0	0.000823723228995	0.568369028007
782.0	0.00247116968699	0.570840197694
785.0	0.000823723228995	0.571663920923
787.0	0.000823723228995	0.572487644152
792.0	0.000823723228995	0.573311367381
794.0	0.000823723228995	0.57413509061
805.0	0.000823723228995	0.574958813839
807.0	0.000823723228995	0.575782537068
810.0	0.000823723228995	0.576606260297
816.0	0.000823723228995	0.577429983526
818.0	0.000823723228995	0.578253706755
824.0	0.00164744645799	0.579901153213
829.0	0.00247116968699	0.5823723229
831.0	0.000823723228995	0.583196046129
833.0	0.000823723228995	0.584019769357
839.0	0.000823723228995	0.584843492586
842.0	0.00247116968699	0.587314662273
845.0	0.00164744645799	0.588962108731
849.0	0.000823723228995	0.58978583196
855.0	0.000823723228995	0.590609555189
857.0	0.000823723228995	0.591433278418
869.0	0.000823723228995	0.592257001647
875.0	0.00164744645799	0.593904448105
878.0	0.000823723228995	0.594728171334
880.0	0.000823723228995	0.595551894563
890.0	0.000823723228995	0.596375617792
899.0	0.000823723228995	0.597199341021
906.0	0.00164744645799	0.598846787479
910.0	0.00164744645799	0.600494233937
914.0	0.000823723228995	0.601317957166
916.0	0.000823723228995	0.602141680395
920.0	0.000823723228995	0.602965403624
926.0	0.000823723228995	0.603789126853
929.0	0.000823723228995	0.604612850082
935.0	0.000823723228995	0.605436573311
941.0	0.00329489291598	0.608731466227
951.0	0.000823723228995	0.609555189456
953.0	0.000823723228995	0.610378912685
956.0	0.00164744645799	0.612026359143
974.0	0.000823723228995	0.612850082372
982.0	0.000823723228995	0.613673805601
989.0	0.000823723228995	0.61449752883
994.0	0.000823723228995	0.615321252059
1010.0	0.00164744645799	0.616968698517
1016.0	0.000823723228995	0.617792421746
1023.0	0.000823723228995	0.618616144975
1028.0	0.000823723228995	0.619439868204
1030.0	0.000823723228995	0.620263591433
1041.0	0.000823723228995	0.621087314662
1049.0	0.000823723228995	0.621911037891
1056.0	0.000823723228995	0.62273476112
1058.0	0.000823723228995	0.623558484349
1073.0	0.000823723228995	0.624382207578
1076.0	0.000823723228995	0.625205930807
1080.0	0.000823723228995	0.626029654036
1084.0	0.000823723228995	0.626853377265
1097.0	0.000823723228995	0.627677100494
1103.0	0.000823723228995	0.628500823723
1109.0	0.000823723228995	0.629324546952
1112.0	0.000823723228995	0.630148270181
1118.0	0.000823723228995	0.63097199341
1121.0	0.00164744645799	0.632619439868
1130.0	0.000823723228995	0.633443163097
1135.0	0.000823723228995	0.634266886326
1140.0	0.000823723228995	0.635090609555
1145.0	0.000823723228995	0.635914332784
1157.0	0.000823723228995	0.636738056013
1199.0	0.000823723228995	0.637561779242
1211.0	0.00164744645799	0.6392092257
1217.0	0.00164744645799	0.640856672158
1239.0	0.000823723228995	0.641680395387
1242.0	0.000823723228995	0.642504118616
1265.0	0.00247116968699	0.644975288303
1275.0	0.000823723228995	0.645799011532
1280.0	0.000823723228995	0.646622734761
1289.0	0.00164744645799	0.648270181219
1298.0	0.000823723228995	0.649093904448
1304.0	0.00164744645799	0.650741350906
1321.0	0.000823723228995	0.651565074135
1343.0	0.000823723228995	0.652388797364
1347.0	0.00164744645799	0.654036243822
1349.0	0.000823723228995	0.654859967051
1356.0	0.000823723228995	0.65568369028
1358.0	0.00329489291598	0.658978583196
1361.0	0.000823723228995	0.659802306425
1367.0	0.000823723228995	0.660626029654
1376.0	0.00247116968699	0.663097199341
1401.0	0.000823723228995	0.66392092257
1430.0	0.000823723228995	0.664744645799
1436.0	0.000823723228995	0.665568369028
1473.0	0.00164744645799	0.667215815486
1475.0	0.00164744645799	0.668863261944
1478.0	0.00247116968699	0.671334431631
1481.0	0.00164744645799	0.672981878089
1484.0	0.00164744645799	0.674629324547
1487.0	0.00247116968699	0.677100494234
1490.0	0.00164744645799	0.678747940692
1496.0	0.000823723228995	0.679571663921
1504.0	0.000823723228995	0.68039538715
1506.0	0.00164744645799	0.682042833608
1513.0	0.00164744645799	0.683690280066
1515.0	0.00164744645799	0.685337726524
1520.0	0.00164744645799	0.686985172982
1544.0	0.000823723228995	0.687808896211
1549.0	0.000823723228995	0.68863261944
1559.0	0.000823723228995	0.689456342669
1566.0	0.000823723228995	0.690280065898
1568.0	0.000823723228995	0.691103789127
1573.0	0.000823723228995	0.691927512356
1583.0	0.00329489291598	0.695222405272
1587.0	0.000823723228995	0.696046128501
1589.0	0.00247116968699	0.698517298188
1591.0	0.000823723228995	0.699341021417
1594.0	0.000823723228995	0.700164744646
1597.0	0.00164744645799	0.701812191104
1599.0	0.000823723228995	0.702635914333
1601.0	0.000823723228995	0.703459637562
1625.0	0.00164744645799	0.70510708402
1630.0	0.00164744645799	0.706754530478
1634.0	0.000823723228995	0.707578253707
1636.0	0.000823723228995	0.708401976936
1642.0	0.00164744645799	0.710049423394
1648.0	0.00164744645799	0.711696869852
1685.0	0.00164744645799	0.71334431631
1727.0	0.000823723228995	0.714168039539
1738.0	0.000823723228995	0.714991762768
1753.0	0.000823723228995	0.715815485997
1755.0	0.000823723228995	0.716639209226
1757.0	0.000823723228995	0.717462932455
1760.0	0.00247116968699	0.719934102142
1766.0	0.000823723228995	0.720757825371
1772.0	0.000823723228995	0.7215815486
1784.0	0.000823723228995	0.722405271829
1795.0	0.000823723228995	0.723228995058
1809.0	0.000823723228995	0.724052718287
1811.0	0.000823723228995	0.724876441516
1815.0	0.00411861614498	0.728995057661
1817.0	0.00164744645799	0.730642504119
1819.0	0.00247116968699	0.733113673806
1835.0	0.000823723228995	0.733937397035
1838.0	0.00494233937397	0.738879736409
1841.0	0.00164744645799	0.740527182867
1843.0	0.00329489291598	0.743822075783
1845.0	0.000823723228995	0.744645799012
1847.0	0.00164744645799	0.74629324547
1850.0	0.000823723228995	0.747116968699
1852.0	0.00164744645799	0.748764415157
1858.0	0.000823723228995	0.749588138386
1863.0	0.000823723228995	0.750411861614
1865.0	0.000823723228995	0.751235584843
1868.0	0.000823723228995	0.752059308072
1874.0	0.000823723228995	0.752883031301
1878.0	0.00164744645799	0.754530477759
1880.0	0.00329489291598	0.757825370675
1883.0	0.00247116968699	0.760296540362
1885.0	0.000823723228995	0.761120263591
1888.0	0.00247116968699	0.763591433278
1890.0	0.00164744645799	0.765238879736
1894.0	0.00247116968699	0.767710049423
1896.0	0.00494233937397	0.772652388797
1900.0	0.00329489291598	0.775947281713
1903.0	0.000823723228995	0.776771004942
1913.0	0.000823723228995	0.777594728171
1925.0	0.000823723228995	0.7784184514
1930.0	0.00164744645799	0.780065897858
1933.0	0.000823723228995	0.780889621087
1938.0	0.00164744645799	0.782537067545
1943.0	0.000823723228995	0.783360790774
1946.0	0.00247116968699	0.785831960461
1948.0	0.000823723228995	0.78665568369
1957.0	0.000823723228995	0.787479406919
1966.0	0.000823723228995	0.788303130148
1969.0	0.000823723228995	0.789126853377
1974.0	0.000823723228995	0.789950576606
1976.0	0.000823723228995	0.790774299835
1978.0	0.000823723228995	0.791598023064
1980.0	0.000823723228995	0.792421746293
1982.0	0.000823723228995	0.793245469522
1991.0	0.000823723228995	0.794069192751
2000.0	0.000823723228995	0.79489291598
2004.0	0.000823723228995	0.795716639209
2009.0	0.00164744645799	0.797364085667
2042.0	0.000823723228995	0.798187808896
2049.0	0.000823723228995	0.799011532125
2057.0	0.000823723228995	0.799835255354
2075.0	0.000823723228995	0.800658978583
2109.0	0.000823723228995	0.801482701812
2115.0	0.000823723228995	0.802306425041
2127.0	0.000823723228995	0.80313014827
2129.0	0.000823723228995	0.803953871499
2138.0	0.00247116968699	0.806425041186
2157.0	0.000823723228995	0.807248764415
2160.0	0.000823723228995	0.808072487644
2168.0	0.00329489291598	0.81136738056
2174.0	0.00164744645799	0.813014827018
2182.0	0.00164744645799	0.814662273476
2209.0	0.00164744645799	0.816309719934
2213.0	0.00411861614498	0.820428336079
2224.0	0.000823723228995	0.821252059308
2229.0	0.00411861614498	0.825370675453
2231.0	0.000823723228995	0.826194398682
2237.0	0.000823723228995	0.827018121911
2241.0	0.00247116968699	0.829489291598
2246.0	0.00164744645799	0.831136738056
2249.0	0.000823723228995	0.831960461285
2252.0	0.00329489291598	0.835255354201
2255.0	0.00247116968699	0.837726523888
2257.0	0.000823723228995	0.838550247117
2260.0	0.000823723228995	0.839373970346
2271.0	0.000823723228995	0.840197693575
2274.0	0.00247116968699	0.842668863262
2277.0	0.000823723228995	0.843492586491
2279.0	0.00164744645799	0.845140032949
2282.0	0.00164744645799	0.846787479407
2286.0	0.00247116968699	0.849258649094
2299.0	0.000823723228995	0.850082372323
2303.0	0.000823723228995	0.850906095552
2313.0	0.00164744645799	0.85255354201
2317.0	0.00247116968699	0.855024711697
2319.0	0.000823723228995	0.855848434926
2323.0	0.00164744645799	0.857495881384
2330.0	0.000823723228995	0.858319604613
2363.0	0.000823723228995	0.859143327842
2370.0	0.000823723228995	0.859967051071
2390.0	0.000823723228995	0.8607907743
2396.0	0.00164744645799	0.862438220758
2399.0	0.000823723228995	0.863261943987
2404.0	0.00411861614498	0.867380560132
2406.0	0.00164744645799	0.86902800659
2411.0	0.00247116968699	0.871499176277
2413.0	0.00411861614498	0.875617792422
2415.0	0.00164744645799	0.87726523888
2427.0	0.000823723228995	0.878088962109
2429.0	0.00164744645799	0.879736408567
2433.0	0.00329489291598	0.883031301483
2436.0	0.000823723228995	0.883855024712
2439.0	0.00164744645799	0.88550247117
2446.0	0.00164744645799	0.887149917628
2451.0	0.000823723228995	0.887973640857
2461.0	0.000823723228995	0.888797364086
2464.0	0.000823723228995	0.889621087315
2473.0	0.000823723228995	0.890444810544
2478.0	0.000823723228995	0.891268533773
2480.0	0.000823723228995	0.892092257002
2497.0	0.000823723228995	0.892915980231
2551.0	0.000823723228995	0.89373970346
2557.0	0.000823723228995	0.894563426689
2570.0	0.000823723228995	0.895387149918
2582.0	0.00164744645799	0.897034596376
2650.0	0.000823723228995	0.897858319605
2669.0	0.000823723228995	0.898682042834
2672.0	0.000823723228995	0.899505766063
2687.0	0.000823723228995	0.900329489292
2691.0	0.00164744645799	0.90197693575
2710.0	0.000823723228995	0.902800658979
2717.0	0.000823723228995	0.903624382208
2756.0	0.000823723228995	0.904448105437
2767.0	0.000823723228995	0.905271828666
2828.0	0.000823723228995	0.906095551895
2840.0	0.000823723228995	0.906919275124
2847.0	0.000823723228995	0.907742998353
2891.0	0.000823723228995	0.908566721582
2920.0	0.000823723228995	0.909390444811
2986.0	0.00164744645799	0.911037891269
3028.0	0.000823723228995	0.911861614498
3054.0	0.000823723228995	0.912685337727
3059.0	0.000823723228995	0.913509060956
3138.0	0.00164744645799	0.915156507414
3142.0	0.000823723228995	0.915980230643
3155.0	0.000823723228995	0.916803953871
3160.0	0.000823723228995	0.9176276771
3205.0	0.000823723228995	0.918451400329
3220.0	0.000823723228995	0.919275123558
3321.0	0.000823723228995	0.920098846787
3338.0	0.000823723228995	0.920922570016
3410.0	0.000823723228995	0.921746293245
3516.0	0.000823723228995	0.922570016474
3520.0	0.000823723228995	0.923393739703
3533.0	0.000823723228995	0.924217462932
3539.0	0.000823723228995	0.925041186161
3557.0	0.000823723228995	0.92586490939
3561.0	0.000823723228995	0.926688632619
3563.0	0.000823723228995	0.927512355848
3581.0	0.000823723228995	0.928336079077
3634.0	0.000823723228995	0.929159802306
3652.0	0.000823723228995	0.929983525535
3768.0	0.000823723228995	0.930807248764
3946.0	0.000823723228995	0.931630971993
4004.0	0.000823723228995	0.932454695222
4007.0	0.000823723228995	0.933278418451
4009.0	0.000823723228995	0.93410214168
4036.0	0.000823723228995	0.934925864909
4052.0	0.000823723228995	0.935749588138
4072.0	0.000823723228995	0.936573311367
4148.0	0.000823723228995	0.937397034596
4194.0	0.000823723228995	0.938220757825
4216.0	0.000823723228995	0.939044481054
4244.0	0.000823723228995	0.939868204283
4288.0	0.000823723228995	0.940691927512
4302.0	0.000823723228995	0.941515650741
4313.0	0.000823723228995	0.94233937397
4349.0	0.000823723228995	0.943163097199
4357.0	0.000823723228995	0.943986820428
4374.0	0.000823723228995	0.944810543657
4384.0	0.000823723228995	0.945634266886
4432.0	0.000823723228995	0.946457990115
4442.0	0.000823723228995	0.947281713344
4444.0	0.000823723228995	0.948105436573
4559.0	0.000823723228995	0.948929159802
4564.0	0.000823723228995	0.949752883031
4648.0	0.000823723228995	0.95057660626
4657.0	0.000823723228995	0.951400329489
4685.0	0.000823723228995	0.952224052718
4702.0	0.000823723228995	0.953047775947
4715.0	0.000823723228995	0.953871499176
4720.0	0.000823723228995	0.954695222405
4739.0	0.000823723228995	0.955518945634
4793.0	0.000823723228995	0.956342668863
4871.0	0.000823723228995	0.957166392092
4906.0	0.00164744645799	0.95881383855
4951.0	0.00164744645799	0.960461285008
4987.0	0.000823723228995	0.961285008237
5000.0	0.000823723228995	0.962108731466
5035.0	0.000823723228995	0.962932454695
5062.0	0.000823723228995	0.963756177924
5074.0	0.000823723228995	0.964579901153
5095.0	0.000823723228995	0.965403624382
5121.0	0.000823723228995	0.966227347611
5212.0	0.000823723228995	0.96705107084
5263.0	0.000823723228995	0.967874794069
5266.0	0.000823723228995	0.968698517298
5293.0	0.000823723228995	0.969522240527
5333.0	0.000823723228995	0.970345963756
5414.0	0.000823723228995	0.971169686985
5428.0	0.000823723228995	0.971993410214
5438.0	0.000823723228995	0.972817133443
5536.0	0.000823723228995	0.973640856672
5548.0	0.000823723228995	0.974464579901
5566.0	0.000823723228995	0.97528830313
5590.0	0.000823723228995	0.976112026359
5684.0	0.000823723228995	0.976935749588
5829.0	0.000823723228995	0.977759472817
5876.0	0.000823723228995	0.978583196046
5920.0	0.000823723228995	0.979406919275
5986.0	0.000823723228995	0.980230642504
6112.0	0.000823723228995	0.981054365733
6138.0	0.000823723228995	0.981878088962
6190.0	0.000823723228995	0.982701812191
6249.0	0.000823723228995	0.98352553542
6262.0	0.000823723228995	0.984349258649
6366.0	0.000823723228995	0.985172981878
6370.0	0.000823723228995	0.985996705107
6481.0	0.000823723228995	0.986820428336
6513.0	0.000823723228995	0.987644151565
6741.0	0.000823723228995	0.988467874794
6778.0	0.000823723228995	0.989291598023
6996.0	0.000823723228995	0.990115321252
7038.0	0.000823723228995	0.990939044481
7062.0	0.000823723228995	0.99176276771
7104.0	0.000823723228995	0.992586490939
7159.0	0.000823723228995	0.993410214168
7593.0	0.000823723228995	0.994233937397
8104.0	0.000823723228995	0.995057660626
8277.0	0.000823723228995	0.995881383855
8563.0	0.000823723228995	0.996705107084
8709.0	0.000823723228995	0.997528830313
8778.0	0.000823723228995	0.998352553542
9921.0	0.000823723228995	0.999176276771
10809.0	0.000823723228995	1.0
11186.0	0.000823723228995	1.0
