#
# Generated On: 2012-02-05T18:08:47.235066
#           By: cwa.analyze.statistics
#      Version: 11.11.23
#       Author: Thomas A. de Ruiter <thomas@de-ruiter.cx>
#
#  Commandline: /home/af10028/bin/cwa analyze
#     Work Dir: /scratch/af10028/var/thesis-project/result/analyses/workload-06h-04944l-4s-default
#

Value	PDF	CDF
2.0	0.102186311787	0.102661596958
4.0	0.00760456273764	0.110266159696
6.0	0.000950570342205	0.111216730038
8.0	0.00332699619772	0.114543726236
10.0	0.000950570342205	0.115494296578
16.0	0.000950570342205	0.11644486692
20.0	0.000475285171103	0.116920152091
24.0	0.00190114068441	0.118821292776
26.0	0.000475285171103	0.119296577947
29.0	0.000475285171103	0.119771863118
34.0	0.000950570342205	0.12072243346
40.0	0.000475285171103	0.121197718631
49.0	0.000950570342205	0.122148288973
56.0	0.000475285171103	0.122623574144
60.0	0.000475285171103	0.123098859316
83.0	0.000475285171103	0.123574144487
96.0	0.000475285171103	0.124049429658
150.0	0.000475285171103	0.124524714829
210.0	0.000475285171103	0.125
219.0	0.000475285171103	0.125475285171
227.0	0.000475285171103	0.125950570342
251.0	0.000475285171103	0.126425855513
255.0	0.000475285171103	0.126901140684
285.0	0.000475285171103	0.127376425856
317.0	0.000475285171103	0.127851711027
476.0	0.000475285171103	0.128326996198
527.0	0.000475285171103	0.128802281369
578.0	0.000475285171103	0.12927756654
588.0	0.000475285171103	0.129752851711
600.0	0.000475285171103	0.130228136882
612.0	0.000475285171103	0.130703422053
630.0	0.000950570342205	0.131653992395
647.0	0.000475285171103	0.132129277567
653.0	0.000475285171103	0.132604562738
659.0	0.000475285171103	0.133079847909
695.0	0.000475285171103	0.13355513308
713.0	0.000475285171103	0.134030418251
737.0	0.000475285171103	0.134505703422
818.0	0.000475285171103	0.134980988593
838.0	0.000475285171103	0.135456273764
881.0	0.000475285171103	0.135931558935
899.0	0.000475285171103	0.136406844106
938.0	0.000475285171103	0.136882129278
950.0	0.000475285171103	0.137357414449
1010.0	0.000475285171103	0.13783269962
1040.0	0.000475285171103	0.138307984791
1048.0	0.000475285171103	0.138783269962
1058.0	0.000475285171103	0.139258555133
1067.0	0.000475285171103	0.139733840304
1088.0	0.000475285171103	0.140209125475
1124.0	0.000475285171103	0.140684410646
1196.0	0.000475285171103	0.141159695817
1200.0	0.000475285171103	0.141634980989
1205.0	0.000475285171103	0.14211026616
1217.0	0.000475285171103	0.142585551331
1232.0	0.000475285171103	0.143060836502
1263.0	0.000475285171103	0.143536121673
1317.0	0.000475285171103	0.144011406844
1324.0	0.000475285171103	0.144486692015
1371.0	0.000475285171103	0.144961977186
1393.0	0.000475285171103	0.145437262357
1400.0	0.000475285171103	0.145912547529
1481.0	0.000475285171103	0.1463878327
1527.0	0.000475285171103	0.146863117871
1559.0	0.000475285171103	0.147338403042
1611.0	0.000475285171103	0.147813688213
1703.0	0.000475285171103	0.148288973384
1724.0	0.000475285171103	0.148764258555
1749.0	0.000475285171103	0.149239543726
1758.0	0.000475285171103	0.149714828897
1766.0	0.000475285171103	0.150190114068
1782.0	0.000475285171103	0.15066539924
1791.0	0.000475285171103	0.151140684411
1847.0	0.000475285171103	0.151615969582
1891.0	0.000475285171103	0.152091254753
1893.0	0.000475285171103	0.152566539924
1927.0	0.000475285171103	0.153041825095
1931.0	0.000475285171103	0.153517110266
2004.0	0.000475285171103	0.153992395437
2026.0	0.000475285171103	0.154467680608
2060.0	0.000475285171103	0.154942965779
2075.0	0.000950570342205	0.155893536122
2106.0	0.000475285171103	0.156368821293
2153.0	0.000950570342205	0.157319391635
2223.0	0.000475285171103	0.157794676806
2225.0	0.000475285171103	0.158269961977
2284.0	0.00142585551331	0.15969581749
2286.0	0.000475285171103	0.160171102662
2291.0	0.000475285171103	0.160646387833
2338.0	0.000475285171103	0.161121673004
2345.0	0.000950570342205	0.162072243346
2366.0	0.000475285171103	0.162547528517
2374.0	0.000475285171103	0.163022813688
2410.0	0.000475285171103	0.163498098859
2420.0	0.000475285171103	0.16397338403
2436.0	0.000950570342205	0.164923954373
2447.0	0.00142585551331	0.166349809886
2480.0	0.000475285171103	0.166825095057
2519.0	0.000475285171103	0.167300380228
2522.0	0.000475285171103	0.167775665399
2524.0	0.000475285171103	0.16825095057
2531.0	0.000475285171103	0.168726235741
2533.0	0.000475285171103	0.169201520913
2579.0	0.000475285171103	0.169676806084
2582.0	0.000475285171103	0.170152091255
2603.0	0.000475285171103	0.170627376426
2624.0	0.000475285171103	0.171102661597
2627.0	0.000475285171103	0.171577946768
2639.0	0.000950570342205	0.17252851711
2657.0	0.000475285171103	0.173003802281
2673.0	0.000475285171103	0.173479087452
2675.0	0.000475285171103	0.173954372624
2677.0	0.000475285171103	0.174429657795
2681.0	0.000475285171103	0.174904942966
2696.0	0.000475285171103	0.175380228137
2702.0	0.000475285171103	0.175855513308
2732.0	0.000950570342205	0.17680608365
2750.0	0.000475285171103	0.177281368821
2785.0	0.000475285171103	0.177756653992
2801.0	0.000475285171103	0.178231939163
2876.0	0.000475285171103	0.178707224335
2983.0	0.000475285171103	0.179182509506
3071.0	0.000475285171103	0.179657794677
3074.0	0.000475285171103	0.180133079848
3086.0	0.000475285171103	0.180608365019
3146.0	0.000475285171103	0.18108365019
3179.0	0.000475285171103	0.181558935361
3202.0	0.000475285171103	0.182034220532
3214.0	0.00190114068441	0.183935361217
3226.0	0.000475285171103	0.184410646388
3240.0	0.000475285171103	0.184885931559
3264.0	0.000475285171103	0.18536121673
3268.0	0.000475285171103	0.185836501901
3283.0	0.000475285171103	0.186311787072
3285.0	0.000475285171103	0.186787072243
3289.0	0.00142585551331	0.188212927757
3291.0	0.000475285171103	0.188688212928
3317.0	0.000475285171103	0.189163498099
3325.0	0.000950570342205	0.190114068441
3328.0	0.00142585551331	0.191539923954
3330.0	0.00190114068441	0.193441064639
3341.0	0.000475285171103	0.19391634981
3349.0	0.000475285171103	0.194391634981
3356.0	0.000475285171103	0.194866920152
3358.0	0.000475285171103	0.195342205323
3360.0	0.000475285171103	0.195817490494
3368.0	0.000475285171103	0.196292775665
3371.0	0.000950570342205	0.197243346008
3373.0	0.000475285171103	0.197718631179
3378.0	0.000475285171103	0.19819391635
3380.0	0.000475285171103	0.198669201521
3382.0	0.00142585551331	0.200095057034
3384.0	0.00190114068441	0.201996197719
3387.0	0.000950570342205	0.202946768061
3390.0	0.000475285171103	0.203422053232
3393.0	0.000475285171103	0.203897338403
3395.0	0.000475285171103	0.204372623574
3400.0	0.000950570342205	0.205323193916
3404.0	0.000950570342205	0.206273764259
3417.0	0.000950570342205	0.207224334601
3421.0	0.00142585551331	0.208650190114
3425.0	0.000950570342205	0.209600760456
3431.0	0.000950570342205	0.210551330798
3435.0	0.000475285171103	0.21102661597
3437.0	0.000950570342205	0.211977186312
3440.0	0.00190114068441	0.213878326996
3442.0	0.00285171102662	0.216730038023
3450.0	0.000475285171103	0.217205323194
3453.0	0.000475285171103	0.217680608365
3455.0	0.000950570342205	0.218631178707
3458.0	0.000475285171103	0.219106463878
3465.0	0.00190114068441	0.221007604563
3467.0	0.00190114068441	0.222908745247
3469.0	0.000950570342205	0.223859315589
3471.0	0.00142585551331	0.225285171103
3476.0	0.000475285171103	0.225760456274
3483.0	0.000475285171103	0.226235741445
3493.0	0.000950570342205	0.227186311787
3496.0	0.000950570342205	0.228136882129
3502.0	0.00237642585551	0.230513307985
3504.0	0.000475285171103	0.230988593156
3506.0	0.000475285171103	0.231463878327
3510.0	0.000950570342205	0.232414448669
3513.0	0.000475285171103	0.23288973384
3520.0	0.000475285171103	0.233365019011
3522.0	0.00142585551331	0.234790874525
3530.0	0.00142585551331	0.236216730038
3532.0	0.000950570342205	0.23716730038
3534.0	0.000475285171103	0.237642585551
3536.0	0.000475285171103	0.238117870722
3539.0	0.000950570342205	0.239068441065
3557.0	0.000475285171103	0.239543726236
3561.0	0.000950570342205	0.240494296578
3564.0	0.000475285171103	0.240969581749
3567.0	0.000475285171103	0.24144486692
3576.0	0.000475285171103	0.241920152091
3582.0	0.000475285171103	0.242395437262
3585.0	0.00142585551331	0.243821292776
3587.0	0.000475285171103	0.244296577947
3589.0	0.000475285171103	0.244771863118
3591.0	0.000950570342205	0.24572243346
3593.0	0.00142585551331	0.247148288973
3596.0	0.000475285171103	0.247623574144
3600.0	0.000475285171103	0.248098859316
3603.0	0.000475285171103	0.248574144487
3607.0	0.000950570342205	0.249524714829
3610.0	0.000475285171103	0.25
3613.0	0.000475285171103	0.250475285171
3616.0	0.000475285171103	0.250950570342
3625.0	0.000475285171103	0.251425855513
3627.0	0.000950570342205	0.252376425856
3630.0	0.000475285171103	0.252851711027
3658.0	0.000475285171103	0.253326996198
3661.0	0.000475285171103	0.253802281369
3669.0	0.00142585551331	0.255228136882
3675.0	0.00142585551331	0.256653992395
3677.0	0.00190114068441	0.25855513308
3680.0	0.000475285171103	0.259030418251
3683.0	0.00190114068441	0.260931558935
3685.0	0.000475285171103	0.261406844106
3687.0	0.000950570342205	0.262357414449
3692.0	0.000950570342205	0.263307984791
3695.0	0.000475285171103	0.263783269962
3699.0	0.000475285171103	0.264258555133
3701.0	0.00237642585551	0.266634980989
3703.0	0.00237642585551	0.269011406844
3705.0	0.00190114068441	0.270912547529
3707.0	0.000475285171103	0.2713878327
3710.0	0.00142585551331	0.272813688213
3713.0	0.000475285171103	0.273288973384
3715.0	0.00142585551331	0.274714828897
3717.0	0.00142585551331	0.276140684411
3720.0	0.00142585551331	0.277566539924
3723.0	0.00190114068441	0.279467680608
3725.0	0.00285171102662	0.282319391635
3728.0	0.000475285171103	0.282794676806
3730.0	0.000950570342205	0.283745247148
3737.0	0.00190114068441	0.285646387833
3739.0	0.00190114068441	0.287547528517
3741.0	0.00190114068441	0.289448669202
3743.0	0.000475285171103	0.289923954373
3745.0	0.00190114068441	0.291825095057
3747.0	0.000950570342205	0.292775665399
3749.0	0.00190114068441	0.294676806084
3751.0	0.00237642585551	0.297053231939
3754.0	0.00380228136882	0.300855513308
3757.0	0.000950570342205	0.30180608365
3759.0	0.00142585551331	0.303231939163
3761.0	0.000950570342205	0.304182509506
3767.0	0.00190114068441	0.30608365019
3769.0	0.000475285171103	0.306558935361
3775.0	0.000475285171103	0.307034220532
3777.0	0.00190114068441	0.308935361217
3779.0	0.00142585551331	0.31036121673
3781.0	0.000950570342205	0.311311787072
3791.0	0.000950570342205	0.312262357414
3794.0	0.00142585551331	0.313688212928
3797.0	0.00237642585551	0.316064638783
3799.0	0.000950570342205	0.317015209125
3801.0	0.00142585551331	0.318441064639
3804.0	0.00190114068441	0.320342205323
3806.0	0.000475285171103	0.320817490494
3809.0	0.00190114068441	0.322718631179
3812.0	0.00142585551331	0.324144486692
3814.0	0.000475285171103	0.324619771863
3816.0	0.000950570342205	0.325570342205
3818.0	0.000950570342205	0.326520912548
3822.0	0.000475285171103	0.326996197719
3824.0	0.00285171102662	0.329847908745
3826.0	0.00142585551331	0.331273764259
3828.0	0.00142585551331	0.332699619772
3830.0	0.00142585551331	0.334125475285
3832.0	0.00142585551331	0.335551330798
3834.0	0.00190114068441	0.337452471483
3836.0	0.000950570342205	0.338403041825
3838.0	0.000475285171103	0.338878326996
3840.0	0.000475285171103	0.339353612167
3843.0	0.000950570342205	0.34030418251
3845.0	0.000475285171103	0.340779467681
3847.0	0.000950570342205	0.341730038023
3852.0	0.000950570342205	0.342680608365
3854.0	0.00142585551331	0.344106463878
3856.0	0.00190114068441	0.346007604563
3858.0	0.00332699619772	0.34933460076
3860.0	0.000950570342205	0.350285171103
3865.0	0.000950570342205	0.351235741445
3867.0	0.00285171102662	0.354087452471
3869.0	0.000475285171103	0.354562737643
3871.0	0.000950570342205	0.355513307985
3873.0	0.00142585551331	0.356939163498
3875.0	0.000950570342205	0.35788973384
3878.0	0.000475285171103	0.358365019011
3880.0	0.000475285171103	0.358840304183
3883.0	0.00237642585551	0.361216730038
3885.0	0.00380228136882	0.365019011407
3887.0	0.000475285171103	0.365494296578
3892.0	0.00190114068441	0.367395437262
3895.0	0.00285171102662	0.370247148289
3897.0	0.00285171102662	0.373098859316
3899.0	0.00142585551331	0.374524714829
3901.0	0.00142585551331	0.375950570342
3903.0	0.00190114068441	0.377851711027
3906.0	0.00190114068441	0.379752851711
3908.0	0.00237642585551	0.382129277567
3910.0	0.00142585551331	0.38355513308
3913.0	0.00190114068441	0.385456273764
3915.0	0.000950570342205	0.386406844106
3919.0	0.00190114068441	0.388307984791
3921.0	0.000475285171103	0.388783269962
3923.0	0.00142585551331	0.390209125475
3925.0	0.00142585551331	0.391634980989
3927.0	0.00142585551331	0.393060836502
3929.0	0.000475285171103	0.393536121673
3933.0	0.00142585551331	0.394961977186
3937.0	0.000475285171103	0.395437262357
3940.0	0.00190114068441	0.397338403042
3945.0	0.00190114068441	0.399239543726
3947.0	0.000950570342205	0.400190114068
3950.0	0.00142585551331	0.401615969582
3952.0	0.00142585551331	0.403041825095
3955.0	0.00190114068441	0.404942965779
3957.0	0.00190114068441	0.406844106464
3960.0	0.00332699619772	0.410171102662
3962.0	0.00142585551331	0.411596958175
3964.0	0.000950570342205	0.412547528517
3966.0	0.00190114068441	0.414448669202
3968.0	0.000950570342205	0.415399239544
3972.0	0.000950570342205	0.416349809886
3975.0	0.00332699619772	0.419676806084
3977.0	0.00142585551331	0.421102661597
3980.0	0.000475285171103	0.421577946768
3982.0	0.000950570342205	0.42252851711
3985.0	0.000950570342205	0.423479087452
3987.0	0.00285171102662	0.426330798479
3989.0	0.00190114068441	0.428231939163
3991.0	0.000950570342205	0.429182509506
3995.0	0.000475285171103	0.429657794677
3997.0	0.00190114068441	0.431558935361
4000.0	0.00285171102662	0.434410646388
4006.0	0.000950570342205	0.43536121673
4008.0	0.00142585551331	0.436787072243
4011.0	0.00142585551331	0.438212927757
4013.0	0.00285171102662	0.441064638783
4015.0	0.000950570342205	0.442015209125
4017.0	0.00237642585551	0.444391634981
4019.0	0.00142585551331	0.445817490494
4021.0	0.00332699619772	0.449144486692
4023.0	0.00285171102662	0.451996197719
4025.0	0.00237642585551	0.454372623574
4027.0	0.00380228136882	0.458174904943
4029.0	0.00617870722433	0.464353612167
4031.0	0.00237642585551	0.466730038023
4033.0	0.00475285171103	0.471482889734
4035.0	0.00380228136882	0.475285171103
4037.0	0.00427756653992	0.479562737643
4039.0	0.000950570342205	0.480513307985
4041.0	0.000950570342205	0.481463878327
4043.0	0.00237642585551	0.483840304183
4045.0	0.000950570342205	0.484790874525
4047.0	0.00142585551331	0.486216730038
4049.0	0.00190114068441	0.488117870722
4051.0	0.00380228136882	0.491920152091
4055.0	0.00142585551331	0.493346007605
4057.0	0.00190114068441	0.495247148289
4059.0	0.00522813688213	0.500475285171
4061.0	0.00190114068441	0.502376425856
4063.0	0.00190114068441	0.50427756654
4065.0	0.00285171102662	0.507129277567
4067.0	0.00142585551331	0.50855513308
4069.0	0.00332699619772	0.511882129278
4071.0	0.00190114068441	0.513783269962
4073.0	0.000950570342205	0.514733840304
4075.0	0.000475285171103	0.515209125475
4077.0	0.000475285171103	0.515684410646
4079.0	0.00142585551331	0.51711026616
4082.0	0.00142585551331	0.518536121673
4085.0	0.00190114068441	0.520437262357
4087.0	0.00237642585551	0.522813688213
4092.0	0.00142585551331	0.524239543726
4094.0	0.000475285171103	0.524714828897
4096.0	0.000950570342205	0.52566539924
4100.0	0.00142585551331	0.527091254753
4103.0	0.00237642585551	0.529467680608
4105.0	0.00142585551331	0.530893536122
4112.0	0.000950570342205	0.531844106464
4115.0	0.00142585551331	0.533269961977
4117.0	0.000950570342205	0.534220532319
4120.0	0.00142585551331	0.535646387833
4122.0	0.000475285171103	0.536121673004
4124.0	0.00190114068441	0.538022813688
4131.0	0.000950570342205	0.53897338403
4134.0	0.000950570342205	0.539923954373
4136.0	0.000475285171103	0.540399239544
4140.0	0.000950570342205	0.541349809886
4142.0	0.00285171102662	0.544201520913
4145.0	0.00190114068441	0.546102661597
4147.0	0.00142585551331	0.54752851711
4150.0	0.000475285171103	0.548003802281
4153.0	0.00142585551331	0.549429657795
4156.0	0.000475285171103	0.549904942966
4159.0	0.00190114068441	0.55180608365
4162.0	0.000475285171103	0.552281368821
4167.0	0.000475285171103	0.552756653992
4172.0	0.000475285171103	0.553231939163
4174.0	0.00190114068441	0.555133079848
4176.0	0.00142585551331	0.556558935361
4178.0	0.00190114068441	0.558460076046
4184.0	0.000950570342205	0.559410646388
4186.0	0.000950570342205	0.56036121673
4192.0	0.00142585551331	0.561787072243
4194.0	0.000475285171103	0.562262357414
4196.0	0.00142585551331	0.563688212928
4198.0	0.000475285171103	0.564163498099
4201.0	0.00190114068441	0.566064638783
4203.0	0.000475285171103	0.566539923954
4209.0	0.000475285171103	0.567015209125
4211.0	0.00142585551331	0.568441064639
4221.0	0.000475285171103	0.56891634981
4224.0	0.000950570342205	0.569866920152
4228.0	0.000475285171103	0.570342205323
4231.0	0.000950570342205	0.571292775665
4234.0	0.00190114068441	0.57319391635
4236.0	0.000475285171103	0.573669201521
4239.0	0.00237642585551	0.576045627376
4243.0	0.000950570342205	0.576996197719
4246.0	0.00237642585551	0.579372623574
4249.0	0.00237642585551	0.58174904943
4252.0	0.000950570342205	0.582699619772
4254.0	0.000950570342205	0.583650190114
4256.0	0.000475285171103	0.584125475285
4259.0	0.00237642585551	0.586501901141
4261.0	0.00142585551331	0.587927756654
4265.0	0.000950570342205	0.588878326996
4270.0	0.00142585551331	0.59030418251
4272.0	0.00142585551331	0.591730038023
4274.0	0.000475285171103	0.592205323194
4276.0	0.000475285171103	0.592680608365
4282.0	0.000475285171103	0.593155893536
4290.0	0.000950570342205	0.594106463878
4292.0	0.000950570342205	0.595057034221
4300.0	0.000475285171103	0.595532319392
4303.0	0.000950570342205	0.596482889734
4305.0	0.000475285171103	0.596958174905
4307.0	0.000475285171103	0.597433460076
4311.0	0.000950570342205	0.598384030418
4324.0	0.000475285171103	0.598859315589
4329.0	0.000950570342205	0.599809885932
4331.0	0.00142585551331	0.601235741445
4336.0	0.000475285171103	0.601711026616
4348.0	0.000475285171103	0.602186311787
4350.0	0.000475285171103	0.602661596958
4355.0	0.000475285171103	0.603136882129
4364.0	0.000475285171103	0.6036121673
4369.0	0.000475285171103	0.604087452471
4380.0	0.000475285171103	0.604562737643
4390.0	0.000475285171103	0.605038022814
4392.0	0.00142585551331	0.606463878327
4396.0	0.000950570342205	0.607414448669
4398.0	0.00142585551331	0.608840304183
4407.0	0.000950570342205	0.609790874525
4410.0	0.00142585551331	0.611216730038
4414.0	0.000950570342205	0.61216730038
4416.0	0.000950570342205	0.613117870722
4418.0	0.00142585551331	0.614543726236
4421.0	0.000475285171103	0.615019011407
4424.0	0.00190114068441	0.616920152091
4429.0	0.000475285171103	0.617395437262
4431.0	0.00142585551331	0.618821292776
4434.0	0.000475285171103	0.619296577947
4439.0	0.000950570342205	0.620247148289
4441.0	0.000950570342205	0.621197718631
4443.0	0.00190114068441	0.623098859316
4446.0	0.00190114068441	0.625
4448.0	0.000475285171103	0.625475285171
4451.0	0.000475285171103	0.625950570342
4463.0	0.000950570342205	0.626901140684
4465.0	0.000475285171103	0.627376425856
4467.0	0.00142585551331	0.628802281369
4469.0	0.00142585551331	0.630228136882
4473.0	0.000475285171103	0.630703422053
4477.0	0.000950570342205	0.631653992395
4481.0	0.000475285171103	0.632129277567
4485.0	0.000950570342205	0.633079847909
4491.0	0.000475285171103	0.63355513308
4494.0	0.000475285171103	0.634030418251
4496.0	0.000950570342205	0.634980988593
4500.0	0.000475285171103	0.635456273764
4503.0	0.000950570342205	0.636406844106
4507.0	0.000475285171103	0.636882129278
4512.0	0.000475285171103	0.637357414449
4520.0	0.000950570342205	0.638307984791
4525.0	0.000475285171103	0.638783269962
4531.0	0.000950570342205	0.639733840304
4536.0	0.000475285171103	0.640209125475
4539.0	0.000475285171103	0.640684410646
4545.0	0.00142585551331	0.64211026616
4551.0	0.000950570342205	0.643060836502
4558.0	0.00190114068441	0.644961977186
4563.0	0.000475285171103	0.645437262357
4565.0	0.00332699619772	0.648764258555
4568.0	0.00332699619772	0.652091254753
4570.0	0.00380228136882	0.655893536122
4572.0	0.00142585551331	0.657319391635
4574.0	0.00142585551331	0.658745247148
4576.0	0.00142585551331	0.660171102662
4578.0	0.00190114068441	0.662072243346
4581.0	0.00142585551331	0.663498098859
4583.0	0.000475285171103	0.66397338403
4586.0	0.00142585551331	0.665399239544
4589.0	0.000950570342205	0.666349809886
4593.0	0.000475285171103	0.666825095057
4595.0	0.00142585551331	0.66825095057
4597.0	0.000950570342205	0.669201520913
4602.0	0.000475285171103	0.669676806084
4605.0	0.000950570342205	0.670627376426
4609.0	0.000475285171103	0.671102661597
4612.0	0.00190114068441	0.673003802281
4614.0	0.00190114068441	0.674904942966
4618.0	0.000475285171103	0.675380228137
4620.0	0.00142585551331	0.67680608365
4624.0	0.000950570342205	0.677756653992
4627.0	0.000475285171103	0.678231939163
4630.0	0.000475285171103	0.678707224335
4633.0	0.000475285171103	0.679182509506
4635.0	0.00142585551331	0.680608365019
4639.0	0.00142585551331	0.682034220532
4643.0	0.00190114068441	0.683935361217
4645.0	0.000950570342205	0.684885931559
4647.0	0.000950570342205	0.685836501901
4650.0	0.00142585551331	0.687262357414
4652.0	0.000950570342205	0.688212927757
4654.0	0.00190114068441	0.690114068441
4656.0	0.00142585551331	0.691539923954
4658.0	0.00237642585551	0.69391634981
4660.0	0.00237642585551	0.696292775665
4663.0	0.000475285171103	0.696768060837
4665.0	0.000475285171103	0.697243346008
4667.0	0.000950570342205	0.69819391635
4669.0	0.000950570342205	0.699144486692
4671.0	0.000475285171103	0.699619771863
4675.0	0.000475285171103	0.700095057034
4678.0	0.000950570342205	0.701045627376
4682.0	0.00142585551331	0.70247148289
4684.0	0.000475285171103	0.702946768061
4687.0	0.00142585551331	0.704372623574
4690.0	0.00190114068441	0.706273764259
4692.0	0.000475285171103	0.70674904943
4695.0	0.00142585551331	0.708174904943
4697.0	0.000950570342205	0.709125475285
4703.0	0.000950570342205	0.710076045627
4707.0	0.00142585551331	0.711501901141
4712.0	0.00190114068441	0.713403041825
4714.0	0.000950570342205	0.714353612167
4717.0	0.000950570342205	0.71530418251
4719.0	0.00237642585551	0.717680608365
4724.0	0.00142585551331	0.719106463878
4726.0	0.00142585551331	0.720532319392
4728.0	0.00142585551331	0.721958174905
4734.0	0.000950570342205	0.722908745247
4736.0	0.000475285171103	0.723384030418
4738.0	0.000475285171103	0.723859315589
4741.0	0.00380228136882	0.727661596958
4743.0	0.00142585551331	0.729087452471
4755.0	0.00142585551331	0.730513307985
4757.0	0.000950570342205	0.731463878327
4767.0	0.000475285171103	0.731939163498
4769.0	0.00142585551331	0.733365019011
4774.0	0.000950570342205	0.734315589354
4783.0	0.000475285171103	0.734790874525
4787.0	0.00142585551331	0.736216730038
4790.0	0.000950570342205	0.73716730038
4795.0	0.000475285171103	0.737642585551
4798.0	0.00285171102662	0.740494296578
4808.0	0.000475285171103	0.740969581749
4810.0	0.000475285171103	0.74144486692
4813.0	0.000475285171103	0.741920152091
4815.0	0.00142585551331	0.743346007605
4818.0	0.000950570342205	0.744296577947
4831.0	0.000950570342205	0.745247148289
4833.0	0.000475285171103	0.74572243346
4836.0	0.000950570342205	0.746673003802
4838.0	0.000475285171103	0.747148288973
4843.0	0.00142585551331	0.748574144487
4849.0	0.000950570342205	0.749524714829
4851.0	0.000475285171103	0.75
4859.0	0.000475285171103	0.750475285171
4863.0	0.000475285171103	0.750950570342
4866.0	0.000475285171103	0.751425855513
4876.0	0.000475285171103	0.751901140684
4878.0	0.000475285171103	0.752376425856
4883.0	0.000950570342205	0.753326996198
4888.0	0.000950570342205	0.75427756654
4890.0	0.00190114068441	0.756178707224
4898.0	0.000475285171103	0.756653992395
4903.0	0.000475285171103	0.757129277567
4914.0	0.000950570342205	0.758079847909
4920.0	0.000950570342205	0.759030418251
4925.0	0.000950570342205	0.759980988593
4928.0	0.00142585551331	0.761406844106
4931.0	0.00142585551331	0.76283269962
4943.0	0.000950570342205	0.763783269962
4951.0	0.000475285171103	0.764258555133
4953.0	0.000950570342205	0.765209125475
4956.0	0.000475285171103	0.765684410646
4959.0	0.000475285171103	0.766159695817
4963.0	0.000475285171103	0.766634980989
4965.0	0.000475285171103	0.76711026616
4967.0	0.000475285171103	0.767585551331
4975.0	0.000475285171103	0.768060836502
4983.0	0.000950570342205	0.769011406844
4989.0	0.000950570342205	0.769961977186
4994.0	0.000475285171103	0.770437262357
4996.0	0.000475285171103	0.770912547529
4998.0	0.000950570342205	0.771863117871
5001.0	0.00190114068441	0.773764258555
5003.0	0.000950570342205	0.774714828897
5006.0	0.00237642585551	0.777091254753
5008.0	0.000950570342205	0.778041825095
5010.0	0.000950570342205	0.778992395437
5012.0	0.00285171102662	0.781844106464
5016.0	0.00190114068441	0.783745247148
5023.0	0.000950570342205	0.78469581749
5025.0	0.000950570342205	0.785646387833
5028.0	0.000950570342205	0.786596958175
5033.0	0.000475285171103	0.787072243346
5036.0	0.000475285171103	0.787547528517
5040.0	0.000475285171103	0.788022813688
5045.0	0.000475285171103	0.788498098859
5047.0	0.00190114068441	0.790399239544
5050.0	0.00190114068441	0.792300380228
5052.0	0.00142585551331	0.793726235741
5054.0	0.000475285171103	0.794201520913
5062.0	0.00142585551331	0.795627376426
5064.0	0.000950570342205	0.796577946768
5072.0	0.000475285171103	0.797053231939
5075.0	0.00237642585551	0.799429657795
5077.0	0.000475285171103	0.799904942966
5080.0	0.000475285171103	0.800380228137
5085.0	0.000950570342205	0.801330798479
5090.0	0.00190114068441	0.803231939163
5092.0	0.000950570342205	0.804182509506
5094.0	0.00190114068441	0.80608365019
5097.0	0.00190114068441	0.807984790875
5101.0	0.000950570342205	0.808935361217
5108.0	0.000475285171103	0.809410646388
5117.0	0.000950570342205	0.81036121673
5120.0	0.000950570342205	0.811311787072
5123.0	0.00237642585551	0.813688212928
5130.0	0.00190114068441	0.815589353612
5133.0	0.000475285171103	0.816064638783
5135.0	0.000950570342205	0.817015209125
5138.0	0.000475285171103	0.817490494297
5140.0	0.000475285171103	0.817965779468
5150.0	0.000475285171103	0.818441064639
5157.0	0.000475285171103	0.81891634981
5159.0	0.000950570342205	0.819866920152
5161.0	0.000950570342205	0.820817490494
5163.0	0.00142585551331	0.822243346008
5165.0	0.000475285171103	0.822718631179
5168.0	0.000475285171103	0.82319391635
5170.0	0.00142585551331	0.824619771863
5173.0	0.000475285171103	0.825095057034
5175.0	0.000950570342205	0.826045627376
5177.0	0.000950570342205	0.826996197719
5180.0	0.00142585551331	0.828422053232
5184.0	0.00190114068441	0.830323193916
5186.0	0.00237642585551	0.832699619772
5194.0	0.000475285171103	0.833174904943
5197.0	0.000950570342205	0.834125475285
5202.0	0.000475285171103	0.834600760456
5204.0	0.000475285171103	0.835076045627
5206.0	0.000475285171103	0.835551330798
5208.0	0.000475285171103	0.83602661597
5212.0	0.000475285171103	0.836501901141
5216.0	0.000475285171103	0.836977186312
5221.0	0.000950570342205	0.837927756654
5226.0	0.000950570342205	0.838878326996
5229.0	0.00142585551331	0.84030418251
5232.0	0.000475285171103	0.840779467681
5238.0	0.000950570342205	0.841730038023
5241.0	0.000950570342205	0.842680608365
5243.0	0.00142585551331	0.844106463878
5249.0	0.000950570342205	0.845057034221
5251.0	0.000475285171103	0.845532319392
5253.0	0.000475285171103	0.846007604563
5260.0	0.000950570342205	0.846958174905
5270.0	0.000475285171103	0.847433460076
5272.0	0.000950570342205	0.848384030418
5274.0	0.000950570342205	0.84933460076
5276.0	0.000475285171103	0.849809885932
5279.0	0.00142585551331	0.851235741445
5282.0	0.000475285171103	0.851711026616
5285.0	0.00142585551331	0.853136882129
5288.0	0.000475285171103	0.8536121673
5290.0	0.000475285171103	0.854087452471
5294.0	0.000475285171103	0.854562737643
5305.0	0.000475285171103	0.855038022814
5308.0	0.000950570342205	0.855988593156
5310.0	0.000950570342205	0.856939163498
5312.0	0.000475285171103	0.857414448669
5321.0	0.000475285171103	0.85788973384
5328.0	0.000950570342205	0.858840304183
5331.0	0.000475285171103	0.859315589354
5338.0	0.000475285171103	0.859790874525
5341.0	0.000950570342205	0.860741444867
5343.0	0.000950570342205	0.861692015209
5346.0	0.000475285171103	0.86216730038
5359.0	0.000950570342205	0.863117870722
5361.0	0.000475285171103	0.863593155894
5372.0	0.000475285171103	0.864068441065
5374.0	0.000475285171103	0.864543726236
5378.0	0.000475285171103	0.865019011407
5380.0	0.000475285171103	0.865494296578
5386.0	0.000950570342205	0.86644486692
5441.0	0.000950570342205	0.867395437262
5444.0	0.000475285171103	0.867870722433
5447.0	0.000475285171103	0.868346007605
5454.0	0.000475285171103	0.868821292776
5458.0	0.000475285171103	0.869296577947
5462.0	0.000475285171103	0.869771863118
5473.0	0.000475285171103	0.870247148289
5476.0	0.000475285171103	0.87072243346
5480.0	0.000475285171103	0.871197718631
5487.0	0.000475285171103	0.871673003802
5498.0	0.000950570342205	0.872623574144
5504.0	0.000475285171103	0.873098859316
5508.0	0.000475285171103	0.873574144487
5510.0	0.000475285171103	0.874049429658
5515.0	0.000475285171103	0.874524714829
5533.0	0.000950570342205	0.875475285171
5538.0	0.000950570342205	0.876425855513
5550.0	0.000475285171103	0.876901140684
5564.0	0.000475285171103	0.877376425856
5566.0	0.000950570342205	0.878326996198
5573.0	0.000475285171103	0.878802281369
5580.0	0.000950570342205	0.879752851711
5594.0	0.000475285171103	0.880228136882
5598.0	0.000475285171103	0.880703422053
5600.0	0.000475285171103	0.881178707224
5605.0	0.000475285171103	0.881653992395
5620.0	0.000475285171103	0.882129277567
5631.0	0.000950570342205	0.883079847909
5633.0	0.000475285171103	0.88355513308
5660.0	0.000475285171103	0.884030418251
5663.0	0.000475285171103	0.884505703422
5668.0	0.000950570342205	0.885456273764
5671.0	0.000475285171103	0.885931558935
5675.0	0.000950570342205	0.886882129278
5683.0	0.000475285171103	0.887357414449
5700.0	0.000475285171103	0.88783269962
5744.0	0.000950570342205	0.888783269962
5749.0	0.000475285171103	0.889258555133
5756.0	0.000475285171103	0.889733840304
5760.0	0.000475285171103	0.890209125475
5790.0	0.000475285171103	0.890684410646
5802.0	0.000950570342205	0.891634980989
5807.0	0.000475285171103	0.89211026616
5809.0	0.000475285171103	0.892585551331
5825.0	0.000475285171103	0.893060836502
5827.0	0.000475285171103	0.893536121673
5836.0	0.000950570342205	0.894486692015
5861.0	0.000475285171103	0.894961977186
5864.0	0.000475285171103	0.895437262357
5910.0	0.000475285171103	0.895912547529
5932.0	0.000475285171103	0.8963878327
5938.0	0.000475285171103	0.896863117871
5945.0	0.000475285171103	0.897338403042
5961.0	0.000475285171103	0.897813688213
5964.0	0.000475285171103	0.898288973384
5981.0	0.000475285171103	0.898764258555
5992.0	0.000475285171103	0.899239543726
6005.0	0.000950570342205	0.900190114068
6007.0	0.000475285171103	0.90066539924
6046.0	0.000475285171103	0.901140684411
6057.0	0.000475285171103	0.901615969582
6061.0	0.000475285171103	0.902091254753
6069.0	0.000475285171103	0.902566539924
6073.0	0.000475285171103	0.903041825095
6085.0	0.000475285171103	0.903517110266
6091.0	0.000475285171103	0.903992395437
6109.0	0.000475285171103	0.904467680608
6130.0	0.00142585551331	0.905893536122
6171.0	0.000950570342205	0.906844106464
6175.0	0.000950570342205	0.907794676806
6179.0	0.000475285171103	0.908269961977
6192.0	0.000475285171103	0.908745247148
6202.0	0.000475285171103	0.909220532319
6213.0	0.000475285171103	0.90969581749
6231.0	0.000475285171103	0.910171102662
6243.0	0.000475285171103	0.910646387833
6270.0	0.000950570342205	0.911596958175
6294.0	0.000475285171103	0.912072243346
6300.0	0.000475285171103	0.912547528517
6314.0	0.000475285171103	0.913022813688
6331.0	0.000475285171103	0.913498098859
6350.0	0.000475285171103	0.91397338403
6354.0	0.000475285171103	0.914448669202
6371.0	0.000475285171103	0.914923954373
6374.0	0.000475285171103	0.915399239544
6391.0	0.000475285171103	0.915874524715
6411.0	0.000475285171103	0.916349809886
6417.0	0.000475285171103	0.916825095057
6434.0	0.000475285171103	0.917300380228
6439.0	0.000950570342205	0.91825095057
6482.0	0.000475285171103	0.918726235741
6485.0	0.000475285171103	0.919201520913
6500.0	0.000475285171103	0.919676806084
6517.0	0.000475285171103	0.920152091255
6525.0	0.000475285171103	0.920627376426
6533.0	0.000475285171103	0.921102661597
6544.0	0.000475285171103	0.921577946768
6558.0	0.000475285171103	0.922053231939
6562.0	0.000475285171103	0.92252851711
6575.0	0.000475285171103	0.923003802281
6581.0	0.000475285171103	0.923479087452
6589.0	0.000475285171103	0.923954372624
6601.0	0.000475285171103	0.924429657795
6634.0	0.000475285171103	0.924904942966
6637.0	0.000475285171103	0.925380228137
6650.0	0.000475285171103	0.925855513308
6656.0	0.000950570342205	0.92680608365
6659.0	0.000475285171103	0.927281368821
6661.0	0.000475285171103	0.927756653992
6670.0	0.000950570342205	0.928707224335
6675.0	0.000475285171103	0.929182509506
6699.0	0.000475285171103	0.929657794677
6713.0	0.000475285171103	0.930133079848
6715.0	0.000475285171103	0.930608365019
6737.0	0.000475285171103	0.93108365019
6780.0	0.000475285171103	0.931558935361
6816.0	0.000475285171103	0.932034220532
6830.0	0.000475285171103	0.932509505703
6834.0	0.000475285171103	0.932984790875
6890.0	0.000475285171103	0.933460076046
6909.0	0.000475285171103	0.933935361217
6918.0	0.000475285171103	0.934410646388
6948.0	0.000475285171103	0.934885931559
6994.0	0.000475285171103	0.93536121673
6997.0	0.000475285171103	0.935836501901
7004.0	0.000475285171103	0.936311787072
7065.0	0.000475285171103	0.936787072243
7077.0	0.000475285171103	0.937262357414
7098.0	0.000475285171103	0.937737642586
7149.0	0.000475285171103	0.938212927757
7154.0	0.000475285171103	0.938688212928
7159.0	0.000475285171103	0.939163498099
7162.0	0.000475285171103	0.93963878327
7175.0	0.000475285171103	0.940114068441
7181.0	0.000475285171103	0.940589353612
7236.0	0.000475285171103	0.941064638783
7257.0	0.000475285171103	0.941539923954
7292.0	0.000475285171103	0.942015209125
7315.0	0.000475285171103	0.942490494297
7321.0	0.000475285171103	0.942965779468
7337.0	0.000475285171103	0.943441064639
7359.0	0.000475285171103	0.94391634981
7363.0	0.000475285171103	0.944391634981
7371.0	0.000475285171103	0.944866920152
7375.0	0.000475285171103	0.945342205323
7387.0	0.000475285171103	0.945817490494
7403.0	0.000475285171103	0.946292775665
7408.0	0.000475285171103	0.946768060837
7426.0	0.000475285171103	0.947243346008
7431.0	0.000475285171103	0.947718631179
7440.0	0.000475285171103	0.94819391635
7446.0	0.000950570342205	0.949144486692
7460.0	0.000475285171103	0.949619771863
7476.0	0.000475285171103	0.950095057034
7484.0	0.000475285171103	0.950570342205
7512.0	0.000475285171103	0.951045627376
7524.0	0.000475285171103	0.951520912548
7578.0	0.000475285171103	0.951996197719
7606.0	0.000475285171103	0.95247148289
7648.0	0.000475285171103	0.952946768061
7666.0	0.000475285171103	0.953422053232
7687.0	0.000475285171103	0.953897338403
7692.0	0.000475285171103	0.954372623574
7714.0	0.000475285171103	0.954847908745
7717.0	0.000475285171103	0.955323193916
7724.0	0.000475285171103	0.955798479087
7732.0	0.000475285171103	0.956273764259
7740.0	0.000475285171103	0.95674904943
7752.0	0.000475285171103	0.957224334601
7792.0	0.000475285171103	0.957699619772
7926.0	0.000475285171103	0.958174904943
7968.0	0.000950570342205	0.959125475285
8001.0	0.000475285171103	0.959600760456
8034.0	0.000475285171103	0.960076045627
8045.0	0.000475285171103	0.960551330798
8100.0	0.000475285171103	0.96102661597
8118.0	0.000475285171103	0.961501901141
8169.0	0.000475285171103	0.961977186312
8185.0	0.000475285171103	0.962452471483
8202.0	0.000475285171103	0.962927756654
8213.0	0.000475285171103	0.963403041825
8223.0	0.000475285171103	0.963878326996
8332.0	0.000475285171103	0.964353612167
8336.0	0.000950570342205	0.96530418251
8371.0	0.000950570342205	0.966254752852
8484.0	0.000475285171103	0.966730038023
8503.0	0.000475285171103	0.967205323194
8512.0	0.000475285171103	0.967680608365
8572.0	0.000475285171103	0.968155893536
8589.0	0.000950570342205	0.969106463878
8612.0	0.000475285171103	0.969581749049
8638.0	0.000475285171103	0.970057034221
8697.0	0.000475285171103	0.970532319392
8728.0	0.000475285171103	0.971007604563
8736.0	0.000475285171103	0.971482889734
8743.0	0.000475285171103	0.971958174905
8746.0	0.000475285171103	0.972433460076
8791.0	0.000475285171103	0.972908745247
9028.0	0.000475285171103	0.973384030418
9055.0	0.000475285171103	0.973859315589
9091.0	0.000475285171103	0.97433460076
9228.0	0.000475285171103	0.974809885932
9243.0	0.000475285171103	0.975285171103
9348.0	0.000475285171103	0.975760456274
9365.0	0.000475285171103	0.976235741445
9402.0	0.000475285171103	0.976711026616
9441.0	0.000475285171103	0.977186311787
9443.0	0.000475285171103	0.977661596958
9453.0	0.000475285171103	0.978136882129
9478.0	0.000475285171103	0.9786121673
9534.0	0.000475285171103	0.979087452471
9542.0	0.000475285171103	0.979562737643
9645.0	0.000475285171103	0.980038022814
9676.0	0.000475285171103	0.980513307985
9775.0	0.000475285171103	0.980988593156
9782.0	0.000475285171103	0.981463878327
9848.0	0.000475285171103	0.981939163498
9851.0	0.000475285171103	0.982414448669
9857.0	0.000475285171103	0.98288973384
9953.0	0.000475285171103	0.983365019011
9978.0	0.000475285171103	0.983840304183
9991.0	0.000475285171103	0.984315589354
9997.0	0.000475285171103	0.984790874525
10065.0	0.000475285171103	0.985266159696
10097.0	0.000475285171103	0.985741444867
10283.0	0.000475285171103	0.986216730038
10383.0	0.000475285171103	0.986692015209
10454.0	0.000475285171103	0.98716730038
10581.0	0.000475285171103	0.987642585551
10608.0	0.000475285171103	0.988117870722
10753.0	0.000475285171103	0.988593155894
10828.0	0.000475285171103	0.989068441065
10832.0	0.000475285171103	0.989543726236
10884.0	0.000475285171103	0.990019011407
11035.0	0.000475285171103	0.990494296578
11228.0	0.000475285171103	0.990969581749
11330.0	0.000475285171103	0.99144486692
11336.0	0.000475285171103	0.991920152091
11366.0	0.000475285171103	0.992395437262
11453.0	0.000475285171103	0.992870722433
11501.0	0.000475285171103	0.993346007605
11510.0	0.000475285171103	0.993821292776
11647.0	0.000475285171103	0.994296577947
11858.0	0.000475285171103	0.994771863118
12108.0	0.000475285171103	0.995247148289
12268.0	0.000475285171103	0.99572243346
12955.0	0.000475285171103	0.996197718631
12992.0	0.000475285171103	0.996673003802
13412.0	0.000475285171103	0.997148288973
13445.0	0.000475285171103	0.997623574144
14291.0	0.000475285171103	0.998098859316
14828.0	0.000475285171103	0.998574144487
14929.0	0.000475285171103	0.999049429658
15198.0	0.000475285171103	0.999524714829
17382.0	0.000475285171103	1.0
18227.0	0.000475285171103	1.0
