#
# Generated On: 2012-02-05T18:10:15.507491
#           By: cwa.analyze.statistics
#      Version: 11.11.23
#       Author: Thomas A. de Ruiter <thomas@de-ruiter.cx>
#
#  Commandline: /home/af10028/bin/cwa analyze
#     Work Dir: /scratch/af10028/var/thesis-project/result/analyses/workload-06h-04944l-4s-default
#

Time	Sum	Avg	StdDev	CoV	0.000000-Pct	0.010000-Pct	0.100000-Pct	1.000000-Pct	2.000000-Pct	5.000000-Pct	25.000000-Pct	50.000000-Pct	75.000000-Pct	95.000000-Pct	98.000000-Pct	99.000000-Pct	99.900000-Pct	99.990000-Pct	100.000000-Pct
1327074000	9607321.0	3948.75503494	2191.77910548	0.555055729232	5.0	5.0	5.0	111.0	209.0	518.0	2219.0	4237.0	5254.0	7332.0	10061.0	10061.0	10061.0	10061.0	10061.0
1327074600	24328550.0	5974.59479371	4217.46828003	0.705900303811	5.0	5.0	5.0	218.0	386.0	647.0	3065.0	6492.0	6663.0	18221.0	18221.0	18222.0	18222.0	18223.0	18223.0
1327075200	1848610.0	3603.52826511	2968.97221729	0.823907015254	5.0	5.0	5.0	6.0	27.0	104.0	2198.0	3220.0	4348.0	6606.0	16788.0	16791.0	16793.0	16793.0	16793.0
1327075800	1932636.0	2651.0781893	2339.65223434	0.882528566598	5.0	5.0	5.0	5.0	5.0	5.0	530.0	2177.0	5659.0	6037.0	6037.0	6037.0	6048.0	6048.0	6048.0
1327076400	1854240.0	4601.09181141	2840.15433398	0.617278344007	5.0	5.0	5.0	5.0	5.0	5.0	3038.0	3793.0	8327.0	8409.0	8570.0	8571.0	8571.0	8571.0	8571.0
1327077000	659176.0	2072.88050314	2145.85084598	1.03520238756	5.0	5.0	5.0	5.0	5.0	5.0	6.0	1274.0	3656.0	5425.0	5503.0	5503.0	5503.0	5503.0	5503.0
1327077600	1278236.0	1345.51157895	1303.19032111	0.96854634438	5.0	5.0	5.0	5.0	5.0	5.0	6.0	968.0	2561.0	3382.0	3500.0	3500.0	3502.0	3502.0	3502.0
1327078200	3039700.0	2862.24105461	2363.568099	0.825775346626	5.0	5.0	5.0	5.0	5.0	5.0	6.0	2309.0	5494.0	5970.0	5971.0	5971.0	5971.0	5971.0	5971.0
1327078800	2301118.0	3004.07049608	1865.8912725	0.621121000632	5.0	5.0	5.0	5.0	5.0	6.0	1541.0	2123.0	5131.0	5386.0	5557.0	5562.0	5563.0	5563.0	5563.0
1327079400	3102970.0	1392.0906236	1687.6331872	1.21230123858	5.0	5.0	5.0	5.0	5.0	5.0	6.0	848.0	2081.0	4951.0	4999.0	4999.0	6093.0	6094.0	6094.0
1327080000	1403711.0	1430.8980632	1114.77163938	0.779071317552	5.0	5.0	5.0	5.0	5.0	5.0	6.0	1664.0	2396.0	3124.0	3352.0	3355.0	3359.0	3359.0	3359.0
1327080600	4040959.0	1684.43476449	3166.56162782	1.87989567455	5.0	5.0	5.0	5.0	5.0	5.0	5.0	6.0	1721.0	11117.0	11123.0	11183.0	11191.0	11192.0	11192.0
1327081200	6455146.0	2273.73934484	2618.86488054	1.15178764289	5.0	5.0	5.0	5.0	5.0	5.0	5.0	935.0	5472.0	5523.0	6097.0	10790.0	10790.0	10791.0	10791.0
1327081800	8112098.0	2894.07706029	3191.07236743	1.10262176886	5.0	5.0	5.0	5.0	5.0	5.0	5.0	389.0	6831.0	6969.0	6972.0	6973.0	6975.0	6975.0	6975.0
1327082400	1744194.0	825.068117313	1739.46951814	2.10827382811	5.0	5.0	5.0	5.0	5.0	5.0	5.0	6.0	392.0	5581.0	5581.0	5581.0	5583.0	5769.0	5769.0
1327083000	1712506.0	2395.11328671	1656.28217693	0.691525610132	5.0	5.0	5.0	5.0	5.0	5.0	1385.0	3323.0	3391.0	5521.0	5523.0	5524.0	5524.0	5524.0	5524.0
1327083600	3950745.0	1543.86283705	1873.73177718	1.21366466775	5.0	5.0	5.0	5.0	5.0	5.0	5.0	33.0	3802.0	4189.0	5941.0	5958.0	5959.0	5959.0	5959.0
1327084200	5543689.0	2568.9012975	2719.50814023	1.05862694798	5.0	5.0	5.0	5.0	5.0	5.0	6.0	1217.0	5293.0	6519.0	6519.0	6519.0	6520.0	6520.0	6520.0
1327084800	2865896.0	1629.27572484	2475.57660321	1.51943379838	5.0	5.0	5.0	5.0	5.0	5.0	5.0	6.0	3631.0	6573.0	7599.0	7605.0	7608.0	7608.0	7608.0
1327085400	2383718.0	1654.21096461	2597.06603715	1.56997268952	5.0	5.0	5.0	5.0	5.0	5.0	5.0	6.0	2513.0	7515.0	7515.0	7515.0	7516.0	7516.0	7516.0
1327086000	525053.0	404.197844496	786.907293108	1.94683693598	5.0	5.0	5.0	5.0	5.0	5.0	5.0	6.0	6.0	2273.0	2303.0	2323.0	2324.0	2324.0	2324.0
1327086600	3499278.0	920.136208257	1618.07971548	1.75852194595	5.0	5.0	5.0	5.0	5.0	5.0	5.0	6.0	944.0	4048.0	4774.0	7182.0	7182.0	7183.0	7183.0
1327087200	1088558.0	1197.53355336	1201.4849092	1.0032995784	5.0	5.0	5.0	5.0	5.0	5.0	6.0	1376.0	2480.0	2690.0	3451.0	3451.0	3452.0	3452.0	3452.0
1327087800	8773758.0	2859.76466754	3666.05411517	1.28194258667	5.0	5.0	5.0	5.0	5.0	5.0	5.0	50.0	6664.0	9318.0	9591.0	9593.0	9593.0	9594.0	9594.0
1327088400	2642493.0	711.303633917	1162.73804941	1.63465782257	5.0	5.0	5.0	5.0	5.0	5.0	5.0	6.0	1457.0	3047.0	5472.0	5473.0	5581.0	5581.0	5581.0
1327089000	1790677.0	1063.9792038	1668.56799025	1.56823364995	5.0	5.0	5.0	5.0	5.0	5.0	5.0	6.0	1469.0	4306.0	7509.0	7509.0	7509.0	7509.0	7509.0
1327089600	5983451.0	1834.28908645	2250.19125102	1.22673752335	5.0	5.0	5.0	5.0	5.0	5.0	5.0	209.0	3326.0	6016.0	7773.0	7776.0	7779.0	7779.0	7779.0
1327090200	5724634.0	2796.59697118	3695.70954861	1.32150237832	5.0	5.0	5.0	5.0	5.0	5.0	5.0	6.0	7884.0	8427.0	9755.0	9755.0	9756.0	9758.0	9758.0
1327090800	2987867.0	1663.62305122	2270.76155066	1.36494955933	5.0	5.0	5.0	5.0	5.0	5.0	5.0	1070.0	1850.0	6654.0	8202.0	8319.0	8322.0	8322.0	8322.0
1327091400	2955713.0	1212.84899467	1813.9273609	1.49559208844	5.0	5.0	5.0	5.0	5.0	5.0	5.0	6.0	1931.0	5964.0	5967.0	5968.0	7179.0	7179.0	7179.0
1327092000	2741609.0	2659.17458778	2010.79966477	0.756174368545	5.0	5.0	5.0	5.0	5.0	5.0	410.0	3409.0	5163.0	5196.0	5197.0	5197.0	5197.0	5198.0	5198.0
1327092600	5321219.0	2415.44212438	2781.33012676	1.15147868735	5.0	5.0	5.0	5.0	5.0	5.0	6.0	1190.0	4390.0	9635.0	9638.0	9638.0	9638.0	9639.0	9639.0
1327093200	2775815.0	1034.59373835	1683.25163214	1.62696870254	5.0	5.0	5.0	5.0	5.0	5.0	5.0	6.0	1895.0	3472.0	3493.0	8186.0	8187.0	8187.0	8187.0
1327093800	4949146.0	1874.67651515	2719.89504399	1.45086100029	5.0	5.0	5.0	5.0	5.0	5.0	5.0	6.0	5332.0	8304.0	8316.0	8319.0	8319.0	8322.0	8322.0
1327094400	1552758.0	987.759541985	1626.40943667	1.64656413585	5.0	5.0	5.0	5.0	5.0	5.0	5.0	6.0	1067.0	4198.0	6321.0	6627.0	6630.0	6630.0	6630.0
1327095000	1007024.0	515.893442623	999.38171656	1.93718631406	5.0	5.0	5.0	5.0	5.0	5.0	5.0	6.0	1202.0	2246.0	4952.0	4957.0	4957.0	4957.0	4957.0
1327095600	4437537.0	2028.12477148	2414.73871509	1.19062631109	5.0	5.0	5.0	5.0	5.0	5.0	6.0	1496.0	3631.0	4935.0	10193.0	10193.0	10196.0	10196.0	10196.0
1327096200	2551495.0	1076.12610713	1488.52347356	1.38322401408	5.0	5.0	5.0	5.0	5.0	5.0	5.0	6.0	1484.0	4612.0	4612.0	4612.0	4612.0	4612.0	4612.0
1327096800	1487229.0	415.427094972	895.97597654	2.15675864041	5.0	5.0	5.0	5.0	5.0	5.0	5.0	6.0	98.0	2759.0	3178.0	3178.0	3179.0	3179.0	3179.0
1327097400	2974374.0	584.012173572	1021.75339714	1.74954126537	5.0	5.0	5.0	5.0	5.0	5.0	5.0	6.0	896.0	3307.0	3745.0	3748.0	4762.0	7467.0	7467.0
1327098000	5681767.0	1573.0251938	2054.82411569	1.30628811528	5.0	5.0	5.0	5.0	5.0	5.0	5.0	6.0	4135.0	4879.0	5131.0	5506.0	5509.0	5509.0	5509.0
1327098600	1184396.0	660.198439242	1217.46305703	1.84408654227	5.0	5.0	5.0	5.0	5.0	5.0	5.0	6.0	947.0	4216.0	4279.0	4282.0	4282.0	4283.0	4283.0
