#
# Generated On: 2012-02-05T19:51:25.183257
#           By: cwa.analyze.statistics
#      Version: 11.11.23
#       Author: Thomas A. de Ruiter <thomas@de-ruiter.cx>
#
#  Commandline: /home/af10028/bin/cwa analyze
#     Work Dir: /scratch/af10028/var/thesis-project/result/analyses/workload-06h-08652l-1s-fair
#

Time	Sum	Avg	StdDev	CoV	0.000000-Pct	0.010000-Pct	0.100000-Pct	1.000000-Pct	2.000000-Pct	5.000000-Pct	25.000000-Pct	50.000000-Pct	75.000000-Pct	95.000000-Pct	98.000000-Pct	99.000000-Pct	99.900000-Pct	99.990000-Pct	100.000000-Pct
1327097400	1390094.0	2951.36730361	3181.29266362	1.07790469174	2.0	2.0	2.0	3.0	3.0	3.0	599.0	2233.0	4345.0	8184.0	12047.0	14553.0	27066.0	27066.0	27066.0
1327101000	1947807.0	2790.55444126	3277.97807786	1.17466910138	3.0	3.0	3.0	3.0	3.0	3.0	417.0	1940.5	4009.0	8831.0	12835.0	16114.0	25645.0	25645.0	25645.0
1327104600	1734266.0	3021.36933798	3504.11815758	1.1597781554	3.0	3.0	3.0	3.0	3.0	3.0	519.0	1933.5	4473.0	10350.0	13834.0	18086.0	22255.0	22255.0	22255.0
1327108200	2090487.0	3302.507109	4038.65172275	1.22290477793	3.0	3.0	3.0	3.0	3.0	3.0	522.0	1972.0	4520.0	11545.0	15897.0	19931.0	25545.0	25545.0	25545.0
1327111800	1696517.0	3062.30505415	3522.9395839	1.15042085018	2.0	2.0	2.0	3.0	3.0	3.0	407.0	2012.0	4179.0	11013.0	13328.0	14895.0	20575.0	20575.0	20575.0
1327115400	1933859.0	3159.9003268	3488.55223722	1.10400704973	3.0	3.0	3.0	3.0	3.0	3.0	485.0	2063.0	4558.0	10234.0	13057.0	15158.0	17736.0	17736.0	17736.0
1327119000	284148.0	2870.18181818	2651.11307145	0.92367426156	3.0	3.0	3.0	3.0	3.0	3.0	640.0	2134.0	4427.0	7406.0	10769.0	11237.0	11237.0	11237.0	11237.0
