#
# Generated On: 2012-02-05T16:44:00.262434
#           By: cwa.analyze.statistics
#      Version: 11.11.23
#       Author: Thomas A. de Ruiter <thomas@de-ruiter.cx>
#
#  Commandline: /home/af10028/bin/cwa analyze
#     Work Dir: /scratch/af10028/var/thesis-project/result/analyses/workload-01h-03708l-2s-default
#

Time	Sum	Avg	StdDev	CoV	0.000000-Pct	0.010000-Pct	0.100000-Pct	1.000000-Pct	2.000000-Pct	5.000000-Pct	25.000000-Pct	50.000000-Pct	75.000000-Pct	95.000000-Pct	98.000000-Pct	99.000000-Pct	99.900000-Pct	99.990000-Pct	100.000000-Pct
1326948000	7875.0	7875.0	0.0	0.0	7875.0	7875.0	7875.0	7875.0	7875.0	7875.0	7875.0	7875.0	7875.0	7875.0	7875.0	7875.0	7875.0	7875.0	7875.0
1326948600	194599.0	2402.45679012	2606.3868096	1.08488394893	2.0	2.0	2.0	2.0	2.0	3.0	275.0	1850.0	3515.0	7736.0	11013.0	11219.0	11219.0	11219.0	11219.0
1326949200	177474.0	2275.30769231	2120.4852012	0.93195536075	2.0	2.0	2.0	2.0	3.0	3.0	464.0	2121.5	3215.0	6603.0	8128.0	10177.0	10177.0	10177.0	10177.0
1326949800	203303.0	2784.97260274	2508.54656886	0.900743715177	2.0	2.0	2.0	2.0	2.0	3.0	659.0	2162.0	3986.0	8233.0	8804.0	9477.0	9477.0	9477.0	9477.0
1326950400	185695.0	3315.98214286	2906.77317807	0.876594943171	2.0	2.0	2.0	2.0	2.0	3.0	1112.0	3081.0	4857.0	8975.0	10114.0	12836.0	12836.0	12836.0	12836.0
1326951000	311940.0	3215.87628866	2295.2714902	0.713731277005	2.0	2.0	2.0	2.0	2.0	3.0	2150.0	2602.0	3921.0	7017.0	10503.0	14653.0	14653.0	14653.0	14653.0
1326951600	262124.0	3590.73972603	2330.5838326	0.649053958354	3.0	3.0	3.0	3.0	21.0	42.0	2988.0	3755.0	3934.0	8113.0	10108.0	12686.0	12686.0	12686.0	12686.0
