#
# Generated On: 2012-02-05T16:43:18.430750
#           By: cwa.analyze.statistics
#      Version: 11.11.23
#       Author: Thomas A. de Ruiter <thomas@de-ruiter.cx>
#
#  Commandline: /home/af10028/bin/cwa analyze
#     Work Dir: /scratch/af10028/var/thesis-project/result/analyses/workload-01h-00123l-1s-default
#

Time	Sum	Avg	StdDev	CoV	0.000000-Pct	0.010000-Pct	0.100000-Pct	1.000000-Pct	2.000000-Pct	5.000000-Pct	25.000000-Pct	50.000000-Pct	75.000000-Pct	95.000000-Pct	98.000000-Pct	99.000000-Pct	99.900000-Pct	99.990000-Pct	100.000000-Pct
1326940800	0	0	0	0															
1326941400	0	0	0	0															
1326942000	0	0	0	0															
1326942600	0	0	0	0															
1326943200	0	0	0	0															
1326943800	1163.0	1163.0	0.0	0.0	1163.0	1163.0	1163.0	1163.0	1163.0	1163.0	1163.0	1163.0	1163.0	1163.0	1163.0	1163.0	1163.0	1163.0	1163.0
1326944400	0	0	0	0															
1326945000	0	0	0	0															
1326945600	56.0	56.0	0.0	0.0	56.0	56.0	56.0	56.0	56.0	56.0	56.0	56.0	56.0	56.0	56.0	56.0	56.0	56.0	56.0
