#
# Generated On: 2012-02-09T14:04:50.128327
#           By: cwa.analyze.jobs_per_executableid
#      Version: 11.3.16
#       Author: Thomas A. de Ruiter <thomas@de-ruiter.cx>
#
#  Commandline: /home/af10028/bin/cwa analyze
#     Work Dir: /scratch/af10028/var/thesis-project/result/workload-analyses/workload-06h-03708l-4s
#

Time	ID_-1
0	139
600	125
1200	194
1800	251
2400	263
3000	259
3600	331
4200	351
4800	367
5400	353
6000	319
6600	308
7200	335
7800	346
8400	317
9000	359
9600	380
10200	416
10800	403
11400	386
12000	425
12600	471
13200	425
13800	413
14400	418
15000	450
15600	415
16200	412
16800	410
17400	395
18000	398
18600	399
19200	423
19800	429
20400	461
21000	420
21600	324
22200	266
22800	227
23400	196
24000	169
24600	151
25200	136
25800	118
26400	110
27000	99
27600	92
28200	79
28800	71
29400	67
30000	56
30600	52
31200	45
31800	43
32400	40
33000	36
33600	33
34200	31
34800	29
35400	27
36000	27
36600	26
37200	26
37800	21
38400	18
39000	17
39600	17
40200	17
40800	16
41400	15
42000	14
42600	14
43200	12
43800	11
44400	11
45000	10
45600	10
46200	10
46800	8
47400	6
48000	5
48600	4
49200	4
49800	4
50400	4
51000	4
51600	4
52200	3
52800	3
53400	3
54000	3
54600	3
55200	2
55800	2
56400	2
57000	1
57600	1
58200	1
58800	1
59400	1
60000	1
60600	1
61200	1
61800	1
62400	1
63000	1
63600	1
64200	1
64800	1
65400	1
66000	1
66600	1
67200	1
67800	1
68400	1
69000	1
69600	1
70200	1
70800	1
71400	1
72000	1
72600	1
73200	1
73800	1
