#
# Generated On: 2012-02-09T14:04:49.814928
#           By: cwa.analyze.node_utilization
#      Version: 12.1.1
#       Author: Thomas A. de Ruiter <thomas@de-ruiter.cx>
#
#  Commandline: /home/af10028/bin/cwa analyze
#     Work Dir: /scratch/af10028/var/thesis-project/result/workload-analyses/workload-06h-03708l-4s
#

Time	HostCount
0	1
3600	1
7200	1
10800	1
14400	1
18000	1
21600	1
25200	1
28800	1
32400	1
36000	1
39600	1
43200	1
46800	1
50400	1
54000	1
57600	1
61200	1
64800	1
68400	1
72000	1
75600	0
