#
# Generated On: 2012-02-05T22:16:11.998716
#           By: cwa.analyze.jobs_per_executableid
#      Version: 11.3.16
#       Author: Thomas A. de Ruiter <thomas@de-ruiter.cx>
#
#  Commandline: /home/af10028/bin/cwa analyze
#     Work Dir: /scratch/af10028/var/thesis-project/result/analyses/workload-24h-03708l-0s-default
#

Time	ID_-1
0	65935
3600	74666
7200	87543
10800	66108
14400	80925
18000	79001
21600	86025
25200	80193
28800	76381
32400	70679
36000	75866
39600	73620
43200	87802
46800	72948
50400	59302
54000	82215
57600	84628
61200	77393
64800	78729
68400	83901
72000	73249
75600	83563
79200	86296
82800	73913
86400	14886
90000	2302
93600	679
97200	178
100800	1
