#
# Generated On: 2012-02-05T21:29:52.851622
#           By: cwa.analyze.statistics
#      Version: 11.11.23
#       Author: Thomas A. de Ruiter <thomas@de-ruiter.cx>
#
#  Commandline: /home/af10028/bin/cwa analyze
#     Work Dir: /scratch/af10028/var/thesis-project/result/analyses/workload-06h-11124l-1s-fair
#

Time	Sum	Avg	StdDev	CoV	0.000000-Pct	0.010000-Pct	0.100000-Pct	1.000000-Pct	2.000000-Pct	5.000000-Pct	25.000000-Pct	50.000000-Pct	75.000000-Pct	95.000000-Pct	98.000000-Pct	99.000000-Pct	99.900000-Pct	99.990000-Pct	100.000000-Pct
1327132200	2464943.0	175.690876693	457.622300546	2.6047015597	2.0	2.0	2.0	2.0	2.0	2.0	6.0	32.0	137.0	812.0	1562.0	2174.0	5122.0	7707.0	12247.0
1327132800	4467503.0	168.769710249	428.990566345	2.54186942498	2.0	2.0	2.0	2.0	2.0	2.0	6.0	32.0	141.0	755.0	1421.0	2072.0	4867.0	8451.0	9048.0
1327133400	3923071.0	148.758948885	395.628295445	2.65952602119	2.0	2.0	2.0	2.0	2.0	2.0	5.0	29.0	119.0	683.0	1220.0	1826.0	4615.0	8466.0	10310.0
1327134000	3921166.0	148.30992095	410.320007377	2.76663897296	2.0	2.0	2.0	2.0	2.0	2.0	5.0	27.0	116.0	683.0	1271.0	1790.0	4864.0	9170.0	14674.0
1327134600	3590534.0	147.104801704	384.039207203	2.61065038499	2.0	2.0	2.0	2.0	2.0	2.0	5.0	27.0	120.0	674.0	1259.0	1787.0	4516.0	8511.0	9626.0
1327135200	4031911.0	177.281405268	433.35142355	2.4444268303	2.0	2.0	2.0	2.0	2.0	2.0	6.0	35.0	149.0	818.0	1457.0	2153.0	4780.0	8097.0	9044.0
1327135800	3857997.0	175.291789722	455.657576152	2.59942337787	2.0	2.0	2.0	2.0	2.0	2.0	6.0	32.0	143.0	818.0	1472.0	2180.0	5100.0	9917.0	10706.0
1327136400	3582768.0	160.777598277	446.228211097	2.77543772192	2.0	2.0	2.0	2.0	2.0	2.0	5.0	29.0	131.0	725.0	1316.0	1964.0	5335.0	10059.0	14946.0
1327137000	3741109.0	158.186427061	415.634763195	2.62749953278	2.0	2.0	2.0	2.0	2.0	2.0	5.0	29.0	128.0	731.0	1328.0	1913.0	4648.0	8403.0	13648.0
1327137600	3637471.0	148.310813015	405.921872221	2.73696748045	2.0	2.0	2.0	2.0	2.0	2.0	5.0	27.0	116.0	674.0	1262.0	1850.0	4945.0	9002.0	9789.0
1327138200	3834082.0	174.816797374	453.980325729	2.59689190369	2.0	2.0	2.0	2.0	2.0	2.0	6.0	32.0	146.0	791.0	1511.0	2111.0	5023.0	10559.0	14800.0
1327138800	3649834.0	163.230500894	407.24943931	2.494934691	2.0	2.0	2.0	2.0	2.0	2.0	5.0	32.0	134.0	779.0	1376.0	1904.0	4342.0	7863.0	10991.0
1327139400	3694640.0	166.868705117	424.425941614	2.54347237438	2.0	2.0	2.0	2.0	2.0	2.0	6.0	30.0	137.0	767.0	1418.0	2036.0	4882.0	8133.0	10286.0
1327140000	3443799.0	140.678063725	370.922283403	2.63667464266	2.0	2.0	2.0	2.0	2.0	2.0	5.0	26.0	110.0	653.0	1220.0	1784.0	4285.0	7047.0	7919.0
1327140600	3510069.0	134.171820649	377.543903145	2.81388372997	2.0	2.0	2.0	2.0	2.0	2.0	5.0	24.0	110.0	584.0	1127.0	1700.0	4192.0	10574.0	14797.0
1327141200	3921189.0	163.083887872	415.202347019	2.54594339414	2.0	2.0	2.0	2.0	2.0	2.0	5.0	30.0	137.0	755.0	1385.0	2000.0	4480.0	9296.0	13759.0
1327141800	3776486.0	158.529342624	436.723148449	2.75484109894	2.0	2.0	2.0	2.0	2.0	2.0	5.0	29.0	128.0	722.0	1349.0	1964.0	5005.0	9479.0	17163.0
1327142400	3648415.0	150.239458079	392.825181389	2.614660532	2.0	2.0	2.0	2.0	2.0	2.0	5.0	27.0	122.0	698.0	1274.0	1808.0	4354.0	8553.0	10736.0
1327143000	3476670.0	144.710509886	387.367239221	2.67684247348	2.0	2.0	2.0	2.0	2.0	2.0	5.0	27.0	116.0	653.0	1202.0	1808.0	4126.0	9203.0	10666.0
1327143600	3782704.0	148.749665749	427.683192774	2.87518758862	2.0	2.0	2.0	2.0	2.0	2.0	5.0	26.0	116.0	680.0	1253.0	1859.0	4720.0	13319.0	14821.0
1327144200	3686455.0	146.677873712	397.759957972	2.71179250085	2.0	2.0	2.0	2.0	2.0	2.0	5.0	26.0	116.0	674.0	1223.0	1847.0	4474.0	9117.0	12652.0
1327144800	3895754.0	170.321077253	451.556477197	2.65120726384	2.0	2.0	2.0	2.0	2.0	2.0	6.0	32.0	137.0	773.0	1415.0	2072.0	5452.0	9834.0	10229.0
1327145400	3521106.0	146.804502814	412.906300111	2.81262694397	2.0	2.0	2.0	2.0	2.0	2.0	5.0	26.0	116.0	656.0	1208.0	1748.0	5350.0	10066.0	11288.0
1327146000	3802759.0	150.075338411	400.769311564	2.67045415861	2.0	2.0	2.0	2.0	2.0	2.0	5.0	27.0	122.0	680.0	1292.0	1889.0	4558.0	8733.0	10229.0
1327146600	3593114.0	144.842745999	370.856553112	2.56040818996	2.0	2.0	2.0	2.0	2.0	2.0	5.0	27.0	119.0	674.0	1208.0	1766.0	4390.0	6867.0	11147.0
1327147200	3740328.0	166.414308596	423.135703767	2.54266419359	2.0	2.0	2.0	2.0	2.0	2.0	5.0	32.0	138.0	764.0	1415.0	2036.0	4885.0	8007.0	11608.0
1327147800	3691679.0	146.263034865	392.102743097	2.68080546433	2.0	2.0	2.0	2.0	2.0	2.0	5.0	26.0	117.0	659.0	1229.0	1817.0	4750.0	7593.0	10299.0
1327148400	3630869.0	154.808092436	407.050640466	2.62938864539	2.0	2.0	2.0	2.0	2.0	2.0	5.0	30.0	128.0	698.0	1271.0	1922.0	4180.0	11009.0	15216.0
1327149000	3608445.0	140.286330767	366.65676553	2.61363144594	2.0	2.0	2.0	2.0	2.0	2.0	5.0	26.0	111.0	650.0	1220.0	1742.0	3841.0	8076.0	9719.0
1327149600	3954588.0	173.545793654	458.941362755	2.64449718482	2.0	2.0	2.0	2.0	2.0	2.0	5.0	32.0	140.0	797.0	1490.0	2117.0	5535.0	9218.0	10469.0
1327150200	3609751.0	160.518987905	415.441570272	2.58811481243	2.0	2.0	2.0	2.0	2.0	2.0	5.0	29.0	131.0	740.0	1367.0	1949.0	4369.0	9122.0	14566.0
1327150800	3603061.0	159.717230374	388.972583798	2.43538272538	2.0	2.0	2.0	2.0	2.0	2.0	6.0	32.0	134.0	746.0	1352.0	1916.0	3946.0	7749.0	8570.0
1327151400	3636802.0	152.492850853	424.541119113	2.78400670417	2.0	2.0	2.0	2.0	2.0	2.0	5.0	27.0	122.0	680.0	1325.0	1901.0	4680.0	10175.0	20310.0
1327152000	3772462.0	163.324183912	428.249759533	2.6220841842	2.0	2.0	2.0	2.0	2.0	2.0	5.0	29.0	134.0	755.0	1376.0	2045.0	4639.0	10250.0	11521.0
1327152600	3781634.0	174.38939359	480.379832075	2.75463904189	2.0	2.0	2.0	2.0	2.0	2.0	6.0	33.0	143.0	779.0	1436.0	2116.0	5371.0	11066.0	21248.0
1327153200	3713852.0	171.548431798	455.381205057	2.65453435093	2.0	2.0	2.0	2.0	2.0	2.0	6.0	32.0	143.0	782.0	1400.0	2138.0	5212.0	10364.0	14006.0
1327153800	3784148.0	182.526914914	438.043967084	2.39988698264	2.0	2.0	2.0	2.0	2.0	2.0	6.0	38.0	164.0	839.0	1478.0	2060.0	4903.0	7526.0	13876.0
1327154400	3918394.0	238.664514557	531.486171939	2.22691744906	2.0	2.0	2.0	2.0	2.0	2.0	11.0	59.0	230.0	1061.0	1841.0	2528.0	5946.0	11147.0	13070.0
1327155000	3711536.0	241.856900821	509.209834904	2.10541784491	2.0	2.0	2.0	2.0	2.0	2.0	11.0	62.0	236.0	1079.0	1820.0	2477.0	5242.0	7575.0	14041.0
1327155600	3723362.0	244.893580637	539.937293202	2.20478336671	2.0	2.0	2.0	2.0	2.0	2.0	11.0	62.0	239.0	1121.0	1829.0	2450.0	5185.0	11962.0	18075.0
1327156200	3700874.0	239.78709343	530.080868579	2.2106313605	2.0	2.0	2.0	2.0	2.0	2.0	11.0	59.0	225.0	1079.0	1904.0	2570.0	5748.0	8484.0	11450.0
1327156800	3708261.0	239.536270267	535.480768665	2.235489298	2.0	2.0	2.0	2.0	2.0	2.0	11.0	56.0	233.0	1067.0	1835.0	2536.0	5838.0	11111.0	11443.0
1327157400	3711693.0	244.528163911	539.420690093	2.20596548662	2.0	2.0	2.0	2.0	2.0	2.0	11.0	59.0	234.0	1097.0	1826.0	2545.0	5826.0	9591.0	9848.0
1327158000	3664519.0	242.106170719	532.574870069	2.19975752162	2.0	2.0	2.0	2.0	2.0	2.0	11.0	59.0	230.0	1121.0	1880.0	2498.0	5835.0	10394.0	11072.0
1327158600	3682289.0	242.287735228	529.651084972	2.18604166849	2.0	2.0	2.0	2.0	2.0	2.0	11.0	60.0	236.0	1112.0	1799.0	2420.0	5718.0	9467.0	14664.0
1327159200	3826208.0	249.150745588	592.663126627	2.37873310484	2.0	2.0	2.0	2.0	2.0	2.0	11.0	59.0	230.0	1088.0	1877.0	2782.0	6405.0	11650.0	17430.0
1327159800	3580489.0	233.408670143	517.439105392	2.21688039726	2.0	2.0	2.0	2.0	2.0	2.0	11.0	57.0	230.0	1019.0	1715.0	2401.0	6114.0	8790.0	10805.0
1327160400	3659142.0	233.467874689	517.247635462	2.21549811147	2.0	2.0	2.0	2.0	2.0	2.0	11.0	56.0	221.0	1052.0	1805.0	2564.0	5446.0	10943.0	12358.0
1327161000	3684155.0	237.029852667	536.632424032	2.26398665819	2.0	2.0	2.0	2.0	2.0	2.0	11.0	59.0	230.0	1031.0	1802.0	2504.0	6319.0	10517.0	13945.0
1327161600	3793219.0	244.172449308	552.1500706	2.26131192182	2.0	2.0	2.0	2.0	2.0	2.0	11.0	59.0	227.0	1106.0	1874.0	2573.0	6064.0	10193.0	12236.0
1327162200	3675435.0	237.753735688	536.295386507	2.25567596217	2.0	2.0	2.0	2.0	2.0	2.0	11.0	59.0	224.0	1067.0	1829.0	2606.0	5572.0	9602.0	12185.0
1327162800	3644285.0	235.632031553	525.603511778	2.23061146786	2.0	2.0	2.0	2.0	2.0	2.0	11.0	56.0	224.0	1043.0	1868.0	2576.0	5785.0	8588.0	9788.0
1327163400	3698360.0	242.277104487	542.663622318	2.23984690368	2.0	2.0	2.0	2.0	2.0	2.0	11.0	59.0	233.0	1079.0	1853.0	2612.0	5446.0	11515.0	12395.0
1327164000	3678139.0	242.062454755	551.477162175	2.27824328533	2.0	2.0	2.0	2.0	2.0	2.0	11.0	59.0	224.0	1076.0	1853.0	2747.0	5728.0	12016.0	12142.0
1327164600	3742153.0	242.791993771	540.894748601	2.22781130547	2.0	2.0	2.0	2.0	2.0	2.0	11.0	56.0	227.0	1094.0	1862.0	2555.0	5899.0	10217.0	10478.0
1327165200	3644247.0	240.258900316	540.889717573	2.25127858681	2.0	2.0	2.0	2.0	2.0	2.0	11.0	59.0	236.0	1058.0	1799.0	2453.0	5986.0	10341.0	11318.0
1327165800	2822720.0	247.086834734	558.415989085	2.25999895821	2.0	2.0	2.0	2.0	2.0	2.0	11.0	60.0	236.0	1112.0	1907.0	2567.0	6441.0	9669.0	12485.0
1327166400	0	0	0	0															
1327167000	0	0	0	0															
1327167600	0	0	0	0															
1327168200	0	0	0	0															
1327168800	0	0	0	0															
1327169400	0	0	0	0															
1327170000	0	0	0	0															
1327170600	0	0	0	0															
1327171200	0	0	0	0															
1327171800	0	0	0	0															
1327172400	0	0	0	0															
1327173000	0	0	0	0															
1327173600	0	0	0	0															
1327174200	0	0	0	0															
1327174800	0	0	0	0															
1327175400	0	0	0	0															
