#
# Generated On: 2012-02-05T21:26:45.473461
#           By: cwa.analyze.statistics
#      Version: 11.11.23
#       Author: Thomas A. de Ruiter <thomas@de-ruiter.cx>
#
#  Commandline: /home/af10028/bin/cwa analyze
#     Work Dir: /scratch/af10028/var/thesis-project/result/analyses/workload-06h-11124l-1s-fair
#

Time	Sum	Avg	StdDev	CoV	0.000000-Pct	0.010000-Pct	0.100000-Pct	1.000000-Pct	2.000000-Pct	5.000000-Pct	25.000000-Pct	50.000000-Pct	75.000000-Pct	95.000000-Pct	98.000000-Pct	99.000000-Pct	99.900000-Pct	99.990000-Pct	100.000000-Pct
all	3690723.0	332.85741342	449.740450245	1.35115046898	2.0	2.0	2.0	3.0	3.0	3.0	4.0	157.0	507.0	1222.0	1632.0	1965.0	3180.0	4989.0	5690.0
