#
# Generated On: 2012-02-05T17:47:23.831264
#           By: cwa.analyze.statistics
#      Version: 11.11.23
#       Author: Thomas A. de Ruiter <thomas@de-ruiter.cx>
#
#  Commandline: /home/af10028/bin/cwa analyze
#     Work Dir: /scratch/af10028/var/thesis-project/result/analyses/workload-06h-03708l-5s-fair
#

Time	Sum	Avg	StdDev	CoV	0.000000-Pct	0.010000-Pct	0.100000-Pct	1.000000-Pct	2.000000-Pct	5.000000-Pct	25.000000-Pct	50.000000-Pct	75.000000-Pct	95.000000-Pct	98.000000-Pct	99.000000-Pct	99.900000-Pct	99.990000-Pct	100.000000-Pct
1326993600	2144735.0	464.228354978	1436.31499886	3.09398377642	2.0	2.0	2.0	2.0	2.0	2.0	6.0	33.0	209.0	2624.0	4786.0	6241.0	11360.0	11360.0	11360.0
1326994200	10778052.0	669.0702092	1554.59606334	2.32351708679	2.0	2.0	2.0	2.0	2.0	2.0	9.0	59.0	329.0	4135.0	5466.0	8043.0	8937.0	8937.0	8937.0
1326994800	9710711.0	647.553414244	1428.01361162	2.20524450989	2.0	2.0	2.0	2.0	2.0	2.0	9.0	56.0	356.0	3940.0	5946.0	7158.0	8226.0	8228.0	8228.0
1326995400	14950824.0	1162.22201493	3066.82652239	2.63876134078	2.0	2.0	2.0	2.0	2.0	2.0	9.0	62.0	365.0	9605.0	13888.0	13888.0	13888.0	13888.0	13889.0
1326996000	5121493.0	426.791083333	1370.28774739	3.2106756699	2.0	2.0	2.0	2.0	2.0	2.0	6.0	41.0	212.0	1841.0	5919.0	8736.0	11399.0	11399.0	11399.0
1326996600	2847590.0	272.002101442	809.011270479	2.97428316248	2.0	2.0	2.0	2.0	2.0	2.0	8.0	39.0	191.0	1157.0	2462.0	4339.0	7161.0	14218.0	14228.0
1326997200	3512590.0	217.054316258	542.174815255	2.49787622104	2.0	2.0	2.0	2.0	2.0	2.0	6.0	41.0	183.0	998.0	1751.0	2267.0	5997.0	16755.0	17132.0
1326997800	8485335.0	506.708169115	1331.98138952	2.62869531361	2.0	2.0	2.0	2.0	2.0	2.0	8.0	47.0	269.0	2942.0	5221.0	6166.0	16224.0	16674.0	16694.0
1326998400	2874266.0	343.976304452	983.33047881	2.85871574897	2.0	2.0	2.0	2.0	2.0	2.0	5.0	30.0	179.0	1844.0	3910.0	4987.0	12133.0	16080.0	16080.0
1326999000	9092617.0	416.576579466	1163.60012312	2.79324422082	2.0	2.0	2.0	2.0	2.0	2.0	8.0	51.0	251.0	2231.0	4585.0	6039.0	11504.0	15096.0	15135.0
1326999600	6344153.0	553.977733147	1497.25365824	2.70273256243	2.0	2.0	2.0	2.0	2.0	2.0	8.0	51.0	287.0	3487.0	5739.0	7416.0	12722.0	14826.0	14922.0
1327000200	5910678.0	281.85007868	797.997363596	2.83128309679	2.0	2.0	2.0	2.0	2.0	2.0	8.0	47.0	213.0	1193.0	2591.0	4456.0	7608.0	14791.0	14802.0
1327000800	4078069.0	554.688384113	1483.31361227	2.674138588	2.0	2.0	2.0	2.0	2.0	2.0	6.0	36.0	227.0	3841.0	6286.0	7572.0	13876.0	14095.0	14095.0
1327001400	4245203.0	295.256850744	905.711747788	3.06753846864	2.0	2.0	2.0	2.0	2.0	2.0	8.0	44.0	206.0	1331.0	2555.0	4252.0	8607.0	16866.0	16869.0
1327002000	6725408.0	812.541742177	1894.64327316	2.33174885032	2.0	2.0	2.0	2.0	2.0	2.0	6.0	41.0	389.0	5014.0	7165.0	7620.0	16113.0	16251.0	16251.0
1327002600	4661979.0	373.585944387	1073.19571279	2.87268760754	2.0	2.0	2.0	2.0	2.0	2.0	6.0	41.0	224.0	1973.0	3697.0	6153.0	9965.0	15769.0	15787.0
1327003200	6886349.0	439.012431468	1407.50330257	3.20606707619	2.0	2.0	2.0	2.0	2.0	2.0	6.0	41.0	224.0	2231.0	5211.0	7836.0	14089.0	14949.0	15079.0
1327003800	6469885.0	371.08603384	1313.13689383	3.53863194539	2.0	2.0	2.0	2.0	2.0	2.0	6.0	33.0	179.0	1613.0	4120.0	5823.0	15457.0	15475.0	15475.0
1327004400	6584873.0	501.20817476	1498.06436272	2.9889064827	2.0	2.0	2.0	2.0	2.0	2.0	8.0	53.0	278.0	2651.0	5338.0	6462.0	18834.0	19062.0	19064.0
1327005000	4773132.0	598.887327478	1660.5214119	2.77267748992	2.0	2.0	2.0	2.0	2.0	2.0	6.0	44.0	281.0	4207.0	6079.0	8687.0	18503.0	18588.0	18588.0
1327005600	5643551.0	467.529699279	1335.83105192	2.85721111188	2.0	2.0	2.0	2.0	2.0	2.0	6.0	44.0	245.0	2822.0	5026.0	7335.0	12256.0	17976.0	17978.0
1327006200	4874655.0	510.061211677	1418.26377052	2.78057562122	2.0	2.0	2.0	2.0	2.0	2.0	6.0	33.0	233.0	3305.0	5701.0	8109.0	12823.0	17138.0	17138.0
1327006800	6713822.0	367.136326352	1058.98572388	2.88444822227	2.0	2.0	2.0	2.0	2.0	2.0	8.0	50.0	242.0	1736.0	3301.0	7197.0	10145.0	10176.0	10184.0
1327007400	4280855.0	281.672259508	764.732316818	2.71497206773	2.0	2.0	2.0	2.0	2.0	2.0	6.0	38.0	194.0	1307.0	2453.0	4060.0	9359.0	9366.0	9366.0
1327008000	3403622.0	283.233918615	840.97447288	2.96918701331	2.0	2.0	2.0	2.0	2.0	2.0	6.0	35.0	185.0	1286.0	2461.0	4768.0	11018.0	12412.0	12632.0
1327008600	5357160.0	552.341478503	1414.74024161	2.56135071631	2.0	2.0	2.0	2.0	2.0	2.0	5.0	29.0	254.0	3967.0	5781.0	6142.0	11644.0	12053.0	12053.0
1327009200	7047270.0	798.919623625	1717.98031384	2.15037941619	2.0	2.0	2.0	2.0	2.0	2.0	6.0	44.0	434.0	5248.0	5755.0	6361.0	11090.0	13797.0	13797.0
1327009800	7957173.0	496.888535032	1443.18544492	2.90444504789	2.0	2.0	2.0	2.0	2.0	2.0	6.0	48.0	260.0	2893.0	4903.0	6129.0	13906.0	13969.0	13969.0
1327010400	4482817.0	533.28777064	1736.88778337	3.25694283461	2.0	2.0	2.0	2.0	2.0	2.0	5.0	32.0	197.0	3091.0	6594.0	12379.0	13032.0	13102.0	13102.0
1327011000	3358779.0	300.884977157	956.466779955	3.17884524842	2.0	2.0	2.0	2.0	2.0	2.0	6.0	35.0	185.0	1229.0	3034.0	4441.0	12506.0	12824.0	12826.0
1327011600	2791326.0	328.12107676	817.51452869	2.49150263909	2.0	2.0	2.0	2.0	2.0	2.0	6.0	35.0	192.0	1733.0	3262.0	4789.0	6924.0	7065.0	7065.0
1327012200	6526045.0	414.352063492	1125.64101037	2.71662943073	2.0	2.0	2.0	2.0	2.0	2.0	6.0	38.0	221.0	2267.0	5412.0	6315.0	7485.0	7486.0	7488.0
1327012800	5233324.0	417.230646576	1064.80000629	2.55206566208	2.0	2.0	2.0	2.0	2.0	2.0	6.0	48.0	260.0	2459.0	4318.0	5806.0	8249.0	8444.0	8463.0
1327013400	6972458.0	395.645349827	1074.43993929	2.71566426792	2.0	2.0	2.0	2.0	2.0	2.0	8.0	47.0	239.0	1955.0	4366.0	6762.0	11114.0	11228.0	11264.0
1327014000	7462279.0	521.108868715	1431.738439	2.74748430693	2.0	2.0	2.0	2.0	2.0	2.0	5.0	33.0	215.0	3395.0	6184.0	7245.0	10868.0	11072.0	11084.0
1327014600	5245058.0	1008.08341342	1966.97337011	1.95120100572	2.0	2.0	2.0	2.0	2.0	2.0	6.0	59.0	641.0	5826.0	6897.0	9087.0	10194.0	10316.0	10316.0
1327015200	6290823.0	648.204327666	1608.56383763	2.48156911173	2.0	2.0	2.0	2.0	2.0	2.0	6.0	47.0	293.0	4672.0	7413.0	7761.0	9371.0	9872.0	9872.0
1327015800	2740364.0	2627.38638543	2719.42813215	1.03503167529	5.0	5.0	5.0	5.0	5.0	5.0	6.0	1859.0	4699.0	7791.0	8717.0	9020.0	9243.0	9285.0	9285.0
1327016400	1594862.0	2698.5820643	2569.62682833	0.95221370598	5.0	5.0	5.0	5.0	5.0	5.0	6.0	1916.0	4303.0	7308.0	8187.0	8463.0	8541.0	8541.0	8541.0
1327017000	4487819.0	3046.72029871	2419.66222613	0.794185874941	5.0	5.0	5.0	5.0	5.0	5.0	941.0	2642.0	5055.0	7095.0	7779.0	8007.0	8070.0	8088.0	8088.0
1327017600	2444220.0	2525.02066116	2496.58578271	0.988738754146	5.0	5.0	5.0	5.0	5.0	5.0	6.0	1916.0	5250.0	6379.0	7194.0	7218.0	7378.0	7378.0	7378.0
1327018200	3507155.0	4073.35075494	1907.25160596	0.468226705901	959.0	959.0	959.0	1034.0	1043.0	1142.0	1667.0	4921.0	5530.0	6667.0	6723.0	6724.0	6789.0	6789.0	6789.0
1327018800	1837812.0	4074.97117517	1621.96021504	0.398029862131	836.0	836.0	836.0	836.0	839.0	929.0	2827.0	4408.0	5356.0	6270.0	6271.0	6271.0	6273.0	6273.0	6273.0
1327019400	8234.0	4117.0	0.0	0.0	4117.0	4117.0	4117.0	4117.0	4117.0	4117.0	4117.0	4117.0	4117.0	4117.0	4117.0	4117.0	4117.0	4117.0	4117.0
