#
# Generated On: 2012-02-05T22:36:17.357243
#           By: cwa.analyze.statistics
#      Version: 11.11.23
#       Author: Thomas A. de Ruiter <thomas@de-ruiter.cx>
#
#  Commandline: /home/af10028/bin/cwa analyze
#     Work Dir: /scratch/af10028/var/thesis-project/result/analyses/workload-24h-04944l-0s-default
#

Time	Sum	Avg	StdDev	CoV	0.000000-Pct	0.010000-Pct	0.100000-Pct	1.000000-Pct	2.000000-Pct	5.000000-Pct	25.000000-Pct	50.000000-Pct	75.000000-Pct	95.000000-Pct	98.000000-Pct	99.000000-Pct	99.900000-Pct	99.990000-Pct	100.000000-Pct
1327423200	31644181.0	3728.98668395	2450.71465982	0.65720659995	5.0	5.0	5.0	24.0	134.0	344.0	1283.0	3769.0	5671.0	7338.0	7719.0	9770.0	13351.0	13352.0	13352.0
1327426800	20171866.0	2558.58269914	2774.5116056	1.08439395238	5.0	5.0	5.0	5.0	5.0	5.0	6.0	2063.0	4255.0	10325.0	10514.0	10542.0	10625.0	10631.0	10631.0
1327430400	20010496.0	2533.61559889	2317.0600025	0.914527051193	5.0	5.0	5.0	5.0	5.0	5.0	6.0	2914.0	4312.0	5419.0	8937.0	9923.0	9924.0	9926.0	9926.0
1327434000	24189267.0	1825.05409688	2711.76856985	1.48585654228	5.0	5.0	5.0	5.0	5.0	5.0	5.0	350.0	2360.0	6477.0	10786.0	10790.0	16107.0	16111.0	16111.0
1327437600	21373980.0	1735.18265952	2542.29405278	1.46514491649	5.0	5.0	5.0	5.0	5.0	5.0	5.0	398.0	2813.0	7119.0	8862.0	10187.0	14034.0	14035.0	14035.0
1327441200	27859945.0	1845.27387733	3394.95707969	1.83981203083	5.0	5.0	5.0	5.0	5.0	5.0	5.0	191.0	2926.0	6234.0	20068.0	20239.0	20254.0	20258.0	20258.0
1327444800	23924008.0	2252.94359168	2698.1324137	1.19760318175	5.0	5.0	5.0	5.0	5.0	5.0	6.0	695.0	5191.0	7660.0	7871.0	7959.0	8319.0	8321.0	8322.0
1327448400	13966856.0	1438.2510555	1941.901794	1.35018276995	5.0	5.0	5.0	5.0	5.0	5.0	5.0	731.0	3062.0	5170.0	5557.0	9674.0	9795.0	9797.0	9797.0
1327452000	23423369.0	1109.37619589	1747.91774822	1.57558613093	5.0	5.0	5.0	5.0	5.0	5.0	5.0	6.0	1811.0	4621.0	6241.0	6322.0	7671.0	7671.0	7875.0
1327455600	20419751.0	1488.10311908	2246.43582685	1.50959688078	5.0	5.0	5.0	5.0	5.0	5.0	5.0	125.0	2597.0	6426.0	8577.0	8705.0	13747.0	13748.0	13748.0
1327459200	33292237.0	2678.37787611	3592.82251457	1.3414173357	5.0	5.0	5.0	5.0	5.0	5.0	6.0	938.0	4672.0	11741.0	11926.0	11927.0	12041.0	12046.0	12047.0
1327462800	14194196.0	1531.52740613	1885.71789196	1.23126617546	5.0	5.0	5.0	5.0	5.0	5.0	5.0	905.0	3014.0	4819.0	6702.0	6714.0	6718.0	6720.0	6720.0
1327466400	23624937.0	1581.42693621	3031.85335205	1.91716309027	5.0	5.0	5.0	5.0	5.0	5.0	5.0	6.0	2015.0	5776.0	8639.0	19109.0	19151.0	19151.0	19152.0
1327470000	22054151.0	1481.23789375	2261.7743857	1.52694877389	5.0	5.0	5.0	5.0	5.0	5.0	5.0	176.0	2279.0	7383.0	7668.0	8316.0	8340.0	8342.0	8342.0
1327473600	32429524.0	2327.03243398	3937.46573622	1.69205451489	5.0	5.0	5.0	5.0	5.0	5.0	5.0	317.0	3184.0	9870.0	15672.0	15753.0	15816.0	15816.0	15816.0
1327477200	16853276.0	1459.41080707	1982.76100799	1.35860375871	5.0	5.0	5.0	5.0	5.0	5.0	5.0	143.0	2617.0	4960.0	8588.0	8594.0	9971.0	12278.0	12278.0
1327480800	14527330.0	1187.45545202	1994.12155123	1.67932325195	5.0	5.0	5.0	5.0	5.0	5.0	5.0	6.0	1958.0	6606.0	6969.0	7131.0	8276.0	8277.0	8277.0
1327484400	32066290.0	1675.44229061	3342.03056758	1.99471541712	5.0	5.0	5.0	5.0	5.0	5.0	5.0	6.0	1679.0	9954.0	14727.0	14766.0	15660.0	15661.0	15661.0
1327488000	20824013.0	1323.75646812	2448.69430978	1.84980724835	5.0	5.0	5.0	5.0	5.0	5.0	5.0	6.0	1769.0	9419.0	9584.0	10031.0	10088.0	10232.0	10232.0
1327491600	18254393.0	1151.33352255	2006.59649441	1.74284553964	5.0	5.0	5.0	5.0	5.0	5.0	5.0	6.0	1925.0	6372.0	6904.0	8355.0	10769.0	10772.0	10772.0
1327495200	18735763.0	1434.04232683	2441.96472437	1.70285400834	5.0	5.0	5.0	5.0	5.0	5.0	5.0	6.0	2035.0	7107.0	9950.0	9954.0	13627.0	13633.0	13633.0
1327498800	24372166.0	1419.04896652	2345.7417298	1.65303790436	5.0	5.0	5.0	5.0	5.0	5.0	5.0	6.0	1586.0	7008.0	7371.0	7371.0	10316.0	10319.0	10319.0
1327502400	16201580.0	1208.1715138	1706.44321393	1.41241801718	5.0	5.0	5.0	5.0	5.0	5.0	5.0	26.0	2315.0	5293.0	5929.0	6675.0	7149.0	7149.0	7150.0
1327506000	23795475.0	1526.2314797	2155.48771322	1.41229409948	5.0	5.0	5.0	5.0	5.0	5.0	5.0	6.0	2827.0	6352.0	7694.0	7732.0	11623.0	11624.0	11624.0
1327509600	18942913.0	1315.7541849	1954.73380885	1.48563753875	5.0	5.0	5.0	5.0	5.0	5.0	5.0	338.0	1775.0	5008.0	7609.0	9890.0	10397.0	10397.0	10397.0
1327513200	5400905.0	1648.62789988	3221.32822871	1.95394499204	5.0	5.0	5.0	5.0	5.0	5.0	5.0	6.0	2162.0	8681.0	8744.0	20047.0	20048.0	20049.0	20049.0
