#
# Generated On: 2012-02-05T22:36:13.394076
#           By: cwa.analyze.statistics
#      Version: 11.11.23
#       Author: Thomas A. de Ruiter <thomas@de-ruiter.cx>
#
#  Commandline: /home/af10028/bin/cwa analyze
#     Work Dir: /scratch/af10028/var/thesis-project/result/analyses/workload-24h-04944l-0s-default
#

Time	Sum	Avg	StdDev	CoV	0.000000-Pct	0.010000-Pct	0.100000-Pct	1.000000-Pct	2.000000-Pct	5.000000-Pct	25.000000-Pct	50.000000-Pct	75.000000-Pct	95.000000-Pct	98.000000-Pct	99.000000-Pct	99.900000-Pct	99.990000-Pct	100.000000-Pct
1327423200	689784.0	916.047808765	2409.80866258	2.63065818129	2.0	2.0	2.0	2.0	2.0	2.0	8.0	47.0	326.0	10241.0	10242.0	10244.0	10244.0	10244.0	10244.0
1327423800	18658989.0	840.722222222	1878.42672616	2.23430126683	2.0	2.0	2.0	2.0	2.0	2.0	9.0	62.0	374.0	5856.0	6679.0	7338.0	13351.0	13352.0	13352.0
1327424400	7232316.0	621.920715453	1367.7943152	2.19930656949	2.0	2.0	2.0	2.0	2.0	2.0	8.0	56.0	332.0	4642.0	5436.0	5437.0	6807.0	6807.0	6807.0
1327425000	6689322.0	582.237096353	1376.44615196	2.36406467499	2.0	2.0	2.0	2.0	2.0	2.0	8.0	56.0	332.0	3415.0	7038.0	7245.0	9770.0	9771.0	9771.0
1327425600	6083043.0	347.126398083	1038.99199174	2.9931229589	2.0	2.0	2.0	2.0	2.0	2.0	6.0	36.0	185.0	1520.0	4450.0	7206.0	7719.0	9441.0	9443.0
1327426200	4371742.0	335.539335329	915.421738881	2.72820990715	2.0	2.0	2.0	2.0	2.0	2.0	8.0	44.0	206.0	1610.0	3953.0	5856.0	6492.0	9059.0	11492.0
1327426800	4960745.0	451.510421407	1703.28100276	3.77240684158	2.0	2.0	2.0	2.0	2.0	2.0	6.0	35.0	164.0	1397.0	10460.0	10517.0	10593.0	10630.0	10631.0
1327427400	4261133.0	357.357681986	1377.30633851	3.85413944611	2.0	2.0	2.0	2.0	2.0	2.0	5.0	29.0	144.0	1364.0	3757.0	10325.0	10426.0	10428.0	10430.0
1327428000	5791837.0	313.445015694	884.635190478	2.82229783912	2.0	2.0	2.0	2.0	2.0	2.0	6.0	35.0	173.0	1814.0	3739.0	5865.0	6417.0	7482.0	7710.0
1327428600	6395745.0	457.525216396	1131.65548072	2.47342756239	2.0	2.0	2.0	2.0	2.0	2.0	6.0	41.0	224.0	2701.0	4939.0	5083.0	6217.0	10955.0	11849.0
1327429200	7184777.0	386.153767602	978.70398777	2.53449291418	2.0	2.0	2.0	2.0	2.0	2.0	6.0	41.0	209.0	2705.0	4258.0	4639.0	6207.0	7821.0	10044.0
1327429800	6820046.0	326.458570676	795.026822315	2.43530693854	2.0	2.0	2.0	2.0	2.0	2.0	6.0	42.0	206.0	2048.0	3580.0	3973.0	4477.0	8145.0	13426.0
1327430400	6368493.0	382.147794779	1116.46125309	2.92154310019	2.0	2.0	2.0	2.0	2.0	2.0	6.0	35.0	174.0	2942.0	4321.0	6724.0	8937.0	8939.0	8939.0
1327431000	7055862.0	517.329862893	1294.039751	2.50138227816	2.0	2.0	2.0	2.0	2.0	2.0	6.0	44.0	248.0	3370.0	5041.0	5317.0	9924.0	9926.0	12346.0
1327431600	4265557.0	247.321679133	724.317362178	2.92864485119	2.0	2.0	2.0	2.0	2.0	2.0	5.0	32.0	146.0	1136.0	3094.0	4021.0	5449.0	9720.0	19727.0
1327432200	3779007.0	332.103611917	948.534248644	2.85613951372	2.0	2.0	2.0	2.0	2.0	2.0	5.0	26.0	135.0	2750.0	4333.0	4978.0	7176.0	7177.0	9593.0
1327432800	3039042.0	283.545624184	863.692455757	3.04604402993	2.0	2.0	2.0	2.0	2.0	2.0	5.0	29.0	134.0	1298.0	4312.0	4699.0	5230.0	8729.0	12229.0
1327433400	8564499.0	523.598398239	1254.32841132	2.39559252958	2.0	2.0	2.0	2.0	2.0	2.0	6.0	47.0	281.0	4282.0	5371.0	5407.0	9701.0	9782.0	11437.0
1327434000	4541977.0	286.325222215	657.870241687	2.29763286866	2.0	2.0	2.0	2.0	2.0	2.0	6.0	32.0	179.0	1913.0	2249.0	2456.0	4912.0	9653.0	13693.0
1327434600	8009259.0	552.362689655	1511.40525886	2.73625515837	2.0	2.0	2.0	2.0	2.0	2.0	5.0	27.0	197.0	3931.0	4978.0	8769.0	8957.0	8958.0	8958.0
1327435200	7533375.0	343.4095364	1330.54103824	3.87450229889	2.0	2.0	2.0	2.0	2.0	2.0	6.0	41.0	188.0	1328.0	3199.0	5881.0	16106.0	16111.0	16111.0
1327435800	5949360.0	332.9989925	918.741629578	2.75899222001	2.0	2.0	2.0	2.0	2.0	2.0	6.0	32.0	195.0	1673.0	3529.0	5584.0	8936.0	9387.0	17333.0
1327436400	7269829.0	478.845277302	1301.17153222	2.7173109852	2.0	2.0	2.0	2.0	2.0	2.0	5.0	30.0	173.0	4300.0	5257.0	6285.0	8262.0	8720.0	9044.0
1327437000	6692852.0	318.419144583	1125.3889319	3.53430046856	2.0	2.0	2.0	2.0	2.0	2.0	6.0	33.0	164.0	1661.0	2774.0	5446.0	10790.0	10793.0	10970.0
1327437600	6626820.0	537.062971067	1315.47980759	2.44939584082	2.0	2.0	2.0	2.0	2.0	2.0	5.0	35.0	290.0	3550.0	5419.0	5425.0	10181.0	10187.0	11860.0
1327438200	7905439.0	342.315709708	1100.61840809	3.21521442598	2.0	2.0	2.0	2.0	2.0	2.0	6.0	41.0	200.0	1307.0	4177.0	8814.0	8867.0	10167.0	23587.0
1327438800	7023988.0	789.566996403	1982.91342755	2.5113935063	2.0	2.0	2.0	2.0	2.0	2.0	6.0	45.0	335.0	3049.0	6085.0	14032.0	14035.0	14035.0	14035.0
1327439400	3648936.0	250.75151182	791.020583616	3.15459945934	2.0	2.0	2.0	2.0	2.0	2.0	5.0	26.0	122.0	1460.0	2567.0	5853.0	5857.0	7866.0	9011.0
1327440000	4264497.0	237.523504512	711.716693371	2.99640532348	2.0	2.0	2.0	2.0	2.0	2.0	5.0	23.0	131.0	1100.0	2759.0	5190.0	5388.0	9693.0	12403.0
1327440600	5476288.0	375.602743484	1060.8796	2.82447244703	2.0	2.0	2.0	2.0	2.0	2.0	8.0	48.0	236.0	1961.0	4378.0	7119.0	7425.0	10391.0	12763.0
1327441200	6363234.0	489.743246363	1285.25819587	2.62435103579	2.0	2.0	2.0	2.0	2.0	2.0	5.0	24.0	191.0	3847.0	5608.0	6613.0	8190.0	8192.0	8192.0
1327441800	14574945.0	716.918101328	2739.48622584	3.82119829415	2.0	2.0	2.0	2.0	2.0	2.0	6.0	38.0	215.0	2986.0	6235.0	20192.0	20253.0	20257.0	20258.0
1327442400	3840572.0	231.722698202	535.16484701	2.30950550448	2.0	2.0	2.0	2.0	2.0	2.0	6.0	41.0	185.0	1271.0	1844.0	2432.0	5374.0	9233.0	11324.0
1327443000	4391717.0	233.92548205	559.0241939	2.38975330521	2.0	2.0	2.0	2.0	2.0	2.0	6.0	35.0	197.0	1196.0	1826.0	2950.0	5386.0	9795.0	12932.0
1327443600	6538526.0	537.177620769	1402.59614616	2.61104724384	2.0	2.0	2.0	2.0	2.0	2.0	5.0	29.0	176.0	4261.0	5206.0	5428.0	9588.0	9590.0	9590.0
1327444200	7068334.0	379.385647577	879.191677877	2.31740890435	2.0	2.0	2.0	2.0	2.0	2.0	6.0	38.0	224.0	2926.0	3724.0	3763.0	6363.0	9254.0	9614.0
1327444800	12448277.0	620.459402881	1686.75224896	2.7185537702	2.0	2.0	2.0	2.0	2.0	2.0	8.0	47.0	254.0	5329.0	7773.0	7865.0	7959.0	9471.0	11468.0
1327445400	5364270.0	247.52076412	735.858037148	2.97291437252	2.0	2.0	2.0	2.0	2.0	2.0	6.0	32.0	155.0	1022.0	2749.0	5170.0	5407.0	8663.0	14073.0
1327446000	5013610.0	241.78288966	569.350605186	2.35480106134	2.0	2.0	2.0	2.0	2.0	2.0	8.0	44.0	197.0	1238.0	2453.0	2606.0	5056.0	8046.0	8595.0
1327446600	5667587.0	279.83938182	869.897773368	3.10856094561	2.0	2.0	2.0	2.0	2.0	2.0	6.0	32.0	149.0	1154.0	4411.0	5188.0	7238.0	7991.0	9656.0
1327447200	3815554.0	259.985963478	674.874002859	2.59580938075	2.0	2.0	2.0	2.0	2.0	2.0	6.0	38.0	182.0	1445.0	2276.0	2375.0	8319.0	8322.0	8466.0
1327447800	12329391.0	533.024555791	1343.06931316	2.51971377034	2.0	2.0	2.0	2.0	2.0	2.0	6.0	42.0	239.0	5230.0	5485.0	5817.0	5851.0	8765.0	11306.0
1327448400	5730962.0	331.365250072	877.156469473	2.6470985394	2.0	2.0	2.0	2.0	2.0	2.0	6.0	41.0	209.0	1514.0	3622.0	5200.0	5557.0	11357.0	12940.0
1327449000	3878519.0	226.086796852	638.562486883	2.82441299436	2.0	2.0	2.0	2.0	2.0	2.0	5.0	29.0	140.0	1106.0	1904.0	3913.0	5266.0	9260.0	10058.0
1327449600	5171710.0	502.693429238	1493.90136974	2.97179410523	2.0	2.0	2.0	2.0	2.0	2.0	5.0	26.0	176.0	3115.0	4861.0	9674.0	9795.0	9797.0	12136.0
1327450200	4089663.0	219.886176676	539.958548016	2.45562752592	2.0	2.0	2.0	2.0	2.0	2.0	6.0	35.0	167.0	1055.0	2404.0	3137.0	4891.0	7536.0	8708.0
1327450800	3402477.0	342.922495465	785.545229166	2.29073694364	2.0	2.0	2.0	2.0	2.0	2.0	5.0	29.0	173.0	2492.0	3181.0	3182.0	4117.0	7644.0	7644.0
1327451400	4677014.0	337.106386046	808.74481617	2.39907889511	2.0	2.0	2.0	2.0	2.0	2.0	6.0	35.0	179.0	3205.0	3466.0	3469.0	3862.0	6735.0	6813.0
1327452000	2524707.0	180.478018443	453.870603082	2.51482483572	2.0	2.0	2.0	2.0	2.0	2.0	5.0	21.0	129.0	1022.0	1523.0	1847.0	5200.0	7851.0	8681.0
1327452600	6612309.0	417.65468671	1080.81158007	2.58781144916	2.0	2.0	2.0	2.0	2.0	2.0	5.0	18.0	168.0	2768.0	3904.0	6322.0	6375.0	9293.0	10205.0
1327453200	8244620.0	605.509694477	1433.4708039	2.36737878348	2.0	2.0	2.0	2.0	2.0	2.0	5.0	24.0	215.0	3544.0	6214.0	6241.0	6244.0	7875.0	10739.0
1327453800	8494245.0	365.926205144	958.924979159	2.6205419718	2.0	2.0	2.0	2.0	2.0	2.0	5.0	26.0	173.0	3028.0	3724.0	4621.0	7671.0	11720.0	13351.0
1327454400	6177349.0	415.563336697	1012.34912797	2.43608865021	2.0	2.0	2.0	2.0	2.0	2.0	5.0	32.0	185.0	3430.0	4513.0	4513.0	5074.0	6700.0	8487.0
1327455000	4321308.0	240.567165841	610.464733669	2.53760620879	2.0	2.0	2.0	2.0	2.0	2.0	5.0	30.0	161.0	1508.0	2315.0	3262.0	4822.0	14523.0	16899.0
1327455600	3343808.0	291.959137344	717.784530295	2.45851024505	2.0	2.0	2.0	2.0	2.0	2.0	5.0	27.0	152.0	1865.0	3101.0	3163.0	4387.0	7749.0	11540.0
1327456200	2579015.0	235.118515817	704.709821116	2.99725361342	2.0	2.0	2.0	2.0	2.0	2.0	5.0	24.0	128.0	1064.0	4234.0	4270.0	4876.0	9683.0	10184.0
1327456800	7230195.0	494.102029659	1336.09126265	2.70407968891	2.0	2.0	2.0	2.0	2.0	2.0	5.0	27.0	212.0	2582.0	6429.0	6432.0	8706.0	10155.0	10155.0
1327457400	4527585.0	319.564158667	896.02106865	2.80388474223	2.0	2.0	2.0	2.0	2.0	2.0	6.0	35.0	186.0	2054.0	3169.0	5827.0	8345.0	9608.0	11770.0
1327458000	7880290.0	383.917470525	950.752537743	2.47645030699	2.0	2.0	2.0	2.0	2.0	2.0	6.0	39.0	224.0	2651.0	3994.0	4834.0	6717.0	11450.0	14824.0
1327458600	6782214.0	448.885697267	1527.47836287	3.40282252736	2.0	2.0	2.0	2.0	2.0	2.0	5.0	27.0	161.0	2758.0	5319.0	8579.0	13747.0	13748.0	13748.0
1327459200	5818426.0	513.133962431	1143.08820829	2.22766040056	2.0	2.0	2.0	2.0	2.0	2.0	5.0	32.0	311.0	3004.0	4186.0	6771.0	7227.0	8444.0	9788.0
1327459800	10853575.0	684.422688864	1937.95223704	2.83151372473	2.0	2.0	2.0	2.0	2.0	2.0	6.0	41.0	222.0	7242.0	9293.0	9308.0	9314.0	9315.0	9814.0
1327460400	6381068.0	382.397554983	1301.62287929	3.40384728493	2.0	2.0	2.0	2.0	2.0	2.0	6.0	36.0	179.0	1469.0	5242.0	8214.0	11998.0	12046.0	12047.0
1327461000	12681108.0	1102.13001912	3019.264667	2.73948138116	2.0	2.0	2.0	2.0	2.0	2.0	6.0	41.0	236.0	11741.0	11810.0	11927.0	11930.0	11930.0	11930.0
1327461600	5606310.0	283.318677987	846.818462533	2.98892564567	2.0	2.0	2.0	2.0	2.0	2.0	5.0	29.0	149.0	1466.0	4291.0	4777.0	6705.0	8994.0	10587.0
1327462200	6996710.0	282.227824614	837.704516237	2.96818542744	2.0	2.0	2.0	2.0	2.0	2.0	6.0	35.0	173.0	1262.0	3499.0	5451.0	6109.0	13318.0	23346.0
1327462800	5140077.0	416.03213274	1144.39185113	2.75072947754	2.0	2.0	2.0	2.0	2.0	2.0	5.0	29.0	179.0	2519.0	4972.0	6714.0	6718.0	8547.0	12163.0
1327463400	4444234.0	306.71042098	858.114691554	2.79780089901	2.0	2.0	2.0	2.0	2.0	2.0	5.0	29.0	158.0	1712.0	4666.0	4821.0	4879.0	7008.0	7218.0
1327464000	5288674.0	284.322025698	754.050720217	2.65210097025	2.0	2.0	2.0	2.0	2.0	2.0	6.0	35.0	170.0	1421.0	3493.0	4492.0	4666.0	7317.0	9404.0
1327464600	4551624.0	222.90029383	527.461303194	2.36635535168	2.0	2.0	2.0	2.0	2.0	2.0	6.0	41.0	182.0	1109.0	1850.0	3083.0	5128.0	8931.0	10163.0
1327465200	4685737.0	259.914410916	708.443335381	2.72567932222	2.0	2.0	2.0	2.0	2.0	2.0	6.0	35.0	161.0	1226.0	3142.0	3571.0	6645.0	8328.0	9621.0
1327465800	5138315.0	343.861005153	896.644717741	2.60757894703	2.0	2.0	2.0	2.0	2.0	2.0	5.0	30.0	179.0	2048.0	4615.0	4762.0	4764.0	7008.0	7047.0
1327466400	10416243.0	463.438467699	2126.89054952	4.58936989	2.0	2.0	2.0	2.0	2.0	2.0	8.0	50.0	219.0	1241.0	3394.0	18935.0	19151.0	19151.0	19152.0
1327467000	7278238.0	343.329307986	944.813137655	2.75191518952	2.0	2.0	2.0	2.0	2.0	2.0	6.0	42.0	230.0	1817.0	3535.0	4432.0	12814.0	12815.0	13093.0
1327467600	3912407.0	258.040298114	634.996761854	2.46084338956	2.0	2.0	2.0	2.0	2.0	2.0	5.0	21.0	158.0	1778.0	2387.0	2867.0	6363.0	7650.0	10083.0
1327468200	6535977.0	368.972394716	939.834714064	2.54716810125	2.0	2.0	2.0	2.0	2.0	2.0	5.0	32.0	191.0	2009.0	3247.0	5562.0	5563.0	8373.0	8472.0
1327468800	6963052.0	416.425572633	1084.91197247	2.60529622524	2.0	2.0	2.0	2.0	2.0	2.0	6.0	41.0	218.0	4138.0	4381.0	5988.0	6046.0	8295.0	8418.0
1327469400	6813996.0	398.525909463	1089.92052292	2.73487995896	2.0	2.0	2.0	2.0	2.0	2.0	6.0	36.0	194.0	3008.0	5775.0	5776.0	5833.0	7557.0	8547.0
1327470000	5782868.0	425.492458244	1102.48073281	2.59106997422	2.0	2.0	2.0	2.0	2.0	2.0	6.0	38.0	270.0	2384.0	2990.0	8336.0	8340.0	8342.0	8342.0
1327470600	8512610.0	371.729694323	1072.89139324	2.88621385277	2.0	2.0	2.0	2.0	2.0	2.0	6.0	42.0	215.0	1943.0	3922.0	6981.0	8286.0	8292.0	19416.0
1327471200	2971635.0	332.956302521	916.477541664	2.75254600897	2.0	2.0	2.0	2.0	2.0	2.0	5.0	29.0	147.0	2581.0	4603.0	4633.0	4744.0	6334.0	6334.0
1327471800	2561704.0	302.980958013	843.336611841	2.78346407435	2.0	2.0	2.0	2.0	2.0	2.0	5.0	21.0	128.0	2333.0	2498.0	2513.0	7278.0	10745.0	10745.0
1327472400	9798789.0	592.859934656	1653.69811948	2.78935718676	2.0	2.0	2.0	2.0	2.0	2.0	6.0	41.0	243.0	5194.0	7605.0	7641.0	7668.0	7671.0	12934.0
1327473000	7093286.0	280.134512855	661.335202744	2.36077731374	2.0	2.0	2.0	2.0	2.0	2.0	6.0	35.0	200.0	1499.0	2875.0	3607.0	5083.0	8964.0	13603.0
1327473600	4473597.0	283.965786467	718.159586588	2.52903561208	2.0	2.0	2.0	2.0	2.0	2.0	6.0	33.0	182.0	1532.0	3299.0	3385.0	4309.0	12970.0	14524.0
1327474200	10605363.0	721.993532575	2664.77187333	3.69085283052	2.0	2.0	2.0	2.0	2.0	2.0	5.0	27.0	197.0	2560.0	15672.0	15753.0	15816.0	15816.0	16722.0
1327474800	10626098.0	481.363442809	1768.82783224	3.67462020365	2.0	2.0	2.0	2.0	2.0	2.0	6.0	36.0	206.0	2956.0	3272.0	15402.0	15489.0	15490.0	15490.0
1327475400	5434423.0	316.02832054	1004.92008189	3.17984185777	2.0	2.0	2.0	2.0	2.0	2.0	6.0	33.0	170.0	1664.0	2638.0	7167.0	9725.0	9729.0	13456.0
1327476000	7528447.0	363.657955753	1035.55841413	2.84761655216	2.0	2.0	2.0	2.0	2.0	2.0	8.0	47.0	224.0	1817.0	3793.0	3811.0	9606.0	9608.0	12166.0
1327476600	11851146.0	585.530928854	1850.49523154	3.16037145153	2.0	2.0	2.0	2.0	2.0	2.0	6.0	47.0	230.0	2384.0	9698.0	9767.0	9870.0	9873.0	11860.0
1327477200	2954562.0	340.544260028	947.000982748	2.78084552848	2.0	2.0	2.0	2.0	2.0	2.0	5.0	29.0	165.0	2171.0	2780.0	4720.0	9560.0	9561.0	9561.0
1327477800	6714394.0	412.913965931	1205.27396983	2.91894697026	2.0	2.0	2.0	2.0	2.0	2.0	5.0	27.0	185.0	2585.0	4039.0	8591.0	9969.0	9971.0	9971.0
1327478400	4361466.0	239.286004279	643.390005536	2.68879079441	2.0	2.0	2.0	2.0	2.0	2.0	6.0	36.0	176.0	1169.0	2669.0	3391.0	5968.0	12278.0	12278.0
1327479000	4519582.0	262.385021771	655.247989991	2.49727665691	2.0	2.0	2.0	2.0	2.0	2.0	6.0	38.0	176.0	1517.0	2455.0	2732.0	5598.0	9789.0	13915.0
1327479600	7435815.0	347.64668755	797.302447489	2.29342742515	2.0	2.0	2.0	2.0	2.0	2.0	6.0	38.0	215.0	2087.0	2710.0	5083.0	5089.0	6735.0	7899.0
1327480200	6873242.0	406.460201064	1073.55303779	2.6412254754	2.0	2.0	2.0	2.0	2.0	2.0	8.0	44.0	207.0	3427.0	4717.0	4942.0	5467.0	10295.0	20776.0
1327480800	6513127.0	317.558605558	1004.77651165	3.16406639299	2.0	2.0	2.0	2.0	2.0	2.0	6.0	36.0	170.0	1379.0	3181.0	6969.0	8274.0	8277.0	8277.0
1327481400	4460597.0	258.076660495	661.200305486	2.56203061609	2.0	2.0	2.0	2.0	2.0	2.0	5.0	30.0	179.0	1451.0	2897.0	3094.0	5179.0	19343.0	19859.0
1327482000	8635703.0	432.477113381	1239.15098139	2.86524059436	2.0	2.0	2.0	2.0	2.0	2.0	6.0	38.0	197.0	3344.0	6603.0	6607.0	6630.0	9287.0	14469.0
1327482600	5419559.0	278.611916512	701.570498181	2.51809221573	2.0	2.0	2.0	2.0	2.0	2.0	6.0	33.0	200.0	1478.0	3365.0	3368.0	5257.0	14526.0	15148.0
1327483200	2026641.0	240.151795236	692.31378468	2.88281744468	2.0	2.0	2.0	2.0	2.0	2.0	5.0	27.0	123.0	1208.0	3256.0	4300.0	4330.0	6582.0	6582.0
1327483800	3604446.0	218.200012107	587.246201496	2.69132066412	2.0	2.0	2.0	2.0	2.0	2.0	6.0	29.0	161.0	995.0	2219.0	4241.0	4591.0	8138.0	8957.0
1327484400	4998554.0	229.881990434	716.614409172	3.11731426989	2.0	2.0	2.0	2.0	2.0	2.0	5.0	29.0	152.0	1091.0	1943.0	2707.0	8391.0	8393.0	8450.0
1327485000	7105368.0	269.326358881	611.454180626	2.27030946086	2.0	2.0	2.0	2.0	2.0	2.0	5.0	32.0	191.0	1769.0	2195.0	2821.0	4954.0	9977.0	14589.0
1327485600	5427352.0	330.714277009	1044.05834277	3.15697995325	2.0	2.0	2.0	2.0	2.0	2.0	6.0	35.0	188.0	1823.0	3653.0	3751.0	15661.0	15661.0	15661.0
1327486200	14235815.0	615.04428411	2216.97449787	3.60457702827	2.0	2.0	2.0	2.0	2.0	2.0	6.0	35.0	230.0	2618.0	14229.0	14763.0	14767.0	14769.0	14769.0
1327486800	13772736.0	1122.38089805	2739.80848464	2.441068348	2.0	2.0	2.0	2.0	2.0	2.0	6.0	44.0	236.0	9953.0	10055.0	10060.0	10062.0	10062.0	10063.0
1327487400	4024727.0	258.691798432	966.852246077	3.73746772004	2.0	2.0	2.0	2.0	2.0	2.0	6.0	32.0	150.0	1037.0	1867.0	4441.0	10241.0	10242.0	10243.0
1327488000	7508339.0	398.764618408	1254.07684078	3.14490499631	2.0	2.0	2.0	2.0	2.0	2.0	5.0	18.0	141.0	2183.0	4765.0	6924.0	9572.0	10232.0	10232.0
1327488600	4296298.0	281.116142119	637.971183965	2.26942209422	2.0	2.0	2.0	2.0	2.0	2.0	6.0	32.0	176.0	1973.0	2075.0	3002.0	4180.0	7410.0	7479.0
1327489200	6043690.0	348.620789109	1253.83303523	3.59655268533	2.0	2.0	2.0	2.0	2.0	2.0	6.0	36.0	176.0	1379.0	2696.0	10031.0	10085.0	11141.0	15247.0
1327489800	8399524.0	459.492560175	1639.72018056	3.56854565813	2.0	2.0	2.0	2.0	2.0	2.0	6.0	38.0	182.0	1442.0	9419.0	9420.0	9872.0	11305.0	12958.0
1327490400	6211366.0	273.664625281	648.188849822	2.36855183295	2.0	2.0	2.0	2.0	2.0	2.0	6.0	32.0	195.0	1469.0	2339.0	3448.0	5425.0	9851.0	12532.0
1327491000	4745909.0	278.875837349	712.892449964	2.55630769859	2.0	2.0	2.0	2.0	2.0	2.0	6.0	38.0	191.0	1391.0	2693.0	3574.0	5230.0	14075.0	14458.0
1327491600	5180895.0	306.59811812	766.292295394	2.49933789578	2.0	2.0	2.0	2.0	2.0	2.0	5.0	26.0	170.0	2015.0	2903.0	4525.0	4534.0	11336.0	11620.0
1327492200	4753560.0	245.256423486	561.523744482	2.28953736054	2.0	2.0	2.0	2.0	2.0	2.0	6.0	41.0	185.0	1445.0	2150.0	2557.0	4627.0	10011.0	11554.0
1327492800	6012334.0	255.778694801	640.488781883	2.50407400968	2.0	2.0	2.0	2.0	2.0	2.0	5.0	24.0	147.0	1748.0	2668.0	3307.0	4819.0	9860.0	17910.0
1327493400	5914031.0	304.157117877	873.421705799	2.8716135657	2.0	2.0	2.0	2.0	2.0	2.0	8.0	45.0	209.0	1346.0	2716.0	6828.0	6834.0	10523.0	10766.0
1327494000	5506245.0	367.548561511	1150.19652915	3.12937295801	2.0	2.0	2.0	2.0	2.0	2.0	5.0	33.0	176.0	1703.0	6370.0	6372.0	10769.0	10772.0	10772.0
1327494600	7906607.0	582.95413994	1592.37717946	2.73156509297	2.0	2.0	2.0	2.0	2.0	2.0	6.0	39.0	272.0	5274.0	6904.0	8355.0	8410.0	8697.0	13921.0
1327495200	9046991.0	380.62143969	1262.96127487	3.31815589763	2.0	2.0	2.0	2.0	2.0	2.0	6.0	38.0	188.0	1628.0	3733.0	8219.0	9954.0	10388.0	12311.0
1327495800	5016731.0	317.093167309	939.7081756	2.96350811837	2.0	2.0	2.0	2.0	2.0	2.0	5.0	29.0	176.0	1607.0	3664.0	4606.0	9404.0	9407.0	9684.0
1327496400	6263231.0	405.334649236	1117.93605318	2.75805696672	2.0	2.0	2.0	2.0	2.0	2.0	5.0	33.0	248.0	1844.0	5790.0	7107.0	7251.0	10616.0	15012.0
1327497000	3266062.0	316.080712281	946.151275653	2.99338504025	2.0	2.0	2.0	2.0	2.0	2.0	5.0	23.0	134.0	1748.0	4072.0	5937.0	5941.0	11218.0	11372.0
1327497600	4919409.0	339.714729646	1254.03550424	3.69143694637	2.0	2.0	2.0	2.0	2.0	2.0	5.0	32.0	164.0	1610.0	3289.0	3836.0	13627.0	13633.0	13633.0
1327498200	5382869.0	284.913407082	721.618383849	2.5327638711	2.0	2.0	2.0	2.0	2.0	2.0	6.0	35.0	185.0	1484.0	2789.0	2909.0	5746.0	8853.0	10301.0
1327498800	4440079.0	287.849529984	804.111591843	2.79351365239	2.0	2.0	2.0	2.0	2.0	2.0	8.0	41.0	194.0	1229.0	3472.0	5263.0	5385.0	9495.0	9785.0
1327499400	5528931.0	340.283788774	1018.63214439	2.99347832014	2.0	2.0	2.0	2.0	2.0	2.0	5.0	20.0	155.0	1577.0	4888.0	4942.0	8775.0	8775.0	8937.0
1327500000	5074939.0	308.263317743	976.97454977	3.16928578114	2.0	2.0	2.0	2.0	2.0	2.0	6.0	41.0	185.0	1223.0	2627.0	7305.0	7305.0	10504.0	10961.0
1327500600	11694277.0	610.030099113	1569.22319869	2.57237011907	2.0	2.0	2.0	2.0	2.0	2.0	6.0	38.0	281.0	5092.0	6927.0	7005.0	7009.0	10781.0	10900.0
1327501200	8489063.0	375.058010073	1194.50773515	3.18486128296	2.0	2.0	2.0	2.0	2.0	2.0	5.0	26.0	164.0	1667.0	6324.0	7371.0	10316.0	10318.0	10319.0
1327501800	4098212.0	300.169340072	848.194032947	2.82571841863	2.0	2.0	2.0	2.0	2.0	2.0	5.0	26.0	143.0	1736.0	3934.0	4960.0	6403.0	6697.0	7923.0
1327502400	4680193.0	242.962830296	574.544257025	2.3647413735	2.0	2.0	2.0	2.0	2.0	2.0	6.0	32.0	170.0	1229.0	2512.0	2884.0	4636.0	8526.0	10328.0
1327503000	5495636.0	432.931778793	1123.9080259	2.59603956317	2.0	2.0	2.0	2.0	2.0	2.0	6.0	35.0	201.0	3499.0	5350.0	5494.0	5644.0	7305.0	7893.0
1327503600	5311868.0	344.367455429	920.183133216	2.6720966767	2.0	2.0	2.0	2.0	2.0	2.0	5.0	20.0	173.0	1967.0	4105.0	4561.0	7149.0	9890.0	12265.0
1327504200	5170880.0	318.521621289	792.297712702	2.48742207671	2.0	2.0	2.0	2.0	2.0	2.0	6.0	44.0	212.0	1709.0	3139.0	3142.0	6930.0	10139.0	11307.0
1327504800	6636122.0	297.690741073	776.98380937	2.61003686769	2.0	2.0	2.0	2.0	2.0	2.0	6.0	39.0	206.0	1577.0	3175.0	3664.0	6864.0	10298.0	15441.0
1327505400	5272967.0	296.901295045	779.212045098	2.62448179952	2.0	2.0	2.0	2.0	2.0	2.0	6.0	39.0	183.0	1418.0	3514.0	3727.0	5875.0	13147.0	13726.0
1327506000	5266837.0	259.181979233	654.897065642	2.52678472315	2.0	2.0	2.0	2.0	2.0	2.0	6.0	33.0	173.0	1313.0	3262.0	3760.0	4762.0	8628.0	14263.0
1327506600	9585646.0	432.858252427	1076.94917216	2.4879950102	2.0	2.0	2.0	2.0	2.0	2.0	6.0	38.0	227.0	3190.0	4549.0	6285.0	6361.0	7919.0	9225.0
1327507200	7063930.0	434.489482101	1068.50503863	2.45921957296	2.0	2.0	2.0	2.0	2.0	2.0	6.0	38.0	236.0	3154.0	4018.0	5860.0	6868.0	8757.0	8757.0
1327507800	7635479.0	398.69871025	1212.44009273	3.04099326524	2.0	2.0	2.0	2.0	2.0	2.0	8.0	47.0	221.0	1700.0	7692.0	7731.0	7785.0	8558.0	11408.0
1327508400	6900388.0	418.789099958	1187.08550544	2.8345663857	2.0	2.0	2.0	2.0	2.0	2.0	6.0	36.0	209.0	2321.0	4507.0	7209.0	11623.0	11624.0	12209.0
1327509000	4649585.0	297.136055726	827.87870972	2.78619404736	2.0	2.0	2.0	2.0	2.0	2.0	5.0	27.0	155.0	1793.0	4441.0	4588.0	5622.0	12418.0	12781.0
1327509600	6995182.0	634.656323716	1698.07095002	2.67557556202	2.0	2.0	2.0	2.0	2.0	2.0	5.0	32.0	224.0	4705.0	6891.0	9893.0	10397.0	10963.0	23638.0
1327510200	1332612.0	774.774418605	1290.40876507	1.66552835778	5.0	5.0	5.0	5.0	5.0	5.0	5.0	377.0	1070.0	1745.0	6705.0	6705.0	6706.0	6706.0	6706.0
1327510800	4788806.0	1348.19988739	1728.96469625	1.28242459625	5.0	5.0	5.0	5.0	5.0	5.0	5.0	137.0	3685.0	4234.0	4273.0	5007.0	5011.0	5011.0	5011.0
1327511400	3980601.0	1040.68	1615.71459623	1.55255659398	5.0	5.0	5.0	5.0	5.0	5.0	5.0	272.0	1505.0	4645.0	7610.0	7611.0	7611.0	7612.0	7612.0
1327512000	1605740.0	1084.22687373	1553.33009096	1.43266149234	5.0	5.0	5.0	5.0	5.0	5.0	5.0	293.0	1445.0	5101.0	5226.0	5233.0	5233.0	5233.0	5233.0
1327512600	1623020.0	925.852823731	1528.62476806	1.65104510013	5.0	5.0	5.0	5.0	5.0	5.0	5.0	6.0	1775.0	3205.0	8013.0	8088.0	8094.0	8094.0	8094.0
1327513200	5400905.0	1648.62789988	3221.32822871	1.95394499204	5.0	5.0	5.0	5.0	5.0	5.0	5.0	6.0	2162.0	8681.0	8744.0	20047.0	20048.0	20049.0	20049.0
