#
# Generated On: 2012-02-05T22:30:41.354256
#           By: cwa.analyze.statistics
#      Version: 11.11.23
#       Author: Thomas A. de Ruiter <thomas@de-ruiter.cx>
#
#  Commandline: /home/af10028/bin/cwa analyze
#     Work Dir: /scratch/af10028/var/thesis-project/result/analyses/workload-24h-04944l-0s-default
#

Time	Sum	Avg	StdDev	CoV	0.000000-Pct	0.010000-Pct	0.100000-Pct	1.000000-Pct	2.000000-Pct	5.000000-Pct	25.000000-Pct	50.000000-Pct	75.000000-Pct	95.000000-Pct	98.000000-Pct	99.000000-Pct	99.900000-Pct	99.990000-Pct	100.000000-Pct
1327423200	21765.0	1813.75	2985.46634472	1.64601866008	3.0	3.0	3.0	3.0	3.0	3.0	9.0	451.0	3583.0	10247.0	10247.0	10247.0	10247.0	10247.0	10247.0
1327423800	184910.0	1027.27777778	1834.29979351	1.78559279018	2.0	2.0	2.0	2.0	2.0	3.0	9.0	293.5	1142.0	5168.0	6684.0	7346.0	13355.0	13355.0	13355.0
1327424400	138293.0	886.493589744	1473.02885895	1.66163509358	2.0	2.0	2.0	2.0	2.0	3.0	8.0	295.0	816.0	4648.0	5321.0	6426.0	6810.0	6810.0	6810.0
1327425000	196016.0	1126.52873563	1676.95054466	1.48859988353	2.0	2.0	2.0	2.0	2.0	3.0	4.0	417.5	1614.0	4759.0	7045.0	8062.0	9775.0	9775.0	9775.0
1327425600	194886.0	928.028571429	1693.84796749	1.82521101143	2.0	2.0	2.0	2.0	2.0	3.0	9.0	369.5	741.0	5022.0	7213.0	7706.0	9446.0	9446.0	9446.0
1327426200	276812.0	1628.30588235	1921.24165364	1.17990217591	2.0	2.0	2.0	2.0	2.0	2.0	3.0	1372.0	1677.0	5434.0	7975.0	9065.0	11500.0	11500.0	11500.0
1327426800	268019.0	1531.53714286	1078.62064296	0.70427325122	2.0	2.0	2.0	2.0	2.0	2.0	15.0	1872.0	2045.0	2885.0	4180.0	4515.0	6839.0	6839.0	6839.0
1327427400	321033.0	1465.90410959	1280.28833655	0.873377957109	2.0	2.0	2.0	2.0	2.0	2.0	480.0	1591.0	1641.0	3955.0	5626.0	7180.0	7832.0	7832.0	7832.0
1327428000	350873.0	1392.3531746	1284.49030239	0.92253195943	2.0	2.0	2.0	2.0	2.0	2.0	3.0	1493.5	1663.0	4406.0	5303.0	5968.0	7717.0	7717.0	7717.0
1327428600	294515.0	2059.54545455	2164.28919382	1.05085769728	2.0	2.0	2.0	2.0	2.0	2.0	9.0	1861.0	2041.0	6345.0	10702.0	10961.0	11855.0	11855.0	11855.0
1327429200	589831.0	2359.324	1710.70897344	0.72508437732	2.0	2.0	2.0	2.0	2.0	3.0	423.0	2810.0	2882.0	5678.0	7342.0	7789.0	10049.0	10049.0	10049.0
1327429800	651504.0	2870.06167401	1866.72344286	0.650412309868	2.0	2.0	2.0	2.0	2.0	3.0	3392.0	3507.0	3629.0	4483.0	6340.0	8152.0	13450.0	13450.0	13450.0
1327430400	570367.0	3259.24	1703.11051119	0.522548358265	2.0	2.0	2.0	2.0	3.0	3.0	3652.0	3730.0	3877.0	4925.0	7614.0	8571.0	8592.0	8592.0	8592.0
1327431000	589334.0	2819.77990431	1774.89440081	0.629444304535	2.0	2.0	2.0	2.0	2.0	2.0	1272.0	3544.0	3653.0	3809.0	5843.0	6230.0	12352.0	12352.0	12352.0
1327431600	762750.0	2979.4921875	2099.42817236	0.704626171256	2.0	2.0	2.0	2.0	2.0	2.0	3394.0	3587.5	3663.0	4785.0	7269.0	9439.0	19734.0	19734.0	19734.0
1327432200	620272.0	2639.45531915	1658.92125679	0.628508936961	2.0	2.0	2.0	2.0	2.0	3.0	3.0	3451.0	3561.0	3742.0	4301.0	5660.0	9598.0	9598.0	9598.0
1327432800	471955.0	2743.9244186	1720.97431947	0.627194505725	2.0	2.0	2.0	2.0	2.0	3.0	2857.0	3094.0	3295.0	4720.0	7571.0	8735.0	12235.0	12235.0	12235.0
1327433400	513411.0	3149.7607362	2032.00501796	0.645129960066	2.0	2.0	2.0	2.0	2.0	3.0	3212.0	3278.0	3349.0	7930.0	8878.0	9788.0	11443.0	11443.0	11443.0
1327434000	447162.0	2365.93650794	1918.87362688	0.81104189417	2.0	2.0	2.0	2.0	2.0	2.0	3.0	3112.0	3244.0	3967.0	7296.0	9657.0	13700.0	13700.0	13700.0
1327434600	543916.0	2396.10572687	1504.97156864	0.628090635466	2.0	2.0	2.0	2.0	2.0	2.0	2649.0	2868.0	3018.0	4405.0	6437.0	6958.0	7371.0	7371.0	7371.0
1327435200	613171.0	2554.87916667	1798.86280151	0.704089189413	2.0	2.0	2.0	2.0	2.0	3.0	2590.0	3050.0	3171.0	4744.0	6611.0	8342.0	12777.0	12777.0	12777.0
1327435800	619639.0	3278.51322751	1941.06016658	0.59205500539	2.0	2.0	2.0	2.0	2.0	3.0	3381.0	3797.0	3921.0	4153.0	7753.0	9400.0	17343.0	17343.0	17343.0
1327436400	746594.0	2998.36947791	1652.32770807	0.551075416238	2.0	2.0	2.0	2.0	2.0	2.0	3521.0	3594.0	3629.0	4337.0	6344.0	7860.0	9051.0	9051.0	9051.0
1327437000	782969.0	3107.01984127	1909.67970751	0.614633895201	2.0	2.0	2.0	2.0	2.0	3.0	3422.0	3683.0	3870.0	4379.0	7734.0	10564.0	10977.0	10977.0	10977.0
1327437600	474330.0	2927.96296296	1869.44469082	0.638479623707	2.0	2.0	2.0	2.0	2.0	2.0	1304.0	3713.5	3753.0	4273.0	6191.0	7833.0	11867.0	11867.0	11867.0
1327438200	700122.0	3153.7027027	2372.41146231	0.752262240914	2.0	2.0	2.0	2.0	2.0	3.0	3420.0	3544.5	3587.0	5846.0	9661.0	10173.0	23629.0	23629.0	23629.0
1327438800	468065.0	2571.78571429	1722.30328347	0.669691597515	2.0	2.0	2.0	2.0	2.0	2.0	3.0	3426.0	3546.0	3850.0	5559.0	6255.0	6845.0	6845.0	6845.0
1327439400	512653.0	2642.54123711	1811.79680398	0.685626690904	2.0	2.0	2.0	2.0	2.0	2.0	3.0	3447.0	3607.0	4595.0	6574.0	7870.0	9016.0	9016.0	9016.0
1327440000	722387.0	2767.76628352	1739.91519327	0.628635157394	2.0	2.0	2.0	2.0	2.0	2.0	3224.0	3292.0	3334.0	4382.0	7450.0	8661.0	12410.0	12410.0	12410.0
1327440600	449889.0	2883.90384615	1958.80271456	0.679219148437	2.0	2.0	2.0	2.0	2.0	2.0	3194.0	3351.0	3446.0	5428.0	7112.0	10395.0	12770.0	12770.0	12770.0
1327441200	440422.0	2406.67759563	1445.20908404	0.600499662548	2.0	2.0	2.0	2.0	2.0	2.0	2868.0	3001.0	3145.0	3245.0	5946.0	6209.0	6962.0	6962.0	6962.0
1327441800	648393.0	2532.78515625	1657.05457468	0.654242058625	2.0	2.0	2.0	2.0	2.0	2.0	2741.0	3189.0	3244.0	3323.0	5740.0	8488.0	11149.0	11149.0	11149.0
1327442400	529726.0	2926.66298343	1937.57871301	0.662043673626	2.0	2.0	2.0	2.0	2.0	2.0	3024.0	3442.0	4069.0	4342.0	8358.0	9241.0	11331.0	11331.0	11331.0
1327443000	720179.0	3790.41578947	2041.85085422	0.538687829416	2.0	2.0	2.0	2.0	3.0	3.0	4325.0	4473.0	4651.0	5604.0	6592.0	9802.0	12960.0	12960.0	12960.0
1327443600	664901.0	3358.08585859	1854.74002932	0.552320609842	2.0	2.0	2.0	2.0	2.0	2.0	3912.0	4116.0	4228.0	4324.0	7568.0	9201.0	9468.0	9468.0	9468.0
1327444200	531619.0	3164.39880952	1942.68685825	0.613919728577	2.0	2.0	2.0	2.0	2.0	2.0	3779.0	3855.0	4119.0	4384.0	7644.0	9265.0	9623.0	9623.0	9623.0
1327444800	725290.0	3486.97115385	2080.75167325	0.596721791333	2.0	2.0	2.0	2.0	3.0	3.0	3977.0	4201.5	4349.0	5744.0	7233.0	9477.0	11475.0	11475.0	11475.0
1327445400	732951.0	3523.80288462	2261.32454123	0.641728443751	2.0	2.0	2.0	2.0	3.0	3.0	422.0	4393.0	4612.0	5675.0	7441.0	8743.0	14207.0	14207.0	14207.0
1327446000	1095060.0	4620.50632911	2227.11379619	0.482006437727	88.0	88.0	88.0	137.0	160.0	209.0	5169.0	5627.0	5785.0	6173.0	7481.0	7760.0	8774.0	8774.0	8774.0
1327446600	1014650.0	4373.49137931	2567.23248498	0.586998409813	3.0	3.0	3.0	3.0	3.0	78.0	402.0	5755.0	5901.0	5950.0	6989.0	7997.0	9664.0	9664.0	9664.0
1327447200	772803.0	4177.31351351	2359.08052489	0.564736287391	2.0	2.0	2.0	2.0	2.0	3.0	5180.0	5333.0	5522.0	5686.0	6757.0	7307.0	8472.0	8472.0	8472.0
1327447800	805636.0	4196.02083333	2362.82562222	0.563111032112	2.0	2.0	2.0	2.0	2.0	3.0	4965.0	5103.0	5191.0	6572.0	8621.0	11028.0	11314.0	11314.0	11314.0
1327448400	688921.0	3764.59562842	2581.11634643	0.685629108994	2.0	2.0	2.0	2.0	3.0	3.0	89.0	4884.0	5113.0	6152.0	8817.0	11450.0	13076.0	13076.0	13076.0
1327449000	754483.0	3476.88018433	2262.93651701	0.650852602632	2.0	2.0	2.0	2.0	2.0	2.0	3.0	4637.0	4724.0	4877.0	7424.0	7932.0	10064.0	10064.0	10064.0
1327449600	540311.0	3376.94375	2027.6489631	0.600439069529	2.0	2.0	2.0	2.0	2.0	2.0	4134.0	4298.0	4476.0	4562.0	5158.0	6394.0	12143.0	12143.0	12143.0
1327450200	757745.0	3183.80252101	1851.61417516	0.581573185819	2.0	2.0	2.0	2.0	2.0	3.0	3856.0	3978.5	4170.0	4371.0	6538.0	7425.0	8718.0	8718.0	8718.0
1327450800	584011.0	3156.81621622	1701.32086434	0.538935670565	2.0	2.0	2.0	2.0	2.0	3.0	3831.0	3909.0	4019.0	4073.0	5631.0	6225.0	7650.0	7650.0	7650.0
1327451400	578522.0	2892.61	1663.76319159	0.575177155437	2.0	2.0	2.0	2.0	2.0	2.0	3478.0	3653.0	3769.0	4148.0	5664.0	6742.0	6821.0	6821.0	6821.0
1327452000	623019.0	3146.56060606	2060.51691653	0.65484736336	2.0	2.0	2.0	2.0	2.0	2.0	4.0	4194.0	4405.0	4481.0	7257.0	7858.0	8687.0	8687.0	8687.0
1327452600	533522.0	2964.01111111	2057.5404148	0.694174325827	2.0	2.0	2.0	2.0	2.0	3.0	3.0	3869.5	4059.0	5226.0	6933.0	9116.0	10214.0	10214.0	10214.0
1327453200	521602.0	2897.78888889	1725.12763025	0.595325503823	2.0	2.0	2.0	2.0	2.0	3.0	3401.0	3619.5	3765.0	4265.0	5340.0	6055.0	10745.0	10745.0	10745.0
1327453800	742567.0	2834.22519084	1933.17282698	0.682081590845	2.0	2.0	2.0	2.0	2.0	3.0	3205.0	3272.0	3436.0	4471.0	6864.0	11726.0	13357.0	13357.0	13357.0
1327454400	673299.0	2805.4125	1562.37741298	0.556915395858	2.0	2.0	2.0	2.0	2.0	2.0	3130.0	3286.0	3480.0	4699.0	6223.0	6297.0	8493.0	8493.0	8493.0
1327455000	629585.0	2518.34	2075.38322208	0.824107635218	2.0	2.0	2.0	2.0	2.0	2.0	3.0	3153.0	3182.0	4703.0	7882.0	8493.0	16905.0	16905.0	16905.0
1327455600	477731.0	2488.18229167	1649.02119567	0.662741311677	2.0	2.0	2.0	2.0	2.0	2.0	809.0	3034.5	3191.0	3857.0	5740.0	7755.0	11546.0	11546.0	11546.0
1327456200	511842.0	2585.06060606	1662.64259306	0.64317354462	2.0	2.0	2.0	2.0	2.0	2.0	2779.0	2980.0	3038.0	4407.0	8502.0	9689.0	10190.0	10190.0	10190.0
1327456800	390645.0	2089.01069519	1556.26678681	0.744977893311	2.0	2.0	2.0	2.0	2.0	2.0	3.0	2642.0	2708.0	4008.0	5875.0	7689.0	9615.0	9615.0	9615.0
1327457400	357353.0	2192.34969325	1659.36088966	0.756886957756	2.0	2.0	2.0	2.0	2.0	2.0	2327.0	2496.0	2664.0	4250.0	7902.0	9618.0	11777.0	11777.0	11777.0
1327458000	511150.0	2568.59296482	2188.70064774	0.852101005379	2.0	2.0	2.0	2.0	2.0	2.0	43.0	2958.0	3292.0	6160.0	10330.0	12275.0	14846.0	14846.0	14846.0
1327458600	517666.0	2476.8708134	1692.5152049	0.683328010384	2.0	2.0	2.0	2.0	2.0	2.0	3.0	3169.0	3268.0	3715.0	5191.0	7738.0	9890.0	9890.0	9890.0
1327459200	447551.0	2432.3423913	1672.06514016	0.687430004156	2.0	2.0	2.0	2.0	2.0	3.0	2829.0	2939.5	3046.0	3811.0	7908.0	8451.0	9795.0	9795.0	9795.0
1327459800	553046.0	2572.30697674	1642.67269927	0.638599014082	2.0	2.0	2.0	2.0	2.0	3.0	2813.0	2878.0	3119.0	4846.0	7089.0	7800.0	9821.0	9821.0	9821.0
1327460400	540011.0	2547.22169811	1739.82712627	0.683029328603	2.0	2.0	2.0	2.0	2.0	2.0	21.0	2875.0	3599.0	4805.0	7026.0	7888.0	8757.0	8757.0	8757.0
1327461000	497380.0	2908.65497076	1718.9919492	0.590992044944	2.0	2.0	2.0	2.0	2.0	2.0	3348.0	3759.0	3856.0	4105.0	5621.0	7022.0	7118.0	7118.0	7118.0
1327461600	812909.0	3175.42578125	2035.29081083	0.640950521613	2.0	2.0	2.0	2.0	2.0	2.0	335.0	4020.0	4087.0	5567.0	7152.0	8745.0	10594.0	10594.0	10594.0
1327462200	701931.0	3794.22162162	2803.60473893	0.738914333035	2.0	2.0	2.0	2.0	2.0	3.0	3904.0	4617.0	4691.0	6461.0	9172.0	17456.0	23357.0	23357.0	23357.0
1327462800	788605.0	3536.34529148	2157.46268266	0.610082586636	2.0	2.0	2.0	2.0	2.0	2.0	255.0	4553.0	4675.0	4859.0	5782.0	7371.0	12170.0	12170.0	12170.0
1327463400	803923.0	3254.74898785	1906.0821846	0.585631086058	2.0	2.0	2.0	2.0	2.0	3.0	1652.0	4138.0	4356.0	4438.0	6374.0	6994.0	7223.0	7223.0	7223.0
1327464000	748474.0	3226.18103448	1831.09321591	0.567572989965	2.0	2.0	2.0	2.0	2.0	2.0	3869.0	3959.0	4077.0	4430.0	6737.0	6946.0	9409.0	9409.0	9409.0
1327464600	750047.0	3333.54222222	2038.88160634	0.611626153331	2.0	2.0	2.0	2.0	2.0	3.0	3876.0	4008.0	4070.0	5784.0	8321.0	9630.0	10172.0	10172.0	10172.0
1327465200	796309.0	3447.22510823	1921.66405051	0.557452440783	2.0	2.0	2.0	2.0	2.0	3.0	4281.0	4333.0	4368.0	4594.0	6200.0	6925.0	8336.0	8336.0	8336.0
1327465800	689376.0	3330.31884058	1884.02687786	0.565719670712	2.0	2.0	2.0	2.0	2.0	3.0	4013.0	4163.0	4442.0	4555.0	5185.0	6895.0	7052.0	7052.0	7052.0
1327466400	755437.0	3402.86936937	2147.56079799	0.631102920764	2.0	2.0	2.0	2.0	3.0	3.0	3957.0	4035.0	4130.0	6109.0	7745.0	9240.0	12329.0	12329.0	12329.0
1327467000	890806.0	4568.23589744	2362.10828984	0.517072310378	77.0	77.0	77.0	77.0	93.0	154.0	5177.0	5387.0	5649.0	5738.0	7325.0	12953.0	13304.0	13304.0	13304.0
1327467600	578272.0	3779.55555556	2319.27838111	0.613637859535	2.0	2.0	2.0	2.0	2.0	3.0	133.0	4910.0	5186.0	5346.0	6088.0	7027.0	10090.0	10090.0	10090.0
1327468200	807241.0	3509.74347826	2162.80658464	0.616229248102	2.0	2.0	2.0	2.0	2.0	2.0	5.0	4622.5	4711.0	4788.0	6539.0	8097.0	8477.0	8477.0	8477.0
1327468800	841557.0	3691.03947368	1905.53560249	0.516259881823	2.0	2.0	2.0	2.0	2.0	3.0	4251.0	4355.0	4503.0	5659.0	7189.0	8102.0	8424.0	8424.0	8424.0
1327469400	604370.0	3534.32748538	1882.74774116	0.532703250886	2.0	2.0	2.0	2.0	2.0	3.0	4117.0	4253.0	4312.0	5643.0	6493.0	7592.0	8554.0	8554.0	8554.0
1327470000	490742.0	3105.96202532	1891.03149113	0.608839218162	2.0	2.0	2.0	2.0	2.0	2.0	645.0	3897.0	4109.0	5606.0	6310.0	6696.0	7675.0	7675.0	7675.0
1327470600	779873.0	3107.06374502	2088.83510214	0.672285885826	2.0	2.0	2.0	2.0	2.0	3.0	3622.0	3736.0	4146.0	4874.0	5923.0	7291.0	19429.0	19429.0	19429.0
1327471200	485252.0	3013.98757764	1557.65652499	0.516809205368	2.0	2.0	2.0	2.0	2.0	2.0	3566.0	3658.0	3820.0	4081.0	4105.0	5052.0	6338.0	6338.0	6338.0
1327471800	458845.0	2607.07386364	1720.61807838	0.659980563797	2.0	2.0	2.0	2.0	2.0	2.0	4.0	3386.5	3497.0	3589.0	5883.0	7346.0	10753.0	10753.0	10753.0
1327472400	320894.0	2890.93693694	1892.86467018	0.654758201743	2.0	2.0	2.0	3.0	3.0	3.0	3078.0	3273.0	3809.0	5001.0	6629.0	7231.0	12941.0	12941.0	12941.0
1327473000	864844.0	3378.296875	2281.00224053	0.675192952228	2.0	2.0	2.0	2.0	2.0	3.0	100.0	4017.0	4734.0	5593.0	8458.0	8978.0	13613.0	13613.0	13613.0
1327473600	700154.0	3554.08121827	2125.75397272	0.598116318162	2.0	2.0	2.0	2.0	2.0	2.0	4145.0	4317.0	4456.0	4608.0	6896.0	12978.0	14531.0	14531.0	14531.0
1327474200	649053.0	3489.53225806	2300.09520873	0.659141408828	2.0	2.0	2.0	2.0	2.0	2.0	719.0	4398.0	4480.0	4558.0	7841.0	10030.0	16726.0	16726.0	16726.0
1327474800	782629.0	4230.42702703	2011.7701124	0.475547763747	2.0	2.0	2.0	2.0	2.0	3.0	4798.0	4983.0	5088.0	5179.0	7187.0	7815.0	10161.0	10161.0	10161.0
1327475400	793688.0	3909.79310345	2221.26952964	0.568129686372	2.0	2.0	2.0	2.0	2.0	3.0	4434.0	4620.0	5172.0	5224.0	7071.0	8364.0	13481.0	13481.0	13481.0
1327476000	872076.0	4152.74285714	2420.44894222	0.582855482625	2.0	2.0	2.0	2.0	2.0	3.0	5054.0	5242.5	5341.0	6049.0	7883.0	8344.0	12176.0	12176.0	12176.0
1327476600	986379.0	4443.14864865	2312.92963439	0.52056093939	2.0	2.0	2.0	3.0	3.0	3.0	5186.0	5303.0	5645.0	5745.0	7342.0	8696.0	11867.0	11867.0	11867.0
1327477200	654872.0	4017.6196319	2522.26248183	0.62780021827	2.0	2.0	2.0	2.0	2.0	2.0	3.0	5529.0	5573.0	5604.0	5613.0	7482.0	8265.0	8265.0	8265.0
1327477800	855481.0	3735.72489083	2437.95406537	0.652605354146	2.0	2.0	2.0	2.0	2.0	2.0	3.0	5108.0	5274.0	5487.0	5501.0	6974.0	9702.0	9702.0	9702.0
1327478400	1032402.0	4393.2	2442.36178396	0.5559414058	2.0	2.0	2.0	2.0	2.0	2.0	5456.0	5605.0	5719.0	5793.0	6853.0	7189.0	11190.0	11190.0	11190.0
1327479000	755450.0	4341.66666667	2646.77633204	0.609622187801	2.0	2.0	2.0	2.0	2.0	2.0	336.0	5677.0	5796.0	5847.0	7121.0	7824.0	13922.0	13922.0	13922.0
1327479600	911363.0	4298.88207547	2142.63178744	0.498416041618	2.0	2.0	2.0	2.0	2.0	3.0	5078.0	5229.5	5473.0	5617.0	5815.0	6743.0	7907.0	7907.0	7907.0
1327480200	712619.0	3790.52659574	2759.25330214	0.72793403039	2.0	2.0	2.0	2.0	2.0	3.0	20.0	5047.0	5204.0	5472.0	7759.0	10300.0	20783.0	20783.0	20783.0
1327480800	794808.0	4034.55837563	2274.84111194	0.563838938527	2.0	2.0	2.0	2.0	3.0	3.0	5117.0	5203.0	5256.0	5428.0	6652.0	7179.0	7325.0	7325.0	7325.0
1327481400	891111.0	3925.59911894	2797.25405533	0.71256742489	2.0	2.0	2.0	2.0	2.0	2.0	5.0	4988.0	5115.0	5210.0	8077.0	12352.0	19866.0	19866.0	19866.0
1327482000	653227.0	3550.14673913	2396.65447952	0.675086033234	2.0	2.0	2.0	2.0	2.0	3.0	72.0	4600.5	4724.0	5333.0	9231.0	10191.0	14498.0	14498.0	14498.0
1327482600	711421.0	3686.11917098	2690.86002967	0.729998110438	2.0	2.0	2.0	2.0	2.0	3.0	51.0	4581.0	4942.0	4993.0	11866.0	14534.0	15156.0	15156.0	15156.0
1327483200	530817.0	3469.39215686	1976.31392748	0.569642703425	2.0	2.0	2.0	2.0	2.0	2.0	4336.0	4468.0	4633.0	4870.0	4904.0	5535.0	6588.0	6588.0	6588.0
1327483800	787013.0	3467.01762115	1703.38763449	0.491312078743	2.0	2.0	2.0	2.0	2.0	3.0	4025.0	4108.0	4208.0	4708.0	5434.0	6210.0	8965.0	8965.0	8965.0
1327484400	826102.0	3344.54251012	1928.19812819	0.576520741583	2.0	2.0	2.0	2.0	2.0	2.0	3934.0	4245.0	4462.0	4694.0	6114.0	6267.0	8458.0	8458.0	8458.0
1327485000	758751.0	4123.64673913	2490.02079571	0.603839502564	3.0	3.0	3.0	42.0	57.0	64.0	4611.0	5131.5	5225.0	6038.0	8888.0	11827.0	14702.0	14702.0	14702.0
1327485600	756760.0	3861.02040816	2071.28316221	0.536460039897	2.0	2.0	2.0	2.0	2.0	3.0	4685.0	4813.0	4910.0	5092.0	6405.0	7432.0	8303.0	8303.0	8303.0
1327486200	753776.0	3489.7037037	2243.51378996	0.642895208433	2.0	2.0	2.0	2.0	2.0	3.0	25.0	4549.0	4844.0	5054.0	6256.0	7611.0	9987.0	9987.0	9987.0
1327486800	590678.0	3536.99401198	2190.28492534	0.61925039113	2.0	2.0	2.0	2.0	2.0	2.0	4.0	4804.0	4921.0	5054.0	5104.0	5589.0	6960.0	6960.0	6960.0
1327487400	725730.0	3169.12663755	2025.98248997	0.639287324768	2.0	2.0	2.0	2.0	2.0	2.0	4.0	4155.0	4337.0	4538.0	6828.0	7286.0	8834.0	8834.0	8834.0
1327488000	754562.0	3542.54460094	1955.79668999	0.552088092122	2.0	2.0	2.0	2.0	2.0	3.0	4367.0	4450.0	4563.0	4637.0	5822.0	6877.0	7617.0	7617.0	7617.0
1327488600	658936.0	3361.91836735	1802.30346159	0.53609376096	2.0	2.0	2.0	2.0	2.0	2.0	3882.0	4140.5	4219.0	4301.0	6613.0	7416.0	7486.0	7486.0	7486.0
1327489200	749465.0	3518.61502347	2125.90401019	0.604187726138	2.0	2.0	2.0	2.0	2.0	2.0	3752.0	4324.0	4526.0	5036.0	6358.0	9543.0	15253.0	15253.0	15253.0
1327489800	653057.0	3774.89595376	2300.93427704	0.609535813762	2.0	2.0	2.0	2.0	2.0	2.0	4397.0	4477.0	4580.0	6002.0	9578.0	11312.0	12967.0	12967.0	12967.0
1327490400	819219.0	3413.4125	2260.94522219	0.662370932957	2.0	2.0	2.0	2.0	2.0	2.0	150.0	4336.0	4504.0	4681.0	7634.0	10374.0	14476.0	14476.0	14476.0
1327491000	733726.0	3428.62616822	2278.79001961	0.664636477646	2.0	2.0	2.0	2.0	2.0	3.0	18.0	4513.5	4592.0	4686.0	7363.0	8097.0	14088.0	14088.0	14088.0
1327491600	726311.0	3577.88669951	2097.3426591	0.586195940578	2.0	2.0	2.0	2.0	2.0	3.0	4236.0	4447.0	4533.0	4626.0	7410.0	9168.0	11628.0	11628.0	11628.0
1327492200	679729.0	3432.97474747	2125.30123858	0.619084436942	2.0	2.0	2.0	2.0	2.0	2.0	582.0	4334.0	4447.0	5258.0	6437.0	10018.0	11561.0	11561.0	11561.0
1327492800	792636.0	3476.47368421	2377.15976534	0.683784771949	2.0	2.0	2.0	2.0	2.0	3.0	4137.0	4193.5	4329.0	7233.0	8221.0	9868.0	17918.0	17918.0	17918.0
1327493400	732158.0	4281.62573099	2289.53454819	0.534734862884	2.0	2.0	2.0	2.0	3.0	3.0	4940.0	5037.0	5660.0	6147.0	7170.0	10551.0	10772.0	10772.0	10772.0
1327494000	872334.0	3859.88495575	2518.35444245	0.652442876231	2.0	2.0	2.0	2.0	2.0	2.0	3.0	5280.0	5554.0	5626.0	5875.0	7530.0	8546.0	8546.0	8546.0
1327494600	629143.0	3836.23780488	2357.37045422	0.614500605574	2.0	2.0	2.0	2.0	2.0	2.0	4762.0	4907.0	4985.0	5282.0	6818.0	8584.0	13928.0	13928.0	13928.0
1327495200	1006307.0	3946.30196078	2552.87547598	0.646903227718	2.0	2.0	2.0	2.0	2.0	3.0	86.0	5323.0	5392.0	5647.0	6866.0	10396.0	12362.0	12362.0	12362.0
1327495800	794054.0	3836.00966184	2304.62357137	0.600786696213	2.0	2.0	2.0	2.0	2.0	2.0	74.0	4942.0	5128.0	5408.0	6883.0	7502.0	9691.0	9691.0	9691.0
1327496400	821514.0	3651.17333333	2188.81260643	0.599481976506	2.0	2.0	2.0	2.0	2.0	2.0	4338.0	4523.0	4691.0	4822.0	6272.0	9128.0	15018.0	15018.0	15018.0
1327497000	539548.0	3211.5952381	1963.63707282	0.611421093644	2.0	2.0	2.0	2.0	2.0	3.0	3757.0	4010.0	4167.0	4262.0	5487.0	11225.0	11379.0	11379.0	11379.0
1327497600	599735.0	2939.87745098	1933.8258921	0.657791327818	2.0	2.0	2.0	2.0	2.0	2.0	3.0	3839.0	4081.0	4765.0	5592.0	6354.0	10196.0	10196.0	10196.0
1327498200	629446.0	3384.11827957	2035.8355631	0.601585226909	2.0	2.0	2.0	2.0	2.0	2.0	3845.0	4118.0	4270.0	5479.0	8366.0	8860.0	10308.0	10308.0	10308.0
1327498800	583719.0	3335.53714286	2273.89991529	0.681719260768	2.0	2.0	2.0	2.0	2.0	2.0	3.0	4458.0	4542.0	5292.0	8652.0	9501.0	9796.0	9796.0	9796.0
1327499400	550128.0	2941.86096257	1987.78170031	0.675688526958	2.0	2.0	2.0	2.0	2.0	2.0	3.0	4072.0	4120.0	4328.0	5929.0	6073.0	8943.0	8943.0	8943.0
1327500000	680328.0	3367.96039604	1862.02638732	0.552864692088	2.0	2.0	2.0	2.0	2.0	3.0	3782.0	3836.0	3901.0	5191.0	7018.0	10169.0	10966.0	10966.0	10966.0
1327500600	670424.0	3132.82242991	1987.77014198	0.634498183811	2.0	2.0	2.0	2.0	2.0	2.0	5.0	4060.5	4170.0	4423.0	5782.0	6209.0	10907.0	10907.0	10907.0
1327501200	643932.0	3499.63043478	2001.1451706	0.571816141131	2.0	2.0	2.0	2.0	2.0	3.0	3899.0	3941.0	4355.0	6199.0	7602.0	9816.0	9858.0	9858.0	9858.0
1327501800	679601.0	2867.51476793	1938.65415618	0.676074689436	2.0	2.0	2.0	2.0	2.0	2.0	3.0	3991.0	4173.0	4303.0	4676.0	5058.0	7931.0	7931.0	7931.0
1327502400	731268.0	3279.22869955	1959.42245505	0.597525404472	2.0	2.0	2.0	2.0	2.0	2.0	3938.0	4012.0	4063.0	5289.0	7443.0	7565.0	10335.0	10335.0	10335.0
1327503000	636593.0	2906.8173516	1929.25807707	0.663701169946	2.0	2.0	2.0	2.0	2.0	2.0	3.0	3874.0	4001.0	4576.0	6565.0	7098.0	7901.0	7901.0	7901.0
1327503600	542667.0	2917.56451613	1939.44292883	0.664747229448	2.0	2.0	2.0	2.0	2.0	2.0	269.0	3591.0	3854.0	3962.0	6877.0	9898.0	12271.0	12271.0	12271.0
1327504200	482981.0	2909.52409639	1947.66542053	0.669410307668	2.0	2.0	2.0	2.0	2.0	3.0	3180.0	3377.5	3666.0	5435.0	7341.0	10146.0	11315.0	11315.0	11315.0
1327504800	779071.0	3287.21940928	2011.19194841	0.611821633424	2.0	2.0	2.0	2.0	3.0	3.0	3722.0	3794.0	3850.0	5554.0	8348.0	10303.0	15451.0	15451.0	15451.0
1327505400	622487.0	3112.435	1995.43889349	0.641118254194	2.0	2.0	2.0	2.0	2.0	3.0	3656.0	3769.0	3878.0	5179.0	7400.0	9190.0	13734.0	13734.0	13734.0
1327506000	762611.0	3482.24200913	1963.51641846	0.563865582378	2.0	2.0	2.0	2.0	3.0	3.0	3882.0	4075.0	4280.0	5219.0	6157.0	8635.0	14272.0	14272.0	14272.0
1327506600	805301.0	3170.47637795	2084.19368525	0.65737556026	2.0	2.0	2.0	2.0	2.0	3.0	44.0	4185.0	4237.0	5288.0	7626.0	7972.0	9232.0	9232.0	9232.0
1327507200	467985.0	3038.86363636	1923.77444586	0.633057180598	2.0	2.0	2.0	2.0	2.0	3.0	24.0	4053.5	4167.0	4882.0	5505.0	5786.0	7090.0	7090.0	7090.0
1327507800	595379.0	3235.75543478	1854.02765819	0.572981393545	2.0	2.0	2.0	2.0	2.0	3.0	3807.0	3855.0	3896.0	5248.0	6745.0	8570.0	11415.0	11415.0	11415.0
1327508400	659491.0	3140.43333333	1997.64106049	0.636103635534	2.0	2.0	2.0	2.0	2.0	3.0	78.0	3867.0	4157.0	4687.0	6606.0	7084.0	12216.0	12216.0	12216.0
1327509000	696414.0	3464.74626866	2053.20909074	0.592600130438	2.0	2.0	2.0	2.0	2.0	3.0	3922.0	4049.0	4151.0	4633.0	7372.0	11828.0	12788.0	12788.0	12788.0
1327509600	511922.0	2680.21989529	2444.75366617	0.912146675153	2.0	2.0	2.0	2.0	2.0	2.0	3.0	3519.0	3701.0	4268.0	6478.0	10972.0	23644.0	23644.0	23644.0
