#
# Generated On: 2012-02-05T22:36:34.095563
#           By: cwa.analyze.statistics
#      Version: 11.11.23
#       Author: Thomas A. de Ruiter <thomas@de-ruiter.cx>
#
#  Commandline: /home/af10028/bin/cwa analyze
#     Work Dir: /scratch/af10028/var/thesis-project/result/analyses/workload-24h-04944l-0s-default
#

Time	Sum	Avg	StdDev	CoV	0.000000-Pct	0.010000-Pct	0.100000-Pct	1.000000-Pct	2.000000-Pct	5.000000-Pct	25.000000-Pct	50.000000-Pct	75.000000-Pct	95.000000-Pct	98.000000-Pct	99.000000-Pct	99.900000-Pct	99.990000-Pct	100.000000-Pct
1327423200	371228062.0	177.232612155	446.775390792	2.52084187758	2.0	2.0	2.0	2.0	2.0	2.0	6.0	35.0	149.0	815.0	1472.0	2096.0	5017.0	9194.0	23587.0
1327509600	1383048.0	154.426976329	481.166190262	3.11581694922	2.0	2.0	2.0	2.0	2.0	2.0	5.0	26.0	122.0	692.0	1241.0	1880.0	5059.0	23638.0	23638.0
