#
# Generated On: 2012-02-05T19:49:32.183174
#           By: cwa.analyze.statistics
#      Version: 11.11.23
#       Author: Thomas A. de Ruiter <thomas@de-ruiter.cx>
#
#  Commandline: /home/af10028/bin/cwa analyze
#     Work Dir: /scratch/af10028/var/thesis-project/result/analyses/workload-06h-08652l-1s-default
#

Time	Sum	Avg	StdDev	CoV	0.000000-Pct	0.010000-Pct	0.100000-Pct	1.000000-Pct	2.000000-Pct	5.000000-Pct	25.000000-Pct	50.000000-Pct	75.000000-Pct	95.000000-Pct	98.000000-Pct	99.000000-Pct	99.900000-Pct	99.990000-Pct	100.000000-Pct
1327499400	12051729.0	1078.45449664	2334.26845106	2.16445706177	2.0	2.0	2.0	2.0	2.0	2.0	15.0	89.0	506.0	7706.0	8886.0	8886.0	8886.0	8886.0	8886.0
1327500000	19685177.0	1125.38171736	2289.32070127	2.03426150075	2.0	2.0	2.0	2.0	2.0	2.0	15.0	98.0	620.0	7563.0	8889.0	8889.0	11645.0	11648.0	11648.0
1327500600	11129150.0	666.535904654	2084.6391497	3.127572176	2.0	2.0	2.0	2.0	2.0	2.0	12.0	71.0	302.0	5640.0	5880.0	16214.0	16220.0	16221.0	16222.0
1327501200	4719155.0	327.605345366	750.076875787	2.28957459454	2.0	2.0	2.0	2.0	2.0	2.0	11.0	63.0	263.0	1697.0	3397.0	3673.0	5473.0	8649.0	10229.0
1327501800	5217527.0	348.043959709	920.169703655	2.64383184361	2.0	2.0	2.0	2.0	2.0	2.0	11.0	65.0	263.0	1730.0	2629.0	4123.0	9492.0	12890.0	14673.0
1327502400	6337131.0	460.146020912	1314.115185	2.85586558456	2.0	2.0	2.0	2.0	2.0	2.0	12.0	68.0	281.0	1958.0	7410.0	7473.0	8750.0	9155.0	11548.0
1327503000	5294873.0	343.599805321	789.682991219	2.29826379116	2.0	2.0	2.0	2.0	2.0	2.0	11.0	63.0	275.0	1736.0	3745.0	4468.0	5587.0	8403.0	10735.0
1327503600	5119871.0	372.435513203	881.487232127	2.3668184179	2.0	2.0	2.0	2.0	2.0	2.0	11.0	62.0	266.0	2041.0	4573.0	4576.0	6030.0	10073.0	11387.0
1327504200	4746734.0	358.271114801	768.137731818	2.14401245337	2.0	2.0	2.0	2.0	2.0	2.0	11.0	63.0	287.0	2093.0	3379.0	4156.0	5197.0	8019.0	10343.0
1327504800	5582585.0	373.392080797	1027.02167317	2.75051809074	2.0	2.0	2.0	2.0	2.0	2.0	11.0	62.0	266.0	1604.0	3817.0	7209.0	7308.0	8132.0	10172.0
1327505400	7160066.0	465.937788768	1355.12234978	2.90837614473	2.0	2.0	2.0	2.0	2.0	2.0	9.0	59.0	275.0	2348.0	6882.0	6931.0	11009.0	11011.0	11012.0
1327506000	4435839.0	305.814477766	641.091602148	2.09634156901	2.0	2.0	2.0	2.0	2.0	2.0	11.0	62.0	263.0	1772.0	2408.0	2747.0	5727.0	10988.0	12823.0
1327506600	10212695.0	671.004927727	1528.10494122	2.27733788245	2.0	2.0	2.0	2.0	2.0	2.0	12.0	80.0	395.0	5173.0	7191.0	7197.0	7198.0	7815.0	9204.0
1327507200	5172962.0	323.573028085	700.770346502	2.16572546435	2.0	2.0	2.0	2.0	2.0	2.0	11.0	62.0	269.0	1931.0	2996.0	3640.0	5575.0	9117.0	9770.0
1327507800	5495050.0	394.73098197	801.329212535	2.03006414277	2.0	2.0	2.0	2.0	2.0	2.0	11.0	68.0	314.0	2474.0	3247.0	3424.0	5662.0	8660.0	9584.0
1327508400	7686171.0	451.649488777	938.188306263	2.07724868416	2.0	2.0	2.0	2.0	2.0	2.0	6.0	59.0	326.0	2648.0	3059.0	3769.0	6336.0	8741.0	10559.0
1327509000	4863851.0	439.610538684	1053.16979911	2.3956882432	2.0	2.0	2.0	2.0	2.0	2.0	11.0	65.0	281.0	3628.0	4576.0	4702.0	5116.0	6780.0	6954.0
1327509600	5886126.0	330.922921235	698.797460964	2.11166231205	2.0	2.0	2.0	2.0	2.0	2.0	6.0	53.0	269.0	2297.0	2525.0	2993.0	4936.0	7239.0	7851.0
1327510200	3692046.0	246.054381873	515.070272492	2.09331883697	2.0	2.0	2.0	2.0	2.0	2.0	8.0	56.0	270.0	1103.0	1841.0	2507.0	4635.0	7761.0	8471.0
1327510800	7522377.0	431.353690005	996.522009839	2.31022020428	2.0	2.0	2.0	2.0	2.0	2.0	6.0	38.0	263.0	2899.0	4438.0	4822.0	5962.0	6910.0	6985.0
1327511400	7210192.0	556.642631051	987.414555327	1.77387519433	2.0	2.0	2.0	2.0	2.0	2.0	6.0	69.0	488.0	2903.0	3095.0	3101.0	7440.0	7996.0	7996.0
1327512000	6192161.0	472.647965804	999.51174456	2.11470654033	2.0	2.0	2.0	2.0	2.0	2.0	11.0	75.0	374.0	2675.0	4231.0	4837.0	4942.0	6948.0	6987.0
1327512600	3657210.0	433.884209277	821.974951247	1.8944569396	2.0	2.0	2.0	2.0	2.0	2.0	6.0	65.0	401.0	2300.0	3221.0	3739.0	5059.0	6472.0	6472.0
1327513200	1460039.0	246.544917258	483.482314268	1.9610313595	2.0	2.0	2.0	2.0	2.0	2.0	6.0	48.0	249.0	1376.0	1577.0	2084.0	4675.0	5850.0	5850.0
1327513800	5947785.0	606.854912764	1198.36145682	1.97470833904	2.0	2.0	2.0	2.0	2.0	3.0	6.0	41.0	548.0	3463.0	5431.0	5431.0	5431.0	5502.0	5502.0
1327514400	3410354.0	959.581879572	1132.92042715	1.18063966324	2.0	2.0	2.0	5.0	5.0	5.0	6.0	282.0	1643.0	3092.0	4120.0	4123.0	4126.0	4126.0	4126.0
1327515000	1965810.0	1011.73957797	1065.20497107	1.05284501493	2.0	2.0	2.0	3.0	5.0	5.0	6.0	776.0	2387.0	2531.0	3196.0	3199.0	3202.0	3203.0	3203.0
1327515600	1928460.0	563.218457944	832.319960871	1.47779240742	2.0	2.0	3.0	5.0	5.0	5.0	5.0	6.0	704.0	2333.0	3094.0	3095.0	3095.0	3097.0	3097.0
1327516200	1324950.0	679.113275243	967.515542568	1.42467476022	2.0	2.0	2.0	5.0	5.0	5.0	5.0	41.0	935.0	2932.0	2933.0	2933.0	2939.0	2939.0	2939.0
1327516800	574245.0	998.686956522	848.296334937	0.849411649364	2.0	2.0	2.0	3.0	5.0	5.0	155.0	1112.0	1730.0	2288.0	2363.0	2369.0	2369.0	2369.0	2369.0
1327517400	135493.0	126.04	329.093885049	2.61102733298	2.0	2.0	2.0	3.0	5.0	5.0	5.0	6.0	6.0	629.0	1583.0	1586.0	1586.0	1586.0	1586.0
1327518000	217603.0	518.102380952	483.830722971	0.933851572119	2.0	2.0	2.0	3.0	5.0	5.0	6.0	467.0	1103.0	1109.0	1109.0	1109.0	1109.0	1109.0	1109.0
1327518600	122495.0	215.281195079	152.061717275	0.706339990443	2.0	2.0	2.0	2.0	3.0	5.0	95.0	242.0	248.0	509.0	512.0	512.0	513.0	513.0	513.0
1327519200	1766.0	5.35151515152	0.596912630307	0.111540865233	2.0	2.0	2.0	3.0	5.0	5.0	5.0	5.0	6.0	6.0	6.0	6.0	6.0	6.0	6.0
