#
# Generated On: 2012-02-09T12:48:44.063023
#           By: cwa.analyze.statistics
#      Version: 11.11.23
#       Author: Thomas A. de Ruiter <thomas@de-ruiter.cx>
#
#  Commandline: /home/af10028/bin/cwa analyze
#     Work Dir: /scratch/af10028/var/thesis-project/result/workload-analyses/workload-01h-00123l-0s
#

Value	PDF	CDF
0.0	0.152553124009	0.152870282271
2.0	0.04662226451	0.199492546781
4.0	0.0342530922931	0.233745639074
6.0	0.0339359340311	0.267681573105
8.0	0.0263241357437	0.294005708849
10.0	0.022835394862	0.316841103711
12.0	0.0206152870282	0.337456390739
14.0	0.0155407548367	0.352997145576
16.0	0.0149064383127	0.367903583888
18.0	0.0130034887409	0.380907072629
20.0	0.0136378052648	0.394544877894
22.0	0.00951474785918	0.404059625753
24.0	0.0126863304789	0.416745956232
26.0	0.011734855693	0.428480811925
28.0	0.0133206470029	0.441801458928
30.0	0.00888043133524	0.450681890263
32.0	0.011417697431	0.462099587694
34.0	0.00919758959721	0.471297177291
36.0	0.011100539169	0.482397716461
38.0	0.00729464002537	0.489692356486
40.0	0.0069774817634	0.496669838249
42.0	0.00666032350143	0.503330161751
44.0	0.0034887408817	0.506818902632
46.0	0.0069774817634	0.513796384396
48.0	0.00856327307326	0.522359657469
50.0	0.00666032350143	0.529019980971
52.0	0.00824611481129	0.537266095782
54.0	0.00602600697748	0.543292102759
56.0	0.00444021566762	0.547732318427
58.0	0.00729464002537	0.555026958452
60.0	0.00729464002537	0.562321598478
62.0	0.00507453219156	0.567396130669
64.0	0.00507453219156	0.572470662861
66.0	0.00602600697748	0.578496669838
68.0	0.00253726609578	0.581033935934
70.0	0.00602600697748	0.587059942912
72.0	0.00539169045354	0.592451633365
74.0	0.00475737392959	0.597209007295
76.0	0.00570884871551	0.60291785601
78.0	0.00412305740565	0.607040913416
80.0	0.00507453219156	0.612115445607
82.0	0.00570884871551	0.617824294323
84.0	0.00666032350143	0.624484617824
86.0	0.0034887408817	0.627973358706
88.0	0.0034887408817	0.631462099588
90.0	0.00317158261973	0.634633682207
92.0	0.00475737392959	0.639391056137
94.0	0.00380589914367	0.643196955281
96.0	0.00317158261973	0.6463685379
98.0	0.00380589914367	0.650174437044
100.0	0.00253726609578	0.65271170314
102.0	0.00475737392959	0.657469077069
104.0	0.00285442435775	0.660323501427
106.0	0.00317158261973	0.663495084047
108.0	0.00285442435775	0.666349508405
110.0	0.00158579130986	0.667935299715
112.0	0.00222010783381	0.670155407548
114.0	0.00412305740565	0.674278464954
116.0	0.00317158261973	0.677450047574
118.0	0.00126863304789	0.678718680622
120.0	0.00222010783381	0.680938788455
122.0	0.00412305740565	0.685061845861
124.0	0.00158579130986	0.686647637171
126.0	0.00285442435775	0.689502061529
129.0	0.00253726609578	0.692039327624
131.0	0.00222010783381	0.694259435458
133.0	0.00380589914367	0.698065334602
135.0	0.00222010783381	0.700285442436
137.0	0.00285442435775	0.703139866794
139.0	0.00222010783381	0.705359974627
141.0	0.0034887408817	0.708848715509
143.0	0.00380589914367	0.712654614653
145.0	0.00190294957184	0.714557564225
147.0	0.00285442435775	0.717411988582
149.0	0.00253726609578	0.719949254678
151.0	0.00253726609578	0.722486520774
153.0	0.00253726609578	0.72502378687
155.0	0.00158579130986	0.72660957818
157.0	0.00285442435775	0.729464002537
159.0	0.00190294957184	0.731366952109
161.0	0.00126863304789	0.732635585157
163.0	0.00253726609578	0.735172851253
165.0	0.00222010783381	0.737392959087
167.0	0.00253726609578	0.739930225182
169.0	0.00190294957184	0.741833174754
171.0	0.00190294957184	0.743736124326
173.0	0.00158579130986	0.745321915636
176.0	0.00317158261973	0.748493498256
178.0	0.00222010783381	0.750713606089
180.0	0.00126863304789	0.751982239137
182.0	0.00380589914367	0.755788138281
184.0	0.00222010783381	0.758008246115
186.0	0.000951474785918	0.758959720901
188.0	0.00126863304789	0.760228353949
190.0	0.00253726609578	0.762765620044
192.0	0.00222010783381	0.764985727878
194.0	0.00126863304789	0.766254360926
196.0	0.00285442435775	0.769108785284
198.0	0.00285442435775	0.771963209642
200.0	0.00253726609578	0.774500475737
202.0	0.00190294957184	0.776403425309
204.0	0.00126863304789	0.777672058357
206.0	0.00285442435775	0.780526482715
208.0	0.00126863304789	0.781795115763
210.0	0.000951474785918	0.782746590549
212.0	0.00126863304789	0.784015223597
214.0	0.00222010783381	0.78623533143
216.0	0.000951474785918	0.787186806216
218.0	0.00158579130986	0.788772597526
220.0	0.00253726609578	0.791309863622
222.0	0.00222010783381	0.793529971456
224.0	0.00126863304789	0.794798604504
226.0	0.000317158261973	0.795115762766
228.0	0.000634316523945	0.79575007929
230.0	0.00158579130986	0.797335870599
232.0	0.000951474785918	0.798287345385
234.0	0.000951474785918	0.799238820171
236.0	0.000951474785918	0.800190294957
238.0	0.000951474785918	0.801141769743
240.0	0.000634316523945	0.801776086267
243.0	0.000317158261973	0.802093244529
245.0	0.00158579130986	0.803679035839
248.0	0.00190294957184	0.805581985411
250.0	0.000317158261973	0.805899143673
252.0	0.000634316523945	0.806533460197
254.0	0.000951474785918	0.807484934983
256.0	0.00222010783381	0.809705042816
258.0	0.00222010783381	0.81192515065
262.0	0.00158579130986	0.81351094196
264.0	0.000951474785918	0.814462416746
266.0	0.00126863304789	0.815731049794
268.0	0.00222010783381	0.817951157628
270.0	0.00222010783381	0.820171265461
272.0	0.000317158261973	0.820488423723
274.0	0.000951474785918	0.821439898509
277.0	0.00158579130986	0.823025689819
279.0	0.000951474785918	0.823977164605
281.0	0.00158579130986	0.825562955915
283.0	0.00158579130986	0.827148747225
285.0	0.000951474785918	0.828100222011
287.0	0.000951474785918	0.829051696797
290.0	0.000634316523945	0.829686013321
292.0	0.00126863304789	0.830954646369
294.0	0.00126863304789	0.832223279416
296.0	0.00126863304789	0.833491912464
298.0	0.00126863304789	0.834760545512
300.0	0.000951474785918	0.835712020298
302.0	0.000317158261973	0.83602917856
304.0	0.000634316523945	0.836663495084
306.0	0.000634316523945	0.837297811608
308.0	0.000951474785918	0.838249286394
311.0	0.000634316523945	0.838883602918
314.0	0.000951474785918	0.839835077704
316.0	0.00158579130986	0.841420869014
318.0	0.000951474785918	0.8423723438
320.0	0.00158579130986	0.843958135109
322.0	0.000634316523945	0.844592451633
324.0	0.00158579130986	0.846178242943
326.0	0.000951474785918	0.847129717729
328.0	0.000317158261973	0.847446875991
331.0	0.000634316523945	0.848081192515
333.0	0.000951474785918	0.849032667301
335.0	0.00126863304789	0.850301300349
337.0	0.000634316523945	0.850935616873
340.0	0.000634316523945	0.851569933397
343.0	0.000634316523945	0.852204249921
345.0	0.00158579130986	0.853790041231
347.0	0.000634316523945	0.854424357755
349.0	0.00126863304789	0.855692990802
352.0	0.000317158261973	0.856010149064
355.0	0.00158579130986	0.857595940374
357.0	0.000951474785918	0.85854741516
359.0	0.00126863304789	0.859816048208
362.0	0.000317158261973	0.86013320647
364.0	0.000951474785918	0.861084681256
366.0	0.000634316523945	0.86171899778
368.0	0.000951474785918	0.862670472566
371.0	0.000951474785918	0.863621947352
373.0	0.000634316523945	0.864256263876
375.0	0.00158579130986	0.865842055186
378.0	0.000317158261973	0.866159213448
380.0	0.00126863304789	0.867427846495
382.0	0.000317158261973	0.867745004757
384.0	0.00126863304789	0.869013637805
386.0	0.00126863304789	0.870282270853
388.0	0.000317158261973	0.870599429115
392.0	0.000317158261973	0.870916587377
395.0	0.00126863304789	0.872185220425
397.0	0.000951474785918	0.873136695211
399.0	0.000317158261973	0.873453853473
402.0	0.00158579130986	0.875039644783
405.0	0.000634316523945	0.875673961307
408.0	0.000317158261973	0.875991119569
410.0	0.000951474785918	0.876942594355
412.0	0.000317158261973	0.877259752617
414.0	0.000634316523945	0.877894069141
416.0	0.000634316523945	0.878528385664
418.0	0.00126863304789	0.879797018712
420.0	0.000634316523945	0.880431335236
422.0	0.000634316523945	0.88106565176
424.0	0.000951474785918	0.882017126546
426.0	0.000317158261973	0.882334284808
429.0	0.000317158261973	0.88265144307
431.0	0.000951474785918	0.883602917856
434.0	0.000634316523945	0.88423723438
436.0	0.000634316523945	0.884871550904
438.0	0.000317158261973	0.885188709166
440.0	0.00126863304789	0.886457342214
444.0	0.000634316523945	0.887091658738
447.0	0.00126863304789	0.888360291786
450.0	0.000634316523945	0.88899460831
452.0	0.000634316523945	0.889628924833
456.0	0.000634316523945	0.890263241357
458.0	0.000951474785918	0.891214716143
460.0	0.000317158261973	0.891531874405
464.0	0.000317158261973	0.891849032667
468.0	0.00126863304789	0.893117665715
472.0	0.00126863304789	0.894386298763
476.0	0.00126863304789	0.895654931811
478.0	0.000634316523945	0.896289248335
480.0	0.000634316523945	0.896923564859
482.0	0.000317158261973	0.897240723121
487.0	0.000317158261973	0.897557881383
489.0	0.000634316523945	0.898192197907
495.0	0.000951474785918	0.899143672693
497.0	0.000951474785918	0.900095147479
500.0	0.000634316523945	0.900729464003
502.0	0.000317158261973	0.901046622265
506.0	0.000317158261973	0.901363780526
512.0	0.000951474785918	0.902315255312
514.0	0.000317158261973	0.902632413574
518.0	0.000634316523945	0.903266730098
520.0	0.00126863304789	0.904535363146
523.0	0.00126863304789	0.905803996194
526.0	0.000634316523945	0.906438312718
532.0	0.00126863304789	0.907706945766
535.0	0.000634316523945	0.90834126229
538.0	0.000634316523945	0.908975578814
541.0	0.000634316523945	0.909609895338
544.0	0.000317158261973	0.9099270536
546.0	0.000317158261973	0.910244211862
550.0	0.000634316523945	0.910878528386
553.0	0.000317158261973	0.911195686648
555.0	0.000317158261973	0.91151284491
559.0	0.000317158261973	0.911830003172
561.0	0.000951474785918	0.912781477958
569.0	0.000317158261973	0.913098636219
573.0	0.000634316523945	0.913732952743
576.0	0.000634316523945	0.914367269267
578.0	0.00126863304789	0.915635902315
583.0	0.000317158261973	0.915953060577
585.0	0.000317158261973	0.916270218839
588.0	0.000634316523945	0.916904535363
594.0	0.00126863304789	0.918173168411
597.0	0.000634316523945	0.918807484935
599.0	0.000634316523945	0.919441801459
602.0	0.000317158261973	0.919758959721
604.0	0.000634316523945	0.920393276245
606.0	0.000634316523945	0.921027592769
611.0	0.000634316523945	0.921661909293
613.0	0.000634316523945	0.922296225817
615.0	0.000317158261973	0.922613384079
622.0	0.000634316523945	0.923247700603
627.0	0.000317158261973	0.923564858865
641.0	0.000634316523945	0.924199175389
643.0	0.000951474785918	0.925150650174
646.0	0.000317158261973	0.925467808436
650.0	0.000317158261973	0.925784966698
653.0	0.000634316523945	0.926419283222
659.0	0.00126863304789	0.92768791627
664.0	0.000317158261973	0.928005074532
667.0	0.000317158261973	0.928322232794
675.0	0.000317158261973	0.928639391056
679.0	0.000317158261973	0.928956549318
684.0	0.000317158261973	0.92927370758
687.0	0.000317158261973	0.929590865842
692.0	0.000317158261973	0.929908024104
694.0	0.00126863304789	0.931176657152
704.0	0.000317158261973	0.931493815414
709.0	0.000317158261973	0.931810973676
713.0	0.000317158261973	0.932128131938
715.0	0.000634316523945	0.932762448462
720.0	0.000317158261973	0.933079606724
735.0	0.000317158261973	0.933396764986
737.0	0.000317158261973	0.933713923248
741.0	0.000634316523945	0.934348239772
746.0	0.000317158261973	0.934665398034
749.0	0.000317158261973	0.934982556296
751.0	0.000317158261973	0.935299714558
756.0	0.000634316523945	0.935934031082
758.0	0.000634316523945	0.936568347605
762.0	0.000634316523945	0.937202664129
766.0	0.000317158261973	0.937519822391
772.0	0.000951474785918	0.938471297177
778.0	0.000634316523945	0.939105613701
783.0	0.000317158261973	0.939422771963
789.0	0.000634316523945	0.940057088487
791.0	0.000634316523945	0.940691405011
794.0	0.000317158261973	0.941008563273
802.0	0.000317158261973	0.941325721535
805.0	0.000317158261973	0.941642879797
807.0	0.000317158261973	0.941960038059
811.0	0.000317158261973	0.942277196321
813.0	0.000951474785918	0.943228671107
817.0	0.000317158261973	0.943545829369
820.0	0.000317158261973	0.943862987631
827.0	0.000634316523945	0.944497304155
831.0	0.000634316523945	0.945131620679
834.0	0.000317158261973	0.945448778941
836.0	0.000317158261973	0.945765937203
843.0	0.000634316523945	0.946400253727
846.0	0.000317158261973	0.946717411989
848.0	0.000317158261973	0.947034570251
859.0	0.000317158261973	0.947351728513
866.0	0.000317158261973	0.947668886775
869.0	0.000317158261973	0.947986045036
873.0	0.000317158261973	0.948303203298
877.0	0.000317158261973	0.94862036156
884.0	0.000317158261973	0.948937519822
887.0	0.000317158261973	0.949254678084
896.0	0.000317158261973	0.949571836346
899.0	0.000317158261973	0.949888994608
901.0	0.000317158261973	0.95020615287
904.0	0.000951474785918	0.951157627656
909.0	0.000317158261973	0.951474785918
921.0	0.00126863304789	0.952743418966
924.0	0.000317158261973	0.953060577228
927.0	0.000317158261973	0.95337773549
934.0	0.000317158261973	0.953694893752
946.0	0.000317158261973	0.954012052014
948.0	0.000317158261973	0.954329210276
956.0	0.000634316523945	0.9549635268
958.0	0.000317158261973	0.955280685062
962.0	0.000317158261973	0.955597843324
964.0	0.000317158261973	0.955915001586
967.0	0.000317158261973	0.956232159848
971.0	0.000317158261973	0.95654931811
974.0	0.000634316523945	0.957183634634
976.0	0.000317158261973	0.957500792896
978.0	0.000317158261973	0.957817951158
986.0	0.000634316523945	0.958452267682
991.0	0.000317158261973	0.958769425944
1008.0	0.000317158261973	0.959086584206
1022.0	0.000317158261973	0.959403742467
1025.0	0.000317158261973	0.959720900729
1027.0	0.000317158261973	0.960038058991
1032.0	0.000317158261973	0.960355217253
1036.0	0.000317158261973	0.960672375515
1066.0	0.000317158261973	0.960989533777
1071.0	0.000317158261973	0.961306692039
1073.0	0.000634316523945	0.961941008563
1078.0	0.000317158261973	0.962258166825
1083.0	0.000634316523945	0.962892483349
1106.0	0.000317158261973	0.963209641611
1109.0	0.000317158261973	0.963526799873
1122.0	0.000317158261973	0.963843958135
1140.0	0.000317158261973	0.964161116397
1143.0	0.000317158261973	0.964478274659
1146.0	0.000317158261973	0.964795432921
1149.0	0.000317158261973	0.965112591183
1155.0	0.000317158261973	0.965429749445
1165.0	0.000317158261973	0.965746907707
1168.0	0.000317158261973	0.966064065969
1171.0	0.000317158261973	0.966381224231
1176.0	0.000317158261973	0.966698382493
1195.0	0.000317158261973	0.967015540755
1213.0	0.000317158261973	0.967332699017
1220.0	0.000317158261973	0.967649857279
1229.0	0.000317158261973	0.967967015541
1241.0	0.000317158261973	0.968284173803
1263.0	0.000317158261973	0.968601332065
1274.0	0.000634316523945	0.969235648589
1279.0	0.00126863304789	0.970504281637
1290.0	0.000317158261973	0.970821439899
1295.0	0.000317158261973	0.97113859816
1298.0	0.000317158261973	0.971455756422
1302.0	0.000317158261973	0.971772914684
1307.0	0.000317158261973	0.972090072946
1318.0	0.000634316523945	0.97272438947
1322.0	0.000317158261973	0.973041547732
1329.0	0.000317158261973	0.973358705994
1369.0	0.000317158261973	0.973675864256
1379.0	0.000634316523945	0.97431018078
1385.0	0.000317158261973	0.974627339042
1389.0	0.000317158261973	0.974944497304
1396.0	0.000317158261973	0.975261655566
1406.0	0.000317158261973	0.975578813828
1416.0	0.000317158261973	0.97589597209
1432.0	0.000317158261973	0.976213130352
1435.0	0.000317158261973	0.976530288614
1439.0	0.000317158261973	0.976847446876
1444.0	0.000317158261973	0.977164605138
1477.0	0.000317158261973	0.9774817634
1488.0	0.000634316523945	0.978116079924
1496.0	0.000317158261973	0.978433238186
1527.0	0.000317158261973	0.978750396448
1532.0	0.000317158261973	0.97906755471
1548.0	0.000317158261973	0.979384712972
1567.0	0.000317158261973	0.979701871234
1583.0	0.000317158261973	0.980019029496
1586.0	0.000317158261973	0.980336187758
1611.0	0.000317158261973	0.98065334602
1619.0	0.000317158261973	0.980970504282
1623.0	0.000317158261973	0.981287662544
1634.0	0.000317158261973	0.981604820806
1641.0	0.000317158261973	0.981921979068
1671.0	0.000317158261973	0.98223913733
1697.0	0.000317158261973	0.982556295592
1710.0	0.000317158261973	0.982873453853
1715.0	0.000317158261973	0.983190612115
1737.0	0.000317158261973	0.983507770377
1754.0	0.000317158261973	0.983824928639
1766.0	0.000317158261973	0.984142086901
1771.0	0.000317158261973	0.984459245163
1801.0	0.000317158261973	0.984776403425
1824.0	0.000317158261973	0.985093561687
1838.0	0.000317158261973	0.985410719949
1856.0	0.000317158261973	0.985727878211
1893.0	0.000317158261973	0.986045036473
2009.0	0.000317158261973	0.986362194735
2029.0	0.000317158261973	0.986679352997
2056.0	0.000317158261973	0.986996511259
2111.0	0.000317158261973	0.987313669521
2122.0	0.000317158261973	0.987630827783
2175.0	0.000317158261973	0.987947986045
2177.0	0.000317158261973	0.988265144307
2202.0	0.000317158261973	0.988582302569
2220.0	0.000317158261973	0.988899460831
2224.0	0.000317158261973	0.989216619093
2241.0	0.000317158261973	0.989533777355
2248.0	0.000317158261973	0.989850935617
2264.0	0.000317158261973	0.990168093879
2291.0	0.000317158261973	0.990485252141
2296.0	0.000317158261973	0.990802410403
2334.0	0.000317158261973	0.991119568665
2376.0	0.000634316523945	0.991753885189
2404.0	0.000317158261973	0.992071043451
2410.0	0.000317158261973	0.992388201713
2413.0	0.000317158261973	0.992705359975
2525.0	0.000317158261973	0.993022518237
2538.0	0.000317158261973	0.993339676499
2592.0	0.000317158261973	0.993656834761
2608.0	0.000317158261973	0.993973993023
2664.0	0.000317158261973	0.994291151284
2711.0	0.000634316523945	0.994925467808
2791.0	0.000317158261973	0.99524262607
2827.0	0.000317158261973	0.995559784332
2838.0	0.000317158261973	0.995876942594
3069.0	0.000317158261973	0.996194100856
3203.0	0.000317158261973	0.996511259118
3295.0	0.000317158261973	0.99682841738
3388.0	0.000317158261973	0.997145575642
3408.0	0.000317158261973	0.997462733904
3451.0	0.000317158261973	0.997779892166
3579.0	0.000317158261973	0.998097050428
3629.0	0.000317158261973	0.99841420869
3747.0	0.000317158261973	0.998731366952
3840.0	0.000317158261973	0.999048525214
4137.0	0.000317158261973	0.999365683476
4828.0	0.000317158261973	0.999682841738
5852.0	0.000317158261973	1.0
10239.0	0.000317158261973	1.0
