#
# Generated On: 2012-02-09T12:48:43.634952
#           By: cwa.analyze.statistics
#      Version: 11.11.23
#       Author: Thomas A. de Ruiter <thomas@de-ruiter.cx>
#
#  Commandline: /home/af10028/bin/cwa analyze
#     Work Dir: /scratch/af10028/var/thesis-project/result/workload-analyses/workload-01h-00123l-0s
#

Value	PDF	CDF
14.0	0.0588235294118	0.117647058824
26.0	0.0588235294118	0.176470588235
89.0	0.0588235294118	0.235294117647
130.0	0.0588235294118	0.294117647059
166.0	0.0588235294118	0.352941176471
203.0	0.0588235294118	0.411764705882
206.0	0.0588235294118	0.470588235294
266.0	0.0588235294118	0.529411764706
282.0	0.0588235294118	0.588235294118
320.0	0.0588235294118	0.647058823529
390.0	0.0588235294118	0.705882352941
441.0	0.0588235294118	0.764705882353
710.0	0.0588235294118	0.823529411765
724.0	0.0588235294118	0.882352941176
1237.0	0.0588235294118	0.941176470588
1280.0	0.0588235294118	1.0
1734.0	0.0588235294118	1.0
