#
# Generated On: 2012-02-09T12:48:43.636946
#           By: cwa.analyze.statistics
#      Version: 11.11.23
#       Author: Thomas A. de Ruiter <thomas@de-ruiter.cx>
#
#  Commandline: /home/af10028/bin/cwa analyze
#     Work Dir: /scratch/af10028/var/thesis-project/result/workload-analyses/workload-01h-00123l-0s
#

Time	Sum	Avg	StdDev	CoV	0.000000-Pct	0.010000-Pct	0.100000-Pct	1.000000-Pct	2.000000-Pct	5.000000-Pct	25.000000-Pct	50.000000-Pct	75.000000-Pct	95.000000-Pct	98.000000-Pct	99.000000-Pct	99.900000-Pct	99.990000-Pct	100.000000-Pct
1326804000	35605.0	1424.2	2261.85220929	1.5881563048	14.0	14.0	14.0	14.0	14.0	26.0	206.0	441.0	1280.0	4205.0	10275.0	10275.0	10275.0	10275.0	10275.0
1326807600	23052.0	7684.0	11257.0363329	1.46499691995	806.0	806.0	806.0	806.0	806.0	806.0	806.0	1571.0	20675.0	20675.0	20675.0	20675.0	20675.0	20675.0	20675.0
