#
# Generated On: 2012-02-09T12:48:44.087079
#           By: cwa.analyze.statistics
#      Version: 11.11.23
#       Author: Thomas A. de Ruiter <thomas@de-ruiter.cx>
#
#  Commandline: /home/af10028/bin/cwa analyze
#     Work Dir: /scratch/af10028/var/thesis-project/result/workload-analyses/workload-01h-00123l-0s
#

Time	Sum	Avg	StdDev	CoV	0.000000-Pct	0.010000-Pct	0.100000-Pct	1.000000-Pct	2.000000-Pct	5.000000-Pct	25.000000-Pct	50.000000-Pct	75.000000-Pct	95.000000-Pct	98.000000-Pct	99.000000-Pct	99.900000-Pct	99.990000-Pct	100.000000-Pct
1326804000	0	0	0	0															
1326804600	35977.0	438.743902439	1247.27037087	2.84282098038	0.0	0.0	0.0	0.0	0.0	1.0	9.0	55.0	334.0	1801.0	3747.0	10239.0	10239.0	10239.0	10239.0
1326805200	33939.0	220.383116883	477.878935609	2.16840083926	0.0	0.0	0.0	0.0	0.0	0.0	9.0	51.0	219.0	956.0	1389.0	3408.0	3579.0	3579.0	3579.0
1326805800	21523.0	193.900900901	353.951048361	1.82542240245	0.0	0.0	0.0	0.0	0.0	0.0	9.0	60.0	198.0	762.0	1477.0	1710.0	2224.0	2224.0	2224.0
1326806400	11932.0	248.583333333	458.829307405	1.84577663052	0.0	0.0	0.0	0.0	0.0	1.0	21.0	100.5	240.0	976.0	2712.0	2712.0	2712.0	2712.0	2712.0
1326807000	17594.0	266.575757576	638.164701688	2.39393374511	0.0	0.0	0.0	0.0	0.0	0.0	4.0	43.0	189.0	1623.0	2791.0	3295.0	3295.0	3295.0	3295.0
1326807600	16620.0	240.869565217	395.380900229	1.64147305149	0.0	0.0	0.0	0.0	0.0	0.0	15.0	84.0	246.0	1071.0	1548.0	2220.0	2220.0	2220.0	2220.0
1326808200	22549.0	296.697368421	598.668968512	2.01777646933	0.0	0.0	0.0	0.0	0.0	0.0	16.0	88.5	293.0	1307.0	2711.0	3629.0	3629.0	3629.0	3629.0
1326808800	14145.0	214.318181818	414.529210591	1.93417659237	0.0	0.0	0.0	0.0	0.0	0.0	14.0	48.0	269.0	884.0	1379.0	2592.0	2592.0	2592.0	2592.0
1326809400	16174.0	269.566666667	572.751946387	2.12471353921	0.0	0.0	0.0	0.0	0.0	0.0	11.0	74.5	178.0	1586.0	1771.0	3388.0	3388.0	3388.0	3388.0
1326810000	13464.0	240.428571429	495.083311892	2.05917004352	0.0	0.0	0.0	0.0	0.0	0.0	11.0	35.0	177.0	1435.0	1439.0	2838.0	2838.0	2838.0	2838.0
1326810600	10031.0	167.183333333	289.242464219	1.73009150166	0.0	0.0	0.0	0.0	0.0	0.0	6.0	59.5	223.0	927.0	1149.0	1634.0	1634.0	1634.0	1634.0
1326811200	12104.0	228.377358491	431.25653736	1.88835066756	0.0	0.0	0.0	0.0	0.0	0.0	11.0	64.0	215.0	1220.0	1697.0	2241.0	2241.0	2241.0	2241.0
1326811800	19176.0	314.360655738	529.93156894	1.68574393541	0.0	0.0	0.0	0.0	0.0	1.0	24.0	82.0	359.0	1532.0	2122.0	2376.0	2376.0	2376.0	2376.0
1326812400	14596.0	192.052631579	300.484093633	1.56459243054	0.0	0.0	0.0	0.0	0.0	0.0	9.0	53.0	324.0	827.0	1329.0	1611.0	1611.0	1611.0	1611.0
1326813000	16370.0	177.934782609	305.786027478	1.71852868222	0.0	0.0	0.0	0.0	0.0	0.0	7.0	40.0	188.0	735.0	1416.0	1619.0	1619.0	1619.0	1619.0
1326813600	20228.0	280.944444444	489.41534217	1.74203602117	0.0	0.0	0.0	0.0	0.0	0.0	12.0	69.0	320.0	1496.0	2177.0	2608.0	2608.0	2608.0	2608.0
1326814200	22749.0	249.989010989	532.905150921	2.13171430541	0.0	0.0	0.0	0.0	0.0	0.0	8.0	74.0	174.0	1213.0	2413.0	3069.0	3069.0	3069.0	3069.0
1326814800	6764.0	157.302325581	258.080786068	1.64066732716	0.0	0.0	0.0	0.0	0.0	0.0	13.0	49.0	170.0	524.0	1280.0	1280.0	1280.0	1280.0	1280.0
1326815400	12124.0	228.754716981	336.481163358	1.4709255739	0.0	0.0	0.0	0.0	0.0	0.0	9.0	74.0	291.0	987.0	1109.0	1432.0	1432.0	1432.0	1432.0
1326816000	16103.0	187.244186047	358.8355329	1.9164041377	0.0	0.0	0.0	0.0	0.0	0.0	8.0	59.0	172.0	1027.0	1488.0	2248.0	2248.0	2248.0	2248.0
1326816600	17420.0	252.463768116	471.67366522	1.86828260047	0.0	0.0	0.0	0.0	0.0	0.0	14.0	84.0	299.0	958.0	2291.0	2827.0	2827.0	2827.0	2827.0
1326817200	13124.0	172.684210526	356.223495782	2.06286084117	0.0	0.0	0.0	0.0	0.0	0.0	9.0	49.5	170.0	975.0	1488.0	2264.0	2264.0	2264.0	2264.0
1326817800	20110.0	236.588235294	525.367157196	2.22059713385	0.0	0.0	0.0	0.0	0.0	0.0	7.0	57.0	210.0	924.0	1641.0	4137.0	4137.0	4137.0	4137.0
1326818400	12622.0	182.927536232	355.298148157	1.94228903683	0.0	0.0	0.0	0.0	0.0	0.0	5.0	71.0	173.0	887.0	1671.0	1737.0	1737.0	1737.0	1737.0
1326819000	14005.0	200.071428571	383.128779251	1.91495998198	0.0	0.0	0.0	0.0	0.0	0.0	8.0	43.0	222.0	1146.0	1298.0	2404.0	2404.0	2404.0	2404.0
1326819600	15326.0	235.784615385	566.485257209	2.40255394223	0.0	0.0	0.0	0.0	0.0	0.0	4.0	47.0	176.0	873.0	2056.0	3840.0	3840.0	3840.0	3840.0
1326820200	10042.0	200.84	335.30122674	1.66949425782	0.0	0.0	0.0	0.0	0.0	0.0	18.0	67.0	207.0	1084.0	1385.0	1385.0	1385.0	1385.0	1385.0
1326820800	12827.0	278.847826087	513.018256872	1.8397785777	0.0	0.0	0.0	0.0	0.0	0.0	16.0	99.5	267.0	1290.0	2525.0	2525.0	2525.0	2525.0	2525.0
1326821400	23373.0	307.539473684	767.76695146	2.49648262144	0.0	0.0	0.0	0.0	0.0	0.0	7.0	71.0	345.0	1396.0	2376.0	5852.0	5852.0	5852.0	5852.0
1326822000	13035.0	183.591549296	381.934084719	2.08034675988	0.0	0.0	0.0	0.0	0.0	0.0	6.0	37.0	199.0	773.0	1766.0	2410.0	2410.0	2410.0	2410.0
1326822600	11820.0	161.917808219	224.403391328	1.38590926962	0.0	0.0	0.0	0.0	0.0	0.0	13.0	70.0	197.0	605.0	1008.0	1036.0	1036.0	1036.0	1036.0
1326823200	29636.0	299.353535354	701.765227809	2.34426904957	0.0	0.0	0.0	0.0	0.0	0.0	9.0	63.0	271.0	1754.0	3451.0	4828.0	4828.0	4828.0	4828.0
1326823800	9685.0	201.770833333	332.192730497	1.64638627402	0.0	0.0	0.0	0.0	0.0	0.0	9.0	54.5	259.0	817.0	1567.0	1567.0	1567.0	1567.0	1567.0
1326824400	6917.0	364.052631579	690.985968155	1.89803865765	0.0	0.0	0.0	0.0	0.0	0.0	25.0	85.0	366.0	2334.0	2334.0	2334.0	2334.0	2334.0	2334.0
1326825000	9946.0	242.585365854	530.177280521	2.18552870514	0.0	0.0	0.0	0.0	0.0	0.0	10.0	54.0	266.0	859.0	3203.0	3203.0	3203.0	3203.0	3203.0
1326825600	231.0	77.0	43.5545634808	0.565643681568	40.0	40.0	40.0	40.0	40.0	40.0	40.0	66.0	125.0	125.0	125.0	125.0	125.0	125.0	125.0
