#
# Generated On: 2012-02-05T18:54:38.929653
#           By: cwa.analyze.statistics
#      Version: 11.11.23
#       Author: Thomas A. de Ruiter <thomas@de-ruiter.cx>
#
#  Commandline: /home/af10028/bin/cwa analyze
#     Work Dir: /scratch/af10028/var/thesis-project/result/analyses/workload-06h-06180l-5s-fair
#

Time	Sum	Avg	StdDev	CoV	0.000000-Pct	0.010000-Pct	0.100000-Pct	1.000000-Pct	2.000000-Pct	5.000000-Pct	25.000000-Pct	50.000000-Pct	75.000000-Pct	95.000000-Pct	98.000000-Pct	99.000000-Pct	99.900000-Pct	99.990000-Pct	100.000000-Pct
all	8589021.0	986.676737507	1745.23847447	1.7688047241	2.0	2.0	2.0	3.0	3.0	3.0	10.0	301.0	1019.0	4780.0	6896.0	8367.0	13565.0	15795.0	15795.0
