#
# Generated On: 2012-02-09T17:09:05.383705
#           By: cwa.analyze.statistics
#      Version: 11.11.23
#       Author: Thomas A. de Ruiter <thomas@de-ruiter.cx>
#
#  Commandline: /home/af10028/bin/cwa analyze
#     Work Dir: /scratch/af10028/var/thesis-project/result/workload-analyses/workload-06h-11124l-4s
#

Time	Sum	Avg	StdDev	CoV	0.000000-Pct	0.010000-Pct	0.100000-Pct	1.000000-Pct	2.000000-Pct	5.000000-Pct	25.000000-Pct	50.000000-Pct	75.000000-Pct	95.000000-Pct	98.000000-Pct	99.000000-Pct	99.900000-Pct	99.990000-Pct	100.000000-Pct
1326891600	25912479.0	60.0080103377	135.050096042	2.25053447502	0.0	0.0	0.0	0.0	0.0	0.0	2.0	14.0	58.0	272.0	463.0	640.0	1428.0	2478.0	6823.0
1326978000	0	0	0	0															
