#
# Generated On: 2012-02-05T21:52:46.488173
#           By: cwa.analyze.statistics
#      Version: 11.11.23
#       Author: Thomas A. de Ruiter <thomas@de-ruiter.cx>
#
#  Commandline: /home/af10028/bin/cwa analyze
#     Work Dir: /scratch/af10028/var/thesis-project/result/analyses/workload-06h-11124l-3s-fair
#

Time	Sum	Avg	StdDev	CoV	0.000000-Pct	0.010000-Pct	0.100000-Pct	1.000000-Pct	2.000000-Pct	5.000000-Pct	25.000000-Pct	50.000000-Pct	75.000000-Pct	95.000000-Pct	98.000000-Pct	99.000000-Pct	99.900000-Pct	99.990000-Pct	100.000000-Pct
1327146000	36197127.0	2865.73723379	3230.75949819	1.12737464555	5.0	5.0	5.0	5.0	5.0	44.0	536.0	1169.0	4903.0	8885.0	9773.0	15264.0	15266.0	15267.0	15267.0
1327149600	23314464.0	1427.96986587	3403.3080003	2.38331920137	5.0	5.0	5.0	5.0	5.0	5.0	6.0	578.0	1316.0	6033.0	11758.0	20965.0	31361.0	41236.0	41403.0
1327153200	32353073.0	1735.21442746	3986.8814403	2.29763041225	5.0	5.0	5.0	5.0	5.0	5.0	6.0	500.0	1340.0	8301.0	17019.0	22297.0	31977.0	38609.0	38610.0
1327156800	22559713.0	1408.6614424	3427.15828715	2.43291836065	5.0	5.0	5.0	5.0	5.0	5.0	6.0	440.0	1127.0	6867.0	15243.0	19598.0	28143.0	29117.0	29171.0
1327160400	22239745.0	1093.29195753	2729.91992078	2.49697247106	5.0	5.0	5.0	5.0	5.0	5.0	5.0	290.0	1121.0	4363.0	11650.0	15729.0	25245.0	26561.0	27344.0
1327164000	23066328.0	1179.50132952	2852.43294659	2.41833805119	5.0	5.0	5.0	5.0	5.0	5.0	5.0	188.0	986.0	7018.0	12077.0	15822.0	21802.0	26732.0	26733.0
1327167600	29322674.0	2367.7869832	4329.38352384	1.82845144202	5.0	5.0	5.0	5.0	5.0	5.0	5.0	6.0	3178.0	12775.0	15655.0	17507.0	23110.0	24294.0	24294.0
1327171200	16674135.0	1222.0855321	2982.40316742	2.44042097634	5.0	5.0	5.0	5.0	5.0	5.0	5.0	6.0	6.0	8670.0	11659.0	13619.0	18587.0	20383.0	20765.0
1327174800	15827383.0	1038.95122752	2483.93521535	2.39081022243	5.0	5.0	5.0	5.0	5.0	5.0	5.0	6.0	6.0	6981.0	9587.0	11071.0	15951.0	17127.0	17259.0
1327178400	14320606.0	840.213916921	1979.86407754	2.35638096164	5.0	5.0	5.0	5.0	5.0	5.0	5.0	6.0	6.0	5398.0	7455.0	9212.0	12947.0	13772.0	13873.0
1327182000	17502126.0	1038.94847442	1920.77513595	1.84876842621	5.0	5.0	5.0	5.0	5.0	5.0	5.0	6.0	1367.0	5122.0	7896.0	8631.0	9947.0	10115.0	10136.0
1327185600	12375052.0	1328.08027474	1759.96589437	1.32519541766	5.0	5.0	5.0	5.0	5.0	5.0	6.0	416.0	2194.0	5613.0	5922.0	6045.0	6501.0	6598.0	6598.0
