#
# Generated On: 2012-02-05T21:52:46.128400
#           By: cwa.analyze.statistics
#      Version: 11.11.23
#       Author: Thomas A. de Ruiter <thomas@de-ruiter.cx>
#
#  Commandline: /home/af10028/bin/cwa analyze
#     Work Dir: /scratch/af10028/var/thesis-project/result/analyses/workload-06h-11124l-3s-fair
#

Time	Sum	Avg	StdDev	CoV	0.000000-Pct	0.010000-Pct	0.100000-Pct	1.000000-Pct	2.000000-Pct	5.000000-Pct	25.000000-Pct	50.000000-Pct	75.000000-Pct	95.000000-Pct	98.000000-Pct	99.000000-Pct	99.900000-Pct	99.990000-Pct	100.000000-Pct
1327146000	8952968.0	128.302780166	288.985251129	2.25236936218	2.0	2.0	2.0	2.0	2.0	2.0	3.0	18.0	92.0	746.0	1160.0	1400.0	2474.0	3194.0	3286.0
1327149600	11185207.0	151.542589657	356.546268647	2.35277930418	2.0	2.0	2.0	2.0	2.0	2.0	3.0	20.0	96.0	902.0	1397.0	1703.0	4009.0	4537.0	4540.0
1327153200	12141546.0	150.57227541	369.578382132	2.4544915797	2.0	2.0	2.0	2.0	2.0	2.0	3.0	20.0	95.0	890.0	1358.0	1661.0	3730.0	4021.0	4561.0
1327156800	10049726.0	138.685775006	320.52875411	2.31118695553	2.0	2.0	2.0	2.0	2.0	2.0	3.0	20.0	92.0	806.0	1283.0	1469.0	3140.0	3778.0	3779.0
1327160400	13204089.0	166.449286507	388.973258006	2.33688750592	2.0	2.0	2.0	2.0	2.0	2.0	3.0	20.0	101.0	1013.0	1559.0	1841.0	3035.0	4933.0	4941.0
1327164000	10743681.0	148.374939579	340.486191439	2.29476886329	2.0	2.0	2.0	2.0	2.0	2.0	3.0	20.0	96.0	878.0	1298.0	1703.0	2668.0	3982.0	3991.0
1327167600	57448.0	264.737327189	544.336948122	2.0561397741	2.0	2.0	2.0	2.0	2.0	2.0	5.0	32.0	134.0	1757.0	1757.0	1757.0	1757.0	1757.0	1757.0
1327171200	0	0	0	0															
1327174800	0	0	0	0															
1327178400	0	0	0	0															
1327182000	0	0	0	0															
1327185600	0	0	0	0															
