#
# Generated On: 2012-01-25T15:45:58.693824
#           By: cwa.analyze.statistics
#      Version: 11.11.23
#       Author: Thomas A. de Ruiter <thomas@de-ruiter.cx>
#
#  Commandline: /home/af10028/bin/cwa analyze
#     Work Dir: /scratch/af10028/var/thesis-project/result/analyses/workload-01h-04944l-0s-default
#

Value	PDF	CDF
2.0	0.109223300971	0.111650485437
4.0	0.00970873786408	0.121359223301
7.0	0.00485436893204	0.126213592233
9.0	0.0145631067961	0.140776699029
12.0	0.00242718446602	0.143203883495
15.0	0.00242718446602	0.145631067961
17.0	0.00485436893204	0.150485436893
19.0	0.00242718446602	0.152912621359
21.0	0.00485436893204	0.157766990291
23.0	0.00242718446602	0.160194174757
26.0	0.00242718446602	0.162621359223
32.0	0.00242718446602	0.165048543689
76.0	0.00242718446602	0.167475728155
108.0	0.00242718446602	0.169902912621
120.0	0.00242718446602	0.172330097087
127.0	0.00242718446602	0.174757281553
142.0	0.00242718446602	0.177184466019
148.0	0.00242718446602	0.179611650485
236.0	0.00242718446602	0.182038834951
242.0	0.00242718446602	0.184466019417
258.0	0.00242718446602	0.186893203883
281.0	0.00242718446602	0.18932038835
301.0	0.00242718446602	0.191747572816
327.0	0.00242718446602	0.194174757282
344.0	0.00242718446602	0.196601941748
356.0	0.00242718446602	0.199029126214
371.0	0.00242718446602	0.20145631068
383.0	0.00242718446602	0.203883495146
422.0	0.00242718446602	0.206310679612
468.0	0.00242718446602	0.208737864078
486.0	0.00242718446602	0.211165048544
611.0	0.00242718446602	0.21359223301
630.0	0.00242718446602	0.216019417476
663.0	0.00242718446602	0.218446601942
671.0	0.00485436893204	0.223300970874
708.0	0.00242718446602	0.22572815534
710.0	0.00242718446602	0.228155339806
716.0	0.00485436893204	0.233009708738
810.0	0.00242718446602	0.235436893204
901.0	0.00242718446602	0.23786407767
1028.0	0.00242718446602	0.240291262136
1091.0	0.00242718446602	0.242718446602
1130.0	0.00242718446602	0.245145631068
1139.0	0.00242718446602	0.247572815534
1142.0	0.00242718446602	0.25
1151.0	0.00242718446602	0.252427184466
1220.0	0.00242718446602	0.254854368932
1235.0	0.00242718446602	0.257281553398
1280.0	0.00242718446602	0.259708737864
1283.0	0.00242718446602	0.26213592233
1346.0	0.00242718446602	0.264563106796
1388.0	0.00242718446602	0.266990291262
1394.0	0.00242718446602	0.269417475728
1397.0	0.00242718446602	0.271844660194
1415.0	0.00242718446602	0.27427184466
1429.0	0.00242718446602	0.276699029126
1445.0	0.00242718446602	0.279126213592
1469.0	0.00728155339806	0.28640776699
1489.0	0.00485436893204	0.291262135922
1506.0	0.00242718446602	0.293689320388
1536.0	0.00242718446602	0.296116504854
1539.0	0.00242718446602	0.29854368932
1544.0	0.00242718446602	0.300970873786
1558.0	0.00242718446602	0.303398058252
1613.0	0.00242718446602	0.305825242718
1637.0	0.00242718446602	0.308252427184
1752.0	0.00242718446602	0.31067961165
1764.0	0.00242718446602	0.313106796117
1803.0	0.00242718446602	0.315533980583
1814.0	0.00242718446602	0.317961165049
1823.0	0.00242718446602	0.320388349515
1829.0	0.00242718446602	0.322815533981
1844.0	0.00242718446602	0.325242718447
1880.0	0.00242718446602	0.327669902913
1884.0	0.00242718446602	0.330097087379
1890.0	0.00242718446602	0.332524271845
1904.0	0.00242718446602	0.334951456311
1933.0	0.00242718446602	0.337378640777
1960.0	0.00242718446602	0.339805825243
1967.0	0.00242718446602	0.342233009709
2023.0	0.00242718446602	0.344660194175
2075.0	0.00242718446602	0.347087378641
2113.0	0.00242718446602	0.349514563107
2117.0	0.00242718446602	0.351941747573
2119.0	0.00242718446602	0.354368932039
2185.0	0.00242718446602	0.356796116505
2225.0	0.00242718446602	0.359223300971
2228.0	0.00242718446602	0.361650485437
2231.0	0.00242718446602	0.364077669903
2246.0	0.00242718446602	0.366504854369
2256.0	0.00242718446602	0.368932038835
2330.0	0.00242718446602	0.371359223301
2336.0	0.00242718446602	0.373786407767
2339.0	0.00485436893204	0.378640776699
2345.0	0.00485436893204	0.383495145631
2390.0	0.00242718446602	0.385922330097
2402.0	0.00242718446602	0.388349514563
2429.0	0.00242718446602	0.390776699029
2447.0	0.00242718446602	0.393203883495
2474.0	0.00242718446602	0.395631067961
2478.0	0.00242718446602	0.398058252427
2480.0	0.00242718446602	0.400485436893
2501.0	0.00242718446602	0.402912621359
2510.0	0.00242718446602	0.405339805825
2519.0	0.00242718446602	0.407766990291
2546.0	0.00242718446602	0.410194174757
2549.0	0.00242718446602	0.412621359223
2561.0	0.00242718446602	0.415048543689
2594.0	0.00242718446602	0.417475728155
2606.0	0.00242718446602	0.419902912621
2633.0	0.00242718446602	0.422330097087
2645.0	0.00242718446602	0.424757281553
2648.0	0.00242718446602	0.427184466019
2660.0	0.00242718446602	0.429611650485
2667.0	0.00242718446602	0.432038834951
2682.0	0.00242718446602	0.434466019417
2687.0	0.00485436893204	0.43932038835
2689.0	0.00242718446602	0.441747572816
2695.0	0.00242718446602	0.444174757282
2697.0	0.00242718446602	0.446601941748
2713.0	0.00485436893204	0.45145631068
2725.0	0.00242718446602	0.453883495146
2729.0	0.00242718446602	0.456310679612
2736.0	0.00242718446602	0.458737864078
2757.0	0.00485436893204	0.46359223301
2759.0	0.00485436893204	0.468446601942
2770.0	0.0145631067961	0.483009708738
2772.0	0.00485436893204	0.48786407767
2781.0	0.00242718446602	0.490291262136
2783.0	0.00242718446602	0.492718446602
2785.0	0.00242718446602	0.495145631068
2789.0	0.00485436893204	0.5
2797.0	0.00970873786408	0.509708737864
2812.0	0.00242718446602	0.51213592233
2817.0	0.00485436893204	0.516990291262
2842.0	0.00242718446602	0.519417475728
2861.0	0.00242718446602	0.521844660194
2869.0	0.00970873786408	0.531553398058
2873.0	0.00242718446602	0.533980582524
2885.0	0.00242718446602	0.53640776699
2900.0	0.00242718446602	0.538834951456
2951.0	0.00242718446602	0.541262135922
2963.0	0.00485436893204	0.546116504854
2965.0	0.00242718446602	0.54854368932
2969.0	0.00242718446602	0.550970873786
2989.0	0.00242718446602	0.553398058252
2991.0	0.00242718446602	0.555825242718
2993.0	0.00242718446602	0.558252427184
2995.0	0.00485436893204	0.563106796117
2999.0	0.00242718446602	0.565533980583
3003.0	0.00242718446602	0.567961165049
3008.0	0.00242718446602	0.570388349515
3015.0	0.00485436893204	0.575242718447
3017.0	0.00485436893204	0.580097087379
3023.0	0.00242718446602	0.582524271845
3028.0	0.00242718446602	0.584951456311
3032.0	0.00242718446602	0.587378640777
3044.0	0.00242718446602	0.589805825243
3051.0	0.00242718446602	0.592233009709
3057.0	0.00728155339806	0.599514563107
3060.0	0.00242718446602	0.601941747573
3093.0	0.00242718446602	0.604368932039
3098.0	0.00485436893204	0.609223300971
3119.0	0.00242718446602	0.611650485437
3146.0	0.00242718446602	0.614077669903
3179.0	0.00242718446602	0.616504854369
3213.0	0.00242718446602	0.618932038835
3235.0	0.00242718446602	0.621359223301
3242.0	0.00242718446602	0.623786407767
3244.0	0.00242718446602	0.626213592233
3251.0	0.00242718446602	0.628640776699
3258.0	0.00242718446602	0.631067961165
3340.0	0.00242718446602	0.633495145631
3359.0	0.00242718446602	0.635922330097
3365.0	0.00485436893204	0.640776699029
3377.0	0.00485436893204	0.645631067961
3388.0	0.00242718446602	0.648058252427
3404.0	0.00485436893204	0.652912621359
3410.0	0.00242718446602	0.655339805825
3415.0	0.00485436893204	0.660194174757
3419.0	0.00485436893204	0.665048543689
3422.0	0.00728155339806	0.672330097087
3425.0	0.00242718446602	0.674757281553
3432.0	0.00242718446602	0.677184466019
3445.0	0.00242718446602	0.679611650485
3487.0	0.00242718446602	0.682038834951
3496.0	0.00242718446602	0.684466019417
3515.0	0.00242718446602	0.686893203883
3526.0	0.00485436893204	0.691747572816
3529.0	0.00485436893204	0.696601941748
3540.0	0.00485436893204	0.70145631068
3544.0	0.00242718446602	0.703883495146
3547.0	0.00242718446602	0.706310679612
3566.0	0.00242718446602	0.708737864078
3568.0	0.00242718446602	0.711165048544
3570.0	0.00242718446602	0.71359223301
3576.0	0.00242718446602	0.716019417476
3582.0	0.00242718446602	0.718446601942
3586.0	0.00242718446602	0.720873786408
3597.0	0.00242718446602	0.723300970874
3599.0	0.00242718446602	0.72572815534
3605.0	0.00242718446602	0.728155339806
3613.0	0.00242718446602	0.730582524272
3635.0	0.00242718446602	0.733009708738
3651.0	0.00242718446602	0.735436893204
3665.0	0.00242718446602	0.73786407767
3738.0	0.00242718446602	0.740291262136
3743.0	0.00242718446602	0.742718446602
3754.0	0.00242718446602	0.745145631068
3776.0	0.00242718446602	0.747572815534
3811.0	0.00242718446602	0.75
3860.0	0.00485436893204	0.754854368932
3932.0	0.00242718446602	0.757281553398
3935.0	0.00242718446602	0.759708737864
3940.0	0.00242718446602	0.76213592233
4022.0	0.00242718446602	0.764563106796
4031.0	0.00242718446602	0.766990291262
4033.0	0.00242718446602	0.769417475728
4055.0	0.00242718446602	0.771844660194
4084.0	0.00242718446602	0.77427184466
4091.0	0.00242718446602	0.776699029126
4136.0	0.00242718446602	0.779126213592
4147.0	0.00242718446602	0.781553398058
4166.0	0.00242718446602	0.783980582524
4178.0	0.00242718446602	0.78640776699
4231.0	0.00242718446602	0.788834951456
4280.0	0.00485436893204	0.793689320388
4305.0	0.00242718446602	0.796116504854
4348.0	0.00485436893204	0.800970873786
4369.0	0.00242718446602	0.803398058252
4454.0	0.00242718446602	0.805825242718
4515.0	0.00242718446602	0.808252427184
4522.0	0.00242718446602	0.81067961165
4628.0	0.00242718446602	0.813106796117
4645.0	0.00242718446602	0.815533980583
4648.0	0.00242718446602	0.817961165049
4662.0	0.00242718446602	0.820388349515
4689.0	0.00242718446602	0.822815533981
4699.0	0.00242718446602	0.825242718447
4729.0	0.00242718446602	0.827669902913
4759.0	0.00242718446602	0.830097087379
4821.0	0.00242718446602	0.832524271845
4843.0	0.00242718446602	0.834951456311
4907.0	0.00242718446602	0.837378640777
4948.0	0.00242718446602	0.839805825243
5010.0	0.00242718446602	0.842233009709
5036.0	0.00242718446602	0.844660194175
5060.0	0.00242718446602	0.847087378641
5079.0	0.00242718446602	0.849514563107
5104.0	0.00485436893204	0.854368932039
5107.0	0.00242718446602	0.856796116505
5111.0	0.00242718446602	0.859223300971
5123.0	0.00242718446602	0.861650485437
5167.0	0.00242718446602	0.864077669903
5190.0	0.00242718446602	0.866504854369
5239.0	0.00242718446602	0.868932038835
5274.0	0.00242718446602	0.871359223301
5321.0	0.00242718446602	0.873786407767
5390.0	0.00242718446602	0.876213592233
5404.0	0.00242718446602	0.878640776699
5440.0	0.00242718446602	0.881067961165
5442.0	0.00242718446602	0.883495145631
5604.0	0.00242718446602	0.885922330097
5639.0	0.00242718446602	0.888349514563
5675.0	0.00242718446602	0.890776699029
5758.0	0.00242718446602	0.893203883495
5839.0	0.00242718446602	0.895631067961
5845.0	0.00242718446602	0.898058252427
5862.0	0.00242718446602	0.900485436893
5899.0	0.00242718446602	0.902912621359
5968.0	0.00242718446602	0.905339805825
6057.0	0.00242718446602	0.907766990291
6069.0	0.00242718446602	0.910194174757
6096.0	0.00242718446602	0.912621359223
6181.0	0.00242718446602	0.915048543689
6186.0	0.00242718446602	0.917475728155
6225.0	0.00242718446602	0.919902912621
6299.0	0.00242718446602	0.922330097087
6301.0	0.00242718446602	0.924757281553
6305.0	0.00242718446602	0.927184466019
6326.0	0.00242718446602	0.929611650485
6345.0	0.00242718446602	0.932038834951
6427.0	0.00242718446602	0.934466019417
6601.0	0.00242718446602	0.936893203883
6607.0	0.00242718446602	0.93932038835
6684.0	0.00242718446602	0.941747572816
6742.0	0.00242718446602	0.944174757282
6810.0	0.00485436893204	0.949029126214
7045.0	0.00242718446602	0.95145631068
7219.0	0.00242718446602	0.953883495146
7251.0	0.00242718446602	0.956310679612
7286.0	0.00242718446602	0.958737864078
7294.0	0.00242718446602	0.961165048544
7346.0	0.00242718446602	0.96359223301
7834.0	0.00242718446602	0.966019417476
7850.0	0.00242718446602	0.968446601942
7855.0	0.00242718446602	0.970873786408
8061.0	0.00242718446602	0.973300970874
8157.0	0.00242718446602	0.97572815534
8273.0	0.00242718446602	0.978155339806
8322.0	0.00242718446602	0.980582524272
8360.0	0.00242718446602	0.983009708738
8490.0	0.00242718446602	0.985436893204
9041.0	0.00242718446602	0.98786407767
9348.0	0.00242718446602	0.990291262136
9480.0	0.00242718446602	0.992718446602
9776.0	0.00485436893204	0.997572815534
10245.0	0.00242718446602	1.0
13354.0	0.00242718446602	1.0
