#
# Generated On: 2012-02-05T21:35:30.827157
#           By: cwa.analyze.statistics
#      Version: 11.11.23
#       Author: Thomas A. de Ruiter <thomas@de-ruiter.cx>
#
#  Commandline: /home/af10028/bin/cwa analyze
#     Work Dir: /scratch/af10028/var/thesis-project/result/analyses/workload-06h-11124l-2s-default
#

Time	Sum	Avg	StdDev	CoV	0.000000-Pct	0.010000-Pct	0.100000-Pct	1.000000-Pct	2.000000-Pct	5.000000-Pct	25.000000-Pct	50.000000-Pct	75.000000-Pct	95.000000-Pct	98.000000-Pct	99.000000-Pct	99.900000-Pct	99.990000-Pct	100.000000-Pct
all	434677714.0	470.163288175	1214.97205383	2.5841491337	2.0	2.0	2.0	2.0	2.0	2.0	8.0	63.0	317.0	2483.0	4591.0	6606.0	11135.0	19630.0	25020.0
