#
# Generated On: 2012-02-05T17:26:24.191286
#           By: cwa.analyze.statistics
#      Version: 11.11.23
#       Author: Thomas A. de Ruiter <thomas@de-ruiter.cx>
#
#  Commandline: /home/af10028/bin/cwa analyze
#     Work Dir: /scratch/af10028/var/thesis-project/result/analyses/workload-06h-00123l-3s-fair
#

Time	Sum	Avg	StdDev	CoV	0.000000-Pct	0.010000-Pct	0.100000-Pct	1.000000-Pct	2.000000-Pct	5.000000-Pct	25.000000-Pct	50.000000-Pct	75.000000-Pct	95.000000-Pct	98.000000-Pct	99.000000-Pct	99.900000-Pct	99.990000-Pct	100.000000-Pct
1326972600	9586461.0	4033.00841397	2675.58900119	0.663422618194	5.0	5.0	5.0	56.0	119.0	395.0	1064.0	4543.0	5811.0	8547.0	8547.0	8547.0	8547.0	8547.0	8547.0
