#
# Generated On: 2012-02-05T17:26:21.962577
#           By: cwa.analyze.statistics
#      Version: 11.11.23
#       Author: Thomas A. de Ruiter <thomas@de-ruiter.cx>
#
#  Commandline: /home/af10028/bin/cwa analyze
#     Work Dir: /scratch/af10028/var/thesis-project/result/analyses/workload-06h-00123l-3s-fair
#

Time	Sum	Avg	StdDev	CoV	0.000000-Pct	0.010000-Pct	0.100000-Pct	1.000000-Pct	2.000000-Pct	5.000000-Pct	25.000000-Pct	50.000000-Pct	75.000000-Pct	95.000000-Pct	98.000000-Pct	99.000000-Pct	99.900000-Pct	99.990000-Pct	100.000000-Pct
1326972600	3328.0	665.6	1145.45637193	1.72093805879	38.0	38.0	38.0	38.0	38.0	38.0	92.0	117.0	380.0	2701.0	2701.0	2701.0	2701.0	2701.0	2701.0
1326973200	12809.0	2561.8	3012.70778537	1.17601209515	26.0	26.0	26.0	26.0	26.0	26.0	52.0	1606.0	4037.0	7088.0	7088.0	7088.0	7088.0	7088.0	7088.0
1326973800	14995.0	2499.16666667	2020.80997787	0.808593522323	29.0	29.0	29.0	29.0	29.0	29.0	859.0	2212.0	4705.0	4978.0	4978.0	4978.0	4978.0	4978.0	4978.0
1326974400	5554.0	2777.0	1790.39436996	0.644722495486	1511.0	1511.0	1511.0	1511.0	1511.0	1511.0	1511.0	2777.0	4043.0	4043.0	4043.0	4043.0	4043.0	4043.0	4043.0
1326975000	4588.0	417.090909091	715.856892758	1.71630902797	8.0	8.0	8.0	8.0	8.0	8.0	10.0	194.0	519.0	2451.0	2451.0	2451.0	2451.0	2451.0	2451.0
1326975600	4987.0	415.583333333	340.090752149	0.818345503466	6.0	6.0	6.0	6.0	6.0	6.0	144.0	463.5	817.0	911.0	911.0	911.0	911.0	911.0	911.0
1326976200	846.0	423.0	575.584919886	1.36072085079	16.0	16.0	16.0	16.0	16.0	16.0	16.0	423.0	830.0	830.0	830.0	830.0	830.0	830.0	830.0
1326976800	12703.0	1814.71428571	3032.83990754	1.67124926024	5.0	5.0	5.0	5.0	5.0	5.0	8.0	23.0	5346.0	7042.0	7042.0	7042.0	7042.0	7042.0	7042.0
1326977400	816.0	408.0	199.404112295	0.48873556935	267.0	267.0	267.0	267.0	267.0	267.0	267.0	408.0	549.0	549.0	549.0	549.0	549.0	549.0	549.0
1326978000	18156.0	1134.75	2510.68509906	2.21254470065	5.0	5.0	5.0	5.0	5.0	5.0	16.0	63.5	720.0	8565.0	8565.0	8565.0	8565.0	8565.0	8565.0
1326978600	17726.0	1611.45454545	2361.04427589	1.46516343421	3.0	3.0	3.0	3.0	3.0	3.0	11.0	244.0	4722.0	6112.0	6112.0	6112.0	6112.0	6112.0	6112.0
1326979200	9872.0	897.454545455	1381.91225218	1.53981308489	6.0	6.0	6.0	6.0	6.0	6.0	9.0	504.0	716.0	4570.0	4570.0	4570.0	4570.0	4570.0	4570.0
1326979800	1553.0	310.6	238.730601306	0.768611079543	7.0	7.0	7.0	7.0	7.0	7.0	159.0	296.0	512.0	579.0	579.0	579.0	579.0	579.0	579.0
1326980400	2771.0	2771.0	0.0	0.0	2771.0	2771.0	2771.0	2771.0	2771.0	2771.0	2771.0	2771.0	2771.0	2771.0	2771.0	2771.0	2771.0	2771.0	2771.0
1326981000	0	0	0	0															
1326981600	1006.0	251.5	153.200304612	0.609146340407	75.0	75.0	75.0	75.0	75.0	75.0	237.0	241.0	449.0	449.0	449.0	449.0	449.0	449.0	449.0
1326982200	0	0	0	0															
1326982800	0	0	0	0															
1326983400	777.0	155.4	248.442749945	1.59873069462	18.0	18.0	18.0	18.0	18.0	18.0	28.0	60.0	73.0	598.0	598.0	598.0	598.0	598.0	598.0
1326984000	4651.0	1550.33333333	829.753176151	0.535209530951	709.0	709.0	709.0	709.0	709.0	709.0	709.0	1574.0	2368.0	2368.0	2368.0	2368.0	2368.0	2368.0	2368.0
1326984600	8876.0	2958.66666667	2332.92634546	0.788505975256	1238.0	1238.0	1238.0	1238.0	1238.0	1238.0	1238.0	2024.0	5614.0	5614.0	5614.0	5614.0	5614.0	5614.0	5614.0
1326985200	21097.0	2637.125	3109.84958008	1.17925755513	28.0	28.0	28.0	28.0	28.0	28.0	50.0	1127.5	5840.0	7592.0	7592.0	7592.0	7592.0	7592.0	7592.0
1326985800	5051.0	1010.2	1838.31028393	1.8197488457	3.0	3.0	3.0	3.0	3.0	3.0	15.0	92.0	681.0	4260.0	4260.0	4260.0	4260.0	4260.0	4260.0
1326986400	0	0	0	0															
1326987000	0	0	0	0															
1326987600	0	0	0	0															
1326988200	9418.0	1177.25	1310.60702948	1.1132784281	6.0	6.0	6.0	6.0	6.0	6.0	141.0	793.0	2094.0	3607.0	3607.0	3607.0	3607.0	3607.0	3607.0
1326988800	9528.0	1905.6	2347.94395163	1.23212843809	17.0	17.0	17.0	17.0	17.0	17.0	35.0	555.0	4230.0	4691.0	4691.0	4691.0	4691.0	4691.0	4691.0
1326989400	7559.0	687.181818182	1293.60548995	1.88247921544	5.0	5.0	5.0	5.0	5.0	5.0	14.0	246.0	560.0	4447.0	4447.0	4447.0	4447.0	4447.0	4447.0
1326990000	9655.0	1379.28571429	1495.10520413	1.08397062962	81.0	81.0	81.0	81.0	81.0	81.0	91.0	1086.0	2488.0	4159.0	4159.0	4159.0	4159.0	4159.0	4159.0
1326990600	3883.0	353.0	698.841899145	1.97972209389	3.0	3.0	3.0	3.0	3.0	3.0	8.0	53.0	379.0	2279.0	2279.0	2279.0	2279.0	2279.0	2279.0
1326991200	6284.0	448.857142857	418.848762341	0.933144919282	7.0	7.0	7.0	7.0	7.0	7.0	56.0	343.0	836.0	1124.0	1124.0	1124.0	1124.0	1124.0	1124.0
1326991800	3232.0	293.818181818	451.766271026	1.53757084817	4.0	4.0	4.0	4.0	4.0	4.0	8.0	113.0	470.0	1282.0	1282.0	1282.0	1282.0	1282.0	1282.0
1326992400	0	0	0	0															
1326993000	100.0	100.0	0.0	0.0	100.0	100.0	100.0	100.0	100.0	100.0	100.0	100.0	100.0	100.0	100.0	100.0	100.0	100.0	100.0
1326993600	1940.0	1940.0	0.0	0.0	1940.0	1940.0	1940.0	1940.0	1940.0	1940.0	1940.0	1940.0	1940.0	1940.0	1940.0	1940.0	1940.0	1940.0	1940.0
1326994200	9063.0	1007.0	1838.55092396	1.82577053025	7.0	7.0	7.0	7.0	7.0	7.0	25.0	200.0	516.0	5430.0	5430.0	5430.0	5430.0	5430.0	5430.0
