#
# Generated On: 2012-02-09T14:27:33.050730
#           By: cwa.analyze.jobs_per_executableid
#      Version: 11.3.16
#       Author: Thomas A. de Ruiter <thomas@de-ruiter.cx>
#
#  Commandline: /home/af10028/bin/cwa analyze
#     Work Dir: /scratch/af10028/var/thesis-project/result/workload-analyses/workload-06h-04944l-5s
#

Time	ID_-1
0	54752
3600	68792
7200	79321
10800	88655
14400	83090
18000	85133
21600	35288
25200	19720
28800	10490
32400	6695
36000	3488
39600	2695
43200	1424
46800	814
50400	177
54000	2
