#
# Generated On: 2012-02-09T14:26:53.350041
#           By: cwa.analyze.statistics
#      Version: 11.11.23
#       Author: Thomas A. de Ruiter <thomas@de-ruiter.cx>
#
#  Commandline: /home/af10028/bin/cwa analyze
#     Work Dir: /scratch/af10028/var/thesis-project/result/workload-analyses/workload-06h-04944l-5s
#

Time	Sum	Avg	StdDev	CoV	0.000000-Pct	0.010000-Pct	0.100000-Pct	1.000000-Pct	2.000000-Pct	5.000000-Pct	25.000000-Pct	50.000000-Pct	75.000000-Pct	95.000000-Pct	98.000000-Pct	99.000000-Pct	99.900000-Pct	99.990000-Pct	100.000000-Pct
1326895800	8498939.0	4209.47944527	5088.2977663	1.20877125841	0.0	0.0	2.0	9.0	13.0	43.0	835.0	2646.0	5544.0	14409.0	20225.0	24352.0	35396.0	46012.0	46012.0
