%!PS-Adobe-2.0 EPSF-2.0
%%Title: ./output/input-jobs-cdfs.eps
%%Creator: gnuplot 4.4 patchlevel 2
%%CreationDate: Mon Mar 19 10:52:01 2012
%%DocumentFonts: (atend)
%%BoundingBox: 50 50 469 169
%%EndComments
%%BeginProlog
/gnudict 256 dict def
gnudict begin
%
% The following true/false flags may be edited by hand if desired.
% The unit line width and grayscale image gamma correction may also be changed.
%
/Color true def
/Blacktext false def
/Solid false def
/Dashlength 1 def
/Landscape false def
/Level1 false def
/Rounded false def
/ClipToBoundingBox false def
/TransparentPatterns false def
/gnulinewidth 5.000 def
/userlinewidth gnulinewidth def
/Gamma 1.0 def
%
/vshift -46 def
/dl1 {
  10.0 Dashlength mul mul
  Rounded { currentlinewidth 0.75 mul sub dup 0 le { pop 0.01 } if } if
} def
/dl2 {
  10.0 Dashlength mul mul
  Rounded { currentlinewidth 0.75 mul add } if
} def
/hpt_ 31.5 def
/vpt_ 31.5 def
/hpt hpt_ def
/vpt vpt_ def
Level1 {} {
/SDict 10 dict def
systemdict /pdfmark known not {
  userdict /pdfmark systemdict /cleartomark get put
} if
SDict begin [
  /Title (./output/input-jobs-cdfs.eps)
  /Subject (gnuplot plot)
  /Creator (gnuplot 4.4 patchlevel 2)
  /Author (af10028)
%  /Producer (gnuplot)
%  /Keywords ()
  /CreationDate (Mon Mar 19 10:52:01 2012)
  /DOCINFO pdfmark
end
} ifelse
/doclip {
  ClipToBoundingBox {
    newpath 50 50 moveto 469 50 lineto 469 169 lineto 50 169 lineto closepath
    clip
  } if
} def
%
% Gnuplot Prolog Version 4.4 (August 2010)
%
%/SuppressPDFMark true def
%
/M {moveto} bind def
/L {lineto} bind def
/R {rmoveto} bind def
/V {rlineto} bind def
/N {newpath moveto} bind def
/Z {closepath} bind def
/C {setrgbcolor} bind def
/f {rlineto fill} bind def
/g {setgray} bind def
/Gshow {show} def   % May be redefined later in the file to support UTF-8
/vpt2 vpt 2 mul def
/hpt2 hpt 2 mul def
/Lshow {currentpoint stroke M 0 vshift R 
	Blacktext {gsave 0 setgray show grestore} {show} ifelse} def
/Rshow {currentpoint stroke M dup stringwidth pop neg vshift R
	Blacktext {gsave 0 setgray show grestore} {show} ifelse} def
/Cshow {currentpoint stroke M dup stringwidth pop -2 div vshift R 
	Blacktext {gsave 0 setgray show grestore} {show} ifelse} def
/UP {dup vpt_ mul /vpt exch def hpt_ mul /hpt exch def
  /hpt2 hpt 2 mul def /vpt2 vpt 2 mul def} def
/DL {Color {setrgbcolor Solid {pop []} if 0 setdash}
 {pop pop pop 0 setgray Solid {pop []} if 0 setdash} ifelse} def
/BL {stroke userlinewidth 2 mul setlinewidth
	Rounded {1 setlinejoin 1 setlinecap} if} def
/AL {stroke userlinewidth 2 div setlinewidth
	Rounded {1 setlinejoin 1 setlinecap} if} def
/UL {dup gnulinewidth mul /userlinewidth exch def
	dup 1 lt {pop 1} if 10 mul /udl exch def} def
/PL {stroke userlinewidth setlinewidth
	Rounded {1 setlinejoin 1 setlinecap} if} def
3.8 setmiterlimit
% Default Line colors
/LCw {1 1 1} def
/LCb {0 0 0} def
/LCa {0 0 0} def
/LC0 {1 0 0} def
/LC1 {0 1 0} def
/LC2 {0 0 1} def
/LC3 {1 0 1} def
/LC4 {0 1 1} def
/LC5 {1 1 0} def
/LC6 {0 0 0} def
/LC7 {1 0.3 0} def
/LC8 {0.5 0.5 0.5} def
% Default Line Types
/LTw {PL [] 1 setgray} def
/LTb {BL [] LCb DL} def
/LTa {AL [1 udl mul 2 udl mul] 0 setdash LCa setrgbcolor} def
/LT0 {PL [] LC0 DL} def
/LT1 {PL [4 dl1 2 dl2] LC1 DL} def
/LT2 {PL [2 dl1 3 dl2] LC2 DL} def
/LT3 {PL [1 dl1 1.5 dl2] LC3 DL} def
/LT4 {PL [6 dl1 2 dl2 1 dl1 2 dl2] LC4 DL} def
/LT5 {PL [3 dl1 3 dl2 1 dl1 3 dl2] LC5 DL} def
/LT6 {PL [2 dl1 2 dl2 2 dl1 6 dl2] LC6 DL} def
/LT7 {PL [1 dl1 2 dl2 6 dl1 2 dl2 1 dl1 2 dl2] LC7 DL} def
/LT8 {PL [2 dl1 2 dl2 2 dl1 2 dl2 2 dl1 2 dl2 2 dl1 4 dl2] LC8 DL} def
/Pnt {stroke [] 0 setdash gsave 1 setlinecap M 0 0 V stroke grestore} def
/Dia {stroke [] 0 setdash 2 copy vpt add M
  hpt neg vpt neg V hpt vpt neg V
  hpt vpt V hpt neg vpt V closepath stroke
  Pnt} def
/Pls {stroke [] 0 setdash vpt sub M 0 vpt2 V
  currentpoint stroke M
  hpt neg vpt neg R hpt2 0 V stroke
 } def
/Box {stroke [] 0 setdash 2 copy exch hpt sub exch vpt add M
  0 vpt2 neg V hpt2 0 V 0 vpt2 V
  hpt2 neg 0 V closepath stroke
  Pnt} def
/Crs {stroke [] 0 setdash exch hpt sub exch vpt add M
  hpt2 vpt2 neg V currentpoint stroke M
  hpt2 neg 0 R hpt2 vpt2 V stroke} def
/TriU {stroke [] 0 setdash 2 copy vpt 1.12 mul add M
  hpt neg vpt -1.62 mul V
  hpt 2 mul 0 V
  hpt neg vpt 1.62 mul V closepath stroke
  Pnt} def
/Star {2 copy Pls Crs} def
/BoxF {stroke [] 0 setdash exch hpt sub exch vpt add M
  0 vpt2 neg V hpt2 0 V 0 vpt2 V
  hpt2 neg 0 V closepath fill} def
/TriUF {stroke [] 0 setdash vpt 1.12 mul add M
  hpt neg vpt -1.62 mul V
  hpt 2 mul 0 V
  hpt neg vpt 1.62 mul V closepath fill} def
/TriD {stroke [] 0 setdash 2 copy vpt 1.12 mul sub M
  hpt neg vpt 1.62 mul V
  hpt 2 mul 0 V
  hpt neg vpt -1.62 mul V closepath stroke
  Pnt} def
/TriDF {stroke [] 0 setdash vpt 1.12 mul sub M
  hpt neg vpt 1.62 mul V
  hpt 2 mul 0 V
  hpt neg vpt -1.62 mul V closepath fill} def
/DiaF {stroke [] 0 setdash vpt add M
  hpt neg vpt neg V hpt vpt neg V
  hpt vpt V hpt neg vpt V closepath fill} def
/Pent {stroke [] 0 setdash 2 copy gsave
  translate 0 hpt M 4 {72 rotate 0 hpt L} repeat
  closepath stroke grestore Pnt} def
/PentF {stroke [] 0 setdash gsave
  translate 0 hpt M 4 {72 rotate 0 hpt L} repeat
  closepath fill grestore} def
/Circle {stroke [] 0 setdash 2 copy
  hpt 0 360 arc stroke Pnt} def
/CircleF {stroke [] 0 setdash hpt 0 360 arc fill} def
/C0 {BL [] 0 setdash 2 copy moveto vpt 90 450 arc} bind def
/C1 {BL [] 0 setdash 2 copy moveto
	2 copy vpt 0 90 arc closepath fill
	vpt 0 360 arc closepath} bind def
/C2 {BL [] 0 setdash 2 copy moveto
	2 copy vpt 90 180 arc closepath fill
	vpt 0 360 arc closepath} bind def
/C3 {BL [] 0 setdash 2 copy moveto
	2 copy vpt 0 180 arc closepath fill
	vpt 0 360 arc closepath} bind def
/C4 {BL [] 0 setdash 2 copy moveto
	2 copy vpt 180 270 arc closepath fill
	vpt 0 360 arc closepath} bind def
/C5 {BL [] 0 setdash 2 copy moveto
	2 copy vpt 0 90 arc
	2 copy moveto
	2 copy vpt 180 270 arc closepath fill
	vpt 0 360 arc} bind def
/C6 {BL [] 0 setdash 2 copy moveto
	2 copy vpt 90 270 arc closepath fill
	vpt 0 360 arc closepath} bind def
/C7 {BL [] 0 setdash 2 copy moveto
	2 copy vpt 0 270 arc closepath fill
	vpt 0 360 arc closepath} bind def
/C8 {BL [] 0 setdash 2 copy moveto
	2 copy vpt 270 360 arc closepath fill
	vpt 0 360 arc closepath} bind def
/C9 {BL [] 0 setdash 2 copy moveto
	2 copy vpt 270 450 arc closepath fill
	vpt 0 360 arc closepath} bind def
/C10 {BL [] 0 setdash 2 copy 2 copy moveto vpt 270 360 arc closepath fill
	2 copy moveto
	2 copy vpt 90 180 arc closepath fill
	vpt 0 360 arc closepath} bind def
/C11 {BL [] 0 setdash 2 copy moveto
	2 copy vpt 0 180 arc closepath fill
	2 copy moveto
	2 copy vpt 270 360 arc closepath fill
	vpt 0 360 arc closepath} bind def
/C12 {BL [] 0 setdash 2 copy moveto
	2 copy vpt 180 360 arc closepath fill
	vpt 0 360 arc closepath} bind def
/C13 {BL [] 0 setdash 2 copy moveto
	2 copy vpt 0 90 arc closepath fill
	2 copy moveto
	2 copy vpt 180 360 arc closepath fill
	vpt 0 360 arc closepath} bind def
/C14 {BL [] 0 setdash 2 copy moveto
	2 copy vpt 90 360 arc closepath fill
	vpt 0 360 arc} bind def
/C15 {BL [] 0 setdash 2 copy vpt 0 360 arc closepath fill
	vpt 0 360 arc closepath} bind def
/Rec {newpath 4 2 roll moveto 1 index 0 rlineto 0 exch rlineto
	neg 0 rlineto closepath} bind def
/Square {dup Rec} bind def
/Bsquare {vpt sub exch vpt sub exch vpt2 Square} bind def
/S0 {BL [] 0 setdash 2 copy moveto 0 vpt rlineto BL Bsquare} bind def
/S1 {BL [] 0 setdash 2 copy vpt Square fill Bsquare} bind def
/S2 {BL [] 0 setdash 2 copy exch vpt sub exch vpt Square fill Bsquare} bind def
/S3 {BL [] 0 setdash 2 copy exch vpt sub exch vpt2 vpt Rec fill Bsquare} bind def
/S4 {BL [] 0 setdash 2 copy exch vpt sub exch vpt sub vpt Square fill Bsquare} bind def
/S5 {BL [] 0 setdash 2 copy 2 copy vpt Square fill
	exch vpt sub exch vpt sub vpt Square fill Bsquare} bind def
/S6 {BL [] 0 setdash 2 copy exch vpt sub exch vpt sub vpt vpt2 Rec fill Bsquare} bind def
/S7 {BL [] 0 setdash 2 copy exch vpt sub exch vpt sub vpt vpt2 Rec fill
	2 copy vpt Square fill Bsquare} bind def
/S8 {BL [] 0 setdash 2 copy vpt sub vpt Square fill Bsquare} bind def
/S9 {BL [] 0 setdash 2 copy vpt sub vpt vpt2 Rec fill Bsquare} bind def
/S10 {BL [] 0 setdash 2 copy vpt sub vpt Square fill 2 copy exch vpt sub exch vpt Square fill
	Bsquare} bind def
/S11 {BL [] 0 setdash 2 copy vpt sub vpt Square fill 2 copy exch vpt sub exch vpt2 vpt Rec fill
	Bsquare} bind def
/S12 {BL [] 0 setdash 2 copy exch vpt sub exch vpt sub vpt2 vpt Rec fill Bsquare} bind def
/S13 {BL [] 0 setdash 2 copy exch vpt sub exch vpt sub vpt2 vpt Rec fill
	2 copy vpt Square fill Bsquare} bind def
/S14 {BL [] 0 setdash 2 copy exch vpt sub exch vpt sub vpt2 vpt Rec fill
	2 copy exch vpt sub exch vpt Square fill Bsquare} bind def
/S15 {BL [] 0 setdash 2 copy Bsquare fill Bsquare} bind def
/D0 {gsave translate 45 rotate 0 0 S0 stroke grestore} bind def
/D1 {gsave translate 45 rotate 0 0 S1 stroke grestore} bind def
/D2 {gsave translate 45 rotate 0 0 S2 stroke grestore} bind def
/D3 {gsave translate 45 rotate 0 0 S3 stroke grestore} bind def
/D4 {gsave translate 45 rotate 0 0 S4 stroke grestore} bind def
/D5 {gsave translate 45 rotate 0 0 S5 stroke grestore} bind def
/D6 {gsave translate 45 rotate 0 0 S6 stroke grestore} bind def
/D7 {gsave translate 45 rotate 0 0 S7 stroke grestore} bind def
/D8 {gsave translate 45 rotate 0 0 S8 stroke grestore} bind def
/D9 {gsave translate 45 rotate 0 0 S9 stroke grestore} bind def
/D10 {gsave translate 45 rotate 0 0 S10 stroke grestore} bind def
/D11 {gsave translate 45 rotate 0 0 S11 stroke grestore} bind def
/D12 {gsave translate 45 rotate 0 0 S12 stroke grestore} bind def
/D13 {gsave translate 45 rotate 0 0 S13 stroke grestore} bind def
/D14 {gsave translate 45 rotate 0 0 S14 stroke grestore} bind def
/D15 {gsave translate 45 rotate 0 0 S15 stroke grestore} bind def
/DiaE {stroke [] 0 setdash vpt add M
  hpt neg vpt neg V hpt vpt neg V
  hpt vpt V hpt neg vpt V closepath stroke} def
/BoxE {stroke [] 0 setdash exch hpt sub exch vpt add M
  0 vpt2 neg V hpt2 0 V 0 vpt2 V
  hpt2 neg 0 V closepath stroke} def
/TriUE {stroke [] 0 setdash vpt 1.12 mul add M
  hpt neg vpt -1.62 mul V
  hpt 2 mul 0 V
  hpt neg vpt 1.62 mul V closepath stroke} def
/TriDE {stroke [] 0 setdash vpt 1.12 mul sub M
  hpt neg vpt 1.62 mul V
  hpt 2 mul 0 V
  hpt neg vpt -1.62 mul V closepath stroke} def
/PentE {stroke [] 0 setdash gsave
  translate 0 hpt M 4 {72 rotate 0 hpt L} repeat
  closepath stroke grestore} def
/CircE {stroke [] 0 setdash 
  hpt 0 360 arc stroke} def
/Opaque {gsave closepath 1 setgray fill grestore 0 setgray closepath} def
/DiaW {stroke [] 0 setdash vpt add M
  hpt neg vpt neg V hpt vpt neg V
  hpt vpt V hpt neg vpt V Opaque stroke} def
/BoxW {stroke [] 0 setdash exch hpt sub exch vpt add M
  0 vpt2 neg V hpt2 0 V 0 vpt2 V
  hpt2 neg 0 V Opaque stroke} def
/TriUW {stroke [] 0 setdash vpt 1.12 mul add M
  hpt neg vpt -1.62 mul V
  hpt 2 mul 0 V
  hpt neg vpt 1.62 mul V Opaque stroke} def
/TriDW {stroke [] 0 setdash vpt 1.12 mul sub M
  hpt neg vpt 1.62 mul V
  hpt 2 mul 0 V
  hpt neg vpt -1.62 mul V Opaque stroke} def
/PentW {stroke [] 0 setdash gsave
  translate 0 hpt M 4 {72 rotate 0 hpt L} repeat
  Opaque stroke grestore} def
/CircW {stroke [] 0 setdash 
  hpt 0 360 arc Opaque stroke} def
/BoxFill {gsave Rec 1 setgray fill grestore} def
/Density {
  /Fillden exch def
  currentrgbcolor
  /ColB exch def /ColG exch def /ColR exch def
  /ColR ColR Fillden mul Fillden sub 1 add def
  /ColG ColG Fillden mul Fillden sub 1 add def
  /ColB ColB Fillden mul Fillden sub 1 add def
  ColR ColG ColB setrgbcolor} def
/BoxColFill {gsave Rec PolyFill} def
/PolyFill {gsave Density fill grestore grestore} def
/h {rlineto rlineto rlineto gsave closepath fill grestore} bind def
%
% PostScript Level 1 Pattern Fill routine for rectangles
% Usage: x y w h s a XX PatternFill
%	x,y = lower left corner of box to be filled
%	w,h = width and height of box
%	  a = angle in degrees between lines and x-axis
%	 XX = 0/1 for no/yes cross-hatch
%
/PatternFill {gsave /PFa [ 9 2 roll ] def
  PFa 0 get PFa 2 get 2 div add PFa 1 get PFa 3 get 2 div add translate
  PFa 2 get -2 div PFa 3 get -2 div PFa 2 get PFa 3 get Rec
  gsave 1 setgray fill grestore clip
  currentlinewidth 0.5 mul setlinewidth
  /PFs PFa 2 get dup mul PFa 3 get dup mul add sqrt def
  0 0 M PFa 5 get rotate PFs -2 div dup translate
  0 1 PFs PFa 4 get div 1 add floor cvi
	{PFa 4 get mul 0 M 0 PFs V} for
  0 PFa 6 get ne {
	0 1 PFs PFa 4 get div 1 add floor cvi
	{PFa 4 get mul 0 2 1 roll M PFs 0 V} for
 } if
  stroke grestore} def
%
/languagelevel where
 {pop languagelevel} {1} ifelse
 2 lt
	{/InterpretLevel1 true def}
	{/InterpretLevel1 Level1 def}
 ifelse
%
% PostScript level 2 pattern fill definitions
%
/Level2PatternFill {
/Tile8x8 {/PaintType 2 /PatternType 1 /TilingType 1 /BBox [0 0 8 8] /XStep 8 /YStep 8}
	bind def
/KeepColor {currentrgbcolor [/Pattern /DeviceRGB] setcolorspace} bind def
<< Tile8x8
 /PaintProc {0.5 setlinewidth pop 0 0 M 8 8 L 0 8 M 8 0 L stroke} 
>> matrix makepattern
/Pat1 exch def
<< Tile8x8
 /PaintProc {0.5 setlinewidth pop 0 0 M 8 8 L 0 8 M 8 0 L stroke
	0 4 M 4 8 L 8 4 L 4 0 L 0 4 L stroke}
>> matrix makepattern
/Pat2 exch def
<< Tile8x8
 /PaintProc {0.5 setlinewidth pop 0 0 M 0 8 L
	8 8 L 8 0 L 0 0 L fill}
>> matrix makepattern
/Pat3 exch def
<< Tile8x8
 /PaintProc {0.5 setlinewidth pop -4 8 M 8 -4 L
	0 12 M 12 0 L stroke}
>> matrix makepattern
/Pat4 exch def
<< Tile8x8
 /PaintProc {0.5 setlinewidth pop -4 0 M 8 12 L
	0 -4 M 12 8 L stroke}
>> matrix makepattern
/Pat5 exch def
<< Tile8x8
 /PaintProc {0.5 setlinewidth pop -2 8 M 4 -4 L
	0 12 M 8 -4 L 4 12 M 10 0 L stroke}
>> matrix makepattern
/Pat6 exch def
<< Tile8x8
 /PaintProc {0.5 setlinewidth pop -2 0 M 4 12 L
	0 -4 M 8 12 L 4 -4 M 10 8 L stroke}
>> matrix makepattern
/Pat7 exch def
<< Tile8x8
 /PaintProc {0.5 setlinewidth pop 8 -2 M -4 4 L
	12 0 M -4 8 L 12 4 M 0 10 L stroke}
>> matrix makepattern
/Pat8 exch def
<< Tile8x8
 /PaintProc {0.5 setlinewidth pop 0 -2 M 12 4 L
	-4 0 M 12 8 L -4 4 M 8 10 L stroke}
>> matrix makepattern
/Pat9 exch def
/Pattern1 {PatternBgnd KeepColor Pat1 setpattern} bind def
/Pattern2 {PatternBgnd KeepColor Pat2 setpattern} bind def
/Pattern3 {PatternBgnd KeepColor Pat3 setpattern} bind def
/Pattern4 {PatternBgnd KeepColor Landscape {Pat5} {Pat4} ifelse setpattern} bind def
/Pattern5 {PatternBgnd KeepColor Landscape {Pat4} {Pat5} ifelse setpattern} bind def
/Pattern6 {PatternBgnd KeepColor Landscape {Pat9} {Pat6} ifelse setpattern} bind def
/Pattern7 {PatternBgnd KeepColor Landscape {Pat8} {Pat7} ifelse setpattern} bind def
} def
%
%
%End of PostScript Level 2 code
%
/PatternBgnd {
  TransparentPatterns {} {gsave 1 setgray fill grestore} ifelse
} def
%
% Substitute for Level 2 pattern fill codes with
% grayscale if Level 2 support is not selected.
%
/Level1PatternFill {
/Pattern1 {0.250 Density} bind def
/Pattern2 {0.500 Density} bind def
/Pattern3 {0.750 Density} bind def
/Pattern4 {0.125 Density} bind def
/Pattern5 {0.375 Density} bind def
/Pattern6 {0.625 Density} bind def
/Pattern7 {0.875 Density} bind def
} def
%
% Now test for support of Level 2 code
%
Level1 {Level1PatternFill} {Level2PatternFill} ifelse
%
/Symbol-Oblique /Symbol findfont [1 0 .167 1 0 0] makefont
dup length dict begin {1 index /FID eq {pop pop} {def} ifelse} forall
currentdict end definefont pop
/MFshow {
   { dup 5 get 3 ge
     { 5 get 3 eq {gsave} {grestore} ifelse }
     {dup dup 0 get findfont exch 1 get scalefont setfont
     [ currentpoint ] exch dup 2 get 0 exch R dup 5 get 2 ne {dup dup 6
     get exch 4 get {Gshow} {stringwidth pop 0 R} ifelse }if dup 5 get 0 eq
     {dup 3 get {2 get neg 0 exch R pop} {pop aload pop M} ifelse} {dup 5
     get 1 eq {dup 2 get exch dup 3 get exch 6 get stringwidth pop -2 div
     dup 0 R} {dup 6 get stringwidth pop -2 div 0 R 6 get
     show 2 index {aload pop M neg 3 -1 roll neg R pop pop} {pop pop pop
     pop aload pop M} ifelse }ifelse }ifelse }
     ifelse }
   forall} def
/Gswidth {dup type /stringtype eq {stringwidth} {pop (n) stringwidth} ifelse} def
/MFwidth {0 exch { dup 5 get 3 ge { 5 get 3 eq { 0 } { pop } ifelse }
 {dup 3 get{dup dup 0 get findfont exch 1 get scalefont setfont
     6 get Gswidth pop add} {pop} ifelse} ifelse} forall} def
/MLshow { currentpoint stroke M
  0 exch R
  Blacktext {gsave 0 setgray MFshow grestore} {MFshow} ifelse } bind def
/MRshow { currentpoint stroke M
  exch dup MFwidth neg 3 -1 roll R
  Blacktext {gsave 0 setgray MFshow grestore} {MFshow} ifelse } bind def
/MCshow { currentpoint stroke M
  exch dup MFwidth -2 div 3 -1 roll R
  Blacktext {gsave 0 setgray MFshow grestore} {MFshow} ifelse } bind def
/XYsave    { [( ) 1 2 true false 3 ()] } bind def
/XYrestore { [( ) 1 2 true false 4 ()] } bind def
end
%%EndProlog
gnudict begin
gsave
doclip
50 50 translate
0.050 0.050 scale
0 setgray
newpath
(Helvetica) findfont 140 scalefont setfont
1.000 UL
LTb
1090 448 M
63 0 V
6900 0 R
-63 0 V
stroke
1006 448 M
[ [(Helvetica) 140.0 0.0 true true 0 ( 0)]
] -46.7 MRshow
1.000 UL
LTb
1090 769 M
63 0 V
6900 0 R
-63 0 V
stroke
1006 769 M
[ [(Helvetica) 140.0 0.0 true true 0 ( 0.2)]
] -46.7 MRshow
1.000 UL
LTb
1090 1089 M
63 0 V
6900 0 R
-63 0 V
stroke
1006 1089 M
[ [(Helvetica) 140.0 0.0 true true 0 ( 0.4)]
] -46.7 MRshow
1.000 UL
LTb
1090 1410 M
63 0 V
6900 0 R
-63 0 V
stroke
1006 1410 M
[ [(Helvetica) 140.0 0.0 true true 0 ( 0.6)]
] -46.7 MRshow
1.000 UL
LTb
1090 1730 M
63 0 V
6900 0 R
-63 0 V
stroke
1006 1730 M
[ [(Helvetica) 140.0 0.0 true true 0 ( 0.8)]
] -46.7 MRshow
1.000 UL
LTb
1090 2051 M
63 0 V
6900 0 R
-63 0 V
stroke
1006 2051 M
[ [(Helvetica) 140.0 0.0 true true 0 ( 1)]
] -46.7 MRshow
1.000 UL
LTb
1090 448 M
0 63 V
0 1700 R
0 -63 V
stroke
1090 308 M
[ [(Helvetica) 140.0 0.0 true true 0 ( 0)]
] -46.7 MCshow
1.000 UL
LTb
2251 448 M
0 63 V
0 1700 R
0 -63 V
stroke
2251 308 M
[ [(Helvetica) 140.0 0.0 true true 0 ( 20000)]
] -46.7 MCshow
1.000 UL
LTb
3411 448 M
0 63 V
0 1700 R
0 -63 V
stroke
3411 308 M
[ [(Helvetica) 140.0 0.0 true true 0 ( 40000)]
] -46.7 MCshow
1.000 UL
LTb
4572 448 M
0 63 V
0 1700 R
0 -63 V
stroke
4572 308 M
[ [(Helvetica) 140.0 0.0 true true 0 ( 60000)]
] -46.7 MCshow
1.000 UL
LTb
5732 448 M
0 63 V
0 1700 R
0 -63 V
stroke
5732 308 M
[ [(Helvetica) 140.0 0.0 true true 0 ( 80000)]
] -46.7 MCshow
1.000 UL
LTb
6893 448 M
0 63 V
0 1700 R
0 -63 V
stroke
6893 308 M
[ [(Helvetica) 140.0 0.0 true true 0 ( 100000)]
] -46.7 MCshow
1.000 UL
LTb
8053 448 M
0 63 V
0 1700 R
0 -63 V
stroke
8053 308 M
[ [(Helvetica) 140.0 0.0 true true 0 ( 120000)]
] -46.7 MCshow
1.000 UL
LTb
1.000 UL
LTb
1090 2211 N
0 -1763 V
6963 0 V
0 1763 V
-6963 0 V
Z stroke
LCb setrgbcolor
516 1329 M
currentpoint gsave translate -270 rotate 0 0 moveto
[ [(Helvetica) 140.0 0.0 true true 0 (Probability)]
] -46.7 MCshow
grestore
LTb
LCb setrgbcolor
4571 98 M
[ [(Helvetica) 140.0 0.0 true true 0 (Run Time \(seconds\))]
] -46.7 MCshow
LTb
1.000 UP
1.000 UL
LTb
% Begin plot #1
5.000 UL
LT0
LCb setrgbcolor
7402 1141 M
[ [(Helvetica) 140.0 0.0 true true 0 (90% Average Load)]
] -46.7 MRshow
LT0
7486 1141 M
399 0 V
1090 461 M
0 17 V
0 18 V
0 16 V
0 16 V
1 16 V
0 12 V
0 14 V
0 12 V
0 12 V
0 11 V
0 11 V
0 11 V
1 12 V
0 10 V
0 10 V
0 8 V
0 8 V
0 9 V
0 9 V
0 9 V
0 9 V
1 8 V
0 6 V
0 8 V
0 7 V
0 6 V
0 7 V
0 5 V
0 6 V
0 6 V
1 5 V
0 5 V
0 6 V
0 5 V
0 6 V
0 6 V
0 4 V
0 6 V
1 6 V
0 3 V
0 5 V
0 3 V
0 6 V
0 4 V
0 4 V
0 4 V
0 4 V
1 3 V
0 3 V
0 5 V
0 4 V
0 4 V
0 4 V
0 4 V
0 4 V
0 4 V
1 3 V
0 3 V
0 4 V
0 4 V
0 3 V
0 4 V
0 2 V
0 4 V
1 2 V
0 4 V
0 3 V
0 4 V
0 4 V
0 3 V
0 4 V
0 3 V
0 3 V
1 3 V
0 4 V
0 4 V
0 3 V
0 4 V
0 3 V
0 3 V
0 3 V
1 2 V
0 4 V
0 2 V
0 4 V
0 3 V
0 2 V
0 3 V
0 3 V
0 3 V
1 4 V
0 3 V
0 3 V
0 2 V
0 2 V
0 3 V
0 3 V
0 2 V
0 2 V
1 3 V
0 1 V
0 4 V
stroke 1102 1029 M
0 2 V
0 3 V
0 3 V
0 2 V
0 3 V
1 3 V
0 2 V
0 3 V
0 2 V
0 2 V
0 3 V
0 3 V
0 3 V
0 2 V
1 3 V
0 2 V
0 2 V
0 2 V
0 2 V
0 3 V
0 1 V
0 4 V
1 3 V
0 3 V
0 2 V
0 3 V
0 3 V
0 3 V
0 1 V
0 3 V
0 2 V
1 3 V
0 1 V
0 2 V
0 3 V
0 2 V
0 2 V
0 3 V
0 3 V
0 2 V
1 2 V
0 2 V
0 2 V
0 3 V
0 1 V
0 2 V
0 2 V
0 2 V
1 2 V
0 2 V
0 2 V
0 2 V
0 2 V
0 2 V
0 1 V
0 2 V
0 2 V
1 1 V
0 2 V
0 2 V
0 3 V
0 2 V
0 3 V
0 2 V
0 2 V
0 1 V
1 2 V
0 3 V
0 2 V
0 1 V
0 2 V
0 1 V
0 3 V
0 2 V
1 2 V
0 2 V
0 2 V
0 2 V
0 2 V
0 3 V
0 1 V
0 3 V
0 1 V
1 3 V
0 2 V
0 1 V
0 2 V
0 1 V
0 2 V
0 1 V
0 3 V
1 2 V
0 2 V
0 1 V
0 1 V
0 1 V
0 2 V
0 2 V
0 1 V
0 1 V
1 1 V
0 2 V
0 1 V
0 2 V
stroke 1114 1247 M
0 2 V
0 2 V
0 1 V
0 2 V
0 2 V
1 2 V
0 1 V
0 2 V
0 2 V
0 2 V
0 2 V
0 2 V
0 1 V
1 2 V
0 2 V
0 1 V
0 2 V
0 1 V
0 2 V
0 2 V
0 2 V
0 1 V
1 1 V
0 2 V
0 2 V
0 1 V
0 2 V
0 2 V
0 2 V
0 2 V
1 1 V
0 1 V
0 1 V
0 2 V
0 2 V
0 2 V
0 2 V
0 1 V
0 2 V
1 2 V
0 1 V
0 1 V
0 2 V
0 2 V
0 1 V
0 1 V
0 2 V
0 1 V
1 1 V
0 2 V
0 1 V
0 1 V
0 2 V
0 1 V
0 2 V
1 3 V
0 2 V
0 1 V
0 2 V
0 2 V
0 1 V
0 2 V
0 1 V
0 1 V
1 1 V
0 2 V
0 2 V
0 2 V
0 1 V
0 2 V
0 1 V
0 1 V
0 3 V
1 1 V
0 2 V
0 2 V
0 1 V
0 1 V
0 3 V
0 1 V
1 2 V
0 1 V
0 2 V
0 1 V
0 1 V
0 1 V
0 2 V
0 1 V
0 1 V
1 2 V
0 1 V
0 2 V
0 1 V
0 1 V
0 1 V
0 1 V
0 1 V
1 1 V
0 1 V
0 2 V
0 1 V
0 2 V
0 1 V
0 1 V
stroke 1126 1408 M
0 1 V
1 1 V
0 1 V
0 1 V
0 2 V
0 2 V
0 1 V
0 1 V
0 2 V
0 1 V
1 1 V
0 1 V
0 1 V
0 1 V
0 1 V
0 2 V
0 1 V
0 1 V
1 1 V
0 1 V
0 1 V
0 1 V
0 2 V
0 1 V
0 2 V
0 1 V
1 1 V
0 1 V
0 1 V
0 1 V
0 2 V
0 1 V
0 2 V
0 1 V
1 1 V
0 1 V
0 2 V
0 2 V
0 1 V
0 1 V
0 1 V
0 2 V
1 1 V
0 1 V
0 1 V
0 1 V
0 1 V
0 2 V
0 1 V
0 1 V
1 1 V
0 1 V
0 1 V
0 1 V
0 1 V
0 1 V
0 1 V
1 2 V
0 1 V
0 1 V
0 1 V
0 1 V
0 1 V
0 2 V
0 1 V
0 1 V
1 1 V
0 1 V
0 1 V
0 1 V
0 1 V
0 1 V
0 1 V
0 1 V
1 0 V
0 1 V
0 1 V
0 1 V
0 1 V
0 1 V
0 1 V
1 1 V
0 1 V
0 1 V
0 1 V
0 1 V
0 1 V
0 1 V
0 1 V
1 0 V
0 1 V
0 1 V
0 1 V
0 1 V
0 1 V
0 1 V
1 1 V
0 1 V
0 1 V
0 2 V
0 2 V
0 2 V
1 0 V
0 1 V
stroke 1140 1526 M
0 1 V
0 1 V
0 1 V
0 1 V
0 1 V
1 1 V
0 1 V
0 2 V
0 1 V
0 1 V
0 1 V
1 1 V
0 1 V
0 1 V
0 1 V
0 1 V
0 1 V
0 1 V
1 1 V
0 1 V
0 1 V
0 1 V
0 1 V
0 1 V
1 1 V
0 1 V
0 1 V
0 1 V
0 1 V
1 1 V
0 1 V
0 1 V
0 1 V
0 1 V
1 0 V
0 1 V
0 1 V
0 1 V
0 1 V
0 1 V
0 1 V
1 1 V
0 1 V
0 1 V
0 1 V
0 1 V
0 1 V
0 1 V
0 1 V
1 0 V
0 1 V
0 1 V
0 1 V
0 1 V
0 1 V
0 2 V
1 1 V
0 1 V
0 1 V
0 1 V
0 1 V
1 0 V
0 1 V
0 1 V
0 1 V
0 1 V
0 1 V
0 1 V
1 1 V
0 1 V
0 1 V
0 1 V
1 1 V
0 1 V
0 1 V
0 1 V
0 1 V
1 1 V
0 1 V
0 1 V
0 1 V
0 1 V
1 0 V
0 1 V
0 1 V
0 1 V
0 1 V
0 1 V
1 0 V
0 1 V
0 1 V
0 1 V
0 1 V
1 0 V
0 1 V
0 1 V
0 1 V
0 1 V
1 1 V
0 1 V
0 1 V
0 1 V
0 1 V
1 1 V
stroke 1158 1626 M
0 1 V
0 1 V
0 1 V
0 1 V
1 0 V
0 1 V
0 1 V
0 1 V
0 1 V
1 0 V
0 1 V
0 1 V
0 1 V
0 1 V
0 1 V
1 0 V
0 1 V
0 1 V
0 1 V
0 1 V
1 0 V
0 1 V
0 1 V
0 1 V
0 1 V
0 1 V
1 1 V
0 1 V
0 1 V
1 0 V
0 1 V
0 1 V
0 1 V
0 1 V
0 1 V
1 0 V
0 1 V
0 1 V
0 1 V
0 1 V
1 0 V
0 1 V
0 1 V
0 1 V
1 1 V
0 1 V
0 1 V
0 1 V
1 1 V
0 1 V
0 1 V
0 1 V
1 0 V
0 1 V
0 1 V
0 1 V
1 1 V
0 1 V
0 1 V
1 1 V
0 1 V
1 1 V
0 1 V
0 1 V
0 1 V
1 0 V
0 1 V
0 1 V
0 1 V
1 0 V
0 1 V
0 1 V
1 0 V
0 1 V
0 1 V
1 1 V
0 1 V
0 1 V
1 1 V
0 1 V
0 1 V
1 1 V
0 1 V
0 1 V
0 1 V
1 0 V
0 1 V
0 1 V
1 1 V
0 1 V
0 1 V
1 1 V
0 1 V
0 1 V
1 1 V
0 1 V
1 0 V
0 1 V
0 1 V
0 1 V
1 0 V
0 1 V
0 1 V
1 1 V
stroke 1185 1716 M
0 1 V
0 1 V
1 0 V
0 1 V
0 1 V
0 1 V
1 0 V
0 1 V
0 1 V
1 0 V
0 1 V
1 1 V
0 1 V
0 1 V
1 0 V
0 1 V
0 1 V
1 1 V
0 1 V
0 1 V
1 0 V
0 1 V
0 1 V
1 0 V
0 1 V
0 1 V
1 0 V
0 1 V
0 1 V
1 0 V
0 1 V
0 1 V
1 0 V
0 1 V
1 1 V
0 1 V
1 0 V
0 1 V
0 1 V
1 0 V
0 1 V
0 1 V
1 0 V
0 1 V
0 1 V
1 0 V
0 1 V
1 0 V
0 1 V
0 1 V
1 0 V
0 1 V
1 0 V
0 1 V
0 1 V
1 1 V
0 1 V
1 0 V
0 1 V
0 1 V
1 0 V
0 1 V
1 0 V
0 1 V
0 1 V
1 0 V
0 1 V
0 1 V
1 0 V
0 1 V
1 0 V
0 1 V
0 1 V
1 0 V
0 1 V
0 1 V
1 0 V
1 1 V
0 1 V
0 1 V
1 0 V
0 1 V
1 0 V
0 1 V
0 1 V
1 0 V
0 1 V
1 0 V
0 1 V
0 1 V
1 0 V
0 1 V
1 0 V
0 1 V
0 1 V
1 0 V
0 1 V
1 1 V
0 1 V
1 0 V
0 1 V
0 1 V
0 1 V
1 0 V
stroke 1224 1787 M
0 1 V
1 0 V
0 1 V
1 0 V
0 1 V
1 0 V
0 1 V
1 0 V
0 1 V
0 1 V
1 0 V
0 1 V
1 1 V
0 1 V
1 0 V
0 1 V
1 0 V
0 1 V
1 0 V
0 1 V
1 0 V
0 1 V
1 0 V
0 1 V
1 0 V
0 1 V
1 0 V
0 1 V
1 0 V
0 1 V
1 0 V
0 1 V
1 0 V
0 1 V
0 1 V
1 0 V
0 1 V
1 0 V
0 1 V
1 0 V
0 1 V
1 0 V
1 0 V
0 1 V
0 1 V
1 0 V
0 1 V
1 1 V
1 0 V
0 1 V
1 0 V
0 1 V
1 0 V
0 1 V
1 0 V
0 1 V
1 0 V
0 1 V
0 1 V
1 0 V
0 1 V
1 0 V
1 1 V
0 1 V
1 0 V
0 1 V
1 0 V
0 1 V
1 0 V
0 1 V
1 0 V
0 1 V
1 0 V
1 0 V
0 1 V
1 0 V
0 1 V
0 1 V
1 0 V
0 1 V
1 0 V
0 1 V
1 0 V
0 1 V
1 0 V
0 1 V
1 0 V
0 1 V
1 0 V
0 1 V
1 0 V
0 1 V
1 0 V
0 1 V
1 0 V
0 1 V
1 0 V
1 0 V
0 1 V
1 0 V
0 1 V
1 0 V
0 1 V
1 0 V
stroke 1276 1842 M
0 1 V
1 0 V
0 1 V
1 0 V
1 1 V
1 1 V
0 1 V
1 0 V
1 1 V
1 1 V
1 1 V
1 0 V
0 1 V
1 1 V
1 0 V
0 1 V
1 0 V
0 1 V
1 0 V
0 1 V
1 0 V
0 1 V
1 0 V
1 0 V
1 1 V
0 1 V
1 0 V
1 0 V
0 1 V
1 0 V
1 0 V
0 1 V
1 0 V
0 1 V
1 0 V
1 0 V
0 1 V
1 0 V
0 1 V
1 0 V
0 1 V
1 0 V
1 1 V
1 0 V
0 1 V
1 0 V
1 1 V
1 0 V
0 1 V
1 0 V
1 1 V
1 1 V
1 0 V
0 1 V
1 0 V
0 1 V
1 0 V
0 1 V
1 0 V
1 0 V
0 1 V
1 0 V
0 1 V
1 0 V
0 1 V
1 0 V
0 1 V
1 0 V
0 1 V
1 0 V
1 0 V
0 1 V
1 0 V
0 1 V
1 0 V
0 1 V
1 0 V
1 0 V
0 1 V
1 0 V
1 0 V
0 1 V
1 1 V
1 0 V
1 1 V
0 1 V
1 0 V
1 1 V
1 0 V
0 1 V
1 0 V
0 1 V
1 0 V
1 0 V
1 0 V
0 1 V
1 0 V
1 0 V
1 1 V
1 0 V
0 1 V
1 0 V
1 0 V
0 1 V
stroke 1344 1893 M
1 0 V
1 0 V
0 1 V
1 0 V
1 0 V
0 1 V
1 0 V
1 0 V
0 1 V
1 0 V
1 0 V
1 1 V
1 0 V
1 0 V
0 1 V
1 0 V
1 0 V
1 0 V
0 1 V
1 0 V
1 1 V
1 0 V
1 0 V
0 1 V
1 0 V
1 0 V
0 1 V
1 0 V
1 0 V
1 1 V
1 0 V
0 1 V
1 0 V
1 0 V
0 1 V
1 0 V
0 1 V
1 1 V
0 1 V
1 0 V
1 0 V
0 1 V
1 0 V
1 0 V
1 0 V
0 1 V
1 0 V
0 1 V
1 0 V
1 0 V
1 1 V
1 0 V
1 1 V
1 1 V
1 0 V
0 1 V
1 0 V
1 0 V
1 1 V
1 0 V
1 0 V
0 1 V
1 0 V
1 1 V
2 0 V
1 0 V
1 0 V
0 1 V
1 0 V
0 1 V
1 0 V
1 0 V
0 1 V
1 0 V
1 0 V
1 1 V
1 0 V
0 1 V
1 0 V
1 0 V
0 1 V
1 0 V
0 1 V
1 0 V
1 0 V
1 1 V
1 0 V
1 0 V
0 1 V
1 0 V
1 0 V
0 1 V
1 0 V
1 0 V
1 0 V
0 1 V
1 0 V
1 0 V
0 1 V
1 0 V
1 0 V
0 1 V
1 0 V
1 0 V
stroke 1422 1931 M
0 1 V
1 0 V
1 0 V
1 1 V
1 0 V
1 0 V
1 1 V
1 0 V
1 0 V
0 1 V
1 0 V
1 0 V
1 0 V
0 1 V
1 0 V
1 0 V
0 1 V
1 0 V
1 0 V
1 0 V
1 1 V
1 0 V
0 1 V
1 0 V
1 0 V
1 0 V
0 1 V
1 0 V
0 1 V
1 0 V
1 0 V
0 1 V
1 0 V
1 0 V
1 0 V
0 1 V
1 0 V
0 1 V
1 0 V
1 0 V
1 0 V
0 1 V
1 0 V
1 0 V
1 1 V
1 0 V
0 1 V
2 0 V
1 0 V
0 1 V
1 0 V
1 0 V
1 0 V
0 1 V
2 0 V
1 1 V
1 0 V
1 0 V
0 1 V
1 0 V
1 0 V
0 1 V
1 0 V
1 0 V
1 1 V
1 0 V
1 0 V
1 0 V
1 1 V
1 0 V
1 0 V
1 0 V
1 1 V
1 0 V
1 0 V
0 1 V
1 0 V
1 0 V
0 1 V
1 0 V
1 0 V
1 0 V
0 1 V
1 0 V
1 0 V
0 1 V
1 0 V
1 0 V
1 0 V
0 1 V
1 0 V
1 0 V
0 1 V
1 0 V
0 1 V
1 0 V
1 0 V
1 1 V
1 0 V
1 0 V
1 0 V
0 1 V
1 0 V
1 0 V
stroke 1504 1964 M
1 0 V
0 1 V
1 0 V
1 0 V
1 0 V
0 1 V
1 0 V
1 0 V
0 1 V
1 0 V
1 0 V
1 1 V
1 0 V
1 0 V
0 1 V
1 0 V
1 0 V
1 0 V
0 1 V
1 0 V
1 0 V
1 1 V
1 0 V
1 0 V
1 0 V
0 1 V
1 0 V
1 0 V
1 0 V
0 1 V
2 0 V
1 1 V
1 0 V
1 0 V
0 1 V
1 0 V
1 0 V
1 0 V
1 1 V
1 0 V
0 1 V
2 0 V
2 0 V
0 1 V
1 0 V
0 1 V
1 0 V
1 0 V
1 0 V
1 0 V
1 0 V
1 0 V
0 1 V
1 0 V
1 0 V
2 1 V
1 0 V
1 0 V
3 0 V
1 0 V
0 1 V
1 0 V
1 0 V
1 0 V
0 1 V
1 0 V
1 0 V
1 0 V
1 1 V
1 0 V
1 0 V
1 0 V
1 1 V
1 0 V
1 1 V
1 0 V
1 0 V
1 0 V
1 1 V
3 0 V
1 0 V
1 0 V
2 0 V
0 1 V
1 0 V
1 0 V
1 0 V
1 0 V
0 1 V
1 0 V
1 0 V
1 0 V
1 0 V
1 0 V
0 1 V
1 0 V
1 0 V
1 0 V
0 1 V
1 0 V
1 0 V
1 0 V
1 0 V
1 0 V
stroke 1599 1991 M
1 1 V
1 0 V
1 0 V
1 0 V
1 0 V
1 0 V
1 0 V
0 1 V
1 0 V
1 0 V
2 0 V
1 0 V
0 1 V
2 0 V
2 0 V
1 0 V
1 0 V
2 0 V
0 1 V
1 0 V
1 0 V
1 0 V
0 1 V
1 0 V
1 0 V
1 0 V
1 0 V
1 0 V
1 0 V
0 1 V
1 0 V
1 0 V
1 0 V
0 1 V
1 0 V
1 0 V
1 0 V
1 0 V
1 0 V
1 0 V
0 1 V
1 0 V
1 0 V
1 0 V
2 0 V
0 1 V
1 0 V
1 0 V
1 0 V
2 0 V
2 0 V
1 1 V
1 0 V
1 0 V
1 0 V
1 0 V
1 0 V
1 1 V
1 0 V
1 0 V
1 0 V
0 1 V
2 0 V
1 0 V
1 0 V
1 1 V
1 0 V
1 0 V
1 0 V
1 0 V
1 0 V
0 1 V
1 0 V
1 0 V
1 0 V
1 0 V
1 0 V
1 1 V
1 0 V
1 0 V
1 0 V
1 0 V
2 1 V
2 0 V
1 0 V
1 0 V
1 0 V
1 0 V
1 0 V
1 0 V
1 1 V
1 0 V
1 0 V
1 0 V
1 0 V
1 0 V
0 1 V
1 0 V
3 0 V
1 0 V
1 0 V
1 0 V
1 0 V
0 1 V
stroke 1703 2010 M
1 0 V
2 0 V
2 0 V
3 0 V
1 0 V
1 1 V
1 0 V
2 0 V
1 0 V
2 0 V
1 0 V
0 1 V
1 0 V
1 0 V
1 0 V
1 0 V
1 0 V
2 1 V
1 0 V
1 0 V
1 0 V
4 0 V
1 0 V
1 0 V
1 0 V
0 1 V
1 0 V
3 0 V
1 0 V
2 0 V
3 0 V
2 1 V
2 0 V
1 0 V
1 0 V
3 0 V
1 0 V
1 0 V
0 1 V
1 0 V
1 0 V
1 0 V
1 0 V
3 1 V
3 0 V
1 0 V
3 0 V
1 0 V
2 0 V
1 0 V
3 0 V
1 1 V
1 0 V
1 0 V
2 0 V
2 0 V
2 0 V
1 0 V
4 0 V
2 0 V
0 1 V
3 0 V
1 0 V
2 0 V
1 0 V
3 0 V
0 1 V
1 0 V
4 0 V
1 0 V
4 0 V
3 0 V
1 1 V
2 0 V
5 0 V
1 0 V
1 0 V
1 0 V
1 0 V
2 1 V
1 0 V
1 0 V
1 0 V
1 0 V
1 1 V
3 0 V
2 0 V
1 0 V
2 0 V
1 0 V
1 0 V
1 0 V
3 1 V
1 0 V
1 0 V
1 0 V
2 0 V
1 0 V
2 0 V
1 0 V
2 1 V
1 0 V
2 0 V
1 0 V
stroke 1866 2025 M
4 0 V
1 0 V
3 0 V
1 0 V
1 0 V
0 1 V
2 0 V
4 0 V
1 0 V
1 0 V
1 0 V
4 0 V
2 0 V
1 0 V
0 1 V
1 0 V
1 0 V
1 0 V
3 0 V
2 0 V
3 0 V
6 1 V
3 0 V
4 0 V
3 0 V
3 0 V
1 0 V
1 0 V
1 0 V
1 1 V
1 0 V
1 0 V
2 0 V
2 0 V
4 0 V
1 0 V
1 0 V
0 1 V
2 0 V
2 0 V
2 0 V
2 0 V
9 0 V
3 0 V
2 0 V
1 1 V
2 0 V
7 0 V
1 0 V
2 0 V
2 0 V
2 0 V
2 0 V
0 1 V
1 0 V
1 0 V
4 0 V
6 0 V
2 0 V
2 0 V
1 1 V
3 0 V
2 0 V
2 0 V
2 0 V
2 0 V
2 0 V
2 1 V
2 0 V
2 0 V
5 0 V
1 0 V
3 0 V
5 0 V
0 1 V
1 0 V
2 0 V
1 0 V
2 0 V
1 0 V
1 0 V
2 0 V
4 0 V
5 1 V
7 0 V
1 0 V
1 0 V
6 0 V
3 0 V
2 0 V
0 1 V
1 0 V
8 0 V
5 0 V
1 0 V
2 0 V
2 0 V
6 0 V
1 0 V
3 1 V
3 0 V
1 0 V
1 0 V
2 0 V
stroke 2104 2038 M
5 0 V
1 0 V
1 1 V
5 0 V
8 0 V
2 0 V
2 0 V
2 0 V
5 0 V
10 0 V
2 1 V
1 0 V
1 0 V
15 0 V
3 0 V
1 0 V
2 0 V
2 0 V
13 0 V
5 1 V
3 0 V
3 0 V
12 0 V
4 0 V
4 0 V
2 0 V
3 0 V
8 1 V
3 0 V
16 0 V
4 0 V
2 0 V
3 0 V
8 0 V
1 0 V
2 0 V
15 1 V
7 0 V
4 0 V
17 0 V
9 0 V
5 0 V
4 0 V
1 0 V
2 0 V
2 1 V
3 0 V
4 0 V
4 0 V
1 0 V
1 0 V
4 0 V
3 0 V
15 0 V
11 1 V
3 0 V
11 0 V
4 0 V
6 0 V
7 0 V
3 0 V
10 0 V
29 0 V
2 0 V
19 1 V
9 0 V
45 0 V
15 0 V
5 0 V
4 0 V
1 0 V
8 0 V
3 0 V
1 0 V
15 1 V
4 0 V
27 0 V
39 0 V
8 0 V
6 0 V
5 0 V
16 0 V
11 0 V
3 0 V
4 1 V
4 0 V
15 0 V
7 0 V
15 0 V
33 0 V
27 0 V
25 0 V
2 0 V
14 0 V
13 1 V
177 0 V
205 0 V
104 0 V
12 0 V
15 0 V
6 0 V
38 0 V
4 0 V
203 1 V
stroke 3622 2050 M
27 0 V
31 0 V
52 0 V
255 0 V
197 0 V
10 0 V
38 0 V
289 0 V
35 0 V
93 1 V
80 0 V
1241 0 V
96 0 V
% End plot #1
% Begin plot #2
stroke
2.000 UL
LT1
LCb setrgbcolor
7402 1001 M
[ [(Helvetica) 140.0 0.0 true true 0 (80% Average Load)]
] -46.7 MRshow
LT1
7486 1001 M
399 0 V
1090 462 M
0 17 V
0 22 V
0 19 V
0 16 V
1 15 V
0 14 V
0 12 V
0 14 V
0 14 V
0 14 V
0 11 V
0 10 V
1 11 V
0 11 V
0 10 V
0 7 V
0 7 V
0 7 V
0 10 V
0 9 V
0 8 V
1 7 V
0 7 V
0 8 V
0 7 V
0 7 V
0 5 V
0 6 V
0 5 V
0 5 V
1 5 V
0 4 V
0 5 V
0 6 V
0 5 V
0 6 V
0 5 V
0 6 V
1 5 V
0 4 V
0 5 V
0 4 V
0 4 V
0 3 V
0 5 V
0 5 V
0 5 V
1 4 V
0 4 V
0 4 V
0 4 V
0 5 V
0 3 V
0 4 V
0 4 V
0 5 V
1 5 V
0 4 V
0 4 V
0 3 V
0 4 V
0 4 V
0 4 V
0 4 V
1 3 V
0 4 V
0 3 V
0 4 V
0 3 V
0 3 V
0 3 V
0 3 V
0 2 V
1 4 V
0 3 V
0 4 V
0 2 V
0 3 V
0 3 V
0 3 V
0 3 V
1 4 V
0 3 V
0 2 V
0 3 V
0 2 V
0 3 V
0 3 V
0 3 V
0 2 V
1 3 V
0 3 V
0 3 V
0 3 V
0 3 V
0 2 V
0 3 V
0 2 V
0 3 V
1 2 V
0 3 V
0 3 V
stroke 1102 1039 M
0 2 V
0 3 V
0 3 V
0 1 V
0 3 V
1 3 V
0 2 V
0 3 V
0 4 V
0 2 V
0 3 V
0 3 V
0 3 V
0 3 V
1 2 V
0 4 V
0 2 V
0 3 V
0 2 V
0 3 V
0 3 V
0 2 V
1 1 V
0 2 V
0 2 V
0 2 V
0 2 V
0 3 V
0 2 V
0 1 V
0 3 V
1 3 V
0 2 V
0 2 V
0 2 V
0 2 V
0 4 V
0 2 V
0 1 V
0 3 V
1 2 V
0 2 V
0 2 V
0 2 V
0 2 V
0 2 V
0 3 V
0 1 V
1 2 V
0 3 V
0 2 V
0 2 V
0 2 V
0 2 V
0 2 V
0 3 V
0 2 V
1 1 V
0 2 V
0 2 V
0 1 V
0 2 V
0 2 V
0 2 V
0 2 V
0 2 V
1 2 V
0 1 V
0 3 V
0 2 V
0 2 V
0 2 V
0 2 V
0 2 V
1 2 V
0 2 V
0 3 V
0 3 V
0 1 V
0 3 V
0 3 V
0 1 V
0 3 V
1 1 V
0 3 V
0 1 V
0 3 V
0 2 V
0 2 V
0 3 V
0 1 V
1 2 V
0 2 V
0 2 V
0 2 V
0 1 V
0 3 V
0 2 V
0 2 V
0 2 V
1 3 V
0 2 V
0 1 V
0 2 V
stroke 1114 1268 M
0 1 V
0 2 V
0 1 V
0 2 V
0 2 V
1 2 V
0 2 V
0 2 V
0 2 V
0 1 V
0 1 V
0 3 V
0 1 V
1 1 V
0 2 V
0 1 V
0 1 V
0 2 V
0 2 V
0 2 V
0 2 V
0 1 V
1 2 V
0 1 V
0 2 V
0 1 V
0 1 V
0 2 V
0 1 V
0 2 V
1 1 V
0 2 V
0 2 V
0 2 V
0 2 V
0 2 V
0 1 V
0 1 V
0 1 V
1 2 V
0 2 V
0 1 V
0 2 V
0 1 V
0 2 V
0 2 V
0 1 V
0 1 V
1 1 V
0 2 V
0 1 V
0 1 V
0 1 V
0 1 V
0 1 V
0 1 V
1 1 V
0 2 V
0 1 V
0 2 V
0 2 V
0 2 V
0 1 V
0 2 V
1 2 V
0 1 V
0 2 V
0 2 V
0 1 V
0 2 V
0 2 V
1 1 V
0 1 V
0 1 V
0 2 V
0 2 V
0 1 V
0 2 V
0 2 V
1 1 V
0 3 V
0 1 V
0 1 V
0 1 V
0 3 V
0 1 V
0 1 V
1 1 V
0 1 V
0 2 V
0 1 V
0 2 V
0 1 V
0 2 V
0 1 V
1 1 V
0 1 V
0 1 V
0 1 V
0 1 V
0 1 V
0 1 V
0 1 V
0 2 V
stroke 1126 1423 M
1 0 V
0 1 V
0 2 V
0 2 V
0 1 V
0 1 V
0 2 V
0 1 V
0 1 V
1 1 V
0 1 V
0 2 V
0 1 V
0 1 V
0 1 V
0 1 V
0 1 V
1 0 V
0 2 V
0 1 V
0 1 V
0 2 V
0 1 V
0 1 V
0 1 V
0 1 V
1 2 V
0 1 V
0 1 V
0 1 V
0 1 V
0 2 V
0 1 V
0 1 V
1 1 V
0 1 V
0 1 V
0 2 V
0 1 V
0 1 V
0 1 V
0 1 V
1 1 V
0 2 V
0 1 V
0 1 V
0 1 V
0 1 V
0 1 V
1 1 V
0 1 V
0 2 V
0 1 V
0 1 V
0 2 V
0 1 V
0 1 V
0 1 V
1 1 V
0 1 V
0 1 V
0 2 V
0 1 V
0 1 V
0 1 V
1 0 V
0 1 V
0 1 V
0 1 V
0 1 V
0 1 V
0 1 V
0 1 V
0 1 V
1 0 V
0 2 V
0 1 V
0 1 V
0 1 V
0 1 V
0 1 V
1 1 V
0 1 V
0 1 V
0 2 V
0 1 V
0 1 V
1 2 V
0 1 V
0 1 V
0 2 V
0 1 V
0 1 V
0 1 V
1 1 V
0 1 V
0 1 V
0 1 V
0 1 V
0 1 V
0 1 V
1 0 V
0 1 V
0 1 V
stroke 1140 1539 M
0 1 V
0 1 V
0 2 V
0 1 V
1 0 V
0 1 V
0 1 V
0 1 V
0 1 V
0 1 V
0 1 V
1 1 V
0 1 V
0 1 V
0 1 V
0 2 V
0 1 V
0 1 V
1 1 V
0 1 V
0 1 V
0 2 V
0 1 V
1 1 V
0 1 V
0 1 V
0 1 V
0 1 V
0 1 V
0 1 V
1 1 V
0 1 V
0 1 V
0 1 V
0 1 V
0 1 V
1 0 V
0 1 V
0 1 V
0 1 V
0 2 V
1 1 V
0 1 V
0 2 V
0 1 V
1 1 V
0 1 V
0 1 V
0 1 V
0 1 V
0 1 V
0 1 V
1 0 V
0 1 V
0 1 V
0 1 V
0 1 V
0 1 V
0 1 V
0 1 V
1 0 V
0 1 V
0 1 V
0 1 V
0 1 V
0 1 V
1 0 V
0 1 V
0 1 V
0 1 V
0 1 V
0 1 V
1 1 V
0 1 V
0 1 V
0 1 V
0 1 V
0 1 V
1 0 V
0 1 V
0 1 V
0 1 V
0 1 V
0 1 V
1 0 V
0 1 V
0 1 V
0 1 V
0 1 V
1 0 V
0 1 V
0 1 V
0 1 V
0 1 V
0 1 V
1 1 V
0 1 V
0 1 V
0 1 V
0 1 V
1 1 V
0 1 V
0 1 V
0 1 V
stroke 1157 1640 M
0 1 V
1 0 V
0 1 V
0 2 V
0 1 V
1 1 V
0 1 V
0 1 V
0 1 V
0 1 V
1 0 V
0 1 V
0 1 V
0 1 V
0 1 V
1 1 V
0 1 V
0 1 V
0 1 V
1 1 V
0 1 V
0 1 V
0 1 V
0 1 V
1 1 V
0 1 V
0 1 V
0 1 V
0 1 V
1 0 V
0 1 V
0 1 V
0 1 V
0 1 V
1 0 V
0 1 V
0 1 V
0 1 V
0 1 V
0 1 V
1 0 V
0 1 V
0 1 V
0 1 V
0 1 V
1 0 V
0 1 V
0 1 V
0 1 V
0 1 V
1 0 V
0 1 V
0 1 V
0 1 V
0 1 V
1 1 V
0 1 V
0 1 V
0 1 V
1 0 V
0 1 V
0 1 V
0 1 V
1 0 V
0 1 V
0 1 V
0 1 V
1 1 V
0 1 V
0 1 V
0 1 V
1 0 V
0 1 V
0 1 V
0 1 V
1 1 V
0 1 V
0 1 V
1 1 V
0 1 V
0 1 V
1 1 V
0 1 V
0 1 V
1 1 V
0 1 V
0 1 V
0 1 V
1 0 V
0 1 V
0 1 V
1 0 V
0 1 V
0 1 V
0 1 V
1 0 V
0 1 V
0 1 V
1 0 V
0 1 V
0 1 V
1 1 V
0 1 V
0 1 V
stroke 1182 1731 M
1 1 V
0 1 V
0 1 V
1 0 V
0 1 V
0 1 V
1 0 V
0 1 V
1 1 V
0 1 V
1 0 V
0 1 V
0 1 V
0 1 V
1 0 V
0 1 V
0 1 V
1 0 V
0 1 V
0 1 V
0 1 V
0 1 V
1 0 V
0 1 V
0 1 V
1 0 V
0 1 V
0 1 V
1 0 V
0 1 V
0 1 V
1 0 V
0 1 V
0 1 V
1 0 V
0 1 V
0 1 V
1 0 V
0 1 V
0 1 V
1 0 V
0 1 V
0 1 V
1 0 V
0 1 V
1 1 V
0 1 V
0 1 V
1 0 V
0 1 V
1 1 V
0 1 V
1 0 V
0 1 V
1 0 V
0 1 V
0 1 V
1 0 V
0 1 V
1 1 V
0 1 V
0 1 V
1 0 V
0 1 V
1 1 V
0 1 V
1 0 V
0 1 V
0 1 V
1 0 V
0 1 V
0 1 V
1 0 V
0 1 V
1 1 V
0 1 V
1 0 V
0 1 V
0 1 V
1 0 V
0 1 V
1 0 V
0 1 V
1 1 V
0 1 V
1 0 V
0 1 V
1 0 V
0 1 V
1 1 V
1 1 V
0 1 V
1 0 V
0 1 V
1 0 V
0 1 V
1 0 V
0 1 V
1 0 V
0 1 V
1 0 V
0 1 V
1 0 V
0 1 V
stroke 1224 1803 M
1 0 V
0 1 V
1 1 V
0 1 V
1 0 V
0 1 V
1 0 V
0 1 V
1 0 V
0 1 V
1 0 V
0 1 V
0 1 V
1 0 V
0 1 V
1 0 V
0 1 V
1 0 V
0 1 V
1 0 V
0 1 V
1 1 V
0 1 V
1 0 V
0 1 V
1 0 V
0 1 V
1 0 V
0 1 V
1 0 V
0 1 V
1 0 V
0 1 V
0 1 V
1 0 V
1 0 V
1 1 V
1 0 V
0 1 V
1 0 V
0 1 V
1 0 V
1 0 V
0 1 V
1 0 V
0 1 V
1 0 V
0 1 V
1 0 V
1 1 V
0 1 V
1 0 V
0 1 V
1 0 V
0 1 V
1 0 V
0 1 V
1 0 V
0 1 V
1 1 V
1 1 V
0 1 V
1 0 V
1 1 V
1 1 V
1 0 V
0 1 V
1 0 V
0 1 V
1 0 V
0 1 V
1 0 V
1 1 V
1 1 V
1 0 V
0 1 V
1 0 V
0 1 V
1 0 V
0 1 V
1 0 V
0 1 V
1 0 V
0 1 V
1 0 V
0 1 V
0 1 V
1 0 V
1 0 V
0 1 V
1 0 V
0 1 V
1 0 V
0 1 V
1 1 V
0 1 V
1 0 V
1 0 V
0 1 V
1 0 V
1 0 V
0 1 V
1 0 V
0 1 V
stroke 1282 1860 M
1 0 V
1 1 V
1 0 V
0 1 V
1 0 V
0 1 V
1 0 V
1 1 V
1 0 V
0 1 V
1 0 V
0 1 V
1 0 V
0 1 V
1 0 V
1 0 V
0 1 V
1 0 V
1 0 V
0 1 V
1 0 V
1 0 V
0 1 V
1 0 V
0 1 V
1 0 V
1 0 V
0 1 V
1 0 V
0 1 V
1 0 V
0 1 V
1 0 V
1 0 V
0 1 V
0 1 V
1 0 V
1 0 V
1 0 V
0 1 V
1 0 V
1 0 V
0 1 V
1 0 V
0 1 V
1 0 V
0 1 V
1 0 V
0 1 V
1 1 V
0 1 V
1 0 V
1 0 V
0 1 V
1 0 V
1 1 V
1 0 V
0 1 V
1 0 V
0 1 V
1 0 V
1 0 V
0 1 V
1 0 V
0 1 V
1 0 V
0 1 V
1 0 V
1 1 V
1 0 V
0 1 V
1 0 V
1 1 V
1 0 V
0 1 V
1 0 V
0 1 V
1 0 V
0 1 V
1 0 V
0 1 V
1 0 V
0 1 V
1 0 V
1 0 V
1 0 V
0 1 V
1 0 V
0 1 V
1 0 V
1 0 V
0 1 V
1 0 V
1 0 V
0 1 V
1 0 V
0 1 V
1 0 V
1 0 V
0 1 V
1 0 V
0 1 V
1 0 V
1 1 V
stroke 1347 1906 M
1 0 V
1 1 V
1 0 V
0 1 V
1 0 V
1 0 V
0 1 V
1 0 V
1 0 V
0 1 V
1 0 V
0 1 V
1 0 V
1 1 V
1 0 V
0 1 V
1 0 V
1 0 V
0 1 V
1 0 V
0 1 V
1 0 V
1 0 V
1 1 V
0 1 V
1 0 V
1 0 V
1 1 V
1 0 V
1 1 V
1 0 V
1 1 V
1 1 V
1 0 V
0 1 V
1 0 V
1 0 V
0 1 V
1 0 V
0 1 V
1 0 V
1 0 V
0 1 V
1 0 V
1 0 V
0 1 V
1 0 V
0 1 V
1 0 V
1 0 V
0 1 V
1 0 V
0 1 V
1 0 V
1 0 V
1 0 V
0 1 V
1 0 V
1 0 V
1 1 V
1 0 V
0 1 V
1 0 V
1 0 V
0 1 V
1 0 V
1 0 V
0 1 V
1 0 V
1 0 V
1 0 V
0 1 V
1 0 V
0 1 V
1 0 V
1 0 V
0 1 V
1 0 V
1 0 V
2 0 V
0 1 V
1 0 V
1 0 V
0 1 V
1 0 V
1 0 V
1 1 V
1 1 V
1 0 V
1 0 V
1 1 V
1 0 V
1 1 V
1 0 V
0 1 V
1 0 V
1 0 V
0 1 V
1 0 V
1 0 V
0 1 V
1 0 V
1 0 V
1 1 V
stroke 1424 1947 M
1 0 V
1 0 V
1 1 V
1 0 V
1 1 V
1 0 V
1 0 V
0 1 V
1 0 V
1 0 V
1 0 V
0 1 V
1 0 V
1 0 V
1 1 V
1 0 V
1 1 V
1 0 V
0 1 V
1 0 V
1 1 V
1 0 V
2 0 V
0 1 V
1 0 V
1 0 V
1 0 V
0 1 V
1 0 V
1 0 V
1 0 V
1 0 V
1 1 V
1 0 V
0 1 V
1 0 V
1 0 V
1 0 V
1 0 V
1 1 V
1 0 V
1 0 V
1 0 V
1 0 V
0 1 V
1 0 V
1 0 V
1 1 V
1 0 V
2 0 V
0 1 V
1 0 V
1 0 V
1 1 V
1 0 V
2 0 V
0 1 V
1 0 V
1 0 V
0 1 V
1 0 V
1 1 V
1 0 V
1 0 V
1 0 V
1 1 V
1 0 V
1 0 V
0 1 V
1 0 V
1 0 V
1 0 V
1 0 V
0 1 V
1 0 V
1 0 V
1 1 V
1 0 V
1 0 V
0 1 V
1 0 V
0 1 V
1 0 V
1 0 V
1 0 V
1 1 V
1 0 V
1 0 V
1 0 V
0 1 V
1 0 V
1 0 V
1 0 V
1 0 V
1 0 V
1 1 V
1 0 V
1 0 V
1 0 V
1 0 V
0 1 V
1 0 V
1 0 V
1 0 V
stroke 1515 1977 M
0 1 V
1 0 V
0 1 V
1 0 V
1 0 V
1 1 V
1 0 V
1 0 V
1 0 V
1 1 V
1 0 V
1 0 V
1 0 V
0 1 V
1 0 V
1 0 V
1 0 V
1 0 V
1 1 V
1 0 V
1 0 V
1 1 V
1 0 V
1 0 V
1 0 V
0 1 V
1 0 V
1 0 V
1 0 V
1 0 V
1 0 V
0 1 V
1 0 V
2 0 V
0 1 V
1 0 V
1 0 V
1 0 V
1 0 V
0 1 V
1 0 V
1 0 V
1 0 V
2 0 V
0 1 V
1 0 V
2 0 V
1 0 V
0 1 V
1 0 V
1 0 V
1 0 V
1 0 V
1 1 V
1 0 V
1 0 V
2 1 V
1 0 V
1 0 V
1 0 V
1 0 V
0 1 V
2 0 V
1 0 V
1 0 V
1 0 V
0 1 V
1 0 V
1 0 V
1 0 V
1 0 V
1 1 V
2 0 V
1 0 V
1 0 V
1 0 V
1 1 V
1 0 V
1 0 V
1 0 V
1 0 V
0 1 V
1 0 V
1 0 V
2 0 V
1 0 V
1 0 V
1 0 V
1 1 V
1 0 V
1 0 V
2 0 V
2 1 V
1 0 V
2 0 V
1 0 V
1 0 V
2 1 V
1 0 V
1 0 V
2 0 V
1 0 V
3 1 V
1 0 V
stroke 1621 2001 M
1 0 V
3 0 V
1 0 V
1 1 V
1 0 V
1 0 V
1 0 V
1 1 V
1 0 V
1 0 V
1 0 V
4 0 V
1 0 V
0 1 V
1 0 V
2 0 V
2 0 V
1 0 V
1 0 V
2 1 V
2 0 V
2 0 V
1 0 V
1 0 V
0 1 V
1 0 V
1 0 V
3 0 V
2 0 V
1 0 V
0 1 V
1 0 V
1 0 V
1 0 V
1 0 V
2 0 V
1 0 V
2 1 V
1 0 V
1 0 V
1 0 V
1 1 V
1 0 V
1 0 V
1 0 V
3 0 V
1 0 V
1 0 V
1 1 V
2 0 V
3 0 V
1 0 V
5 0 V
2 1 V
1 0 V
1 0 V
1 0 V
2 0 V
2 0 V
1 0 V
0 1 V
1 0 V
1 0 V
1 0 V
2 0 V
1 0 V
1 1 V
1 0 V
1 0 V
6 0 V
0 1 V
2 0 V
1 0 V
2 0 V
2 0 V
1 1 V
2 0 V
1 0 V
1 0 V
1 0 V
1 0 V
0 1 V
2 0 V
3 0 V
5 0 V
1 0 V
1 0 V
1 0 V
1 0 V
0 1 V
1 0 V
3 0 V
1 0 V
1 0 V
1 0 V
0 1 V
2 0 V
1 0 V
1 0 V
1 1 V
2 0 V
5 0 V
2 0 V
2 0 V
stroke 1771 2019 M
4 0 V
0 1 V
1 0 V
3 0 V
1 0 V
2 0 V
3 0 V
3 0 V
1 1 V
3 0 V
1 0 V
1 0 V
2 0 V
2 0 V
3 0 V
2 1 V
1 0 V
1 0 V
5 0 V
1 0 V
1 0 V
1 1 V
1 0 V
1 0 V
3 0 V
1 0 V
7 0 V
1 0 V
1 1 V
2 0 V
2 0 V
1 0 V
1 0 V
2 0 V
0 1 V
1 0 V
1 0 V
5 0 V
1 0 V
1 0 V
1 0 V
1 0 V
1 0 V
1 1 V
1 0 V
1 0 V
3 0 V
1 0 V
2 0 V
3 0 V
4 1 V
3 0 V
3 0 V
1 0 V
3 0 V
1 0 V
1 0 V
1 1 V
4 0 V
1 0 V
5 0 V
1 0 V
2 0 V
1 0 V
1 0 V
1 1 V
2 0 V
1 0 V
2 0 V
2 0 V
2 0 V
3 0 V
1 0 V
1 0 V
0 1 V
1 0 V
3 0 V
3 0 V
2 0 V
1 0 V
1 0 V
1 0 V
1 1 V
3 0 V
3 0 V
2 0 V
1 0 V
1 0 V
1 0 V
3 1 V
4 0 V
2 0 V
1 0 V
4 0 V
8 1 V
3 0 V
1 0 V
2 0 V
2 0 V
8 0 V
0 1 V
4 0 V
4 0 V
1 0 V
stroke 1978 2034 M
1 0 V
1 0 V
2 0 V
1 0 V
1 1 V
5 0 V
4 0 V
1 0 V
1 0 V
2 0 V
1 0 V
1 0 V
1 0 V
1 1 V
2 0 V
2 0 V
5 0 V
1 0 V
1 1 V
4 0 V
3 0 V
6 0 V
4 0 V
1 0 V
1 0 V
3 0 V
3 1 V
1 0 V
6 0 V
3 0 V
4 0 V
1 0 V
4 0 V
4 0 V
9 0 V
2 1 V
5 0 V
1 0 V
1 0 V
5 0 V
8 0 V
0 1 V
5 0 V
6 0 V
1 0 V
4 0 V
1 0 V
4 0 V
4 0 V
2 1 V
3 0 V
1 0 V
14 0 V
10 0 V
7 0 V
5 0 V
1 0 V
12 0 V
0 1 V
4 0 V
4 0 V
5 0 V
2 0 V
4 0 V
1 0 V
14 0 V
0 1 V
1 0 V
8 0 V
15 0 V
2 0 V
19 0 V
7 0 V
12 0 V
7 0 V
7 1 V
8 0 V
22 0 V
11 0 V
6 0 V
2 0 V
1 0 V
1 1 V
6 0 V
2 0 V
3 0 V
8 0 V
10 0 V
17 0 V
2 0 V
2 1 V
13 0 V
5 0 V
1 0 V
8 0 V
13 0 V
21 0 V
1 0 V
8 0 V
18 0 V
16 1 V
22 0 V
15 0 V
23 0 V
stroke 2548 2047 M
3 0 V
9 0 V
23 0 V
28 0 V
8 0 V
27 1 V
2 0 V
29 0 V
37 0 V
7 0 V
24 0 V
30 0 V
2 0 V
27 0 V
20 1 V
7 0 V
4 0 V
5 0 V
113 0 V
8 0 V
11 0 V
4 0 V
82 0 V
110 1 V
51 0 V
15 0 V
58 0 V
41 0 V
23 0 V
40 0 V
56 0 V
122 0 V
27 1 V
526 0 V
420 0 V
2938 0 V
% End plot #2
% Begin plot #3
stroke
LT2
LCb setrgbcolor
7402 861 M
[ [(Helvetica) 140.0 0.0 true true 0 (60% Average Load)]
] -46.7 MRshow
LT2
7486 861 M
399 0 V
1090 459 M
0 15 V
0 21 V
0 17 V
0 16 V
1 18 V
0 15 V
0 13 V
0 14 V
0 13 V
0 12 V
0 12 V
0 10 V
1 11 V
0 11 V
0 11 V
0 7 V
0 6 V
0 7 V
0 7 V
0 6 V
0 8 V
1 6 V
0 6 V
0 7 V
0 6 V
0 4 V
0 8 V
0 5 V
0 6 V
0 6 V
1 6 V
0 4 V
0 5 V
0 5 V
0 6 V
0 5 V
0 4 V
0 5 V
1 4 V
0 5 V
0 4 V
0 5 V
0 5 V
0 3 V
0 5 V
0 3 V
0 4 V
1 4 V
0 5 V
0 6 V
0 4 V
0 3 V
0 4 V
0 3 V
0 3 V
0 2 V
1 4 V
0 4 V
0 4 V
0 2 V
0 5 V
0 3 V
0 4 V
0 3 V
1 4 V
0 4 V
0 4 V
0 2 V
0 4 V
0 3 V
0 6 V
0 2 V
0 4 V
1 3 V
0 2 V
0 4 V
0 3 V
0 3 V
0 3 V
0 2 V
0 2 V
1 4 V
0 2 V
0 3 V
0 2 V
0 3 V
0 4 V
0 3 V
0 3 V
0 3 V
1 2 V
0 3 V
0 2 V
0 4 V
0 3 V
0 4 V
0 2 V
0 4 V
0 2 V
1 3 V
0 4 V
0 3 V
stroke 1102 1022 M
0 2 V
0 3 V
0 2 V
0 2 V
0 3 V
1 1 V
0 3 V
0 3 V
0 3 V
0 2 V
0 3 V
0 3 V
0 3 V
0 2 V
1 4 V
0 4 V
0 2 V
0 2 V
0 2 V
0 3 V
0 2 V
0 3 V
1 3 V
0 2 V
0 3 V
0 2 V
0 3 V
0 2 V
0 2 V
0 2 V
0 2 V
1 2 V
0 2 V
0 2 V
0 4 V
0 3 V
0 2 V
0 3 V
0 2 V
0 2 V
1 2 V
0 3 V
0 1 V
0 3 V
0 2 V
0 1 V
0 2 V
0 2 V
1 2 V
0 2 V
0 2 V
0 3 V
0 1 V
0 3 V
0 3 V
0 2 V
0 2 V
1 1 V
0 3 V
0 2 V
0 2 V
0 2 V
0 2 V
0 1 V
0 3 V
0 1 V
1 2 V
0 2 V
0 2 V
0 2 V
0 2 V
0 1 V
0 2 V
0 1 V
1 3 V
0 2 V
0 2 V
0 2 V
0 2 V
0 2 V
0 2 V
0 1 V
0 2 V
1 2 V
0 1 V
0 3 V
0 2 V
0 2 V
0 2 V
0 1 V
0 1 V
1 2 V
0 2 V
0 2 V
0 2 V
0 2 V
0 1 V
0 2 V
0 2 V
0 2 V
1 1 V
0 2 V
0 1 V
0 2 V
stroke 1114 1244 M
0 2 V
0 2 V
0 1 V
0 1 V
1 4 V
0 1 V
0 2 V
0 1 V
0 2 V
0 2 V
0 1 V
0 2 V
1 3 V
0 2 V
0 1 V
0 2 V
0 2 V
0 2 V
0 2 V
0 1 V
0 2 V
1 2 V
0 2 V
0 2 V
0 1 V
0 2 V
0 1 V
0 3 V
0 1 V
1 2 V
0 1 V
0 1 V
0 3 V
0 2 V
0 2 V
0 1 V
0 2 V
0 1 V
1 2 V
0 2 V
0 1 V
0 2 V
0 1 V
0 1 V
0 2 V
0 2 V
0 1 V
1 2 V
0 1 V
0 2 V
0 2 V
0 1 V
0 1 V
0 1 V
0 1 V
1 1 V
0 2 V
0 2 V
0 2 V
0 1 V
0 1 V
0 2 V
0 2 V
0 1 V
1 1 V
0 2 V
0 1 V
0 1 V
0 1 V
0 2 V
0 1 V
0 2 V
0 1 V
1 2 V
0 1 V
0 2 V
0 1 V
0 1 V
0 1 V
0 1 V
0 2 V
1 2 V
0 1 V
0 1 V
0 1 V
0 1 V
0 1 V
0 1 V
0 2 V
0 1 V
1 2 V
0 1 V
0 2 V
0 2 V
0 1 V
0 1 V
0 1 V
1 1 V
0 2 V
0 2 V
0 1 V
0 1 V
0 1 V
0 2 V
stroke 1126 1404 M
1 1 V
0 1 V
0 2 V
0 2 V
0 1 V
0 1 V
0 1 V
0 1 V
1 2 V
0 1 V
0 1 V
0 2 V
0 1 V
0 2 V
0 1 V
0 1 V
1 1 V
0 2 V
0 2 V
0 1 V
0 1 V
0 1 V
0 1 V
0 2 V
1 1 V
0 2 V
0 1 V
0 2 V
0 1 V
0 1 V
0 1 V
1 1 V
0 1 V
0 1 V
0 2 V
0 1 V
0 2 V
1 1 V
0 1 V
0 1 V
0 1 V
0 2 V
0 1 V
1 2 V
0 1 V
0 2 V
0 1 V
0 1 V
0 1 V
1 1 V
0 1 V
0 1 V
0 1 V
0 1 V
0 1 V
0 1 V
1 2 V
0 1 V
0 2 V
0 1 V
0 1 V
0 1 V
0 1 V
1 0 V
0 2 V
0 2 V
0 1 V
0 1 V
0 2 V
0 1 V
1 1 V
0 1 V
0 1 V
0 1 V
0 1 V
0 1 V
0 1 V
1 1 V
0 1 V
0 1 V
0 1 V
0 1 V
0 1 V
0 1 V
0 1 V
1 0 V
0 2 V
0 1 V
0 1 V
0 1 V
0 1 V
0 1 V
0 1 V
1 1 V
0 1 V
0 1 V
0 1 V
0 1 V
0 1 V
1 1 V
0 1 V
0 1 V
0 1 V
0 2 V
stroke 1141 1528 M
0 1 V
0 1 V
1 1 V
0 1 V
0 1 V
0 1 V
0 1 V
0 1 V
0 1 V
1 0 V
0 1 V
0 1 V
0 1 V
0 1 V
0 1 V
0 1 V
0 1 V
1 0 V
0 2 V
0 1 V
0 1 V
0 1 V
0 1 V
0 1 V
1 1 V
0 1 V
0 1 V
0 1 V
0 1 V
0 1 V
1 1 V
0 2 V
0 1 V
0 1 V
0 1 V
1 1 V
0 1 V
0 1 V
0 1 V
0 1 V
0 1 V
1 0 V
0 1 V
0 1 V
0 1 V
0 1 V
0 1 V
0 1 V
1 0 V
0 1 V
0 1 V
0 1 V
0 2 V
0 1 V
1 1 V
0 1 V
0 1 V
0 1 V
0 1 V
0 1 V
0 1 V
1 0 V
0 1 V
0 1 V
0 1 V
0 1 V
1 1 V
0 1 V
0 1 V
0 1 V
1 1 V
0 1 V
0 1 V
0 1 V
0 1 V
1 1 V
0 1 V
0 1 V
0 1 V
0 1 V
1 1 V
0 1 V
0 1 V
0 1 V
0 1 V
0 1 V
1 1 V
0 1 V
0 1 V
0 1 V
0 1 V
1 0 V
0 1 V
0 1 V
0 1 V
0 1 V
1 1 V
0 1 V
0 1 V
0 1 V
0 1 V
1 0 V
0 1 V
0 1 V
stroke 1159 1628 M
0 1 V
0 1 V
0 1 V
1 1 V
0 1 V
0 1 V
0 1 V
1 1 V
0 1 V
0 1 V
0 1 V
0 1 V
1 0 V
0 1 V
0 1 V
1 1 V
0 1 V
0 1 V
1 0 V
0 1 V
0 1 V
0 1 V
0 1 V
1 0 V
0 1 V
0 1 V
0 1 V
0 1 V
1 0 V
0 1 V
0 1 V
0 1 V
0 1 V
1 0 V
0 2 V
0 1 V
0 1 V
1 0 V
0 1 V
0 1 V
1 1 V
0 1 V
0 1 V
0 1 V
1 1 V
0 1 V
0 1 V
1 0 V
0 1 V
0 1 V
0 1 V
1 0 V
0 1 V
0 1 V
1 1 V
0 1 V
0 1 V
1 2 V
0 1 V
1 0 V
0 1 V
0 1 V
0 1 V
1 0 V
0 1 V
0 1 V
1 1 V
0 1 V
0 1 V
1 0 V
0 1 V
0 1 V
0 1 V
0 1 V
1 1 V
0 1 V
0 1 V
0 1 V
0 1 V
1 0 V
0 1 V
0 1 V
1 1 V
0 1 V
0 1 V
1 1 V
0 1 V
0 1 V
1 0 V
0 1 V
0 1 V
1 0 V
0 1 V
0 1 V
1 1 V
0 1 V
1 1 V
0 1 V
0 1 V
0 1 V
1 0 V
0 1 V
0 1 V
0 1 V
stroke 1187 1719 M
1 0 V
0 1 V
0 1 V
0 1 V
1 0 V
0 1 V
0 1 V
1 1 V
0 1 V
1 1 V
1 1 V
0 1 V
0 1 V
1 0 V
0 1 V
1 1 V
0 1 V
0 1 V
0 1 V
1 0 V
0 1 V
1 1 V
0 1 V
1 0 V
0 1 V
0 1 V
0 1 V
0 1 V
1 0 V
0 1 V
0 1 V
1 0 V
0 1 V
1 1 V
0 1 V
0 1 V
1 0 V
0 1 V
1 1 V
0 1 V
1 0 V
0 1 V
1 0 V
0 1 V
0 1 V
1 0 V
0 1 V
0 1 V
1 0 V
0 1 V
0 1 V
1 0 V
0 1 V
1 0 V
0 1 V
0 1 V
0 1 V
1 0 V
1 1 V
0 1 V
0 1 V
1 0 V
0 1 V
1 0 V
0 1 V
1 0 V
0 1 V
1 1 V
0 1 V
1 0 V
0 1 V
0 1 V
1 0 V
0 1 V
0 1 V
1 0 V
0 1 V
1 0 V
0 1 V
0 1 V
1 0 V
0 1 V
1 0 V
0 1 V
0 1 V
1 0 V
0 1 V
0 1 V
1 0 V
1 0 V
0 1 V
0 1 V
1 0 V
0 1 V
1 0 V
0 1 V
1 0 V
0 1 V
0 1 V
1 0 V
0 1 V
1 1 V
0 1 V
1 0 V
stroke 1229 1791 M
0 1 V
0 1 V
1 1 V
1 1 V
0 1 V
1 0 V
0 1 V
1 0 V
0 1 V
1 1 V
0 1 V
1 0 V
0 1 V
1 0 V
0 1 V
1 0 V
0 1 V
1 0 V
0 1 V
0 1 V
1 0 V
0 1 V
1 0 V
0 1 V
1 0 V
0 1 V
0 1 V
1 0 V
1 1 V
0 1 V
1 0 V
0 1 V
1 0 V
0 1 V
1 1 V
1 0 V
0 1 V
0 1 V
1 0 V
0 1 V
1 1 V
0 1 V
1 0 V
0 1 V
1 0 V
1 1 V
1 0 V
0 1 V
1 0 V
0 1 V
1 0 V
0 1 V
1 1 V
1 0 V
0 1 V
1 0 V
0 1 V
1 0 V
0 1 V
1 0 V
0 1 V
1 0 V
1 0 V
0 1 V
1 0 V
1 0 V
0 1 V
1 0 V
0 1 V
1 0 V
1 1 V
1 0 V
1 1 V
0 1 V
1 0 V
0 1 V
1 0 V
0 1 V
1 1 V
0 1 V
1 0 V
0 1 V
1 0 V
0 1 V
1 0 V
0 1 V
1 1 V
0 1 V
1 0 V
0 1 V
1 0 V
0 1 V
1 0 V
0 1 V
1 0 V
0 1 V
1 0 V
0 1 V
1 0 V
0 1 V
1 0 V
0 1 V
1 0 V
0 1 V
stroke 1284 1852 M
1 0 V
0 1 V
1 0 V
1 0 V
0 1 V
1 0 V
0 1 V
1 0 V
0 1 V
1 0 V
1 1 V
1 1 V
1 0 V
0 1 V
1 0 V
1 0 V
0 1 V
1 0 V
1 1 V
1 1 V
1 0 V
0 1 V
1 0 V
1 1 V
0 1 V
1 0 V
0 1 V
1 0 V
0 1 V
1 0 V
0 1 V
1 0 V
0 1 V
1 0 V
1 1 V
1 0 V
1 1 V
1 0 V
0 1 V
1 0 V
1 0 V
0 1 V
1 0 V
1 0 V
0 1 V
1 0 V
0 1 V
1 0 V
0 1 V
1 0 V
0 1 V
1 0 V
0 1 V
1 0 V
1 0 V
1 1 V
1 0 V
0 1 V
1 0 V
1 0 V
0 1 V
1 0 V
0 1 V
1 0 V
0 1 V
1 0 V
0 1 V
1 0 V
1 1 V
1 0 V
0 1 V
1 0 V
1 1 V
1 0 V
0 1 V
1 0 V
0 1 V
1 0 V
0 1 V
1 0 V
1 1 V
2 0 V
1 1 V
1 1 V
1 1 V
1 0 V
0 1 V
1 0 V
1 1 V
1 0 V
1 0 V
0 1 V
1 0 V
0 1 V
1 0 V
1 0 V
0 1 V
1 0 V
0 1 V
1 0 V
0 1 V
1 0 V
1 1 V
1 0 V
stroke 1355 1902 M
1 0 V
0 1 V
1 0 V
0 1 V
1 0 V
0 1 V
1 0 V
2 0 V
0 1 V
1 0 V
0 1 V
1 0 V
0 1 V
1 0 V
1 1 V
1 0 V
1 0 V
1 1 V
1 1 V
0 1 V
1 0 V
0 1 V
1 0 V
1 0 V
1 0 V
0 1 V
1 0 V
1 1 V
1 0 V
0 1 V
1 0 V
0 1 V
1 0 V
1 0 V
0 1 V
1 0 V
1 1 V
1 0 V
0 1 V
1 0 V
0 1 V
1 0 V
1 0 V
1 0 V
0 1 V
1 0 V
0 1 V
1 0 V
1 0 V
1 0 V
0 1 V
1 0 V
1 0 V
0 1 V
1 0 V
1 0 V
0 1 V
1 0 V
1 0 V
0 1 V
1 0 V
1 0 V
0 1 V
1 0 V
1 0 V
0 1 V
1 0 V
1 0 V
0 1 V
1 0 V
1 0 V
0 1 V
1 0 V
0 1 V
1 0 V
1 0 V
1 0 V
1 0 V
0 1 V
1 0 V
0 1 V
1 0 V
1 0 V
1 1 V
1 0 V
1 1 V
1 0 V
2 0 V
0 1 V
1 0 V
1 0 V
0 1 V
1 0 V
0 1 V
1 0 V
2 0 V
1 0 V
1 1 V
2 0 V
1 1 V
1 0 V
1 0 V
0 1 V
1 0 V
stroke 1432 1942 M
1 0 V
0 1 V
1 0 V
0 1 V
1 0 V
1 0 V
0 1 V
1 0 V
1 0 V
1 1 V
1 0 V
1 0 V
1 1 V
1 0 V
2 0 V
1 1 V
1 0 V
0 1 V
1 0 V
1 0 V
0 1 V
1 0 V
1 0 V
1 0 V
1 0 V
0 1 V
1 0 V
1 0 V
1 0 V
0 1 V
1 0 V
1 1 V
1 0 V
1 1 V
1 0 V
1 0 V
1 1 V
1 0 V
1 0 V
0 1 V
1 0 V
1 0 V
1 0 V
0 1 V
1 0 V
1 0 V
0 1 V
1 0 V
1 0 V
0 1 V
1 0 V
0 1 V
1 0 V
1 0 V
0 1 V
1 0 V
1 0 V
1 1 V
1 0 V
1 0 V
0 1 V
1 0 V
1 0 V
1 0 V
1 1 V
1 0 V
2 0 V
3 0 V
1 1 V
1 0 V
1 0 V
0 1 V
1 0 V
1 1 V
2 0 V
2 0 V
0 1 V
1 0 V
1 0 V
2 1 V
1 0 V
2 0 V
1 1 V
1 0 V
1 0 V
1 1 V
1 0 V
1 1 V
1 0 V
1 0 V
1 1 V
1 0 V
1 0 V
3 1 V
1 0 V
1 1 V
1 0 V
1 0 V
2 1 V
1 0 V
1 0 V
1 0 V
1 1 V
1 0 V
stroke 1531 1977 M
1 1 V
1 0 V
1 0 V
2 1 V
1 0 V
1 1 V
1 0 V
1 0 V
0 1 V
1 0 V
1 0 V
0 1 V
1 0 V
1 0 V
2 0 V
1 1 V
1 0 V
1 0 V
2 0 V
3 0 V
0 1 V
2 0 V
1 0 V
0 1 V
1 0 V
1 0 V
1 0 V
0 1 V
1 0 V
2 0 V
1 0 V
1 1 V
1 0 V
0 1 V
3 0 V
1 0 V
2 0 V
1 1 V
2 0 V
1 0 V
2 1 V
2 0 V
1 0 V
0 1 V
1 0 V
1 0 V
0 1 V
3 0 V
1 0 V
1 0 V
1 1 V
2 0 V
1 0 V
1 1 V
1 0 V
3 0 V
1 0 V
1 1 V
1 0 V
1 0 V
1 0 V
0 1 V
1 0 V
3 0 V
1 0 V
1 1 V
1 0 V
1 0 V
2 1 V
1 0 V
2 0 V
1 0 V
0 1 V
1 0 V
1 0 V
3 0 V
1 0 V
1 0 V
0 1 V
1 0 V
1 0 V
1 0 V
1 0 V
0 1 V
1 0 V
1 0 V
3 0 V
1 0 V
1 0 V
0 1 V
2 0 V
1 0 V
1 0 V
2 0 V
0 1 V
1 0 V
3 0 V
2 0 V
2 0 V
1 0 V
1 1 V
1 0 V
1 0 V
1 1 V
stroke 1653 2005 M
1 0 V
1 0 V
3 0 V
1 0 V
1 1 V
1 0 V
2 0 V
1 0 V
0 1 V
1 0 V
3 0 V
1 0 V
1 0 V
2 0 V
0 1 V
2 0 V
5 0 V
2 0 V
0 1 V
2 0 V
1 0 V
1 0 V
3 1 V
1 0 V
3 0 V
1 0 V
8 1 V
1 0 V
1 0 V
1 0 V
2 0 V
2 0 V
1 1 V
2 0 V
2 0 V
1 0 V
1 0 V
1 1 V
2 0 V
3 0 V
1 1 V
2 0 V
1 0 V
2 0 V
2 0 V
2 1 V
1 0 V
1 0 V
1 0 V
3 1 V
2 0 V
2 0 V
1 0 V
1 1 V
2 0 V
1 0 V
4 0 V
1 1 V
3 0 V
2 0 V
1 0 V
1 1 V
2 0 V
3 0 V
2 0 V
1 0 V
11 0 V
2 0 V
2 1 V
1 0 V
1 0 V
1 0 V
0 1 V
9 0 V
3 0 V
1 0 V
2 0 V
2 0 V
3 0 V
6 1 V
1 0 V
1 0 V
6 0 V
3 0 V
3 1 V
1 0 V
1 0 V
1 0 V
1 0 V
2 1 V
1 0 V
3 0 V
1 0 V
1 0 V
6 0 V
1 1 V
9 0 V
1 0 V
1 0 V
1 0 V
2 0 V
1 1 V
3 0 V
1 0 V
stroke 1862 2026 M
3 0 V
1 1 V
2 0 V
1 0 V
2 0 V
3 1 V
3 0 V
2 0 V
3 0 V
1 0 V
5 1 V
1 0 V
3 0 V
1 1 V
5 0 V
1 0 V
1 0 V
7 0 V
6 0 V
3 1 V
6 0 V
2 0 V
1 0 V
2 0 V
3 1 V
4 0 V
2 0 V
1 0 V
1 0 V
7 1 V
2 0 V
3 0 V
4 0 V
4 0 V
16 0 V
3 1 V
2 0 V
1 0 V
13 0 V
1 0 V
2 0 V
3 0 V
9 1 V
3 0 V
15 0 V
7 0 V
5 0 V
12 0 V
1 1 V
7 0 V
2 0 V
1 0 V
5 0 V
7 0 V
8 1 V
4 0 V
2 0 V
4 0 V
3 0 V
10 0 V
5 1 V
6 0 V
1 0 V
8 0 V
1 0 V
4 0 V
6 1 V
6 0 V
12 0 V
1 0 V
2 0 V
2 1 V
13 0 V
8 0 V
7 0 V
4 0 V
3 0 V
2 0 V
3 1 V
2 0 V
4 0 V
11 0 V
2 0 V
1 0 V
8 1 V
3 0 V
2 0 V
4 0 V
1 0 V
5 0 V
20 0 V
42 1 V
3 0 V
4 0 V
6 0 V
3 0 V
14 0 V
1 1 V
3 0 V
1 0 V
16 0 V
1 0 V
20 0 V
5 1 V
stroke 2380 2045 M
4 0 V
14 0 V
5 0 V
2 0 V
6 0 V
1 1 V
2 0 V
23 0 V
12 0 V
7 0 V
12 0 V
10 1 V
36 0 V
5 0 V
10 0 V
4 0 V
22 0 V
15 1 V
3 0 V
9 0 V
29 0 V
27 0 V
52 0 V
19 0 V
39 1 V
1 0 V
270 0 V
58 0 V
79 0 V
88 0 V
21 1 V
69 0 V
147 0 V
7 0 V
241 0 V
10 0 V
143 0 V
16 1 V
52 0 V
711 0 V
% End plot #3
% Begin plot #4
stroke
LT3
LCb setrgbcolor
7402 721 M
[ [(Helvetica) 140.0 0.0 true true 0 (40% Average Load)]
] -46.7 MRshow
LT3
7486 721 M
399 0 V
1090 463 M
0 19 V
0 19 V
0 16 V
0 16 V
1 16 V
0 18 V
0 15 V
0 15 V
0 14 V
0 15 V
0 9 V
0 11 V
1 8 V
0 12 V
0 9 V
0 8 V
0 10 V
0 6 V
0 8 V
0 7 V
0 9 V
1 6 V
0 8 V
0 7 V
0 7 V
0 5 V
0 5 V
0 5 V
0 4 V
0 4 V
1 7 V
0 6 V
0 6 V
0 4 V
0 5 V
0 5 V
0 5 V
0 4 V
1 3 V
0 4 V
0 5 V
0 2 V
0 4 V
0 7 V
0 4 V
0 3 V
0 5 V
1 4 V
0 4 V
0 4 V
0 6 V
0 2 V
0 4 V
0 3 V
0 3 V
0 7 V
1 6 V
0 3 V
0 5 V
0 4 V
0 4 V
0 5 V
0 3 V
0 4 V
1 4 V
0 4 V
0 6 V
0 4 V
0 3 V
0 3 V
0 3 V
0 2 V
0 4 V
1 4 V
0 5 V
0 3 V
0 4 V
0 3 V
0 2 V
0 4 V
0 3 V
1 2 V
0 3 V
0 3 V
0 2 V
0 2 V
0 3 V
0 4 V
0 4 V
0 1 V
1 2 V
0 4 V
0 2 V
0 4 V
0 2 V
0 2 V
0 4 V
0 3 V
0 2 V
1 3 V
0 3 V
0 4 V
stroke 1102 1044 M
0 2 V
0 4 V
0 3 V
0 1 V
0 3 V
1 2 V
0 4 V
0 2 V
0 2 V
0 2 V
0 3 V
0 3 V
0 3 V
0 3 V
1 2 V
0 3 V
0 1 V
0 2 V
0 3 V
0 3 V
0 2 V
0 2 V
1 2 V
0 3 V
0 2 V
0 3 V
0 2 V
0 2 V
0 1 V
0 4 V
0 1 V
1 4 V
0 1 V
0 2 V
0 2 V
0 2 V
0 1 V
0 4 V
0 3 V
0 2 V
1 3 V
0 2 V
0 1 V
0 2 V
0 3 V
0 2 V
0 3 V
0 2 V
1 2 V
0 2 V
0 2 V
0 2 V
0 1 V
0 2 V
0 1 V
0 4 V
0 1 V
1 1 V
0 2 V
0 2 V
0 1 V
0 2 V
0 1 V
0 2 V
0 1 V
0 2 V
1 1 V
0 2 V
0 2 V
0 1 V
0 1 V
0 3 V
0 2 V
0 2 V
1 4 V
0 1 V
0 2 V
0 2 V
0 2 V
0 2 V
0 1 V
0 3 V
0 3 V
1 1 V
0 2 V
0 2 V
0 4 V
0 1 V
0 2 V
0 2 V
0 2 V
1 1 V
0 2 V
0 1 V
0 1 V
0 1 V
0 2 V
0 1 V
0 2 V
0 3 V
1 2 V
0 1 V
0 2 V
0 2 V
stroke 1114 1260 M
0 2 V
0 1 V
0 2 V
0 1 V
1 2 V
0 1 V
0 1 V
0 2 V
0 3 V
0 1 V
0 2 V
0 2 V
0 2 V
1 1 V
0 2 V
0 1 V
0 3 V
0 3 V
0 2 V
0 1 V
0 3 V
1 1 V
0 1 V
0 2 V
0 2 V
0 2 V
0 2 V
0 2 V
0 1 V
1 2 V
0 1 V
0 3 V
0 2 V
0 2 V
0 1 V
0 2 V
0 1 V
0 2 V
1 2 V
0 2 V
0 1 V
0 2 V
0 2 V
0 1 V
0 2 V
0 2 V
1 2 V
0 1 V
0 1 V
0 1 V
0 1 V
0 1 V
0 2 V
0 2 V
1 1 V
0 2 V
0 2 V
0 1 V
0 1 V
0 3 V
0 1 V
0 2 V
0 3 V
1 1 V
0 2 V
0 1 V
0 1 V
0 2 V
0 1 V
0 1 V
0 2 V
0 2 V
1 2 V
0 1 V
0 1 V
0 3 V
0 1 V
0 2 V
0 2 V
0 1 V
1 3 V
0 1 V
0 1 V
0 2 V
0 1 V
0 1 V
0 2 V
0 1 V
1 0 V
0 2 V
0 1 V
0 1 V
0 2 V
0 2 V
0 2 V
0 1 V
1 2 V
0 1 V
0 3 V
0 1 V
0 2 V
0 1 V
1 1 V
0 1 V
stroke 1127 1429 M
0 2 V
0 1 V
0 2 V
0 2 V
0 1 V
0 1 V
1 1 V
0 1 V
0 1 V
0 3 V
0 1 V
0 2 V
0 1 V
1 1 V
0 1 V
0 3 V
0 1 V
0 1 V
0 1 V
0 1 V
1 2 V
0 1 V
0 1 V
0 1 V
0 1 V
0 2 V
0 2 V
0 1 V
1 1 V
0 1 V
0 1 V
0 1 V
0 1 V
0 1 V
1 1 V
0 2 V
0 1 V
0 2 V
0 1 V
0 1 V
0 1 V
1 0 V
0 2 V
0 1 V
0 2 V
0 1 V
0 1 V
0 2 V
1 1 V
0 1 V
0 1 V
0 1 V
0 1 V
0 1 V
1 0 V
0 1 V
0 1 V
0 1 V
0 1 V
0 1 V
0 1 V
0 1 V
1 1 V
0 1 V
0 2 V
0 2 V
0 2 V
0 2 V
1 1 V
0 1 V
0 1 V
0 1 V
0 1 V
0 1 V
1 1 V
0 1 V
0 1 V
0 1 V
0 1 V
0 2 V
0 1 V
1 1 V
0 1 V
0 2 V
0 1 V
0 1 V
0 2 V
0 1 V
1 1 V
0 1 V
0 1 V
0 1 V
0 1 V
0 1 V
0 1 V
1 1 V
0 1 V
0 2 V
0 2 V
0 1 V
1 1 V
0 1 V
0 1 V
0 1 V
stroke 1142 1556 M
0 1 V
0 1 V
1 0 V
0 1 V
0 1 V
0 1 V
0 1 V
0 1 V
0 1 V
1 2 V
0 1 V
0 1 V
0 1 V
0 1 V
0 1 V
1 1 V
0 1 V
0 1 V
0 1 V
0 1 V
1 2 V
0 2 V
0 1 V
0 1 V
0 1 V
1 1 V
0 1 V
0 1 V
0 1 V
0 1 V
0 1 V
1 0 V
0 1 V
0 1 V
0 1 V
0 1 V
0 1 V
0 1 V
1 0 V
0 1 V
0 1 V
0 1 V
0 1 V
0 1 V
0 1 V
1 1 V
0 1 V
0 1 V
0 1 V
1 1 V
0 1 V
0 1 V
0 1 V
0 1 V
0 1 V
1 0 V
0 1 V
0 1 V
0 1 V
0 1 V
0 1 V
1 1 V
0 1 V
0 1 V
0 1 V
0 1 V
0 1 V
0 1 V
0 1 V
1 0 V
0 1 V
0 1 V
1 0 V
0 1 V
0 1 V
0 1 V
0 1 V
1 2 V
0 1 V
0 1 V
0 1 V
0 1 V
0 1 V
0 1 V
1 0 V
0 1 V
0 1 V
0 1 V
0 1 V
1 0 V
0 1 V
0 1 V
0 1 V
1 0 V
0 1 V
0 1 V
0 1 V
0 2 V
1 0 V
0 1 V
0 1 V
0 1 V
0 1 V
1 0 V
stroke 1161 1654 M
0 1 V
0 1 V
0 1 V
1 1 V
0 1 V
0 1 V
0 1 V
1 1 V
0 1 V
0 1 V
0 1 V
1 1 V
0 1 V
0 1 V
1 1 V
0 1 V
0 1 V
0 1 V
1 1 V
0 1 V
0 1 V
0 1 V
1 1 V
0 1 V
0 1 V
1 1 V
0 1 V
0 1 V
1 1 V
0 1 V
0 1 V
0 1 V
1 0 V
0 1 V
0 1 V
1 1 V
0 1 V
0 1 V
1 1 V
0 1 V
0 1 V
0 1 V
1 0 V
0 1 V
0 1 V
1 1 V
0 1 V
1 1 V
0 1 V
1 0 V
0 1 V
0 1 V
1 0 V
0 1 V
0 1 V
0 1 V
0 1 V
1 1 V
0 1 V
0 1 V
1 1 V
0 1 V
0 1 V
0 1 V
0 1 V
1 0 V
0 1 V
0 1 V
1 0 V
0 1 V
0 1 V
1 1 V
0 1 V
1 1 V
0 1 V
1 1 V
0 1 V
0 1 V
1 0 V
0 1 V
0 1 V
1 1 V
0 1 V
0 1 V
1 0 V
0 1 V
0 1 V
1 0 V
0 1 V
0 1 V
0 1 V
1 1 V
0 1 V
1 0 V
0 1 V
0 1 V
0 1 V
1 0 V
0 1 V
0 1 V
1 0 V
0 1 V
0 1 V
1 1 V
stroke 1193 1746 M
0 1 V
1 1 V
0 1 V
0 1 V
1 0 V
0 1 V
1 1 V
1 1 V
0 1 V
0 1 V
1 0 V
0 1 V
1 0 V
0 1 V
0 1 V
1 0 V
0 1 V
0 1 V
0 1 V
1 0 V
0 1 V
0 1 V
1 0 V
0 1 V
0 1 V
1 0 V
0 1 V
1 1 V
0 1 V
1 0 V
0 1 V
1 1 V
1 1 V
1 0 V
0 1 V
1 0 V
0 1 V
1 0 V
0 1 V
1 1 V
0 1 V
1 0 V
0 1 V
1 0 V
0 1 V
0 1 V
1 1 V
0 1 V
1 1 V
0 1 V
1 1 V
0 1 V
1 0 V
0 1 V
1 0 V
0 1 V
1 0 V
0 1 V
1 0 V
0 1 V
1 0 V
0 1 V
0 1 V
1 0 V
0 1 V
1 0 V
0 1 V
0 1 V
1 0 V
0 1 V
1 0 V
1 1 V
0 1 V
1 0 V
0 1 V
0 1 V
1 0 V
0 1 V
1 0 V
0 1 V
0 1 V
1 0 V
0 1 V
1 1 V
0 1 V
1 0 V
0 1 V
1 0 V
0 1 V
1 1 V
0 1 V
0 1 V
1 0 V
0 1 V
1 0 V
0 1 V
1 1 V
0 1 V
0 1 V
1 0 V
0 1 V
0 1 V
1 1 V
0 1 V
stroke 1239 1819 M
1 1 V
1 0 V
0 1 V
1 1 V
0 1 V
1 0 V
0 1 V
1 1 V
1 1 V
1 0 V
0 1 V
1 0 V
1 0 V
0 1 V
1 0 V
0 1 V
2 1 V
0 1 V
1 0 V
1 1 V
1 0 V
0 1 V
0 1 V
1 0 V
0 1 V
1 0 V
0 1 V
1 1 V
0 1 V
0 1 V
1 0 V
1 0 V
0 1 V
1 0 V
0 1 V
1 1 V
0 1 V
1 1 V
0 1 V
1 1 V
1 0 V
0 1 V
1 0 V
0 1 V
1 0 V
1 0 V
0 1 V
1 0 V
0 1 V
1 0 V
0 1 V
1 0 V
0 1 V
1 0 V
1 0 V
0 1 V
0 1 V
1 0 V
0 1 V
1 1 V
1 0 V
0 1 V
1 0 V
0 1 V
1 0 V
0 1 V
1 1 V
1 0 V
0 1 V
1 0 V
0 1 V
1 1 V
1 1 V
0 1 V
1 0 V
1 0 V
0 1 V
1 1 V
0 1 V
1 0 V
1 0 V
0 1 V
1 0 V
0 1 V
1 0 V
0 1 V
1 0 V
1 1 V
1 0 V
1 1 V
1 0 V
1 0 V
1 0 V
0 1 V
1 0 V
1 1 V
1 0 V
1 1 V
1 1 V
1 0 V
0 1 V
1 0 V
2 1 V
3 0 V
stroke 1308 1879 M
0 1 V
1 0 V
0 1 V
1 0 V
0 1 V
1 0 V
4 0 V
1 1 V
1 0 V
1 1 V
1 1 V
1 0 V
0 1 V
1 0 V
0 1 V
1 0 V
1 1 V
1 1 V
1 1 V
1 0 V
1 1 V
1 1 V
1 0 V
1 0 V
1 1 V
1 1 V
1 0 V
1 0 V
0 1 V
1 1 V
1 0 V
1 1 V
1 0 V
0 1 V
1 0 V
0 1 V
1 0 V
0 1 V
1 0 V
0 1 V
1 0 V
1 0 V
1 1 V
1 0 V
0 1 V
1 0 V
1 0 V
0 1 V
1 0 V
1 0 V
0 1 V
1 0 V
1 0 V
0 1 V
1 1 V
1 0 V
1 1 V
2 1 V
1 1 V
1 0 V
0 1 V
1 1 V
1 0 V
0 1 V
1 1 V
0 1 V
1 0 V
2 0 V
0 1 V
1 0 V
1 1 V
1 0 V
1 1 V
1 1 V
1 0 V
0 1 V
1 0 V
0 1 V
1 0 V
0 1 V
1 0 V
1 0 V
0 1 V
1 0 V
1 0 V
0 1 V
1 0 V
0 1 V
1 0 V
1 0 V
0 1 V
1 0 V
1 0 V
0 1 V
1 0 V
0 1 V
1 0 V
1 1 V
1 0 V
0 1 V
1 0 V
1 0 V
0 1 V
2 0 V
stroke 1389 1931 M
1 0 V
0 1 V
1 0 V
1 0 V
1 0 V
1 1 V
1 0 V
0 1 V
1 0 V
0 1 V
1 0 V
0 1 V
1 0 V
0 1 V
1 0 V
1 0 V
1 0 V
0 1 V
1 0 V
1 0 V
0 1 V
1 0 V
1 0 V
1 1 V
1 0 V
1 0 V
1 1 V
1 0 V
2 0 V
1 1 V
1 0 V
1 1 V
1 1 V
1 0 V
2 1 V
1 0 V
1 1 V
2 0 V
1 0 V
1 0 V
1 1 V
1 0 V
1 1 V
2 0 V
1 0 V
2 0 V
0 1 V
1 0 V
1 1 V
1 0 V
1 0 V
1 1 V
1 0 V
1 0 V
2 0 V
1 0 V
1 1 V
1 0 V
1 1 V
1 1 V
1 1 V
1 0 V
0 1 V
2 0 V
1 0 V
1 1 V
1 0 V
0 1 V
1 0 V
1 1 V
1 0 V
0 1 V
1 0 V
2 0 V
0 1 V
2 0 V
2 0 V
0 1 V
1 1 V
1 0 V
0 1 V
1 0 V
1 0 V
0 1 V
1 0 V
2 0 V
0 1 V
1 0 V
0 1 V
1 0 V
2 0 V
0 1 V
1 1 V
1 0 V
1 0 V
1 1 V
1 0 V
1 0 V
1 0 V
0 1 V
1 0 V
1 0 V
1 0 V
1 1 V
stroke 1486 1972 M
1 0 V
1 0 V
2 0 V
0 1 V
1 0 V
1 0 V
1 0 V
0 1 V
2 0 V
2 1 V
1 0 V
1 0 V
0 1 V
1 0 V
1 1 V
1 0 V
1 0 V
2 0 V
1 1 V
1 0 V
1 1 V
1 0 V
1 0 V
0 1 V
1 0 V
2 0 V
0 1 V
2 0 V
1 0 V
0 1 V
1 0 V
2 0 V
0 1 V
2 0 V
1 0 V
2 0 V
1 1 V
1 0 V
1 1 V
2 0 V
1 1 V
1 0 V
2 0 V
0 1 V
1 0 V
1 0 V
1 1 V
1 0 V
1 0 V
2 1 V
1 1 V
3 1 V
2 0 V
1 0 V
1 0 V
1 1 V
2 0 V
2 0 V
1 1 V
3 0 V
1 1 V
1 0 V
2 0 V
0 1 V
1 0 V
2 0 V
1 0 V
2 1 V
2 0 V
5 0 V
1 0 V
1 1 V
2 0 V
3 0 V
2 0 V
0 1 V
1 0 V
2 0 V
1 1 V
1 0 V
1 0 V
1 1 V
1 0 V
2 0 V
1 1 V
2 0 V
2 0 V
0 1 V
2 0 V
1 1 V
1 0 V
2 0 V
2 0 V
2 0 V
2 1 V
1 0 V
3 0 V
2 0 V
3 1 V
1 0 V
2 0 V
1 0 V
1 1 V
1 0 V
stroke 1625 2006 M
4 0 V
1 0 V
1 1 V
3 0 V
1 0 V
1 1 V
2 0 V
3 1 V
1 0 V
1 0 V
1 1 V
3 0 V
1 0 V
1 0 V
4 1 V
1 0 V
4 0 V
2 1 V
1 0 V
1 0 V
2 0 V
2 1 V
3 0 V
3 0 V
1 1 V
5 0 V
1 0 V
2 0 V
2 1 V
1 0 V
4 0 V
4 1 V
1 0 V
1 0 V
0 1 V
1 0 V
2 0 V
1 0 V
5 0 V
2 1 V
1 0 V
3 0 V
3 1 V
3 0 V
6 0 V
1 1 V
4 0 V
3 0 V
2 0 V
4 1 V
3 0 V
3 0 V
1 0 V
1 1 V
3 0 V
2 0 V
3 0 V
2 0 V
1 1 V
1 0 V
1 0 V
15 1 V
1 0 V
1 0 V
9 0 V
1 0 V
2 1 V
5 0 V
1 0 V
4 1 V
2 0 V
3 0 V
1 0 V
3 0 V
6 1 V
1 0 V
1 0 V
6 0 V
9 1 V
4 0 V
3 0 V
3 0 V
3 1 V
2 0 V
1 0 V
1 0 V
2 0 V
5 1 V
3 0 V
4 0 V
4 1 V
8 0 V
7 0 V
2 0 V
1 0 V
9 1 V
1 0 V
1 0 V
1 0 V
8 1 V
5 0 V
1 0 V
2 0 V
19 0 V
stroke 1927 2033 M
2 1 V
5 0 V
4 0 V
5 1 V
1 0 V
2 0 V
4 0 V
1 0 V
1 1 V
2 0 V
9 0 V
13 0 V
11 0 V
2 1 V
1 0 V
2 0 V
2 0 V
1 1 V
1 0 V
47 0 V
4 0 V
29 0 V
13 1 V
7 0 V
7 0 V
13 0 V
8 1 V
14 0 V
13 0 V
7 0 V
11 0 V
8 1 V
24 0 V
1 0 V
2 0 V
5 1 V
8 0 V
8 0 V
4 0 V
16 1 V
6 0 V
7 0 V
3 0 V
15 1 V
7 0 V
11 0 V
21 0 V
12 1 V
6 0 V
1 0 V
7 0 V
7 0 V
28 1 V
3 0 V
19 0 V
15 0 V
4 1 V
7 0 V
12 0 V
79 0 V
14 0 V
31 1 V
45 0 V
3 0 V
11 0 V
5 1 V
14 0 V
91 0 V
10 0 V
282 0 V
16 1 V
75 0 V
83 0 V
70 0 V
164 1 V
2114 0 V
151 0 V
% End plot #4
% Begin plot #5
stroke
LT4
LCb setrgbcolor
7402 581 M
[ [(Helvetica) 140.0 0.0 true true 0 (30% Average Load)]
] -46.7 MRshow
LT4
7486 581 M
399 0 V
1090 460 M
0 21 V
0 20 V
0 19 V
0 16 V
1 19 V
0 14 V
0 16 V
0 13 V
0 13 V
0 13 V
0 8 V
0 10 V
1 11 V
0 9 V
0 11 V
0 12 V
0 7 V
0 8 V
0 8 V
0 11 V
0 8 V
1 8 V
0 8 V
0 7 V
0 6 V
0 7 V
0 4 V
0 5 V
0 6 V
0 4 V
1 4 V
0 7 V
0 5 V
0 8 V
0 4 V
0 3 V
0 6 V
0 7 V
1 3 V
0 3 V
0 6 V
0 5 V
0 3 V
0 5 V
0 4 V
0 6 V
0 5 V
1 3 V
0 4 V
0 2 V
0 3 V
0 5 V
0 2 V
0 3 V
0 5 V
0 2 V
1 5 V
0 3 V
0 5 V
0 3 V
0 5 V
0 2 V
0 4 V
0 2 V
1 4 V
0 3 V
0 3 V
0 6 V
0 4 V
0 3 V
0 2 V
0 3 V
0 2 V
1 6 V
0 3 V
0 2 V
0 3 V
0 2 V
0 4 V
0 4 V
0 3 V
1 2 V
0 3 V
0 3 V
0 3 V
0 3 V
0 3 V
0 4 V
0 3 V
0 2 V
1 1 V
0 3 V
0 5 V
0 2 V
0 2 V
0 3 V
0 1 V
0 3 V
1 4 V
0 2 V
0 1 V
0 2 V
stroke 1102 1036 M
0 3 V
0 3 V
0 4 V
0 2 V
0 3 V
1 5 V
0 2 V
0 3 V
0 4 V
0 3 V
0 3 V
0 1 V
0 4 V
1 2 V
0 2 V
0 2 V
0 1 V
0 3 V
0 4 V
0 3 V
0 3 V
1 4 V
0 2 V
0 3 V
0 2 V
0 1 V
0 1 V
0 1 V
0 2 V
0 3 V
1 1 V
0 1 V
0 2 V
0 1 V
0 2 V
0 1 V
0 4 V
0 2 V
1 1 V
0 3 V
0 1 V
0 3 V
0 2 V
0 2 V
0 2 V
0 3 V
1 4 V
0 2 V
0 2 V
0 2 V
0 2 V
0 3 V
0 3 V
1 0 V
0 3 V
0 1 V
0 2 V
0 2 V
0 1 V
0 2 V
0 2 V
1 2 V
0 2 V
0 2 V
0 1 V
0 1 V
0 3 V
0 1 V
0 3 V
0 3 V
1 1 V
0 3 V
0 2 V
0 3 V
0 3 V
0 1 V
0 2 V
0 1 V
1 2 V
0 2 V
0 3 V
0 2 V
0 2 V
0 2 V
0 2 V
0 2 V
1 1 V
0 4 V
0 1 V
0 2 V
0 1 V
0 2 V
0 2 V
0 2 V
0 3 V
1 1 V
0 3 V
0 1 V
0 2 V
0 1 V
0 2 V
0 1 V
0 2 V
1 0 V
stroke 1115 1259 M
0 1 V
0 1 V
0 2 V
0 1 V
0 2 V
0 2 V
0 1 V
0 2 V
1 1 V
0 2 V
0 1 V
0 3 V
0 3 V
0 2 V
0 2 V
0 1 V
1 1 V
0 2 V
0 1 V
0 1 V
0 1 V
0 2 V
0 1 V
0 1 V
1 2 V
0 2 V
0 2 V
0 1 V
0 2 V
0 1 V
0 2 V
0 3 V
1 2 V
0 2 V
0 2 V
0 1 V
0 1 V
0 2 V
0 1 V
1 2 V
0 2 V
0 1 V
0 1 V
0 1 V
0 3 V
0 1 V
0 2 V
1 2 V
0 2 V
0 3 V
0 2 V
0 1 V
1 3 V
0 3 V
0 1 V
0 2 V
0 2 V
0 1 V
0 1 V
0 2 V
0 2 V
1 2 V
0 2 V
0 1 V
0 1 V
0 2 V
0 2 V
0 2 V
0 4 V
1 2 V
0 1 V
0 2 V
0 2 V
0 1 V
0 1 V
0 1 V
0 3 V
1 1 V
0 3 V
0 1 V
0 1 V
0 2 V
0 1 V
0 2 V
1 0 V
0 2 V
0 2 V
0 1 V
0 2 V
0 1 V
0 1 V
0 1 V
0 1 V
1 0 V
0 2 V
0 1 V
0 3 V
0 1 V
0 1 V
0 1 V
1 1 V
0 1 V
0 1 V
0 2 V
stroke 1128 1427 M
0 2 V
0 1 V
0 1 V
1 2 V
0 1 V
0 1 V
0 2 V
0 2 V
0 1 V
0 1 V
1 2 V
0 1 V
0 2 V
0 2 V
0 1 V
0 2 V
1 1 V
0 1 V
0 2 V
0 1 V
0 2 V
0 1 V
0 1 V
0 1 V
1 1 V
0 1 V
0 1 V
0 2 V
0 1 V
0 1 V
0 2 V
1 0 V
0 2 V
0 1 V
0 2 V
0 1 V
0 1 V
0 1 V
1 1 V
0 2 V
0 1 V
0 2 V
0 1 V
0 1 V
1 0 V
0 1 V
0 1 V
0 1 V
0 1 V
0 1 V
1 1 V
0 2 V
0 1 V
0 1 V
0 1 V
0 2 V
1 2 V
0 2 V
0 1 V
0 2 V
0 1 V
1 2 V
0 1 V
0 1 V
0 1 V
0 2 V
0 2 V
0 1 V
1 1 V
0 1 V
0 2 V
0 1 V
0 1 V
0 2 V
0 1 V
1 1 V
0 1 V
0 1 V
0 2 V
0 1 V
0 1 V
0 1 V
1 1 V
0 1 V
0 1 V
0 2 V
0 1 V
0 2 V
1 1 V
0 1 V
0 1 V
0 1 V
0 1 V
1 2 V
0 1 V
0 1 V
0 1 V
0 1 V
1 1 V
0 1 V
0 1 V
0 1 V
0 2 V
1 1 V
stroke 1145 1560 M
0 2 V
0 1 V
0 2 V
0 1 V
0 1 V
1 1 V
0 1 V
0 1 V
0 2 V
0 1 V
0 1 V
0 1 V
1 1 V
0 1 V
0 1 V
0 2 V
0 1 V
1 1 V
0 1 V
0 1 V
0 2 V
1 1 V
0 1 V
0 1 V
0 1 V
0 1 V
1 1 V
0 1 V
0 1 V
0 1 V
0 1 V
1 1 V
0 1 V
0 1 V
0 1 V
0 1 V
1 1 V
0 1 V
0 1 V
0 1 V
1 1 V
0 1 V
0 1 V
0 2 V
0 1 V
1 1 V
0 1 V
0 1 V
1 1 V
0 1 V
0 1 V
0 1 V
0 1 V
1 1 V
0 1 V
0 1 V
0 1 V
0 1 V
0 1 V
1 1 V
0 1 V
0 1 V
0 1 V
1 1 V
0 1 V
1 1 V
0 1 V
0 2 V
1 1 V
0 1 V
0 1 V
0 1 V
1 0 V
0 1 V
0 1 V
0 1 V
0 1 V
1 1 V
0 1 V
0 1 V
1 1 V
0 1 V
0 1 V
0 1 V
0 1 V
1 0 V
0 1 V
0 1 V
0 1 V
1 0 V
0 1 V
0 1 V
0 1 V
0 1 V
1 1 V
0 1 V
0 1 V
0 1 V
1 1 V
0 1 V
1 0 V
0 1 V
0 1 V
0 1 V
stroke 1168 1667 M
1 0 V
0 1 V
0 1 V
1 1 V
0 1 V
0 2 V
1 1 V
0 1 V
0 1 V
1 1 V
0 1 V
0 1 V
1 1 V
0 2 V
0 1 V
0 1 V
1 1 V
0 1 V
1 1 V
0 1 V
0 1 V
0 1 V
1 0 V
0 1 V
1 1 V
0 1 V
0 1 V
0 1 V
1 0 V
0 1 V
0 1 V
0 1 V
0 1 V
1 1 V
0 1 V
0 1 V
1 1 V
0 1 V
0 1 V
1 0 V
0 1 V
0 1 V
0 1 V
0 1 V
0 1 V
1 0 V
0 1 V
1 0 V
0 1 V
0 1 V
1 0 V
0 1 V
0 1 V
1 1 V
0 1 V
1 0 V
0 1 V
0 1 V
1 1 V
0 1 V
0 1 V
1 0 V
0 1 V
0 1 V
1 0 V
0 1 V
0 1 V
0 1 V
1 0 V
0 1 V
1 0 V
0 1 V
0 1 V
1 0 V
0 1 V
1 1 V
0 1 V
1 0 V
0 1 V
0 1 V
1 1 V
0 1 V
1 0 V
0 1 V
0 1 V
1 0 V
0 1 V
1 1 V
0 1 V
1 0 V
0 1 V
0 1 V
1 0 V
0 1 V
0 1 V
1 0 V
0 1 V
1 1 V
0 1 V
1 1 V
0 1 V
1 1 V
0 1 V
1 1 V
stroke 1205 1754 M
1 1 V
0 1 V
1 0 V
0 1 V
0 1 V
1 0 V
0 1 V
0 1 V
1 0 V
0 1 V
0 1 V
1 0 V
0 1 V
1 1 V
0 1 V
1 1 V
0 1 V
0 1 V
1 0 V
0 1 V
1 0 V
0 1 V
1 0 V
0 1 V
1 1 V
0 1 V
1 0 V
0 1 V
0 1 V
1 0 V
0 1 V
0 1 V
1 1 V
0 1 V
1 0 V
0 1 V
0 1 V
0 1 V
1 1 V
1 1 V
1 1 V
1 0 V
0 1 V
1 0 V
0 1 V
1 1 V
0 1 V
1 0 V
0 1 V
1 0 V
0 1 V
1 0 V
0 1 V
1 0 V
0 1 V
1 0 V
0 1 V
0 1 V
1 0 V
0 1 V
1 0 V
0 1 V
0 1 V
1 0 V
0 1 V
0 1 V
0 1 V
1 0 V
0 1 V
1 0 V
0 1 V
1 0 V
0 1 V
1 0 V
1 1 V
0 1 V
1 1 V
1 1 V
0 1 V
1 0 V
0 1 V
1 0 V
0 1 V
1 1 V
0 1 V
1 0 V
0 1 V
1 0 V
0 1 V
1 0 V
0 1 V
1 1 V
0 1 V
1 0 V
1 1 V
1 0 V
0 1 V
1 0 V
0 1 V
1 1 V
1 1 V
0 1 V
1 1 V
0 1 V
stroke 1255 1826 M
2 0 V
0 1 V
0 1 V
1 0 V
0 1 V
1 0 V
1 1 V
1 0 V
0 1 V
1 0 V
0 1 V
1 0 V
1 1 V
0 1 V
1 0 V
1 0 V
0 1 V
2 0 V
0 1 V
1 0 V
0 1 V
2 0 V
1 1 V
1 1 V
0 1 V
1 0 V
0 1 V
1 1 V
0 1 V
1 0 V
1 0 V
0 1 V
1 0 V
1 0 V
0 1 V
1 0 V
0 1 V
1 0 V
1 1 V
1 0 V
2 1 V
1 0 V
1 1 V
0 1 V
1 1 V
1 0 V
1 1 V
0 1 V
1 1 V
1 0 V
1 1 V
1 0 V
0 1 V
1 0 V
0 1 V
1 0 V
1 1 V
1 0 V
0 1 V
1 0 V
2 1 V
1 0 V
0 1 V
1 0 V
0 1 V
1 0 V
1 1 V
2 0 V
0 1 V
1 0 V
0 1 V
1 0 V
0 1 V
1 1 V
0 1 V
1 1 V
1 0 V
0 1 V
1 0 V
1 0 V
0 1 V
1 0 V
0 1 V
1 0 V
1 0 V
0 1 V
1 1 V
0 1 V
1 1 V
1 0 V
1 0 V
0 1 V
1 0 V
0 1 V
1 1 V
0 1 V
1 1 V
1 0 V
0 1 V
1 0 V
0 1 V
1 0 V
0 1 V
1 0 V
stroke 1328 1884 M
1 0 V
1 1 V
1 0 V
1 1 V
1 1 V
1 1 V
1 0 V
1 1 V
1 0 V
1 1 V
1 0 V
1 0 V
1 1 V
1 0 V
1 0 V
0 1 V
3 0 V
1 0 V
0 1 V
1 1 V
2 1 V
1 1 V
0 1 V
1 0 V
2 0 V
0 1 V
2 0 V
1 0 V
0 1 V
1 1 V
0 1 V
3 0 V
0 1 V
1 0 V
2 1 V
2 0 V
0 1 V
1 0 V
1 1 V
1 0 V
0 1 V
1 0 V
0 1 V
1 0 V
0 1 V
1 0 V
1 0 V
1 1 V
1 1 V
1 1 V
1 1 V
2 0 V
0 1 V
1 0 V
1 1 V
1 0 V
1 1 V
1 0 V
0 1 V
1 0 V
1 1 V
1 0 V
0 1 V
2 0 V
0 1 V
2 0 V
0 1 V
1 0 V
0 1 V
1 0 V
0 1 V
1 0 V
2 0 V
0 1 V
1 0 V
0 1 V
1 0 V
1 0 V
1 1 V
1 1 V
1 0 V
1 1 V
1 0 V
1 1 V
1 0 V
0 1 V
2 0 V
0 1 V
1 0 V
1 0 V
0 1 V
1 0 V
1 1 V
1 0 V
0 1 V
1 0 V
1 1 V
1 0 V
1 0 V
0 1 V
1 0 V
1 0 V
0 1 V
1 1 V
stroke 1420 1937 M
1 0 V
2 0 V
0 1 V
2 0 V
1 1 V
2 0 V
2 1 V
1 0 V
2 1 V
1 0 V
3 0 V
1 0 V
1 1 V
1 0 V
0 1 V
2 0 V
1 1 V
1 0 V
0 1 V
1 0 V
1 0 V
0 1 V
1 1 V
2 1 V
1 0 V
2 1 V
1 0 V
1 1 V
1 0 V
2 1 V
2 0 V
2 1 V
1 0 V
1 1 V
1 0 V
1 0 V
0 1 V
3 0 V
1 0 V
1 1 V
1 0 V
1 1 V
1 0 V
1 0 V
1 1 V
1 0 V
1 1 V
1 0 V
2 0 V
1 1 V
1 0 V
3 0 V
2 1 V
2 0 V
3 1 V
1 0 V
0 1 V
1 0 V
1 1 V
1 0 V
1 1 V
2 0 V
1 0 V
1 1 V
1 0 V
2 1 V
2 0 V
2 0 V
2 0 V
0 1 V
1 0 V
1 1 V
2 0 V
1 1 V
0 1 V
1 0 V
1 0 V
1 1 V
2 0 V
1 1 V
1 0 V
0 1 V
1 0 V
0 1 V
1 0 V
1 0 V
1 1 V
1 0 V
1 1 V
2 0 V
1 0 V
0 1 V
2 0 V
1 0 V
2 0 V
0 1 V
1 0 V
7 1 V
2 0 V
1 0 V
0 1 V
2 0 V
3 0 V
1 1 V
stroke 1553 1981 M
5 0 V
1 0 V
1 0 V
1 1 V
3 0 V
1 0 V
3 1 V
2 0 V
2 1 V
1 0 V
1 0 V
4 1 V
1 0 V
1 1 V
2 0 V
1 0 V
1 1 V
3 0 V
3 0 V
5 1 V
1 0 V
1 1 V
1 0 V
2 1 V
1 0 V
1 1 V
1 0 V
1 0 V
0 1 V
3 0 V
5 0 V
1 0 V
2 1 V
2 0 V
1 0 V
0 1 V
1 0 V
3 1 V
1 0 V
3 0 V
2 1 V
1 0 V
1 1 V
3 0 V
1 0 V
0 1 V
3 0 V
2 1 V
2 0 V
1 0 V
2 0 V
0 1 V
5 0 V
2 0 V
1 1 V
4 0 V
2 0 V
1 1 V
1 0 V
3 1 V
1 0 V
1 0 V
3 0 V
4 1 V
4 0 V
3 0 V
1 1 V
4 0 V
2 0 V
0 1 V
6 0 V
1 0 V
4 0 V
0 1 V
2 0 V
3 0 V
2 1 V
4 0 V
1 0 V
5 1 V
1 0 V
4 1 V
3 0 V
1 0 V
4 1 V
3 0 V
1 0 V
0 1 V
2 0 V
3 0 V
4 1 V
1 0 V
8 0 V
2 0 V
3 1 V
1 0 V
2 0 V
9 1 V
3 0 V
11 0 V
6 1 V
3 0 V
1 0 V
5 1 V
stroke 1795 2017 M
3 0 V
3 0 V
2 0 V
1 1 V
6 0 V
3 0 V
5 1 V
5 0 V
3 1 V
1 0 V
4 1 V
1 0 V
3 0 V
1 0 V
1 1 V
2 0 V
10 0 V
5 1 V
6 0 V
2 0 V
0 1 V
7 0 V
4 0 V
1 1 V
2 0 V
1 0 V
0 1 V
8 0 V
3 0 V
1 1 V
1 0 V
1 0 V
1 1 V
5 0 V
3 0 V
1 0 V
10 1 V
5 0 V
8 0 V
6 1 V
8 0 V
8 1 V
3 0 V
15 0 V
9 0 V
25 1 V
2 0 V
21 0 V
8 1 V
3 0 V
1 0 V
4 1 V
3 0 V
7 0 V
1 1 V
9 0 V
3 0 V
4 1 V
16 0 V
17 0 V
2 1 V
2 0 V
4 0 V
6 1 V
6 0 V
2 0 V
0 1 V
5 0 V
15 0 V
4 0 V
5 1 V
24 0 V
3 0 V
3 1 V
39 0 V
4 0 V
8 1 V
18 0 V
30 0 V
22 0 V
34 1 V
1 0 V
10 0 V
30 1 V
3 0 V
33 0 V
59 1 V
9 0 V
106 0 V
27 1 V
46 0 V
12 0 V
7 0 V
50 1 V
32 0 V
157 0 V
21 1 V
36 0 V
6 0 V
7 1 V
102 0 V
178 0 V
58 1 V
12 0 V
stroke 3335 2050 M
84 0 V
318 0 V
96 1 V
1371 0 V
% End plot #5
stroke
1.000 UL
LTb
1090 2211 N
0 -1763 V
6963 0 V
0 1763 V
-6963 0 V
Z stroke
1.000 UP
1.000 UL
LTb
stroke
grestore
end
showpage
%%Trailer
%%DocumentFonts: Helvetica
