%!PS-Adobe-2.0 EPSF-2.0
%%Title: ./output/job-count.eps
%%Creator: gnuplot 4.4 patchlevel 2
%%CreationDate: Mon Mar 19 10:52:00 2012
%%DocumentFonts: (atend)
%%BoundingBox: 50 50 469 390
%%EndComments
%%BeginProlog
/gnudict 256 dict def
gnudict begin
%
% The following true/false flags may be edited by hand if desired.
% The unit line width and grayscale image gamma correction may also be changed.
%
/Color true def
/Blacktext false def
/Solid false def
/Dashlength 1 def
/Landscape false def
/Level1 false def
/Rounded false def
/ClipToBoundingBox false def
/TransparentPatterns false def
/gnulinewidth 5.000 def
/userlinewidth gnulinewidth def
/Gamma 1.0 def
%
/vshift -46 def
/dl1 {
  10.0 Dashlength mul mul
  Rounded { currentlinewidth 0.75 mul sub dup 0 le { pop 0.01 } if } if
} def
/dl2 {
  10.0 Dashlength mul mul
  Rounded { currentlinewidth 0.75 mul add } if
} def
/hpt_ 31.5 def
/vpt_ 31.5 def
/hpt hpt_ def
/vpt vpt_ def
Level1 {} {
/SDict 10 dict def
systemdict /pdfmark known not {
  userdict /pdfmark systemdict /cleartomark get put
} if
SDict begin [
  /Title (./output/job-count.eps)
  /Subject (gnuplot plot)
  /Creator (gnuplot 4.4 patchlevel 2)
  /Author (af10028)
%  /Producer (gnuplot)
%  /Keywords ()
  /CreationDate (Mon Mar 19 10:52:00 2012)
  /DOCINFO pdfmark
end
} ifelse
/doclip {
  ClipToBoundingBox {
    newpath 50 50 moveto 469 50 lineto 469 390 lineto 50 390 lineto closepath
    clip
  } if
} def
%
% Gnuplot Prolog Version 4.4 (August 2010)
%
%/SuppressPDFMark true def
%
/M {moveto} bind def
/L {lineto} bind def
/R {rmoveto} bind def
/V {rlineto} bind def
/N {newpath moveto} bind def
/Z {closepath} bind def
/C {setrgbcolor} bind def
/f {rlineto fill} bind def
/g {setgray} bind def
/Gshow {show} def   % May be redefined later in the file to support UTF-8
/vpt2 vpt 2 mul def
/hpt2 hpt 2 mul def
/Lshow {currentpoint stroke M 0 vshift R 
	Blacktext {gsave 0 setgray show grestore} {show} ifelse} def
/Rshow {currentpoint stroke M dup stringwidth pop neg vshift R
	Blacktext {gsave 0 setgray show grestore} {show} ifelse} def
/Cshow {currentpoint stroke M dup stringwidth pop -2 div vshift R 
	Blacktext {gsave 0 setgray show grestore} {show} ifelse} def
/UP {dup vpt_ mul /vpt exch def hpt_ mul /hpt exch def
  /hpt2 hpt 2 mul def /vpt2 vpt 2 mul def} def
/DL {Color {setrgbcolor Solid {pop []} if 0 setdash}
 {pop pop pop 0 setgray Solid {pop []} if 0 setdash} ifelse} def
/BL {stroke userlinewidth 2 mul setlinewidth
	Rounded {1 setlinejoin 1 setlinecap} if} def
/AL {stroke userlinewidth 2 div setlinewidth
	Rounded {1 setlinejoin 1 setlinecap} if} def
/UL {dup gnulinewidth mul /userlinewidth exch def
	dup 1 lt {pop 1} if 10 mul /udl exch def} def
/PL {stroke userlinewidth setlinewidth
	Rounded {1 setlinejoin 1 setlinecap} if} def
3.8 setmiterlimit
% Default Line colors
/LCw {1 1 1} def
/LCb {0 0 0} def
/LCa {0 0 0} def
/LC0 {1 0 0} def
/LC1 {0 1 0} def
/LC2 {0 0 1} def
/LC3 {1 0 1} def
/LC4 {0 1 1} def
/LC5 {1 1 0} def
/LC6 {0 0 0} def
/LC7 {1 0.3 0} def
/LC8 {0.5 0.5 0.5} def
% Default Line Types
/LTw {PL [] 1 setgray} def
/LTb {BL [] LCb DL} def
/LTa {AL [1 udl mul 2 udl mul] 0 setdash LCa setrgbcolor} def
/LT0 {PL [] LC0 DL} def
/LT1 {PL [4 dl1 2 dl2] LC1 DL} def
/LT2 {PL [2 dl1 3 dl2] LC2 DL} def
/LT3 {PL [1 dl1 1.5 dl2] LC3 DL} def
/LT4 {PL [6 dl1 2 dl2 1 dl1 2 dl2] LC4 DL} def
/LT5 {PL [3 dl1 3 dl2 1 dl1 3 dl2] LC5 DL} def
/LT6 {PL [2 dl1 2 dl2 2 dl1 6 dl2] LC6 DL} def
/LT7 {PL [1 dl1 2 dl2 6 dl1 2 dl2 1 dl1 2 dl2] LC7 DL} def
/LT8 {PL [2 dl1 2 dl2 2 dl1 2 dl2 2 dl1 2 dl2 2 dl1 4 dl2] LC8 DL} def
/Pnt {stroke [] 0 setdash gsave 1 setlinecap M 0 0 V stroke grestore} def
/Dia {stroke [] 0 setdash 2 copy vpt add M
  hpt neg vpt neg V hpt vpt neg V
  hpt vpt V hpt neg vpt V closepath stroke
  Pnt} def
/Pls {stroke [] 0 setdash vpt sub M 0 vpt2 V
  currentpoint stroke M
  hpt neg vpt neg R hpt2 0 V stroke
 } def
/Box {stroke [] 0 setdash 2 copy exch hpt sub exch vpt add M
  0 vpt2 neg V hpt2 0 V 0 vpt2 V
  hpt2 neg 0 V closepath stroke
  Pnt} def
/Crs {stroke [] 0 setdash exch hpt sub exch vpt add M
  hpt2 vpt2 neg V currentpoint stroke M
  hpt2 neg 0 R hpt2 vpt2 V stroke} def
/TriU {stroke [] 0 setdash 2 copy vpt 1.12 mul add M
  hpt neg vpt -1.62 mul V
  hpt 2 mul 0 V
  hpt neg vpt 1.62 mul V closepath stroke
  Pnt} def
/Star {2 copy Pls Crs} def
/BoxF {stroke [] 0 setdash exch hpt sub exch vpt add M
  0 vpt2 neg V hpt2 0 V 0 vpt2 V
  hpt2 neg 0 V closepath fill} def
/TriUF {stroke [] 0 setdash vpt 1.12 mul add M
  hpt neg vpt -1.62 mul V
  hpt 2 mul 0 V
  hpt neg vpt 1.62 mul V closepath fill} def
/TriD {stroke [] 0 setdash 2 copy vpt 1.12 mul sub M
  hpt neg vpt 1.62 mul V
  hpt 2 mul 0 V
  hpt neg vpt -1.62 mul V closepath stroke
  Pnt} def
/TriDF {stroke [] 0 setdash vpt 1.12 mul sub M
  hpt neg vpt 1.62 mul V
  hpt 2 mul 0 V
  hpt neg vpt -1.62 mul V closepath fill} def
/DiaF {stroke [] 0 setdash vpt add M
  hpt neg vpt neg V hpt vpt neg V
  hpt vpt V hpt neg vpt V closepath fill} def
/Pent {stroke [] 0 setdash 2 copy gsave
  translate 0 hpt M 4 {72 rotate 0 hpt L} repeat
  closepath stroke grestore Pnt} def
/PentF {stroke [] 0 setdash gsave
  translate 0 hpt M 4 {72 rotate 0 hpt L} repeat
  closepath fill grestore} def
/Circle {stroke [] 0 setdash 2 copy
  hpt 0 360 arc stroke Pnt} def
/CircleF {stroke [] 0 setdash hpt 0 360 arc fill} def
/C0 {BL [] 0 setdash 2 copy moveto vpt 90 450 arc} bind def
/C1 {BL [] 0 setdash 2 copy moveto
	2 copy vpt 0 90 arc closepath fill
	vpt 0 360 arc closepath} bind def
/C2 {BL [] 0 setdash 2 copy moveto
	2 copy vpt 90 180 arc closepath fill
	vpt 0 360 arc closepath} bind def
/C3 {BL [] 0 setdash 2 copy moveto
	2 copy vpt 0 180 arc closepath fill
	vpt 0 360 arc closepath} bind def
/C4 {BL [] 0 setdash 2 copy moveto
	2 copy vpt 180 270 arc closepath fill
	vpt 0 360 arc closepath} bind def
/C5 {BL [] 0 setdash 2 copy moveto
	2 copy vpt 0 90 arc
	2 copy moveto
	2 copy vpt 180 270 arc closepath fill
	vpt 0 360 arc} bind def
/C6 {BL [] 0 setdash 2 copy moveto
	2 copy vpt 90 270 arc closepath fill
	vpt 0 360 arc closepath} bind def
/C7 {BL [] 0 setdash 2 copy moveto
	2 copy vpt 0 270 arc closepath fill
	vpt 0 360 arc closepath} bind def
/C8 {BL [] 0 setdash 2 copy moveto
	2 copy vpt 270 360 arc closepath fill
	vpt 0 360 arc closepath} bind def
/C9 {BL [] 0 setdash 2 copy moveto
	2 copy vpt 270 450 arc closepath fill
	vpt 0 360 arc closepath} bind def
/C10 {BL [] 0 setdash 2 copy 2 copy moveto vpt 270 360 arc closepath fill
	2 copy moveto
	2 copy vpt 90 180 arc closepath fill
	vpt 0 360 arc closepath} bind def
/C11 {BL [] 0 setdash 2 copy moveto
	2 copy vpt 0 180 arc closepath fill
	2 copy moveto
	2 copy vpt 270 360 arc closepath fill
	vpt 0 360 arc closepath} bind def
/C12 {BL [] 0 setdash 2 copy moveto
	2 copy vpt 180 360 arc closepath fill
	vpt 0 360 arc closepath} bind def
/C13 {BL [] 0 setdash 2 copy moveto
	2 copy vpt 0 90 arc closepath fill
	2 copy moveto
	2 copy vpt 180 360 arc closepath fill
	vpt 0 360 arc closepath} bind def
/C14 {BL [] 0 setdash 2 copy moveto
	2 copy vpt 90 360 arc closepath fill
	vpt 0 360 arc} bind def
/C15 {BL [] 0 setdash 2 copy vpt 0 360 arc closepath fill
	vpt 0 360 arc closepath} bind def
/Rec {newpath 4 2 roll moveto 1 index 0 rlineto 0 exch rlineto
	neg 0 rlineto closepath} bind def
/Square {dup Rec} bind def
/Bsquare {vpt sub exch vpt sub exch vpt2 Square} bind def
/S0 {BL [] 0 setdash 2 copy moveto 0 vpt rlineto BL Bsquare} bind def
/S1 {BL [] 0 setdash 2 copy vpt Square fill Bsquare} bind def
/S2 {BL [] 0 setdash 2 copy exch vpt sub exch vpt Square fill Bsquare} bind def
/S3 {BL [] 0 setdash 2 copy exch vpt sub exch vpt2 vpt Rec fill Bsquare} bind def
/S4 {BL [] 0 setdash 2 copy exch vpt sub exch vpt sub vpt Square fill Bsquare} bind def
/S5 {BL [] 0 setdash 2 copy 2 copy vpt Square fill
	exch vpt sub exch vpt sub vpt Square fill Bsquare} bind def
/S6 {BL [] 0 setdash 2 copy exch vpt sub exch vpt sub vpt vpt2 Rec fill Bsquare} bind def
/S7 {BL [] 0 setdash 2 copy exch vpt sub exch vpt sub vpt vpt2 Rec fill
	2 copy vpt Square fill Bsquare} bind def
/S8 {BL [] 0 setdash 2 copy vpt sub vpt Square fill Bsquare} bind def
/S9 {BL [] 0 setdash 2 copy vpt sub vpt vpt2 Rec fill Bsquare} bind def
/S10 {BL [] 0 setdash 2 copy vpt sub vpt Square fill 2 copy exch vpt sub exch vpt Square fill
	Bsquare} bind def
/S11 {BL [] 0 setdash 2 copy vpt sub vpt Square fill 2 copy exch vpt sub exch vpt2 vpt Rec fill
	Bsquare} bind def
/S12 {BL [] 0 setdash 2 copy exch vpt sub exch vpt sub vpt2 vpt Rec fill Bsquare} bind def
/S13 {BL [] 0 setdash 2 copy exch vpt sub exch vpt sub vpt2 vpt Rec fill
	2 copy vpt Square fill Bsquare} bind def
/S14 {BL [] 0 setdash 2 copy exch vpt sub exch vpt sub vpt2 vpt Rec fill
	2 copy exch vpt sub exch vpt Square fill Bsquare} bind def
/S15 {BL [] 0 setdash 2 copy Bsquare fill Bsquare} bind def
/D0 {gsave translate 45 rotate 0 0 S0 stroke grestore} bind def
/D1 {gsave translate 45 rotate 0 0 S1 stroke grestore} bind def
/D2 {gsave translate 45 rotate 0 0 S2 stroke grestore} bind def
/D3 {gsave translate 45 rotate 0 0 S3 stroke grestore} bind def
/D4 {gsave translate 45 rotate 0 0 S4 stroke grestore} bind def
/D5 {gsave translate 45 rotate 0 0 S5 stroke grestore} bind def
/D6 {gsave translate 45 rotate 0 0 S6 stroke grestore} bind def
/D7 {gsave translate 45 rotate 0 0 S7 stroke grestore} bind def
/D8 {gsave translate 45 rotate 0 0 S8 stroke grestore} bind def
/D9 {gsave translate 45 rotate 0 0 S9 stroke grestore} bind def
/D10 {gsave translate 45 rotate 0 0 S10 stroke grestore} bind def
/D11 {gsave translate 45 rotate 0 0 S11 stroke grestore} bind def
/D12 {gsave translate 45 rotate 0 0 S12 stroke grestore} bind def
/D13 {gsave translate 45 rotate 0 0 S13 stroke grestore} bind def
/D14 {gsave translate 45 rotate 0 0 S14 stroke grestore} bind def
/D15 {gsave translate 45 rotate 0 0 S15 stroke grestore} bind def
/DiaE {stroke [] 0 setdash vpt add M
  hpt neg vpt neg V hpt vpt neg V
  hpt vpt V hpt neg vpt V closepath stroke} def
/BoxE {stroke [] 0 setdash exch hpt sub exch vpt add M
  0 vpt2 neg V hpt2 0 V 0 vpt2 V
  hpt2 neg 0 V closepath stroke} def
/TriUE {stroke [] 0 setdash vpt 1.12 mul add M
  hpt neg vpt -1.62 mul V
  hpt 2 mul 0 V
  hpt neg vpt 1.62 mul V closepath stroke} def
/TriDE {stroke [] 0 setdash vpt 1.12 mul sub M
  hpt neg vpt 1.62 mul V
  hpt 2 mul 0 V
  hpt neg vpt -1.62 mul V closepath stroke} def
/PentE {stroke [] 0 setdash gsave
  translate 0 hpt M 4 {72 rotate 0 hpt L} repeat
  closepath stroke grestore} def
/CircE {stroke [] 0 setdash 
  hpt 0 360 arc stroke} def
/Opaque {gsave closepath 1 setgray fill grestore 0 setgray closepath} def
/DiaW {stroke [] 0 setdash vpt add M
  hpt neg vpt neg V hpt vpt neg V
  hpt vpt V hpt neg vpt V Opaque stroke} def
/BoxW {stroke [] 0 setdash exch hpt sub exch vpt add M
  0 vpt2 neg V hpt2 0 V 0 vpt2 V
  hpt2 neg 0 V Opaque stroke} def
/TriUW {stroke [] 0 setdash vpt 1.12 mul add M
  hpt neg vpt -1.62 mul V
  hpt 2 mul 0 V
  hpt neg vpt 1.62 mul V Opaque stroke} def
/TriDW {stroke [] 0 setdash vpt 1.12 mul sub M
  hpt neg vpt 1.62 mul V
  hpt 2 mul 0 V
  hpt neg vpt -1.62 mul V Opaque stroke} def
/PentW {stroke [] 0 setdash gsave
  translate 0 hpt M 4 {72 rotate 0 hpt L} repeat
  Opaque stroke grestore} def
/CircW {stroke [] 0 setdash 
  hpt 0 360 arc Opaque stroke} def
/BoxFill {gsave Rec 1 setgray fill grestore} def
/Density {
  /Fillden exch def
  currentrgbcolor
  /ColB exch def /ColG exch def /ColR exch def
  /ColR ColR Fillden mul Fillden sub 1 add def
  /ColG ColG Fillden mul Fillden sub 1 add def
  /ColB ColB Fillden mul Fillden sub 1 add def
  ColR ColG ColB setrgbcolor} def
/BoxColFill {gsave Rec PolyFill} def
/PolyFill {gsave Density fill grestore grestore} def
/h {rlineto rlineto rlineto gsave closepath fill grestore} bind def
%
% PostScript Level 1 Pattern Fill routine for rectangles
% Usage: x y w h s a XX PatternFill
%	x,y = lower left corner of box to be filled
%	w,h = width and height of box
%	  a = angle in degrees between lines and x-axis
%	 XX = 0/1 for no/yes cross-hatch
%
/PatternFill {gsave /PFa [ 9 2 roll ] def
  PFa 0 get PFa 2 get 2 div add PFa 1 get PFa 3 get 2 div add translate
  PFa 2 get -2 div PFa 3 get -2 div PFa 2 get PFa 3 get Rec
  gsave 1 setgray fill grestore clip
  currentlinewidth 0.5 mul setlinewidth
  /PFs PFa 2 get dup mul PFa 3 get dup mul add sqrt def
  0 0 M PFa 5 get rotate PFs -2 div dup translate
  0 1 PFs PFa 4 get div 1 add floor cvi
	{PFa 4 get mul 0 M 0 PFs V} for
  0 PFa 6 get ne {
	0 1 PFs PFa 4 get div 1 add floor cvi
	{PFa 4 get mul 0 2 1 roll M PFs 0 V} for
 } if
  stroke grestore} def
%
/languagelevel where
 {pop languagelevel} {1} ifelse
 2 lt
	{/InterpretLevel1 true def}
	{/InterpretLevel1 Level1 def}
 ifelse
%
% PostScript level 2 pattern fill definitions
%
/Level2PatternFill {
/Tile8x8 {/PaintType 2 /PatternType 1 /TilingType 1 /BBox [0 0 8 8] /XStep 8 /YStep 8}
	bind def
/KeepColor {currentrgbcolor [/Pattern /DeviceRGB] setcolorspace} bind def
<< Tile8x8
 /PaintProc {0.5 setlinewidth pop 0 0 M 8 8 L 0 8 M 8 0 L stroke} 
>> matrix makepattern
/Pat1 exch def
<< Tile8x8
 /PaintProc {0.5 setlinewidth pop 0 0 M 8 8 L 0 8 M 8 0 L stroke
	0 4 M 4 8 L 8 4 L 4 0 L 0 4 L stroke}
>> matrix makepattern
/Pat2 exch def
<< Tile8x8
 /PaintProc {0.5 setlinewidth pop 0 0 M 0 8 L
	8 8 L 8 0 L 0 0 L fill}
>> matrix makepattern
/Pat3 exch def
<< Tile8x8
 /PaintProc {0.5 setlinewidth pop -4 8 M 8 -4 L
	0 12 M 12 0 L stroke}
>> matrix makepattern
/Pat4 exch def
<< Tile8x8
 /PaintProc {0.5 setlinewidth pop -4 0 M 8 12 L
	0 -4 M 12 8 L stroke}
>> matrix makepattern
/Pat5 exch def
<< Tile8x8
 /PaintProc {0.5 setlinewidth pop -2 8 M 4 -4 L
	0 12 M 8 -4 L 4 12 M 10 0 L stroke}
>> matrix makepattern
/Pat6 exch def
<< Tile8x8
 /PaintProc {0.5 setlinewidth pop -2 0 M 4 12 L
	0 -4 M 8 12 L 4 -4 M 10 8 L stroke}
>> matrix makepattern
/Pat7 exch def
<< Tile8x8
 /PaintProc {0.5 setlinewidth pop 8 -2 M -4 4 L
	12 0 M -4 8 L 12 4 M 0 10 L stroke}
>> matrix makepattern
/Pat8 exch def
<< Tile8x8
 /PaintProc {0.5 setlinewidth pop 0 -2 M 12 4 L
	-4 0 M 12 8 L -4 4 M 8 10 L stroke}
>> matrix makepattern
/Pat9 exch def
/Pattern1 {PatternBgnd KeepColor Pat1 setpattern} bind def
/Pattern2 {PatternBgnd KeepColor Pat2 setpattern} bind def
/Pattern3 {PatternBgnd KeepColor Pat3 setpattern} bind def
/Pattern4 {PatternBgnd KeepColor Landscape {Pat5} {Pat4} ifelse setpattern} bind def
/Pattern5 {PatternBgnd KeepColor Landscape {Pat4} {Pat5} ifelse setpattern} bind def
/Pattern6 {PatternBgnd KeepColor Landscape {Pat9} {Pat6} ifelse setpattern} bind def
/Pattern7 {PatternBgnd KeepColor Landscape {Pat8} {Pat7} ifelse setpattern} bind def
} def
%
%
%End of PostScript Level 2 code
%
/PatternBgnd {
  TransparentPatterns {} {gsave 1 setgray fill grestore} ifelse
} def
%
% Substitute for Level 2 pattern fill codes with
% grayscale if Level 2 support is not selected.
%
/Level1PatternFill {
/Pattern1 {0.250 Density} bind def
/Pattern2 {0.500 Density} bind def
/Pattern3 {0.750 Density} bind def
/Pattern4 {0.125 Density} bind def
/Pattern5 {0.375 Density} bind def
/Pattern6 {0.625 Density} bind def
/Pattern7 {0.875 Density} bind def
} def
%
% Now test for support of Level 2 code
%
Level1 {Level1PatternFill} {Level2PatternFill} ifelse
%
/Symbol-Oblique /Symbol findfont [1 0 .167 1 0 0] makefont
dup length dict begin {1 index /FID eq {pop pop} {def} ifelse} forall
currentdict end definefont pop
/MFshow {
   { dup 5 get 3 ge
     { 5 get 3 eq {gsave} {grestore} ifelse }
     {dup dup 0 get findfont exch 1 get scalefont setfont
     [ currentpoint ] exch dup 2 get 0 exch R dup 5 get 2 ne {dup dup 6
     get exch 4 get {Gshow} {stringwidth pop 0 R} ifelse }if dup 5 get 0 eq
     {dup 3 get {2 get neg 0 exch R pop} {pop aload pop M} ifelse} {dup 5
     get 1 eq {dup 2 get exch dup 3 get exch 6 get stringwidth pop -2 div
     dup 0 R} {dup 6 get stringwidth pop -2 div 0 R 6 get
     show 2 index {aload pop M neg 3 -1 roll neg R pop pop} {pop pop pop
     pop aload pop M} ifelse }ifelse }ifelse }
     ifelse }
   forall} def
/Gswidth {dup type /stringtype eq {stringwidth} {pop (n) stringwidth} ifelse} def
/MFwidth {0 exch { dup 5 get 3 ge { 5 get 3 eq { 0 } { pop } ifelse }
 {dup 3 get{dup dup 0 get findfont exch 1 get scalefont setfont
     6 get Gswidth pop add} {pop} ifelse} ifelse} forall} def
/MLshow { currentpoint stroke M
  0 exch R
  Blacktext {gsave 0 setgray MFshow grestore} {MFshow} ifelse } bind def
/MRshow { currentpoint stroke M
  exch dup MFwidth neg 3 -1 roll R
  Blacktext {gsave 0 setgray MFshow grestore} {MFshow} ifelse } bind def
/MCshow { currentpoint stroke M
  exch dup MFwidth -2 div 3 -1 roll R
  Blacktext {gsave 0 setgray MFshow grestore} {MFshow} ifelse } bind def
/XYsave    { [( ) 1 2 true false 3 ()] } bind def
/XYrestore { [( ) 1 2 true false 4 ()] } bind def
end
%%EndProlog
gnudict begin
gsave
doclip
50 50 translate
0.050 0.050 scale
0 setgray
newpath
(Helvetica) findfont 140 scalefont setfont
1.000 UL
LTb
1090 5577 M
63 0 V
6900 0 R
-63 0 V
stroke
1006 5577 M
[ [(Helvetica) 140.0 0.0 true true 0 ( 0)]
] -46.7 MRshow
1.000 UL
LTb
1090 5840 M
63 0 V
6900 0 R
-63 0 V
stroke
1006 5840 M
[ [(Helvetica) 140.0 0.0 true true 0 ( 1700)]
] -46.7 MRshow
1.000 UL
LTb
1090 6104 M
63 0 V
6900 0 R
-63 0 V
stroke
1006 6104 M
[ [(Helvetica) 140.0 0.0 true true 0 ( 3400)]
] -46.7 MRshow
1.000 UL
LTb
1090 6367 M
63 0 V
6900 0 R
-63 0 V
stroke
1006 6367 M
[ [(Helvetica) 140.0 0.0 true true 0 ( 5100)]
] -46.7 MRshow
1.000 UL
LTb
1090 6631 M
63 0 V
6900 0 R
-63 0 V
stroke
1006 6631 M
[ [(Helvetica) 140.0 0.0 true true 0 ( 6800)]
] -46.7 MRshow
1.000 UL
LTb
1090 5577 M
0 63 V
0 1161 R
0 -63 V
1256 5577 M
0 31 V
0 1193 R
0 -31 V
1422 5577 M
0 31 V
0 1193 R
0 -31 V
1587 5577 M
0 31 V
0 1193 R
0 -31 V
1753 5577 M
0 31 V
0 1193 R
0 -31 V
1919 5577 M
0 31 V
0 1193 R
0 -31 V
2085 5577 M
0 31 V
0 1193 R
0 -31 V
0 -1193 R
0 63 V
0 1161 R
0 -63 V
2251 5577 M
0 31 V
0 1193 R
0 -31 V
2416 5577 M
0 31 V
0 1193 R
0 -31 V
2582 5577 M
0 31 V
0 1193 R
0 -31 V
2748 5577 M
0 31 V
0 1193 R
0 -31 V
2914 5577 M
0 31 V
0 1193 R
0 -31 V
3079 5577 M
0 31 V
0 1193 R
0 -31 V
0 -1193 R
0 63 V
0 1161 R
0 -63 V
3245 5577 M
0 31 V
0 1193 R
0 -31 V
3411 5577 M
0 31 V
0 1193 R
0 -31 V
3577 5577 M
0 31 V
0 1193 R
0 -31 V
3743 5577 M
0 31 V
0 1193 R
0 -31 V
3908 5577 M
0 31 V
0 1193 R
0 -31 V
4074 5577 M
0 31 V
0 1193 R
0 -31 V
0 -1193 R
0 63 V
0 1161 R
0 -63 V
4240 5577 M
0 31 V
0 1193 R
0 -31 V
4406 5577 M
0 31 V
0 1193 R
0 -31 V
4572 5577 M
0 31 V
0 1193 R
0 -31 V
4737 5577 M
0 31 V
0 1193 R
0 -31 V
4903 5577 M
0 31 V
stroke 4903 5608 M
0 1193 R
0 -31 V
5069 5577 M
0 31 V
0 1193 R
0 -31 V
0 -1193 R
0 63 V
0 1161 R
0 -63 V
5235 5577 M
0 31 V
0 1193 R
0 -31 V
5400 5577 M
0 31 V
0 1193 R
0 -31 V
5566 5577 M
0 31 V
0 1193 R
0 -31 V
5732 5577 M
0 31 V
0 1193 R
0 -31 V
5898 5577 M
0 31 V
0 1193 R
0 -31 V
6064 5577 M
0 31 V
0 1193 R
0 -31 V
0 -1193 R
0 63 V
0 1161 R
0 -63 V
6229 5577 M
0 31 V
0 1193 R
0 -31 V
6395 5577 M
0 31 V
0 1193 R
0 -31 V
6561 5577 M
0 31 V
0 1193 R
0 -31 V
6727 5577 M
0 31 V
0 1193 R
0 -31 V
6892 5577 M
0 31 V
0 1193 R
0 -31 V
7058 5577 M
0 31 V
0 1193 R
0 -31 V
0 -1193 R
0 63 V
0 1161 R
0 -63 V
7224 5577 M
0 31 V
0 1193 R
0 -31 V
7390 5577 M
0 31 V
0 1193 R
0 -31 V
7556 5577 M
0 31 V
0 1193 R
0 -31 V
7721 5577 M
0 31 V
0 1193 R
0 -31 V
7887 5577 M
0 31 V
0 1193 R
0 -31 V
8053 5577 M
0 31 V
0 1193 R
0 -31 V
0 -1193 R
0 63 V
0 1161 R
0 -63 V
stroke
1090 6801 N
0 -1224 V
6963 0 V
0 1224 V
-6963 0 V
Z stroke
LCb setrgbcolor
152 6189 M
currentpoint gsave translate -270 rotate 0 0 moveto
[ [(Helvetica) 140.0 0.0 true true 0 (90% Load)]
] -46.7 MCshow
grestore
432 6189 M
currentpoint gsave translate -270 rotate 0 0 moveto
[ [(Helvetica) 140.0 0.0 true true 0 (Job Count)]
] -46.7 MCshow
grestore
LTb
1.000 UP
1.000 UL
LTb
% Begin plot #1
2.000 UL
LT0
1090 5641 M
83 0 V
0 26 V
83 0 V
0 35 V
83 0 V
0 62 V
83 0 V
0 52 V
82 0 V
0 54 V
83 0 V
0 58 V
83 0 V
0 59 V
83 0 V
0 29 V
83 0 V
0 51 V
83 0 V
0 2 V
83 0 V
0 39 V
83 0 V
0 28 V
83 0 V
0 16 V
83 0 V
0 40 V
82 0 V
0 4 V
83 0 V
0 60 V
83 0 V
0 37 V
83 0 V
0 15 V
83 0 V
0 51 V
83 0 V
0 19 V
83 0 V
0 40 V
83 0 V
0 39 V
83 0 V
0 54 V
82 0 V
0 27 V
83 0 V
0 23 V
83 0 V
0 -3 V
83 0 V
0 9 V
83 0 V
0 10 V
83 0 V
0 50 V
83 0 V
0 19 V
83 0 V
0 39 V
83 0 V
0 71 V
82 0 V
0 -16 V
83 0 V
0 -7 V
83 0 V
0 47 V
83 0 V
0 -20 V
83 0 V
0 -60 V
83 0 V
0 -41 V
83 0 V
0 -33 V
83 0 V
0 -1 V
83 0 V
0 -33 V
83 0 V
0 -43 V
82 0 V
0 -39 V
83 0 V
0 -44 V
83 0 V
0 -46 V
83 0 V
0 -22 V
83 0 V
0 -89 V
83 0 V
0 -25 V
83 0 V
0 -65 V
83 0 V
0 -46 V
83 0 V
0 -22 V
82 0 V
0 -42 V
stroke 5400 6109 M
83 0 V
0 -67 V
83 0 V
0 -32 V
83 0 V
0 -50 V
83 0 V
0 -67 V
83 0 V
0 -17 V
83 0 V
0 -38 V
83 0 V
0 -20 V
83 0 V
0 -28 V
82 0 V
0 -21 V
83 0 V
0 -37 V
83 0 V
0 -43 V
83 0 V
0 -64 V
83 0 V
0 -42 V
83 0 V
0 -1 V
83 0 V
0 -1 V
83 0 V
0 -1 V
83 0 V
0 -1 V
82 0 V
83 0 V
83 0 V
0 -1 V
83 0 V
83 0 V
83 0 V
0 -1 V
% End plot #1
% Begin plot #2
stroke
LT1
1090 5641 M
83 0 V
0 26 V
83 0 V
0 23 V
83 0 V
0 22 V
83 0 V
0 13 V
82 0 V
0 22 V
83 0 V
0 15 V
83 0 V
0 9 V
83 0 V
0 -36 V
83 0 V
0 -3 V
83 0 V
0 2 V
83 0 V
0 20 V
83 0 V
0 -13 V
83 0 V
0 8 V
83 0 V
0 -14 V
82 0 V
0 9 V
83 0 V
0 9 V
83 0 V
0 15 V
83 0 V
0 -1 V
83 0 V
0 -7 V
83 0 V
0 11 V
83 0 V
0 -4 V
83 0 V
0 10 V
83 0 V
0 20 V
82 0 V
0 -16 V
83 0 V
0 -1 V
83 0 V
0 -1 V
83 0 V
0 4 V
83 0 V
0 10 V
83 0 V
0 19 V
83 0 V
0 -19 V
83 0 V
0 -11 V
83 0 V
0 16 V
82 0 V
0 -12 V
83 0 V
0 21 V
83 0 V
0 5 V
83 0 V
0 -78 V
83 0 V
0 -23 V
83 0 V
0 -13 V
83 0 V
0 -7 V
83 0 V
0 -8 V
83 0 V
0 -7 V
83 0 V
0 -6 V
82 0 V
0 -8 V
83 0 V
0 -7 V
83 0 V
0 -5 V
83 0 V
0 -6 V
83 0 V
0 -7 V
83 0 V
0 -4 V
83 0 V
0 -5 V
83 0 V
0 -6 V
83 0 V
0 -4 V
82 0 V
0 -3 V
stroke 5400 5615 M
83 0 V
0 -4 V
83 0 V
0 -3 V
83 0 V
0 -4 V
83 0 V
0 -3 V
83 0 V
0 -2 V
83 0 V
0 -4 V
83 0 V
0 -1 V
83 0 V
0 -2 V
82 0 V
0 -3 V
83 0 V
0 -3 V
83 0 V
0 -2 V
83 0 V
0 -1 V
83 0 V
0 -1 V
83 0 V
83 0 V
0 -2 V
83 0 V
0 -1 V
83 0 V
82 0 V
0 -1 V
83 0 V
83 0 V
83 0 V
83 0 V
83 0 V
83 0 V
0 -1 V
% End plot #2
stroke
1.000 UL
LTb
1090 6801 N
0 -1224 V
6963 0 V
0 1224 V
-6963 0 V
Z stroke
1.000 UP
1.000 UL
LTb
1.000 UL
LTb
1090 4353 M
63 0 V
6900 0 R
-63 0 V
stroke
1006 4353 M
[ [(Helvetica) 140.0 0.0 true true 0 ( 0)]
] -46.7 MRshow
1.000 UL
LTb
1090 4616 M
63 0 V
6900 0 R
-63 0 V
stroke
1006 4616 M
[ [(Helvetica) 140.0 0.0 true true 0 ( 1700)]
] -46.7 MRshow
1.000 UL
LTb
1090 4880 M
63 0 V
6900 0 R
-63 0 V
stroke
1006 4880 M
[ [(Helvetica) 140.0 0.0 true true 0 ( 3400)]
] -46.7 MRshow
1.000 UL
LTb
1090 5143 M
63 0 V
6900 0 R
-63 0 V
stroke
1006 5143 M
[ [(Helvetica) 140.0 0.0 true true 0 ( 5100)]
] -46.7 MRshow
1.000 UL
LTb
1090 5407 M
63 0 V
6900 0 R
-63 0 V
stroke
1006 5407 M
[ [(Helvetica) 140.0 0.0 true true 0 ( 6800)]
] -46.7 MRshow
1.000 UL
LTb
1090 4353 M
0 63 V
0 1161 R
0 -63 V
1256 4353 M
0 31 V
0 1193 R
0 -31 V
1422 4353 M
0 31 V
0 1193 R
0 -31 V
1587 4353 M
0 31 V
0 1193 R
0 -31 V
1753 4353 M
0 31 V
0 1193 R
0 -31 V
1919 4353 M
0 31 V
0 1193 R
0 -31 V
2085 4353 M
0 31 V
0 1193 R
0 -31 V
0 -1193 R
0 63 V
0 1161 R
0 -63 V
2251 4353 M
0 31 V
0 1193 R
0 -31 V
2416 4353 M
0 31 V
0 1193 R
0 -31 V
2582 4353 M
0 31 V
0 1193 R
0 -31 V
2748 4353 M
0 31 V
0 1193 R
0 -31 V
2914 4353 M
0 31 V
0 1193 R
0 -31 V
3079 4353 M
0 31 V
0 1193 R
0 -31 V
0 -1193 R
0 63 V
0 1161 R
0 -63 V
3245 4353 M
0 31 V
0 1193 R
0 -31 V
3411 4353 M
0 31 V
0 1193 R
0 -31 V
3577 4353 M
0 31 V
0 1193 R
0 -31 V
3743 4353 M
0 31 V
0 1193 R
0 -31 V
3908 4353 M
0 31 V
0 1193 R
0 -31 V
4074 4353 M
0 31 V
0 1193 R
0 -31 V
0 -1193 R
0 63 V
0 1161 R
0 -63 V
4240 4353 M
0 31 V
0 1193 R
0 -31 V
4406 4353 M
0 31 V
0 1193 R
0 -31 V
4572 4353 M
0 31 V
0 1193 R
0 -31 V
4737 4353 M
0 31 V
0 1193 R
0 -31 V
4903 4353 M
0 31 V
stroke 4903 4384 M
0 1193 R
0 -31 V
5069 4353 M
0 31 V
0 1193 R
0 -31 V
0 -1193 R
0 63 V
0 1161 R
0 -63 V
5235 4353 M
0 31 V
0 1193 R
0 -31 V
5400 4353 M
0 31 V
0 1193 R
0 -31 V
5566 4353 M
0 31 V
0 1193 R
0 -31 V
5732 4353 M
0 31 V
0 1193 R
0 -31 V
5898 4353 M
0 31 V
0 1193 R
0 -31 V
6064 4353 M
0 31 V
0 1193 R
0 -31 V
0 -1193 R
0 63 V
0 1161 R
0 -63 V
6229 4353 M
0 31 V
0 1193 R
0 -31 V
6395 4353 M
0 31 V
0 1193 R
0 -31 V
6561 4353 M
0 31 V
0 1193 R
0 -31 V
6727 4353 M
0 31 V
0 1193 R
0 -31 V
6892 4353 M
0 31 V
0 1193 R
0 -31 V
7058 4353 M
0 31 V
0 1193 R
0 -31 V
0 -1193 R
0 63 V
0 1161 R
0 -63 V
7224 4353 M
0 31 V
0 1193 R
0 -31 V
7390 4353 M
0 31 V
0 1193 R
0 -31 V
7556 4353 M
0 31 V
0 1193 R
0 -31 V
7721 4353 M
0 31 V
0 1193 R
0 -31 V
7887 4353 M
0 31 V
0 1193 R
0 -31 V
8053 4353 M
0 31 V
0 1193 R
0 -31 V
0 -1193 R
0 63 V
0 1161 R
0 -63 V
stroke
1090 5577 N
0 -1224 V
6963 0 V
0 1224 V
-6963 0 V
Z stroke
LCb setrgbcolor
152 4965 M
currentpoint gsave translate -270 rotate 0 0 moveto
[ [(Helvetica) 140.0 0.0 true true 0 (80% Load)]
] -46.7 MCshow
grestore
432 4965 M
currentpoint gsave translate -270 rotate 0 0 moveto
[ [(Helvetica) 140.0 0.0 true true 0 (Job Count)]
] -46.7 MCshow
grestore
LTb
1.000 UP
1.000 UL
LTb
% Begin plot #1
2.000 UL
LT0
1090 4411 M
83 0 V
0 29 V
83 0 V
0 27 V
83 0 V
0 26 V
83 0 V
0 48 V
82 0 V
0 47 V
83 0 V
0 46 V
83 0 V
0 40 V
83 0 V
0 34 V
83 0 V
0 5 V
83 0 V
0 56 V
83 0 V
0 51 V
83 0 V
0 35 V
83 0 V
0 48 V
83 0 V
0 6 V
82 0 V
0 -3 V
83 0 V
0 22 V
83 0 V
0 -2 V
83 0 V
0 14 V
83 0 V
0 32 V
83 0 V
0 6 V
83 0 V
0 27 V
83 0 V
0 10 V
83 0 V
0 13 V
82 0 V
0 35 V
83 0 V
0 13 V
83 0 V
0 42 V
83 0 V
0 6 V
83 0 V
0 34 V
83 0 V
0 13 V
83 0 V
83 0 V
0 -21 V
83 0 V
0 27 V
82 0 V
0 -3 V
83 0 V
0 37 V
83 0 V
0 43 V
83 0 V
0 -43 V
83 0 V
0 -31 V
83 0 V
0 -52 V
83 0 V
0 -52 V
83 0 V
0 -56 V
83 0 V
0 -53 V
83 0 V
0 -37 V
82 0 V
0 -40 V
83 0 V
0 -48 V
83 0 V
0 -36 V
83 0 V
0 -32 V
83 0 V
0 -41 V
83 0 V
0 -23 V
83 0 V
0 -45 V
83 0 V
0 -40 V
83 0 V
0 -8 V
82 0 V
0 -48 V
83 0 V
stroke 5483 4569 M
0 -51 V
83 0 V
0 -54 V
83 0 V
0 -43 V
83 0 V
0 -19 V
83 0 V
0 -44 V
83 0 V
0 -1 V
83 0 V
83 0 V
0 -1 V
82 0 V
0 -1 V
83 0 V
83 0 V
0 -1 V
83 0 V
0 -1 V
83 0 V
83 0 V
83 0 V
83 0 V
% End plot #1
% Begin plot #2
stroke
LT1
1090 4411 M
83 0 V
0 29 V
83 0 V
0 18 V
83 0 V
0 -1 V
83 0 V
0 13 V
82 0 V
0 9 V
83 0 V
0 12 V
83 0 V
0 4 V
83 0 V
0 -3 V
83 0 V
0 -3 V
83 0 V
0 15 V
83 0 V
0 8 V
83 0 V
0 3 V
83 0 V
0 -9 V
83 0 V
0 9 V
82 0 V
0 -14 V
83 0 V
0 -1 V
83 0 V
0 -1 V
83 0 V
0 6 V
83 0 V
0 2 V
83 0 V
0 -11 V
83 0 V
0 5 V
83 0 V
0 3 V
83 0 V
0 20 V
82 0 V
0 -4 V
83 0 V
0 -8 V
83 0 V
0 15 V
83 0 V
0 -2 V
83 0 V
0 9 V
83 0 V
0 -7 V
83 0 V
0 3 V
83 0 V
0 11 V
83 0 V
0 9 V
82 0 V
0 11 V
83 0 V
0 13 V
83 0 V
0 -27 V
83 0 V
0 -78 V
83 0 V
0 -24 V
83 0 V
0 -12 V
83 0 V
0 -8 V
83 0 V
0 -8 V
83 0 V
0 -6 V
83 0 V
0 -6 V
82 0 V
0 -6 V
83 0 V
0 -4 V
83 0 V
0 -3 V
83 0 V
0 -5 V
83 0 V
0 -3 V
83 0 V
0 -4 V
83 0 V
0 -5 V
83 0 V
0 -3 V
83 0 V
0 -3 V
82 0 V
0 -3 V
stroke 5400 4366 M
83 0 V
0 -2 V
83 0 V
0 -2 V
83 0 V
0 -1 V
83 0 V
0 -2 V
83 0 V
0 -1 V
83 0 V
0 -1 V
83 0 V
0 -1 V
83 0 V
0 -1 V
82 0 V
0 -1 V
83 0 V
83 0 V
83 0 V
0 -1 V
83 0 V
83 0 V
83 0 V
83 0 V
% End plot #2
stroke
1.000 UL
LTb
1090 5577 N
0 -1224 V
6963 0 V
0 1224 V
-6963 0 V
Z stroke
1.000 UP
1.000 UL
LTb
1.000 UL
LTb
1090 3128 M
63 0 V
6900 0 R
-63 0 V
stroke
1006 3128 M
[ [(Helvetica) 140.0 0.0 true true 0 ( 0)]
] -46.7 MRshow
1.000 UL
LTb
1090 3392 M
63 0 V
6900 0 R
-63 0 V
stroke
1006 3392 M
[ [(Helvetica) 140.0 0.0 true true 0 ( 1700)]
] -46.7 MRshow
1.000 UL
LTb
1090 3655 M
63 0 V
6900 0 R
-63 0 V
stroke
1006 3655 M
[ [(Helvetica) 140.0 0.0 true true 0 ( 3400)]
] -46.7 MRshow
1.000 UL
LTb
1090 3919 M
63 0 V
6900 0 R
-63 0 V
stroke
1006 3919 M
[ [(Helvetica) 140.0 0.0 true true 0 ( 5100)]
] -46.7 MRshow
1.000 UL
LTb
1090 4182 M
63 0 V
6900 0 R
-63 0 V
stroke
1006 4182 M
[ [(Helvetica) 140.0 0.0 true true 0 ( 6800)]
] -46.7 MRshow
1.000 UL
LTb
1090 3128 M
0 63 V
0 1162 R
0 -63 V
1256 3128 M
0 31 V
0 1194 R
0 -31 V
1422 3128 M
0 31 V
0 1194 R
0 -31 V
1587 3128 M
0 31 V
0 1194 R
0 -31 V
1753 3128 M
0 31 V
0 1194 R
0 -31 V
1919 3128 M
0 31 V
0 1194 R
0 -31 V
2085 3128 M
0 31 V
0 1194 R
0 -31 V
0 -1194 R
0 63 V
0 1162 R
0 -63 V
2251 3128 M
0 31 V
0 1194 R
0 -31 V
2416 3128 M
0 31 V
0 1194 R
0 -31 V
2582 3128 M
0 31 V
0 1194 R
0 -31 V
2748 3128 M
0 31 V
0 1194 R
0 -31 V
2914 3128 M
0 31 V
0 1194 R
0 -31 V
3079 3128 M
0 31 V
0 1194 R
0 -31 V
0 -1194 R
0 63 V
0 1162 R
0 -63 V
3245 3128 M
0 31 V
0 1194 R
0 -31 V
3411 3128 M
0 31 V
0 1194 R
0 -31 V
3577 3128 M
0 31 V
0 1194 R
0 -31 V
3743 3128 M
0 31 V
0 1194 R
0 -31 V
3908 3128 M
0 31 V
0 1194 R
0 -31 V
4074 3128 M
0 31 V
0 1194 R
0 -31 V
0 -1194 R
0 63 V
0 1162 R
0 -63 V
4240 3128 M
0 31 V
0 1194 R
0 -31 V
4406 3128 M
0 31 V
0 1194 R
0 -31 V
4572 3128 M
0 31 V
0 1194 R
0 -31 V
4737 3128 M
0 31 V
0 1194 R
0 -31 V
4903 3128 M
0 31 V
stroke 4903 3159 M
0 1194 R
0 -31 V
5069 3128 M
0 31 V
0 1194 R
0 -31 V
0 -1194 R
0 63 V
0 1162 R
0 -63 V
5235 3128 M
0 31 V
0 1194 R
0 -31 V
5400 3128 M
0 31 V
0 1194 R
0 -31 V
5566 3128 M
0 31 V
0 1194 R
0 -31 V
5732 3128 M
0 31 V
0 1194 R
0 -31 V
5898 3128 M
0 31 V
0 1194 R
0 -31 V
6064 3128 M
0 31 V
0 1194 R
0 -31 V
0 -1194 R
0 63 V
0 1162 R
0 -63 V
6229 3128 M
0 31 V
0 1194 R
0 -31 V
6395 3128 M
0 31 V
0 1194 R
0 -31 V
6561 3128 M
0 31 V
0 1194 R
0 -31 V
6727 3128 M
0 31 V
0 1194 R
0 -31 V
6892 3128 M
0 31 V
0 1194 R
0 -31 V
7058 3128 M
0 31 V
0 1194 R
0 -31 V
0 -1194 R
0 63 V
0 1162 R
0 -63 V
7224 3128 M
0 31 V
0 1194 R
0 -31 V
7390 3128 M
0 31 V
0 1194 R
0 -31 V
7556 3128 M
0 31 V
0 1194 R
0 -31 V
7721 3128 M
0 31 V
0 1194 R
0 -31 V
7887 3128 M
0 31 V
0 1194 R
0 -31 V
8053 3128 M
0 31 V
0 1194 R
0 -31 V
0 -1194 R
0 63 V
0 1162 R
0 -63 V
stroke
1090 4353 N
0 -1225 V
6963 0 V
0 1225 V
-6963 0 V
Z stroke
LCb setrgbcolor
152 3740 M
currentpoint gsave translate -270 rotate 0 0 moveto
[ [(Helvetica) 140.0 0.0 true true 0 (60% Load)]
] -46.7 MCshow
grestore
432 3740 M
currentpoint gsave translate -270 rotate 0 0 moveto
[ [(Helvetica) 140.0 0.0 true true 0 (Job Count)]
] -46.7 MCshow
grestore
LTb
1.000 UP
1.000 UL
LTb
% Begin plot #1
2.000 UL
LT0
1090 3167 M
83 0 V
0 19 V
83 0 V
0 7 V
83 0 V
0 16 V
83 0 V
0 19 V
82 0 V
0 21 V
83 0 V
0 30 V
83 0 V
0 32 V
83 0 V
0 33 V
83 0 V
0 15 V
83 0 V
0 25 V
83 0 V
0 28 V
83 0 V
0 1 V
83 0 V
0 -18 V
83 0 V
0 37 V
82 0 V
0 14 V
83 0 V
0 6 V
83 0 V
83 0 V
0 30 V
83 0 V
0 14 V
83 0 V
0 -37 V
83 0 V
0 -12 V
83 0 V
0 3 V
83 0 V
0 -4 V
82 0 V
0 -3 V
83 0 V
0 -3 V
83 0 V
0 -9 V
83 0 V
0 25 V
83 0 V
0 18 V
83 0 V
0 6 V
83 0 V
0 -6 V
83 0 V
0 -18 V
83 0 V
0 8 V
82 0 V
0 14 V
83 0 V
0 -10 V
83 0 V
0 25 V
83 0 V
0 -40 V
83 0 V
0 -47 V
83 0 V
0 -36 V
83 0 V
0 -58 V
83 0 V
0 -37 V
83 0 V
0 -36 V
83 0 V
0 -21 V
82 0 V
0 -13 V
83 0 V
0 -31 V
83 0 V
0 -17 V
83 0 V
0 -21 V
83 0 V
0 -2 V
83 0 V
0 -2 V
83 0 V
0 -1 V
83 0 V
0 -1 V
83 0 V
0 -1 V
82 0 V
0 -1 V
83 0 V
stroke 5483 3128 M
% End plot #1
% Begin plot #2
stroke
LT1
1090 3167 M
83 0 V
0 19 V
83 0 V
0 7 V
83 0 V
0 11 V
83 0 V
0 8 V
82 0 V
0 -4 V
83 0 V
0 4 V
83 0 V
0 13 V
83 0 V
0 9 V
83 0 V
0 -14 V
83 0 V
0 5 V
83 0 V
0 10 V
83 0 V
0 -12 V
83 0 V
0 3 V
83 0 V
0 12 V
82 0 V
0 -5 V
83 0 V
0 4 V
83 0 V
0 -3 V
83 0 V
0 -8 V
83 0 V
0 15 V
83 0 V
0 -17 V
83 0 V
0 3 V
83 0 V
0 3 V
83 0 V
0 4 V
82 0 V
0 -6 V
83 0 V
0 5 V
83 0 V
0 20 V
83 0 V
0 -4 V
83 0 V
0 6 V
83 0 V
0 -16 V
83 0 V
0 -4 V
83 0 V
0 -7 V
83 0 V
0 11 V
82 0 V
0 -1 V
83 0 V
0 -5 V
83 0 V
0 7 V
83 0 V
0 -46 V
83 0 V
0 -15 V
83 0 V
0 -9 V
83 0 V
0 -8 V
83 0 V
0 -7 V
83 0 V
0 -6 V
83 0 V
0 -4 V
82 0 V
0 -3 V
83 0 V
0 -2 V
83 0 V
0 -2 V
83 0 V
0 -3 V
83 0 V
0 -1 V
83 0 V
0 -2 V
83 0 V
0 -1 V
83 0 V
0 -1 V
83 0 V
0 -1 V
82 0 V
83 0 V
stroke 5483 3129 M
0 -1 V
% End plot #2
stroke
1.000 UL
LTb
1090 4353 N
0 -1225 V
6963 0 V
0 1225 V
-6963 0 V
Z stroke
1.000 UP
1.000 UL
LTb
1.000 UL
LTb
1090 1904 M
63 0 V
6900 0 R
-63 0 V
stroke
1006 1904 M
[ [(Helvetica) 140.0 0.0 true true 0 ( 0)]
] -46.7 MRshow
1.000 UL
LTb
1090 2167 M
63 0 V
6900 0 R
-63 0 V
stroke
1006 2167 M
[ [(Helvetica) 140.0 0.0 true true 0 ( 1700)]
] -46.7 MRshow
1.000 UL
LTb
1090 2431 M
63 0 V
6900 0 R
-63 0 V
stroke
1006 2431 M
[ [(Helvetica) 140.0 0.0 true true 0 ( 3400)]
] -46.7 MRshow
1.000 UL
LTb
1090 2694 M
63 0 V
6900 0 R
-63 0 V
stroke
1006 2694 M
[ [(Helvetica) 140.0 0.0 true true 0 ( 5100)]
] -46.7 MRshow
1.000 UL
LTb
1090 2958 M
63 0 V
6900 0 R
-63 0 V
stroke
1006 2958 M
[ [(Helvetica) 140.0 0.0 true true 0 ( 6800)]
] -46.7 MRshow
1.000 UL
LTb
1090 1904 M
0 63 V
0 1161 R
0 -63 V
1256 1904 M
0 31 V
0 1193 R
0 -31 V
1422 1904 M
0 31 V
0 1193 R
0 -31 V
1587 1904 M
0 31 V
0 1193 R
0 -31 V
1753 1904 M
0 31 V
0 1193 R
0 -31 V
1919 1904 M
0 31 V
0 1193 R
0 -31 V
2085 1904 M
0 31 V
0 1193 R
0 -31 V
0 -1193 R
0 63 V
0 1161 R
0 -63 V
2251 1904 M
0 31 V
0 1193 R
0 -31 V
2416 1904 M
0 31 V
0 1193 R
0 -31 V
2582 1904 M
0 31 V
0 1193 R
0 -31 V
2748 1904 M
0 31 V
0 1193 R
0 -31 V
2914 1904 M
0 31 V
0 1193 R
0 -31 V
3079 1904 M
0 31 V
0 1193 R
0 -31 V
0 -1193 R
0 63 V
0 1161 R
0 -63 V
3245 1904 M
0 31 V
0 1193 R
0 -31 V
3411 1904 M
0 31 V
0 1193 R
0 -31 V
3577 1904 M
0 31 V
0 1193 R
0 -31 V
3743 1904 M
0 31 V
0 1193 R
0 -31 V
3908 1904 M
0 31 V
0 1193 R
0 -31 V
4074 1904 M
0 31 V
0 1193 R
0 -31 V
0 -1193 R
0 63 V
0 1161 R
0 -63 V
4240 1904 M
0 31 V
0 1193 R
0 -31 V
4406 1904 M
0 31 V
0 1193 R
0 -31 V
4572 1904 M
0 31 V
0 1193 R
0 -31 V
4737 1904 M
0 31 V
0 1193 R
0 -31 V
4903 1904 M
0 31 V
stroke 4903 1935 M
0 1193 R
0 -31 V
5069 1904 M
0 31 V
0 1193 R
0 -31 V
0 -1193 R
0 63 V
0 1161 R
0 -63 V
5235 1904 M
0 31 V
0 1193 R
0 -31 V
5400 1904 M
0 31 V
0 1193 R
0 -31 V
5566 1904 M
0 31 V
0 1193 R
0 -31 V
5732 1904 M
0 31 V
0 1193 R
0 -31 V
5898 1904 M
0 31 V
0 1193 R
0 -31 V
6064 1904 M
0 31 V
0 1193 R
0 -31 V
0 -1193 R
0 63 V
0 1161 R
0 -63 V
6229 1904 M
0 31 V
0 1193 R
0 -31 V
6395 1904 M
0 31 V
0 1193 R
0 -31 V
6561 1904 M
0 31 V
0 1193 R
0 -31 V
6727 1904 M
0 31 V
0 1193 R
0 -31 V
6892 1904 M
0 31 V
0 1193 R
0 -31 V
7058 1904 M
0 31 V
0 1193 R
0 -31 V
0 -1193 R
0 63 V
0 1161 R
0 -63 V
7224 1904 M
0 31 V
0 1193 R
0 -31 V
7390 1904 M
0 31 V
0 1193 R
0 -31 V
7556 1904 M
0 31 V
0 1193 R
0 -31 V
7721 1904 M
0 31 V
0 1193 R
0 -31 V
7887 1904 M
0 31 V
0 1193 R
0 -31 V
8053 1904 M
0 31 V
0 1193 R
0 -31 V
0 -1193 R
0 63 V
0 1161 R
0 -63 V
stroke
1090 3128 N
0 -1224 V
6963 0 V
0 1224 V
-6963 0 V
Z stroke
LCb setrgbcolor
152 2516 M
currentpoint gsave translate -270 rotate 0 0 moveto
[ [(Helvetica) 140.0 0.0 true true 0 (40% Load)]
] -46.7 MCshow
grestore
432 2516 M
currentpoint gsave translate -270 rotate 0 0 moveto
[ [(Helvetica) 140.0 0.0 true true 0 (Job Count)]
] -46.7 MCshow
grestore
LTb
1.000 UP
1.000 UL
LTb
% Begin plot #1
2.000 UL
LT0
1090 1934 M
83 0 V
0 7 V
83 0 V
0 10 V
83 0 V
0 2 V
83 0 V
0 15 V
82 0 V
0 11 V
83 0 V
0 19 V
83 0 V
0 8 V
83 0 V
0 19 V
83 0 V
0 17 V
83 0 V
0 -3 V
83 0 V
0 12 V
83 0 V
0 17 V
83 0 V
0 -6 V
83 0 V
0 12 V
82 0 V
0 4 V
83 0 V
0 21 V
83 0 V
0 6 V
83 0 V
0 6 V
83 0 V
0 16 V
83 0 V
0 -11 V
83 0 V
0 -11 V
83 0 V
0 -21 V
83 0 V
0 5 V
82 0 V
0 -3 V
83 0 V
0 -32 V
83 0 V
0 -13 V
83 0 V
0 -22 V
83 0 V
0 -4 V
83 0 V
0 17 V
83 0 V
0 6 V
83 0 V
0 9 V
83 0 V
0 5 V
82 0 V
0 9 V
83 0 V
0 6 V
83 0 V
0 10 V
83 0 V
0 -36 V
83 0 V
0 -4 V
83 0 V
0 -30 V
83 0 V
0 -17 V
83 0 V
0 -20 V
83 0 V
0 -17 V
83 0 V
0 -36 V
82 0 V
0 -6 V
83 0 V
0 -2 V
83 0 V
83 0 V
0 -2 V
83 0 V
83 0 V
0 -1 V
83 0 V
83 0 V
83 0 V
0 -1 V
82 0 V
83 0 V
83 0 V
83 0 V
83 0 V
0 -1 V
stroke 5732 1904 M
83 0 V
83 0 V
83 0 V
83 0 V
82 0 V
83 0 V
% End plot #1
% Begin plot #2
stroke
LT1
1090 1934 M
83 0 V
0 7 V
83 0 V
0 10 V
83 0 V
0 2 V
83 0 V
0 15 V
82 0 V
0 -2 V
83 0 V
0 6 V
83 0 V
0 -2 V
83 0 V
0 2 V
83 0 V
0 17 V
83 0 V
0 -3 V
83 0 V
0 -5 V
83 0 V
0 11 V
83 0 V
0 -10 V
83 0 V
0 3 V
82 0 V
0 -12 V
83 0 V
0 6 V
83 0 V
0 -6 V
83 0 V
0 4 V
83 0 V
0 3 V
83 0 V
0 -10 V
83 0 V
0 -1 V
83 0 V
0 2 V
83 0 V
0 -9 V
82 0 V
0 6 V
83 0 V
0 10 V
83 0 V
0 -3 V
83 0 V
0 -9 V
83 0 V
0 2 V
83 0 V
0 12 V
83 0 V
0 -6 V
83 0 V
0 -2 V
83 0 V
0 -2 V
82 0 V
0 3 V
83 0 V
0 -10 V
83 0 V
0 13 V
83 0 V
0 -34 V
83 0 V
0 -11 V
83 0 V
0 -7 V
83 0 V
0 -3 V
83 0 V
0 -4 V
83 0 V
0 -2 V
83 0 V
0 -2 V
82 0 V
0 -2 V
83 0 V
0 -2 V
83 0 V
83 0 V
0 -2 V
83 0 V
83 0 V
0 -1 V
83 0 V
83 0 V
83 0 V
0 -1 V
82 0 V
83 0 V
83 0 V
83 0 V
83 0 V
0 -1 V
stroke 5732 1904 M
83 0 V
83 0 V
83 0 V
83 0 V
82 0 V
83 0 V
% End plot #2
stroke
1.000 UL
LTb
1090 3128 N
0 -1224 V
6963 0 V
0 1224 V
-6963 0 V
Z stroke
1.000 UP
1.000 UL
LTb
1.000 UL
LTb
1090 728 M
63 0 V
6900 0 R
-63 0 V
stroke
1006 728 M
[ [(Helvetica) 140.0 0.0 true true 0 ( 0)]
] -46.7 MRshow
1.000 UL
LTb
1090 981 M
63 0 V
6900 0 R
-63 0 V
stroke
1006 981 M
[ [(Helvetica) 140.0 0.0 true true 0 ( 1700)]
] -46.7 MRshow
1.000 UL
LTb
1090 1234 M
63 0 V
6900 0 R
-63 0 V
stroke
1006 1234 M
[ [(Helvetica) 140.0 0.0 true true 0 ( 3400)]
] -46.7 MRshow
1.000 UL
LTb
1090 1487 M
63 0 V
6900 0 R
-63 0 V
stroke
1006 1487 M
[ [(Helvetica) 140.0 0.0 true true 0 ( 5100)]
] -46.7 MRshow
1.000 UL
LTb
1090 1740 M
63 0 V
6900 0 R
-63 0 V
stroke
1006 1740 M
[ [(Helvetica) 140.0 0.0 true true 0 ( 6800)]
] -46.7 MRshow
1.000 UL
LTb
1090 728 M
0 63 V
0 1113 R
0 -63 V
stroke
1090 588 M
[ [(Helvetica) 140.0 0.0 true true 0 ( 0)]
] -46.7 MCshow
1.000 UL
LTb
1256 728 M
0 31 V
0 1145 R
0 -31 V
1422 728 M
0 31 V
0 1145 R
0 -31 V
1587 728 M
0 31 V
0 1145 R
0 -31 V
1753 728 M
0 31 V
0 1145 R
0 -31 V
1919 728 M
0 31 V
0 1145 R
0 -31 V
2085 728 M
0 31 V
0 1145 R
0 -31 V
0 -1145 R
0 63 V
0 1113 R
0 -63 V
stroke
2085 588 M
[ [(Helvetica) 140.0 0.0 true true 0 ( 2)]
] -46.7 MCshow
1.000 UL
LTb
2251 728 M
0 31 V
0 1145 R
0 -31 V
2416 728 M
0 31 V
0 1145 R
0 -31 V
2582 728 M
0 31 V
0 1145 R
0 -31 V
2748 728 M
0 31 V
0 1145 R
0 -31 V
2914 728 M
0 31 V
0 1145 R
0 -31 V
3079 728 M
0 31 V
0 1145 R
0 -31 V
0 -1145 R
0 63 V
0 1113 R
0 -63 V
stroke
3079 588 M
[ [(Helvetica) 140.0 0.0 true true 0 ( 4)]
] -46.7 MCshow
1.000 UL
LTb
3245 728 M
0 31 V
0 1145 R
0 -31 V
3411 728 M
0 31 V
0 1145 R
0 -31 V
3577 728 M
0 31 V
0 1145 R
0 -31 V
3743 728 M
0 31 V
0 1145 R
0 -31 V
3908 728 M
0 31 V
0 1145 R
0 -31 V
4074 728 M
0 31 V
0 1145 R
0 -31 V
0 -1145 R
0 63 V
0 1113 R
0 -63 V
stroke
4074 588 M
[ [(Helvetica) 140.0 0.0 true true 0 ( 6)]
] -46.7 MCshow
1.000 UL
LTb
4240 728 M
0 31 V
0 1145 R
0 -31 V
4406 728 M
0 31 V
0 1145 R
0 -31 V
4572 728 M
0 31 V
0 1145 R
0 -31 V
4737 728 M
0 31 V
0 1145 R
0 -31 V
4903 728 M
0 31 V
0 1145 R
0 -31 V
5069 728 M
0 31 V
0 1145 R
0 -31 V
0 -1145 R
0 63 V
0 1113 R
0 -63 V
stroke
5069 588 M
[ [(Helvetica) 140.0 0.0 true true 0 ( 8)]
] -46.7 MCshow
1.000 UL
LTb
5235 728 M
0 31 V
0 1145 R
0 -31 V
5400 728 M
0 31 V
0 1145 R
0 -31 V
5566 728 M
0 31 V
0 1145 R
0 -31 V
5732 728 M
0 31 V
0 1145 R
0 -31 V
5898 728 M
0 31 V
0 1145 R
0 -31 V
6064 728 M
0 31 V
0 1145 R
0 -31 V
0 -1145 R
0 63 V
0 1113 R
0 -63 V
stroke
6064 588 M
[ [(Helvetica) 140.0 0.0 true true 0 ( 10)]
] -46.7 MCshow
1.000 UL
LTb
6229 728 M
0 31 V
0 1145 R
0 -31 V
6395 728 M
0 31 V
0 1145 R
0 -31 V
6561 728 M
0 31 V
0 1145 R
0 -31 V
6727 728 M
0 31 V
0 1145 R
0 -31 V
6892 728 M
0 31 V
0 1145 R
0 -31 V
7058 728 M
0 31 V
0 1145 R
0 -31 V
0 -1145 R
0 63 V
0 1113 R
0 -63 V
stroke
7058 588 M
[ [(Helvetica) 140.0 0.0 true true 0 ( 12)]
] -46.7 MCshow
1.000 UL
LTb
7224 728 M
0 31 V
0 1145 R
0 -31 V
7390 728 M
0 31 V
0 1145 R
0 -31 V
7556 728 M
0 31 V
0 1145 R
0 -31 V
7721 728 M
0 31 V
0 1145 R
0 -31 V
7887 728 M
0 31 V
0 1145 R
0 -31 V
8053 728 M
0 31 V
0 1145 R
0 -31 V
0 -1145 R
0 63 V
0 1113 R
0 -63 V
stroke
8053 588 M
[ [(Helvetica) 140.0 0.0 true true 0 ( 14)]
] -46.7 MCshow
1.000 UL
LTb
1.000 UL
LTb
1090 1904 N
0 -1176 V
6963 0 V
0 1176 V
-6963 0 V
Z stroke
LCb setrgbcolor
152 1316 M
currentpoint gsave translate -270 rotate 0 0 moveto
[ [(Helvetica) 140.0 0.0 true true 0 (30% Load)]
] -46.7 MCshow
grestore
432 1316 M
currentpoint gsave translate -270 rotate 0 0 moveto
[ [(Helvetica) 140.0 0.0 true true 0 (Job Count)]
] -46.7 MCshow
grestore
LTb
LCb setrgbcolor
4571 378 M
[ [(Helvetica) 140.0 0.0 true true 0 (Time since workload start \(hours\))]
] -46.7 MCshow
LTb
1.000 UP
1.000 UL
LTb
% Begin plot #1
2.000 UL
LT0
LCb setrgbcolor
4004 133 M
[ [(Helvetica) 140.0 0.0 true true 0 (Hadoop Default Scheduler)]
] -46.7 MRshow
LT0
4088 133 M
399 0 V
1090 748 M
83 0 V
0 7 V
83 0 V
0 10 V
83 0 V
0 1 V
83 0 V
0 -1 V
82 0 V
0 11 V
83 0 V
0 -3 V
83 0 V
0 18 V
83 0 V
0 2 V
83 0 V
0 7 V
83 0 V
0 -5 V
83 0 V
0 10 V
83 0 V
0 15 V
83 0 V
0 1 V
83 0 V
0 12 V
82 0 V
0 4 V
83 0 V
0 4 V
83 0 V
0 -4 V
83 0 V
0 3 V
83 0 V
0 8 V
83 0 V
0 8 V
83 0 V
0 -9 V
83 0 V
0 -11 V
83 0 V
0 -8 V
82 0 V
0 -3 V
83 0 V
0 1 V
83 0 V
0 3 V
83 0 V
0 5 V
83 0 V
0 8 V
83 0 V
0 6 V
83 0 V
0 7 V
83 0 V
0 1 V
83 0 V
82 0 V
0 6 V
83 0 V
0 3 V
83 0 V
0 3 V
83 0 V
0 -9 V
83 0 V
0 -41 V
83 0 V
0 -21 V
83 0 V
0 -29 V
83 0 V
0 -13 V
83 0 V
0 -19 V
83 0 V
0 -2 V
82 0 V
0 -2 V
83 0 V
0 -1 V
83 0 V
0 -1 V
83 0 V
83 0 V
0 -1 V
83 0 V
83 0 V
0 -1 V
83 0 V
83 0 V
82 0 V
83 0 V
83 0 V
83 0 V
83 0 V
stroke 5732 728 M
83 0 V
83 0 V
83 0 V
83 0 V
82 0 V
% End plot #1
% Begin plot #2
stroke
LT1
LCb setrgbcolor
6587 133 M
[ [(Helvetica) 140.0 0.0 true true 0 (Fair Scheduler)]
] -46.7 MRshow
LT1
6671 133 M
399 0 V
1090 748 M
83 0 V
0 7 V
83 0 V
0 10 V
83 0 V
0 1 V
83 0 V
0 -1 V
82 0 V
0 11 V
83 0 V
0 -5 V
83 0 V
0 12 V
83 0 V
0 -5 V
83 0 V
83 0 V
0 -2 V
83 0 V
0 2 V
83 0 V
0 6 V
83 0 V
0 -6 V
83 0 V
82 0 V
0 5 V
83 0 V
0 -2 V
83 0 V
0 -10 V
83 0 V
0 3 V
83 0 V
83 0 V
0 1 V
83 0 V
0 1 V
83 0 V
0 11 V
83 0 V
0 -8 V
82 0 V
0 -1 V
83 0 V
83 0 V
83 0 V
0 -4 V
83 0 V
0 8 V
83 0 V
0 -1 V
83 0 V
0 -1 V
83 0 V
0 3 V
83 0 V
82 0 V
0 -2 V
83 0 V
0 2 V
83 0 V
0 -6 V
83 0 V
0 -19 V
83 0 V
0 -8 V
83 0 V
0 -5 V
83 0 V
0 -4 V
83 0 V
0 -3 V
83 0 V
0 -3 V
83 0 V
0 -1 V
82 0 V
0 -2 V
83 0 V
0 -1 V
83 0 V
0 -1 V
83 0 V
83 0 V
0 -1 V
83 0 V
83 0 V
0 -1 V
83 0 V
83 0 V
82 0 V
83 0 V
83 0 V
83 0 V
83 0 V
83 0 V
83 0 V
83 0 V
83 0 V
82 0 V
stroke 6146 728 M
% End plot #2
stroke
1.000 UL
LTb
1090 1904 N
0 -1176 V
6963 0 V
0 1176 V
-6963 0 V
Z stroke
1.000 UP
1.000 UL
LTb
stroke
grestore
end
showpage
%%Trailer
%%DocumentFonts: Helvetica
