#
# Generated On: 2012-01-25T15:46:32.738090
#           By: cwa.analyze.statistics
#      Version: 11.11.23
#       Author: Thomas A. de Ruiter <thomas@de-ruiter.cx>
#
#  Commandline: /home/af10028/bin/cwa analyze
#     Work Dir: /scratch/af10028/var/thesis-project/result/analyses/workload-01h-04944l-0s-fair
#

Value	PDF	CDF
2.0	0.167685517469	0.167693767273
5.0	0.0572041414016	0.224897908675
8.0	0.0385513344058	0.26344924308
11.0	0.0307882687786	0.294237511859
14.0	0.0255413933919	0.319778905251
17.0	0.0220517262715	0.341830631523
20.0	0.0193952893619	0.361225920884
23.0	0.0176298312915	0.378855752176
26.0	0.0152621375242	0.3941178897
29.0	0.014371158685	0.408489048385
32.0	0.0124407045333	0.420929752918
35.0	0.0126304500268	0.433560202945
38.0	0.0114672276533	0.445027430599
41.0	0.0106009982263	0.455628428825
44.0	0.00933052839995	0.464958957225
47.0	0.00927277977148	0.474231736996
50.0	0.00948727467723	0.483719011673
53.0	0.00848079858103	0.492199810255
56.0	0.00801880955327	0.500218619808
59.0	0.00769706719465	0.507915687002
62.0	0.00683908757167	0.514754774574
65.0	0.0068555871798	0.521610361754
68.0	0.00628635069917	0.527896712453
71.0	0.00589860990801	0.533795322361
74.0	0.00658334364559	0.540378666007
77.0	0.00586561069175	0.546244276698
80.0	0.00542012127212	0.551664397971
83.0	0.00542012127212	0.557084519243
86.0	0.00517262715011	0.562257146393
89.0	0.00543662088025	0.567693767273
92.0	0.00508187930537	0.572775646578
95.0	0.00496638204843	0.577742028627
98.0	0.00479313616302	0.58253516479
101.0	0.0044713938044	0.587006558594
104.0	0.00437239615559	0.59137895475
107.0	0.0038939075197	0.59527286227
110.0	0.00370416202615	0.598977024296
113.0	0.00407540320917	0.603052427505
116.0	0.00377016045869	0.606822587964
119.0	0.00362991378955	0.610452501753
122.0	0.00383615889123	0.614288660644
125.0	0.00365466320175	0.617943323846
128.0	0.00326692241059	0.621210246257
131.0	0.00367941261395	0.624889658871
134.0	0.00334942045126	0.628239079322
137.0	0.00299467887638	0.631233758198
140.0	0.00282968279503	0.634063440993
143.0	0.00325042280246	0.637313863796
146.0	0.00289568122757	0.640209545023
149.0	0.00290393103164	0.643113476055
152.0	0.00305242750485	0.64616590356
155.0	0.00268118632182	0.648847089882
158.0	0.00248319102421	0.651330280906
161.0	0.00293693024791	0.654267211154
164.0	0.00260693808522	0.656874149239
167.0	0.00268118632182	0.659555335561
170.0	0.00249969063235	0.662055026193
173.0	0.00244194200388	0.664496968197
176.0	0.00266468671369	0.667161654911
179.0	0.00267293651776	0.669834591428
182.0	0.00205420121272	0.671888792641
185.0	0.00258218867302	0.674470981314
188.0	0.00236769376727	0.676838675081
191.0	0.00205420121272	0.678892876294
194.0	0.00197995297612	0.68087282927
197.0	0.00193870395578	0.682811533226
200.0	0.00192220434765	0.684733737574
203.0	0.00211194984119	0.686845687415
206.0	0.00194695375985	0.688792641175
209.0	0.00212844944933	0.690921090624
212.0	0.00193045415171	0.692851544776
215.0	0.00185620591511	0.694707750691
218.0	0.00187270552324	0.696580456214
221.0	0.00203770160459	0.698618157819
224.0	0.00166646042156	0.70028461824
227.0	0.00171595924597	0.702000577486
230.0	0.0017324588541	0.70373303634
233.0	0.00194695375985	0.7056799901
236.0	0.00164171100936	0.70732170111
239.0	0.00177370787444	0.709095408984
242.0	0.00155096316462	0.710646372149
245.0	0.00153446355649	0.712180835705
248.0	0.00162521140123	0.713806047106
251.0	0.0016334612053	0.715439508312
254.0	0.00146846512395	0.716907973436
257.0	0.00154271336056	0.718450686796
260.0	0.0017572082663	0.720207895062
263.0	0.00156746277276	0.721775357835
266.0	0.00136946747515	0.72314482531
269.0	0.00155096316462	0.724695788475
272.0	0.00136946747515	0.72606525595
275.0	0.00138596708328	0.727451223033
278.0	0.00143546590768	0.728886688941
281.0	0.00132821845481	0.730214907396
284.0	0.00112197335313	0.731336880749
287.0	0.00104772511653	0.732384605866
290.0	0.00126222002227	0.733646825888
293.0	0.00144371571175	0.7350905416
296.0	0.00141896629955	0.736509507899
299.0	0.00131996865074	0.73782947655
302.0	0.00127046982634	0.739099946376
305.0	0.00136946747515	0.740469413851
308.0	0.001105473745	0.741574887596
311.0	0.00103947531246	0.742614362909
314.0	0.00116322237347	0.743777585282
317.0	0.0012044713938	0.744982056676
320.0	0.00122097100194	0.746203027678
323.0	0.00118797178567	0.747390999464
326.0	0.00114672276533	0.748537722229
329.0	0.00121272119787	0.749750443427
332.0	0.0011797219816	0.750930165409
335.0	0.000948727467723	0.751878892876
338.0	0.00113847296127	0.753017365838
341.0	0.00104772511653	0.754065090954
344.0	0.00109722394093	0.755162314895
347.0	0.000965227075857	0.756127541971
350.0	0.0011302231572	0.757257765128
353.0	0.000989976488058	0.758247741616
356.0	0.000890978839253	0.759138720455
359.0	0.000882729035185	0.760021449491
362.0	0.000816730602648	0.760838180093
365.0	0.00106422472466	0.761902404818
368.0	0.001105473745	0.763007878563
371.0	0.00108897413686	0.7640968527
374.0	0.00103122550839	0.765128078208
377.0	0.0010559749206	0.766184053129
380.0	0.000948727467723	0.767132780596
383.0	0.000800230994514	0.767933011591
386.0	0.000940477663655	0.768873489255
389.0	0.000816730602648	0.769690219857
392.0	0.00095697727179	0.770647197129
395.0	0.000775481582312	0.771422678711
398.0	0.000874479231118	0.772297157942
401.0	0.000750732170111	0.773047890113
404.0	0.0010559749206	0.774103865033
407.0	0.000742482366044	0.774846347399
410.0	0.00084148001485	0.775687827414
413.0	0.000923978055521	0.77661180547
416.0	0.000816730602648	0.777428536072
419.0	0.000701233345708	0.778129769418
422.0	0.000750732170111	0.778880501588
425.0	0.000923978055521	0.779804479644
428.0	0.000618735305037	0.780423214949
431.0	0.000824980406715	0.781248195355
434.0	0.000734232561977	0.781982427917
437.0	0.000849729818917	0.782832157736
440.0	0.000866229427051	0.783698387163
443.0	0.000725982757909	0.784424369921
446.0	0.000775481582312	0.785199851504
449.0	0.000808480798581	0.786008332302
452.0	0.000676483933507	0.786684816236
455.0	0.000635234913171	0.787320051149
458.0	0.000692983541641	0.78801303469
461.0	0.00078373138638	0.788796766077
464.0	0.000659984325372	0.789456750402
467.0	0.000577486284701	0.790034236687
470.0	0.000767231778245	0.790801468465
473.0	0.000577486284701	0.79137895475
476.0	0.000593985892835	0.791972940643
479.0	0.00078373138638	0.792756672029
482.0	0.000593985892835	0.793350657922
485.0	0.000618735305037	0.793969393227
488.0	0.000478488635895	0.794447881863
491.0	0.000569236480634	0.795017118343
494.0	0.000692983541641	0.795710101885
497.0	0.000742482366044	0.796452584251
500.0	0.000676483933507	0.797129068185
503.0	0.000948727467723	0.798077795652
506.0	0.000626985109104	0.798704780761
509.0	0.000585736088768	0.79929051685
512.0	0.000478488635895	0.799769005486
515.0	0.000709483149775	0.800478488636
518.0	0.000709483149775	0.801187971786
521.0	0.000618735305037	0.801806707091
524.0	0.000635234913171	0.802441942004
527.0	0.000544487068432	0.802986429072
530.0	0.000635234913171	0.803621663985
533.0	0.000585736088768	0.804207400074
536.0	0.000585736088768	0.804793136163
539.0	0.000536237264365	0.805329373427
542.0	0.000618735305037	0.805948108732
545.0	0.000643484717238	0.80659159345
548.0	0.000569236480634	0.80716082993
551.0	0.000940477663655	0.808101307594
554.0	0.000461989027761	0.808563296622
557.0	0.000453739223693	0.809017035845
560.0	0.000577486284701	0.80959452213
563.0	0.000428989811492	0.810023511942
566.0	0.000527987460298	0.810551499402
569.0	0.000536237264365	0.811087736666
572.0	0.000709483149775	0.811797219816
575.0	0.000428989811492	0.812226209628
578.0	0.000461989027761	0.812688198655
581.0	0.000478488635895	0.813166687291
584.0	0.000412490203358	0.813579177495
587.0	0.000437239615559	0.81401641711
590.0	0.000404240399291	0.814420657509
593.0	0.000329992162686	0.814750649672
596.0	0.000437239615559	0.815187889288
599.0	0.000445489419626	0.815633378707
602.0	0.000428989811492	0.816062368519
605.0	0.000577486284701	0.816639854803
608.0	0.000692983541641	0.817332838345
611.0	0.000544487068432	0.817877325414
614.0	0.000676483933507	0.818553809347
617.0	0.000470238831828	0.819024048179
620.0	0.000387740791156	0.81941178897
623.0	0.000445489419626	0.81985727839
626.0	0.000445489419626	0.820302767809
629.0	0.000511487852164	0.820814255661
632.0	0.000486738439962	0.821300994101
635.0	0.000428989811492	0.821729983913
638.0	0.000387740791156	0.822117724704
641.0	0.000329992162686	0.822447716867
644.0	0.000445489419626	0.822893206286
647.0	0.000412490203358	0.82330569649
650.0	0.000428989811492	0.823734686301
653.0	0.000536237264365	0.824270923566
656.0	0.000379490987089	0.824650414553
659.0	0.000461989027761	0.82511240358
662.0	0.000428989811492	0.825541393392
665.0	0.000486738439962	0.826028131832
668.0	0.000412490203358	0.826440622035
671.0	0.00028874314235	0.826729365178
674.0	0.000379490987089	0.827108856165
677.0	0.000486738439962	0.827595594605
680.0	0.000486738439962	0.828082333045
683.0	0.000329992162686	0.828412325207
686.0	0.00034649177082	0.828758816978
689.0	0.000305242750485	0.829064059729
692.0	0.000305242750485	0.829369302479
695.0	0.000329992162686	0.829699294642
698.0	0.000395990595223	0.830095285237
701.0	0.000354741574888	0.830450026812
704.0	0.000354741574888	0.830804768387
707.0	0.000255743926082	0.831060512313
710.0	0.000354741574888	0.831415253888
713.0	0.000461989027761	0.831877242915
716.0	0.000569236480634	0.832446479396
719.0	0.000453739223693	0.83290021862
722.0	0.000461989027761	0.833362207648
725.0	0.000313492554552	0.833675700202
728.0	0.000321742358619	0.833997442561
731.0	0.000321742358619	0.834319184919
734.0	0.000404240399291	0.834723425319
737.0	0.000494988244029	0.835218413563
740.0	0.000461989027761	0.83568040259
743.0	0.000387740791156	0.836068143382
746.0	0.000214494905746	0.836282638287
749.0	0.000305242750485	0.836587881038
752.0	0.000470238831828	0.83705811987
755.0	0.000404240399291	0.837462360269
758.0	0.000280493338283	0.837742853607
761.0	0.00028874314235	0.83803159675
764.0	0.000296992946418	0.838328589696
767.0	0.000255743926082	0.838584333622
770.0	0.000305242750485	0.838889576373
773.0	0.000338241966753	0.839227818339
776.0	0.000404240399291	0.839632058739
779.0	0.000420740007425	0.840052798746
782.0	0.000305242750485	0.840358041497
785.0	0.000263993730149	0.840622035227
788.0	0.000354741574888	0.840976776802
791.0	0.00034649177082	0.841323268572
794.0	0.00095697727179	0.842280245844
797.0	0.000461989027761	0.842742234872
800.0	0.000263993730149	0.843006228602
803.0	0.000222744709813	0.843228973312
806.0	0.000181495689477	0.843410469001
809.0	0.000214494905746	0.843624963907
812.0	0.00028874314235	0.843913707049
815.0	0.000313492554552	0.844227199604
818.0	0.000272243534216	0.844499443138
821.0	0.000280493338283	0.844779936477
824.0	0.000206245101679	0.844986181578
827.0	0.000156746277276	0.845142927855
830.0	0.000239244317947	0.845382172173
833.0	0.00034649177082	0.845728663944
836.0	0.000280493338283	0.846009157283
839.0	0.000354741574888	0.846363898857
842.0	0.000197995297612	0.846561894155
845.0	0.000321742358619	0.846883636514
848.0	0.000404240399291	0.847287876913
851.0	0.000338241966753	0.84762611888
854.0	0.000478488635895	0.848104607516
857.0	0.000371241183022	0.848475848699
860.0	0.00028874314235	0.848764591841
863.0	0.000164996081343	0.848929587922
866.0	0.000379490987089	0.849309078909
869.0	0.000338241966753	0.849647320876
872.0	0.000379490987089	0.850026811863
875.0	0.000255743926082	0.850282555789
878.0	0.000255743926082	0.850538299715
881.0	0.000255743926082	0.850794043641
884.0	0.000247494122015	0.851041537763
887.0	0.000305242750485	0.851346780514
890.0	0.000272243534216	0.851619024048
893.0	0.000239244317947	0.851858268366
896.0	0.000214494905746	0.852072763272
899.0	0.000181495689477	0.852254258961
902.0	0.000247494122015	0.852501753083
905.0	0.000247494122015	0.852749247205
908.0	0.000263993730149	0.853013240936
911.0	0.00023099451388	0.853244235449
914.0	0.000181495689477	0.853425731139
917.0	0.000255743926082	0.853681475065
920.0	0.000247494122015	0.853928969187
923.0	0.000329992162686	0.85425896135
926.0	0.000214494905746	0.854473456255
929.0	0.000189745493545	0.854663201749
932.0	0.000453739223693	0.855116940973
935.0	0.000420740007425	0.85553768098
938.0	0.000247494122015	0.855785175102
941.0	0.00017324588541	0.855958420988
944.0	0.000313492554552	0.856271913542
947.0	0.000280493338283	0.85655240688
950.0	0.000189745493545	0.856742152374
953.0	0.000610485500969	0.857352637875
956.0	0.000775481582312	0.858128119457
959.0	0.000164996081343	0.858293115539
962.0	0.000263993730149	0.858557109269
965.0	0.000247494122015	0.858804603391
968.0	0.00023099451388	0.859035597905
971.0	0.000255743926082	0.859291341831
974.0	0.000189745493545	0.859481087324
977.0	0.000255743926082	0.85973683125
980.0	0.000214494905746	0.859951326156
983.0	0.000272243534216	0.86022356969
986.0	0.00017324588541	0.860396815576
989.0	0.000197995297612	0.860594810873
992.0	0.000272243534216	0.860867054407
995.0	0.000123747061007	0.860990801468
998.0	0.000107247452873	0.861098048921
1001.0	0.000412490203358	0.861510539125
1004.0	0.00017324588541	0.86168378501
1007.0	0.00017324588541	0.861857030896
1010.0	0.000313492554552	0.86217052345
1013.0	0.00023099451388	0.862401517964
1016.0	0.000148496473209	0.862550014437
1019.0	0.000140246669142	0.862690261106
1022.0	9.89976488058e-05	0.862789258755
1025.0	0.000131996865074	0.86292125562
1028.0	0.000107247452873	0.863028503073
1031.0	0.000140246669142	0.863168749742
1034.0	0.000148496473209	0.863317246215
1037.0	0.000206245101679	0.863523491317
1040.0	0.000140246669142	0.863663737986
1043.0	0.000222744709813	0.863886482696
1046.0	0.000684733737574	0.864571216434
1049.0	0.000222744709813	0.864793961143
1052.0	0.000214494905746	0.865008456049
1055.0	0.000181495689477	0.865189951739
1058.0	0.000123747061007	0.8653136988
1061.0	0.000197995297612	0.865511694097
1064.0	0.00017324588541	0.865684939983
1067.0	0.000131996865074	0.865816936848
1070.0	0.000255743926082	0.866072680774
1073.0	0.000181495689477	0.866254176463
1076.0	0.000206245101679	0.866460421565
1079.0	0.00017324588541	0.86663366745
1082.0	0.000206245101679	0.866839912552
1085.0	0.00011549725694	0.866955409809
1088.0	0.000140246669142	0.867095656478
1091.0	0.000164996081343	0.86726065256
1094.0	0.00011549725694	0.867376149816
1097.0	0.000123747061007	0.867499896877
1100.0	8.24980406715e-05	0.867582394918
1103.0	0.000181495689477	0.867763890608
1106.0	0.000156746277276	0.867920636885
1109.0	0.000181495689477	0.868102132574
1112.0	0.00023099451388	0.868333127088
1115.0	0.00011549725694	0.868448624345
1118.0	0.000156746277276	0.868605370622
1121.0	0.000131996865074	0.868737367488
1124.0	0.000181495689477	0.868918863177
1127.0	0.000148496473209	0.86906735965
1130.0	0.000164996081343	0.869232355732
1133.0	0.000272243534216	0.869504599266
1136.0	0.000354741574888	0.869859340841
1139.0	0.000107247452873	0.869966588294
1142.0	0.000123747061007	0.870090335355
1145.0	0.00011549725694	0.870205832611
1148.0	0.000181495689477	0.870387328301
1151.0	0.00011549725694	0.870502825558
1154.0	0.000206245101679	0.87070907066
1157.0	0.000214494905746	0.870923565565
1160.0	0.00011549725694	0.871039062822
1163.0	0.000123747061007	0.871162809883
1166.0	0.00017324588541	0.871336055769
1169.0	0.00017324588541	0.871509301654
1172.0	9.89976488058e-05	0.871608299303
1175.0	0.000107247452873	0.871715546756
1178.0	0.000123747061007	0.871839293817
1181.0	0.000107247452873	0.87194654127
1184.0	0.000148496473209	0.872095037743
1187.0	0.00011549725694	0.872210535
1190.0	0.000140246669142	0.872350781669
1193.0	0.000263993730149	0.872614775399
1196.0	4.12490203358e-05	0.872656024419
1199.0	0.00011549725694	0.872771521676
1202.0	0.000107247452873	0.872878769129
1205.0	0.000107247452873	0.872986016582
1208.0	0.000123747061007	0.873109763643
1211.0	0.000140246669142	0.873250010312
1214.0	0.000148496473209	0.873398506785
1217.0	0.000131996865074	0.873530503651
1220.0	0.000164996081343	0.873695499732
1223.0	0.000131996865074	0.873827496597
1226.0	0.000140246669142	0.873967743266
1229.0	0.00017324588541	0.874140989152
1232.0	0.000280493338283	0.87442148249
1235.0	0.000107247452873	0.874528729943
1238.0	0.000131996865074	0.874660726808
1241.0	9.89976488058e-05	0.874759724457
1244.0	9.89976488058e-05	0.874858722105
1247.0	8.24980406715e-05	0.874941220146
1250.0	0.000255743926082	0.875196964072
1253.0	0.000156746277276	0.875353710349
1256.0	0.00011549725694	0.875469207606
1259.0	9.07478447387e-05	0.875559955451
1262.0	0.000107247452873	0.875667202904
1265.0	0.000214494905746	0.87588169781
1268.0	0.000701233345708	0.876582931155
1271.0	0.000321742358619	0.876904673514
1274.0	0.000140246669142	0.877044920183
1277.0	0.000140246669142	0.877185166852
1280.0	0.000453739223693	0.877638906076
1283.0	0.000131996865074	0.877770902941
1286.0	0.00011549725694	0.877886400198
1289.0	0.000197995297612	0.878084395496
1292.0	0.000131996865074	0.878216392361
1295.0	0.000140246669142	0.87835663903
1298.0	0.000131996865074	0.878488635895
1301.0	0.000123747061007	0.878612382956
1304.0	8.24980406715e-05	0.878694880997
1307.0	0.000156746277276	0.878851627274
1310.0	0.000156746277276	0.879008373551
1313.0	9.07478447387e-05	0.879099121396
1316.0	0.000140246669142	0.879239368065
1319.0	9.07478447387e-05	0.87933011591
1322.0	5.77486284701e-05	0.879387864538
1325.0	0.000156746277276	0.879544610815
1328.0	9.89976488058e-05	0.879643608464
1331.0	9.07478447387e-05	0.879734356309
1334.0	0.00017324588541	0.879907602194
1337.0	0.000197995297612	0.880105597492
1340.0	0.00017324588541	0.880278843377
1343.0	0.000156746277276	0.880435589655
1346.0	9.07478447387e-05	0.880526337499
1349.0	7.42482366044e-05	0.880600585736
1352.0	0.00011549725694	0.880716082993
1355.0	0.000107247452873	0.880823330446
1358.0	0.000107247452873	0.880930577899
1361.0	8.24980406715e-05	0.881013075939
1364.0	6.59984325372e-05	0.881079074372
1367.0	0.000123747061007	0.881202821433
1370.0	0.000131996865074	0.881334818298
1373.0	0.00011549725694	0.881450315555
1376.0	0.000181495689477	0.881631811244
1379.0	0.000181495689477	0.881813306934
1382.0	0.000181495689477	0.881994802623
1385.0	0.000131996865074	0.882126799489
1388.0	9.89976488058e-05	0.882225797137
1391.0	0.000206245101679	0.882432042239
1394.0	8.24980406715e-05	0.88251454028
1397.0	9.89976488058e-05	0.882613537928
1400.0	0.000156746277276	0.882770284206
1403.0	0.00011549725694	0.882885781463
1406.0	0.000140246669142	0.883026028132
1409.0	0.000296992946418	0.883323021078
1412.0	0.000107247452873	0.883430268531
1415.0	0.000107247452873	0.883537515984
1418.0	9.89976488058e-05	0.883636513633
1421.0	9.07478447387e-05	0.883727261478
1424.0	5.77486284701e-05	0.883785010106
1427.0	0.000123747061007	0.883908757167
1430.0	9.89976488058e-05	0.884007754816
1433.0	0.000123747061007	0.884131501877
1436.0	0.000164996081343	0.884296497958
1439.0	0.000164996081343	0.88446149404
1442.0	0.000123747061007	0.884585241101
1445.0	0.000140246669142	0.88472548777
1448.0	9.07478447387e-05	0.884816235614
1451.0	6.59984325372e-05	0.884882234047
1454.0	6.59984325372e-05	0.884948232479
1457.0	6.59984325372e-05	0.885014230912
1460.0	0.00017324588541	0.885187476797
1463.0	9.07478447387e-05	0.885278224642
1466.0	5.77486284701e-05	0.885335973271
1469.0	0.000107247452873	0.885443220724
1472.0	9.89976488058e-05	0.885542218372
1475.0	9.07478447387e-05	0.885632966217
1478.0	7.42482366044e-05	0.885707214454
1481.0	0.000148496473209	0.885855710927
1484.0	3.29992162686e-05	0.885888710143
1487.0	0.000206245101679	0.886094955245
1490.0	0.000123747061007	0.886218702306
1493.0	0.000148496473209	0.886367198779
1496.0	0.000107247452873	0.886474446232
1499.0	0.00011549725694	0.886589943489
1502.0	6.59984325372e-05	0.886655941921
1505.0	0.000140246669142	0.886796188591
1508.0	4.94988244029e-05	0.886845687415
1511.0	0.00011549725694	0.886961184672
1514.0	0.000206245101679	0.887167429774
1517.0	8.24980406715e-05	0.887249927814
1520.0	7.42482366044e-05	0.887324176051
1523.0	0.000181495689477	0.88750567174
1526.0	0.000156746277276	0.887662418018
1529.0	0.000197995297612	0.887860413315
1532.0	8.24980406715e-05	0.887942911356
1535.0	0.000107247452873	0.888050158809
1538.0	0.000140246669142	0.888190405478
1541.0	9.89976488058e-05	0.888289403127
1544.0	9.07478447387e-05	0.888380150971
1547.0	5.77486284701e-05	0.8884378996
1550.0	0.000123747061007	0.888561646661
1553.0	0.000181495689477	0.88874314235
1556.0	0.000123747061007	0.888866889411
1559.0	8.24980406715e-05	0.888949387452
1562.0	0.000131996865074	0.889081384317
1565.0	0.000140246669142	0.889221630986
1568.0	9.07478447387e-05	0.889312378831
1571.0	0.000156746277276	0.889469125108
1574.0	9.89976488058e-05	0.889568122757
1577.0	5.77486284701e-05	0.889625871386
1580.0	8.24980406715e-05	0.889708369426
1583.0	3.29992162686e-05	0.889741368642
1586.0	9.07478447387e-05	0.889832116487
1589.0	6.59984325372e-05	0.88989811492
1592.0	0.00011549725694	0.890013612177
1595.0	0.000239244317947	0.890252856495
1598.0	9.07478447387e-05	0.890343604339
1601.0	0.000140246669142	0.890483851009
1604.0	9.89976488058e-05	0.890582848657
1607.0	0.000181495689477	0.890764344347
1610.0	9.07478447387e-05	0.890855092192
1613.0	0.000164996081343	0.891020088273
1616.0	0.000189745493545	0.891209833766
1619.0	5.77486284701e-05	0.891267582395
1622.0	0.00011549725694	0.891383079652
1625.0	7.42482366044e-05	0.891457327888
1628.0	8.24980406715e-05	0.891539825929
1631.0	9.89976488058e-05	0.891638823578
1634.0	5.77486284701e-05	0.891696572206
1637.0	8.24980406715e-05	0.891779070247
1640.0	7.42482366044e-05	0.891853318484
1643.0	5.77486284701e-05	0.891911067112
1646.0	0.000156746277276	0.892067813389
1649.0	0.00011549725694	0.892183310646
1652.0	9.07478447387e-05	0.892274058491
1655.0	0.000354741574888	0.892628800066
1658.0	0.000560986676566	0.893189786743
1661.0	7.42482366044e-05	0.893264034979
1664.0	4.94988244029e-05	0.893313533804
1667.0	0.000131996865074	0.893445530669
1670.0	8.24980406715e-05	0.893528028709
1673.0	6.59984325372e-05	0.893594027142
1676.0	9.07478447387e-05	0.893684774987
1679.0	7.42482366044e-05	0.893759023223
1682.0	0.00011549725694	0.89387452048
1685.0	5.77486284701e-05	0.893932269109
1688.0	9.07478447387e-05	0.894023016953
1690.0	9.89976488058e-05	0.894122014602
1694.0	7.42482366044e-05	0.894196262839
1696.0	1.64996081343e-05	0.894212762447
1700.0	6.59984325372e-05	0.894278760879
1703.0	0.00017324588541	0.894452006765
1706.0	9.89976488058e-05	0.894551004414
1709.0	0.000131996865074	0.894683001279
1712.0	0.000247494122015	0.894930495401
1715.0	0.000123747061007	0.895054242462
1718.0	7.42482366044e-05	0.895128490698
1721.0	5.77486284701e-05	0.895186239327
1724.0	5.77486284701e-05	0.895243987955
1727.0	4.94988244029e-05	0.89529348678
1730.0	4.12490203358e-05	0.8953347358
1733.0	9.89976488058e-05	0.895433733449
1736.0	9.07478447387e-05	0.895524481294
1739.0	5.77486284701e-05	0.895582229922
1742.0	0.000107247452873	0.895689477375
1745.0	5.77486284701e-05	0.895747226003
1748.0	0.00011549725694	0.89586272326
1751.0	9.89976488058e-05	0.895961720909
1754.0	7.42482366044e-05	0.896035969146
1757.0	7.42482366044e-05	0.896110217382
1760.0	6.59984325372e-05	0.896176215815
1763.0	0.000156746277276	0.896332962092
1766.0	5.77486284701e-05	0.896390710721
1769.0	7.42482366044e-05	0.896464958957
1772.0	4.94988244029e-05	0.896514457782
1775.0	6.59984325372e-05	0.896580456214
1778.0	9.89976488058e-05	0.896679453863
1781.0	4.94988244029e-05	0.896728952687
1784.0	9.07478447387e-05	0.896819700532
1787.0	4.12490203358e-05	0.896860949552
1790.0	7.42482366044e-05	0.896935197789
1793.0	9.07478447387e-05	0.897025945634
1796.0	0.000206245101679	0.897232190735
1799.0	6.59984325372e-05	0.897298189168
1802.0	8.24980406715e-05	0.897380687209
1805.0	0.000272243534216	0.897652930743
1808.0	0.000123747061007	0.897776677804
1811.0	9.07478447387e-05	0.897867425649
1814.0	7.42482366044e-05	0.897941673885
1817.0	0.00011549725694	0.898057171142
1820.0	6.59984325372e-05	0.898123169575
1823.0	0.000140246669142	0.898263416244
1826.0	8.24980406715e-05	0.898345914285
1829.0	2.47494122015e-05	0.898370663697
1832.0	8.24980406715e-05	0.898453161737
1835.0	0.00011549725694	0.898568658994
1837.0	9.89976488058e-05	0.898667656643
1841.0	0.000280493338283	0.898948149981
1844.0	0.000156746277276	0.899104896259
1847.0	6.59984325372e-05	0.899170894691
1850.0	7.42482366044e-05	0.899245142928
1852.0	7.42482366044e-05	0.899319391164
1856.0	3.29992162686e-05	0.899352390381
1859.0	9.89976488058e-05	0.89945138803
1862.0	0.000131996865074	0.899583384895
1865.0	9.07478447387e-05	0.899674132739
1868.0	0.000164996081343	0.899839128821
1871.0	7.42482366044e-05	0.899913377057
1874.0	7.42482366044e-05	0.899987625294
1877.0	0.000107247452873	0.900094872747
1880.0	8.24980406715e-06	0.900103122551
1883.0	0.000519737656231	0.900622860207
1886.0	0.000148496473209	0.90077135668
1889.0	0.000197995297612	0.900969351978
1891.0	0.000123747061007	0.901093099039
1895.0	7.42482366044e-05	0.901167347276
1898.0	0.00017324588541	0.901340593161
1901.0	6.59984325372e-05	0.901406591593
1904.0	6.59984325372e-05	0.901472590026
1907.0	0.00011549725694	0.901588087283
1910.0	9.07478447387e-05	0.901678835128
1913.0	2.47494122015e-05	0.90170358454
1916.0	7.42482366044e-05	0.901777832776
1919.0	4.94988244029e-05	0.901827331601
1922.0	6.59984325372e-05	0.901893330033
1925.0	3.29992162686e-05	0.90192632925
1928.0	0.00011549725694	0.902041826507
1931.0	0.000206245101679	0.902248071608
1934.0	0.000131996865074	0.902380068473
1937.0	4.12490203358e-05	0.902421317494
1939.0	0.000123747061007	0.902545064555
1943.0	6.59984325372e-05	0.902611062987
1945.0	7.42482366044e-05	0.902685311224
1949.0	6.59984325372e-05	0.902751309656
1952.0	9.89976488058e-05	0.902850307305
1955.0	6.59984325372e-05	0.902916305738
1958.0	4.12490203358e-05	0.902957554758
1961.0	0.00011549725694	0.903073052015
1963.0	8.24980406715e-05	0.903155550056
1967.0	0.000107247452873	0.903262797509
1969.0	0.000107247452873	0.903370044961
1973.0	9.07478447387e-05	0.903460792806
1976.0	4.94988244029e-05	0.903510291631
1979.0	9.07478447387e-05	0.903601039475
1982.0	3.29992162686e-05	0.903634038692
1985.0	6.59984325372e-05	0.903700037124
1988.0	4.12490203358e-05	0.903741286144
1990.0	0.000148496473209	0.903889782618
1994.0	0.000123747061007	0.904013529679
1997.0	5.77486284701e-05	0.904071278307
2000.0	6.59984325372e-05	0.90413727674
2003.0	5.77486284701e-05	0.904195025368
2006.0	2.47494122015e-05	0.90421977478
2009.0	9.07478447387e-05	0.904310522625
2011.0	9.07478447387e-05	0.90440127047
2015.0	3.29992162686e-05	0.904434269686
2018.0	5.77486284701e-05	0.904492018315
2021.0	4.12490203358e-05	0.904533267335
2023.0	0.000296992946418	0.904830260281
2027.0	1.64996081343e-05	0.904846759889
2030.0	9.89976488058e-05	0.904945757538
2033.0	4.94988244029e-05	0.904995256363
2036.0	0.000148496473209	0.905143752836
2039.0	4.12490203358e-05	0.905185001856
2041.0	0.000107247452873	0.905292249309
2044.0	8.24980406715e-05	0.90537474735
2048.0	4.94988244029e-05	0.905424246174
2051.0	2.47494122015e-05	0.905448995586
2054.0	2.47494122015e-05	0.905473744999
2057.0	9.89976488058e-05	0.905572742647
2060.0	4.12490203358e-05	0.905613991668
2063.0	4.12490203358e-05	0.905655240688
2066.0	4.12490203358e-05	0.905696489708
2069.0	8.24980406715e-05	0.905778987749
2072.0	9.89976488058e-05	0.905877985398
2075.0	8.24980406715e-06	0.905886235202
2078.0	9.89976488058e-05	0.905985232851
2081.0	3.29992162686e-05	0.906018232067
2084.0	4.94988244029e-05	0.906067730891
2087.0	4.94988244029e-05	0.906117229716
2090.0	4.94988244029e-05	0.90616672854
2093.0	0.000131996865074	0.906298725405
2095.0	9.07478447387e-05	0.90638947325
2098.0	6.59984325372e-05	0.906455471683
2102.0	9.07478447387e-05	0.906546219527
2105.0	0.000296992946418	0.906843212474
2107.0	8.24980406715e-05	0.906925710514
2111.0	4.12490203358e-05	0.906966959535
2114.0	2.47494122015e-05	0.906991708947
2117.0	3.29992162686e-05	0.907024708163
2120.0	3.29992162686e-05	0.907057707379
2122.0	0.000494988244029	0.907552695623
2125.0	0.000602235696902	0.90815493132
2129.0	3.29992162686e-05	0.908187930537
2132.0	0.000131996865074	0.908319927402
2135.0	9.89976488058e-05	0.908418925051
2138.0	5.77486284701e-05	0.908476673679
2141.0	4.94988244029e-05	0.908526172503
2144.0	0.000107247452873	0.908633419956
2147.0	4.12490203358e-05	0.908674668977
2149.0	5.77486284701e-05	0.908732417605
2152.0	5.77486284701e-05	0.908790166234
2156.0	4.94988244029e-05	0.908839665058
2159.0	4.94988244029e-05	0.908889163882
2162.0	4.12490203358e-05	0.908930412903
2165.0	4.12490203358e-05	0.908971661923
2167.0	6.59984325372e-05	0.909037660356
2170.0	0.000107247452873	0.909144907808
2174.0	4.94988244029e-05	0.909194406633
2176.0	5.77486284701e-05	0.909252155261
2180.0	0.000453739223693	0.909705894485
2182.0	0.00011549725694	0.909821391742
2186.0	3.29992162686e-05	0.909854390958
2189.0	6.59984325372e-05	0.909920389391
2192.0	2.47494122015e-05	0.909945138803
2194.0	3.29992162686e-05	0.909978138019
2198.0	2.47494122015e-05	0.910002887431
2200.0	4.12490203358e-05	0.910044136452
2204.0	4.12490203358e-05	0.910085385472
2207.0	6.59984325372e-05	0.910151383905
2210.0	3.29992162686e-05	0.910184383121
2212.0	4.12490203358e-05	0.910225632141
2216.0	2.47494122015e-05	0.910250381553
2218.0	0.000420740007425	0.910671121561
2222.0	0.000214494905746	0.910885616467
2225.0	4.94988244029e-05	0.910935115291
2227.0	4.94988244029e-05	0.910984614115
2230.0	0.000148496473209	0.911133110589
2234.0	5.77486284701e-05	0.911190859217
2237.0	6.59984325372e-05	0.91125685765
2240.0	0.00023099451388	0.911487852164
2242.0	6.59984325372e-05	0.911553850596
2246.0	4.94988244029e-05	0.91160334942
2248.0	0.000206245101679	0.911809594522
2252.0	2.47494122015e-05	0.911834343934
2255.0	5.77486284701e-05	0.911892092563
2258.0	2.47494122015e-05	0.911916841975
2261.0	4.12490203358e-05	0.911958090995
2264.0	1.64996081343e-05	0.911974590603
2267.0	4.94988244029e-05	0.912024089428
2269.0	2.47494122015e-05	0.91204883884
2272.0	0.000107247452873	0.912156086293
2275.0	8.24980406715e-05	0.912238584334
2278.0	0.000156746277276	0.912395330611
2281.0	5.77486284701e-05	0.912453079239
2285.0	0.000131996865074	0.912585076104
2287.0	0.000131996865074	0.91271707297
2291.0	9.89976488058e-05	0.912816070618
2294.0	3.29992162686e-05	0.912849069835
2296.0	1.64996081343e-05	0.912865569443
2299.0	4.12490203358e-05	0.912906818463
2302.0	3.29992162686e-05	0.912939817679
2305.0	3.29992162686e-05	0.912972816896
2309.0	8.24980406715e-06	0.9129810667
2312.0	4.94988244029e-05	0.913030565524
2315.0	3.29992162686e-05	0.91306356474
2318.0	0.000123747061007	0.913187311801
2321.0	0.000239244317947	0.913426556119
2324.0	6.59984325372e-05	0.913492554552
2327.0	3.29992162686e-05	0.913525553768
2329.0	9.07478447387e-05	0.913616301613
2332.0	0.000239244317947	0.913855545931
2336.0	4.12490203358e-05	0.913896794951
2339.0	2.47494122015e-05	0.913921544363
2342.0	2.47494122015e-05	0.913946293776
2344.0	0.00034649177082	0.914292785546
2348.0	4.12490203358e-05	0.914334034567
2351.0	4.12490203358e-05	0.914375283587
2353.0	6.59984325372e-05	0.91444128202
2357.0	2.47494122015e-05	0.914466031432
2360.0	2.47494122015e-05	0.914490780844
2363.0	4.94988244029e-05	0.914540279668
2366.0	5.77486284701e-05	0.914598028297
2368.0	4.94988244029e-05	0.914647527121
2372.0	4.94988244029e-05	0.914697025946
2375.0	2.47494122015e-05	0.914721775358
2378.0	4.94988244029e-05	0.914771274182
2380.0	7.42482366044e-05	0.914845522419
2384.0	2.47494122015e-05	0.914870271831
2387.0	8.24980406715e-05	0.914952769872
2389.0	5.77486284701e-05	0.9150105185
2393.0	4.94988244029e-05	0.915060017325
2396.0	0.000148496473209	0.915208513798
2398.0	6.59984325372e-05	0.91527451223
2401.0	0.000263993730149	0.91553850596
2405.0	6.59984325372e-05	0.915604504393
2408.0	4.94988244029e-05	0.915654003217
2410.0	4.94988244029e-05	0.915703502042
2414.0	5.77486284701e-05	0.91576125067
2417.0	8.24980406715e-05	0.915843748711
2419.0	4.12490203358e-05	0.915884997731
2422.0	0.000560986676566	0.916445984408
2425.0	5.77486284701e-05	0.916503733036
2429.0	3.29992162686e-05	0.916536732253
2432.0	1.64996081343e-05	0.916553231861
2435.0	5.77486284701e-05	0.916610980489
2438.0	5.77486284701e-05	0.916668729118
2440.0	0.000148496473209	0.916817225591
2443.0	2.47494122015e-05	0.916841975003
2446.0	3.29992162686e-05	0.916874974219
2450.0	8.24980406715e-05	0.91695747226
2452.0	9.89976488058e-05	0.917056469909
2456.0	5.77486284701e-05	0.917114218537
2458.0	4.12490203358e-05	0.917155467558
2462.0	6.59984325372e-05	0.91722146599
2464.0	1.64996081343e-05	0.917237965598
2467.0	3.29992162686e-05	0.917270964815
2470.0	0.000445489419626	0.917716454234
2473.0	0.000511487852164	0.918227942086
2476.0	0.000123747061007	0.918351689147
2480.0	4.94988244029e-05	0.918401187972
2482.0	5.77486284701e-05	0.9184589366
2485.0	6.59984325372e-05	0.918524935033
2489.0	8.24980406715e-05	0.918607433073
2491.0	3.29992162686e-05	0.91864043229
2494.0	6.59984325372e-05	0.918706430722
2498.0	3.29992162686e-05	0.918739429939
2500.0	7.42482366044e-05	0.918813678175
2504.0	6.59984325372e-05	0.918879676608
2506.0	0.000131996865074	0.919011673473
2509.0	0.000148496473209	0.919160169946
2512.0	0.000123747061007	0.919283917007
2516.0	3.29992162686e-05	0.919316916223
2519.0	9.89976488058e-05	0.919415913872
2521.0	9.07478447387e-05	0.919506661717
2525.0	4.94988244029e-05	0.919556160541
2527.0	7.42482366044e-05	0.919630408778
2530.0	5.77486284701e-05	0.919688157406
2533.0	9.07478447387e-05	0.919778905251
2536.0	8.24980406715e-05	0.919861403292
2539.0	0.000239244317947	0.92010064761
2542.0	1.64996081343e-05	0.920117147218
2545.0	0.000148496473209	0.920265643691
2548.0	4.94988244029e-05	0.920315142515
2551.0	0.000148496473209	0.920463638989
2554.0	0.000305242750485	0.920768881739
2557.0	4.12490203358e-05	0.920810130759
2560.0	0.000197995297612	0.921008126057
2563.0	0.000123747061007	0.921131873118
2567.0	8.24980406715e-05	0.921214371159
2569.0	4.94988244029e-05	0.921263869983
2572.0	4.12490203358e-05	0.921305119003
2576.0	5.77486284701e-05	0.921362867632
2579.0	2.47494122015e-05	0.921387617044
2582.0	1.64996081343e-05	0.921404116652
2584.0	2.47494122015e-05	0.921428866064
2587.0	9.07478447387e-05	0.921519613909
2590.0	0.000189745493545	0.921709359403
2593.0	7.42482366044e-05	0.921783607639
2596.0	4.94988244029e-05	0.921833106464
2599.0	0.000371241183022	0.922204347647
2603.0	1.64996081343e-05	0.922220847255
2605.0	2.47494122015e-05	0.922245596667
2608.0	4.94988244029e-05	0.922295095491
2611.0	0.000123747061007	0.922418842552
2614.0	4.94988244029e-05	0.922468341377
2617.0	4.94988244029e-05	0.922517840201
2621.0	3.29992162686e-05	0.922550839418
2624.0	5.77486284701e-05	0.922608588046
2626.0	9.89976488058e-05	0.922707585695
2630.0	4.12490203358e-05	0.922748834715
2633.0	4.12490203358e-05	0.922790083736
2635.0	0.000181495689477	0.922971579425
2638.0	0.000140246669142	0.923111826094
2641.0	7.42482366044e-05	0.923186074331
2644.0	4.12490203358e-05	0.923227323351
2648.0	3.29992162686e-05	0.923260322567
2650.0	4.94988244029e-05	0.923309821392
2653.0	7.42482366044e-05	0.923384069628
2657.0	4.12490203358e-05	0.923425318649
2659.0	6.59984325372e-05	0.923491317081
2662.0	5.77486284701e-05	0.92354906571
2666.0	1.64996081343e-05	0.923565565318
2668.0	4.94988244029e-05	0.923615064142
2671.0	4.12490203358e-05	0.923656313163
2675.0	2.47494122015e-05	0.923681062575
2677.0	6.59984325372e-05	0.923747061007
2680.0	0.00011549725694	0.923862558264
2683.0	1.64996081343e-05	0.923879057872
2686.0	1.64996081343e-05	0.923895557481
2689.0	0.000148496473209	0.924044053954
2692.0	0.000131996865074	0.924176050819
2695.0	4.12490203358e-05	0.924217299839
2698.0	0.000123747061007	0.9243410469
2702.0	3.29992162686e-05	0.924374046116
2704.0	0.000107247452873	0.924481293569
2707.0	5.77486284701e-05	0.924539042198
2711.0	2.47494122015e-05	0.92456379161
2713.0	3.29992162686e-05	0.924596790826
2716.0	4.94988244029e-05	0.924646289651
2719.0	3.29992162686e-05	0.924679288867
2722.0	4.94988244029e-05	0.924728787691
2726.0	8.24980406715e-06	0.924737037495
2728.0	4.94988244029e-05	0.92478653632
2732.0	0.00011549725694	0.924902033577
2734.0	2.47494122015e-05	0.924926782989
2738.0	1.64996081343e-05	0.924943282597
2741.0	4.94988244029e-05	0.924992781421
2744.0	1.64996081343e-05	0.92500928103
2747.0	8.24980406715e-06	0.925017530834
2750.0	2.47494122015e-05	0.925042280246
2752.0	1.64996081343e-05	0.925058779854
2755.0	0.000123747061007	0.925182526915
2758.0	4.12490203358e-05	0.925223775935
2761.0	3.29992162686e-05	0.925256775152
2764.0	1.64996081343e-05	0.92527327476
2767.0	4.94988244029e-05	0.925322773584
2770.0	8.24980406715e-06	0.925331023388
2773.0	0.000214494905746	0.925545518294
2776.0	0.000263993730149	0.925809512024
2780.0	4.12490203358e-05	0.925850761044
2783.0	0.000164996081343	0.926015757126
2785.0	3.29992162686e-05	0.926048756342
2788.0	4.94988244029e-05	0.926098255166
2791.0	5.77486284701e-05	0.926156003795
2794.0	4.94988244029e-05	0.926205502619
2797.0	6.59984325372e-05	0.926271501052
2800.0	4.94988244029e-05	0.926320999876
2803.0	4.94988244029e-05	0.926370498701
2806.0	0.000206245101679	0.926576743802
2809.0	5.77486284701e-05	0.926634492431
2813.0	4.12490203358e-05	0.926675741451
2815.0	2.47494122015e-05	0.926700490863
2818.0	4.12490203358e-05	0.926741739884
2821.0	0.000156746277276	0.926898486161
2824.0	4.94988244029e-05	0.926947984985
2827.0	2.47494122015e-05	0.926972734398
2830.0	8.24980406715e-06	0.926980984202
2834.0	2.47494122015e-05	0.927005733614
2836.0	8.24980406715e-06	0.927013983418
2839.0	2.47494122015e-05	0.92703873283
2843.0	1.64996081343e-05	0.927055232438
2845.0	4.12490203358e-05	0.927096481459
2849.0	3.29992162686e-05	0.927129480675
2851.0	5.77486284701e-05	0.927187229303
2854.0	4.12490203358e-05	0.927228478324
2857.0	0.000140246669142	0.927368724993
2860.0	2.47494122015e-05	0.927393474405
2863.0	1.64996081343e-05	0.927409974013
2866.0	4.94988244029e-05	0.927459472838
2870.0	5.77486284701e-05	0.927517221466
2872.0	8.24980406715e-05	0.927599719507
2875.0	5.77486284701e-05	0.927657468135
2878.0	0.000206245101679	0.927863713237
2881.0	0.00011549725694	0.927979210494
2884.0	5.77486284701e-05	0.928036959122
2891.0	1.64996081343e-05	0.92805345873
2893.0	0.000338241966753	0.928391700697
2896.0	6.59984325372e-05	0.92845769913
2899.0	6.59984325372e-05	0.928523697562
2902.0	4.12490203358e-05	0.928564946583
2905.0	0.000148496473209	0.928713443056
2908.0	4.94988244029e-05	0.92876294188
2911.0	4.94988244029e-05	0.928812440705
2915.0	1.64996081343e-05	0.928828940313
2917.0	3.29992162686e-05	0.928861939529
2920.0	6.59984325372e-05	0.928927937961
2923.0	4.12490203358e-05	0.928969186982
2926.0	3.29992162686e-05	0.929002186198
2929.0	4.94988244029e-05	0.929051685022
2932.0	3.29992162686e-05	0.929084684239
2936.0	8.24980406715e-06	0.929092934043
2938.0	8.24980406715e-05	0.929175432083
2941.0	2.47494122015e-05	0.929200181496
2944.0	5.77486284701e-05	0.929257930124
2947.0	3.29992162686e-05	0.92929092934
2950.0	7.42482366044e-05	0.929365177577
2953.0	4.94988244029e-05	0.929414676401
2956.0	4.12490203358e-05	0.929455925422
2959.0	6.59984325372e-05	0.929521923854
2962.0	5.77486284701e-05	0.929579672483
2966.0	2.47494122015e-05	0.929604421895
2968.0	1.64996081343e-05	0.929620921503
2971.0	1.64996081343e-05	0.929637421111
2974.0	8.24980406715e-06	0.929645670915
2978.0	1.64996081343e-05	0.929662170523
2980.0	4.94988244029e-05	0.929711669348
2983.0	4.12490203358e-05	0.929752918368
2986.0	7.42482366044e-05	0.929827166605
2989.0	2.47494122015e-05	0.929851916017
2992.0	0.000107247452873	0.92995916347
2995.0	3.29992162686e-05	0.929992162686
2998.0	8.24980406715e-05	0.930074660727
3001.0	6.59984325372e-05	0.930140659159
3004.0	5.77486284701e-05	0.930198407788
3007.0	3.29992162686e-05	0.930231407004
3010.0	0.000428989811492	0.930660396816
3013.0	1.64996081343e-05	0.930676896424
3016.0	8.24980406715e-06	0.930685146228
3019.0	9.89976488058e-05	0.930784143877
3022.0	9.07478447387e-05	0.930874891721
3025.0	0.000437239615559	0.931312131337
3028.0	4.94988244029e-05	0.931361630161
3031.0	7.42482366044e-05	0.931435878398
3034.0	2.47494122015e-05	0.93146062781
3037.0	2.47494122015e-05	0.931485377222
3040.0	0.000478488635895	0.931963865858
3043.0	0.000329992162686	0.932293858021
3046.0	0.000123747061007	0.932417605082
3049.0	0.00011549725694	0.932533102339
3052.0	5.77486284701e-05	0.932590850967
3055.0	7.42482366044e-05	0.932665099204
3058.0	4.12490203358e-05	0.932706348224
3061.0	9.07478447387e-05	0.932797096069
3064.0	5.77486284701e-05	0.932854844697
3067.0	7.42482366044e-05	0.932929092934
3070.0	3.29992162686e-05	0.93296209215
3073.0	5.77486284701e-05	0.933019840779
3076.0	3.29992162686e-05	0.933052839995
3079.0	4.94988244029e-05	0.933102338819
3082.0	5.77486284701e-05	0.933160087448
3085.0	4.94988244029e-05	0.933209586272
3088.0	0.000164996081343	0.933374582354
3091.0	4.12490203358e-05	0.933415831374
3094.0	0.00011549725694	0.933531328631
3098.0	1.64996081343e-05	0.933547828239
3101.0	1.64996081343e-05	0.933564327847
3103.0	4.94988244029e-05	0.933613826672
3106.0	2.47494122015e-05	0.933638576084
3109.0	3.29992162686e-05	0.9336715753
3112.0	0.000412490203358	0.934084065503
3115.0	0.000140246669142	0.934224312173
3118.0	2.47494122015e-05	0.934249061585
3121.0	3.29992162686e-05	0.934282060801
3124.0	4.12490203358e-05	0.934323309821
3127.0	4.94988244029e-05	0.934372808646
3130.0	2.47494122015e-05	0.934397558058
3133.0	0.000181495689477	0.934579053747
3137.0	1.64996081343e-05	0.934595553356
3139.0	0.000107247452873	0.934702800808
3142.0	0.000354741574888	0.935057542383
3145.0	2.47494122015e-05	0.935082291796
3148.0	6.59984325372e-05	0.935148290228
3151.0	0.000107247452873	0.935255537681
3154.0	7.42482366044e-05	0.935329785918
3157.0	8.24980406715e-05	0.935412283958
3160.0	2.47494122015e-05	0.93543703337
3163.0	9.07478447387e-05	0.935527781215
3166.0	3.29992162686e-05	0.935560780431
3169.0	4.94988244029e-05	0.935610279256
3172.0	2.47494122015e-05	0.935635028668
3175.0	4.94988244029e-05	0.935684527492
3178.0	2.47494122015e-05	0.935709276905
3181.0	9.89976488058e-05	0.935808274553
3184.0	5.77486284701e-05	0.935866023182
3187.0	9.07478447387e-05	0.935956771027
3190.0	8.24980406715e-05	0.936039269067
3193.0	3.29992162686e-05	0.936072268284
3196.0	2.47494122015e-05	0.936097017696
3199.0	2.47494122015e-05	0.936121767108
3202.0	4.12490203358e-05	0.936163016128
3205.0	4.94988244029e-05	0.936212514953
3208.0	3.29992162686e-05	0.936245514169
3211.0	1.64996081343e-05	0.936262013777
3214.0	2.47494122015e-05	0.936286763189
3217.0	5.77486284701e-05	0.936344511818
3220.0	1.64996081343e-05	0.936361011426
3223.0	1.64996081343e-05	0.936377511034
3226.0	0.000280493338283	0.936658004372
3229.0	3.29992162686e-05	0.936691003589
3232.0	2.47494122015e-05	0.936715753001
3235.0	8.24980406715e-06	0.936724002805
3238.0	0.000140246669142	0.936864249474
3241.0	1.64996081343e-05	0.936880749082
3244.0	6.59984325372e-05	0.936946747515
3247.0	0.000140246669142	0.937086994184
3250.0	5.77486284701e-05	0.937144742812
3253.0	9.89976488058e-05	0.937243740461
3256.0	0.000123747061007	0.937367487522
3262.0	1.64996081343e-05	0.93738398713
3265.0	8.24980406715e-05	0.937466485171
3268.0	6.59984325372e-05	0.937532483604
3271.0	8.24980406715e-06	0.937540733408
3274.0	8.24980406715e-06	0.937548983212
3277.0	2.47494122015e-05	0.937573732624
3280.0	0.000123747061007	0.937697479685
3283.0	9.07478447387e-05	0.93778822753
3286.0	6.59984325372e-05	0.937854225962
3289.0	8.24980406715e-05	0.937936724003
3292.0	4.12490203358e-05	0.937977973023
3295.0	1.64996081343e-05	0.937994472631
3298.0	3.29992162686e-05	0.938027471848
3301.0	2.47494122015e-05	0.93805222126
3304.0	5.77486284701e-05	0.938109969888
3307.0	8.24980406715e-06	0.938118219692
3310.0	1.64996081343e-05	0.9381347193
3313.0	5.77486284701e-05	0.938192467929
3316.0	4.94988244029e-05	0.938241966753
3325.0	6.59984325372e-05	0.938307965186
3328.0	0.00011549725694	0.938423462443
3331.0	3.29992162686e-05	0.938456461659
3334.0	9.89976488058e-05	0.938555459308
3337.0	7.42482366044e-05	0.938629707544
3340.0	4.12490203358e-05	0.938670956565
3343.0	8.24980406715e-06	0.938679206369
3346.0	1.64996081343e-05	0.938695705977
3349.0	2.47494122015e-05	0.938720455389
3352.0	9.89976488058e-05	0.938819453038
3355.0	1.64996081343e-05	0.938835952646
3358.0	1.64996081343e-05	0.938852452254
3361.0	1.64996081343e-05	0.938868951862
3364.0	4.94988244029e-05	0.938918450687
3367.0	4.12490203358e-05	0.938959699707
3370.0	1.64996081343e-05	0.938976199315
3373.0	1.64996081343e-05	0.938992698923
3376.0	2.47494122015e-05	0.939017448336
3379.0	4.12490203358e-05	0.939058697356
3382.0	0.000164996081343	0.939223693437
3385.0	2.47494122015e-05	0.939248442849
3388.0	5.77486284701e-05	0.939306191478
3391.0	8.24980406715e-05	0.939388689519
3394.0	3.29992162686e-05	0.939421688735
3397.0	5.77486284701e-05	0.939479437363
3400.0	8.24980406715e-06	0.939487687167
3403.0	3.29992162686e-05	0.939520686384
3409.0	0.000123747061007	0.939644433445
3412.0	2.47494122015e-05	0.939669182857
3415.0	0.000684733737574	0.940353916594
3418.0	3.29992162686e-05	0.940386915811
3421.0	1.64996081343e-05	0.940403415419
3424.0	2.47494122015e-05	0.940428164831
3427.0	4.12490203358e-05	0.940469413851
3430.0	3.29992162686e-05	0.940502413068
3433.0	2.47494122015e-05	0.94052716248
3436.0	4.94988244029e-05	0.940576661304
3439.0	4.12490203358e-05	0.940617910325
3442.0	1.64996081343e-05	0.940634409933
3445.0	8.24980406715e-06	0.940642659737
3448.0	2.47494122015e-05	0.940667409149
3451.0	3.29992162686e-05	0.940700408365
3454.0	1.64996081343e-05	0.940716907973
3460.0	3.29992162686e-05	0.94074990719
3463.0	4.94988244029e-05	0.940799406014
3466.0	0.000123747061007	0.940923153075
3469.0	3.29992162686e-05	0.940956152291
3472.0	4.12490203358e-05	0.940997401312
3475.0	8.24980406715e-06	0.941005651116
3478.0	2.47494122015e-05	0.941030400528
3481.0	9.89976488058e-05	0.941129398177
3484.0	9.89976488058e-05	0.941228395826
3487.0	5.77486284701e-05	0.941286144454
3490.0	4.12490203358e-05	0.941327393474
3493.0	5.77486284701e-05	0.941385142103
3496.0	3.29992162686e-05	0.941418141319
3499.0	5.77486284701e-05	0.941475889948
3502.0	2.47494122015e-05	0.94150063936
3505.0	3.29992162686e-05	0.941533638576
3508.0	0.000420740007425	0.941954378584
3511.0	0.000107247452873	0.942061626036
3514.0	5.77486284701e-05	0.942119374665
3521.0	1.64996081343e-05	0.942135874273
3523.0	2.47494122015e-05	0.942160623685
3526.0	3.29992162686e-05	0.942193622901
3529.0	1.64996081343e-05	0.94221012251
3532.0	1.64996081343e-05	0.942226622118
3535.0	8.24980406715e-06	0.942234871922
3538.0	3.29992162686e-05	0.942267871138
3541.0	1.64996081343e-05	0.942284370746
3544.0	4.12490203358e-05	0.942325619767
3547.0	2.47494122015e-05	0.942350369179
3550.0	1.64996081343e-05	0.942366868787
3553.0	4.12490203358e-05	0.942408117807
3556.0	1.64996081343e-05	0.942424617415
3559.0	2.47494122015e-05	0.942449366828
3562.0	2.47494122015e-05	0.94247411624
3565.0	4.94988244029e-05	0.942523615064
3568.0	2.47494122015e-05	0.942548364476
3571.0	0.000313492554552	0.942861857031
3574.0	7.42482366044e-05	0.942936105267
3577.0	4.94988244029e-05	0.942985604092
3580.0	0.000107247452873	0.943092851545
3583.0	2.47494122015e-05	0.943117600957
3586.0	4.12490203358e-05	0.943158849977
3589.0	3.29992162686e-05	0.943191849194
3592.0	9.07478447387e-05	0.943282597038
3595.0	3.29992162686e-05	0.943315596255
3598.0	2.47494122015e-05	0.943340345667
3601.0	5.77486284701e-05	0.943398094295
3604.0	5.77486284701e-05	0.943455842924
3607.0	4.12490203358e-05	0.943497091944
3610.0	0.00017324588541	0.943670337829
3613.0	0.000107247452873	0.943777585282
3616.0	4.12490203358e-05	0.943818834303
3619.0	0.000131996865074	0.943950831168
3622.0	4.94988244029e-05	0.944000329992
3625.0	3.29992162686e-05	0.944033329208
3628.0	4.12490203358e-05	0.944074578229
3631.0	7.42482366044e-05	0.944148826465
3634.0	2.47494122015e-05	0.944173575878
3640.0	5.77486284701e-05	0.944231324506
3643.0	4.12490203358e-05	0.944272573526
3646.0	0.000131996865074	0.944404570391
3649.0	0.00017324588541	0.944577816277
3652.0	2.47494122015e-05	0.944602565689
3655.0	3.29992162686e-05	0.944635564905
3658.0	0.000123747061007	0.944759311966
3661.0	4.94988244029e-05	0.944808810791
3664.0	1.64996081343e-05	0.944825310399
3667.0	8.24980406715e-06	0.944833560203
3670.0	3.29992162686e-05	0.944866559419
3673.0	3.29992162686e-05	0.944899558635
3676.0	8.24980406715e-06	0.94490780844
3679.0	1.64996081343e-05	0.944924308048
3683.0	8.24980406715e-06	0.944932557852
3685.0	8.24980406715e-06	0.944940807656
3688.0	6.59984325372e-05	0.945006806088
3691.0	5.77486284701e-05	0.945064554717
3694.0	4.94988244029e-05	0.945114053541
3697.0	2.47494122015e-05	0.945138802953
3700.0	1.64996081343e-05	0.945155302562
3703.0	8.24980406715e-06	0.945163552366
3706.0	3.29992162686e-05	0.945196551582
3709.0	4.12490203358e-05	0.945237800602
3712.0	5.77486284701e-05	0.945295549231
3715.0	0.00017324588541	0.945468795116
3718.0	2.47494122015e-05	0.945493544528
3721.0	0.000239244317947	0.945732788846
3724.0	6.59984325372e-05	0.945798787279
3727.0	2.47494122015e-05	0.945823536691
3730.0	2.47494122015e-05	0.945848286103
3733.0	4.94988244029e-05	0.945897784928
3736.0	8.24980406715e-06	0.945906034732
3739.0	2.47494122015e-05	0.945930784144
3742.0	5.77486284701e-05	0.945988532772
3745.0	1.64996081343e-05	0.94600503238
3748.0	0.00017324588541	0.946178278266
3751.0	2.47494122015e-05	0.946203027678
3754.0	1.64996081343e-05	0.946219527286
3757.0	8.24980406715e-05	0.946302025327
3760.0	3.29992162686e-05	0.946335024543
3763.0	2.47494122015e-05	0.946359773955
3766.0	2.47494122015e-05	0.946384523368
3769.0	0.0011549725694	0.947539495937
3772.0	5.77486284701e-05	0.947597244565
3775.0	1.64996081343e-05	0.947613744174
3778.0	1.64996081343e-05	0.947630243782
3781.0	2.47494122015e-05	0.947654993194
3784.0	2.47494122015e-05	0.947679742606
3790.0	4.94988244029e-05	0.947729241431
3793.0	4.94988244029e-05	0.947778740255
3796.0	5.77486284701e-05	0.947836488883
3799.0	7.42482366044e-05	0.94791073712
3802.0	3.29992162686e-05	0.947943736336
3805.0	0.00023099451388	0.94817473085
3808.0	1.64996081343e-05	0.948191230458
3814.0	3.29992162686e-05	0.948224229675
3817.0	8.24980406715e-06	0.948232479479
3820.0	1.64996081343e-05	0.948248979087
3823.0	4.12490203358e-05	0.948290228107
3826.0	0.000140246669142	0.948430474776
3829.0	9.89976488058e-05	0.948529472425
3832.0	9.89976488058e-05	0.948628470074
3835.0	5.77486284701e-05	0.948686218702
3838.0	7.42482366044e-05	0.948760466939
3841.0	2.47494122015e-05	0.948785216351
3844.0	3.29992162686e-05	0.948818215567
3847.0	2.47494122015e-05	0.94884296498
3850.0	2.47494122015e-05	0.948867714392
3853.0	7.42482366044e-05	0.948941962628
3856.0	0.000536237264365	0.949478199893
3859.0	8.24980406715e-06	0.949486449697
3862.0	4.94988244029e-05	0.949535948521
3865.0	2.47494122015e-05	0.949560697933
3871.0	8.24980406715e-06	0.949568947737
3877.0	1.64996081343e-05	0.949585447346
3880.0	8.24980406715e-06	0.94959369715
3886.0	3.29992162686e-05	0.949626696366
3889.0	2.47494122015e-05	0.949651445778
3892.0	2.47494122015e-05	0.94967619519
3895.0	2.47494122015e-05	0.949700944603
3898.0	2.47494122015e-05	0.949725694015
3901.0	2.47494122015e-05	0.949750443427
3904.0	8.24980406715e-06	0.949758693231
3907.0	6.59984325372e-05	0.949824691664
3910.0	9.07478447387e-05	0.949915439508
3916.0	3.29992162686e-05	0.949948438725
3919.0	5.77486284701e-05	0.950006187353
3922.0	4.12490203358e-05	0.950047436373
3925.0	4.94988244029e-05	0.950096935198
3928.0	8.24980406715e-06	0.950105185002
3931.0	2.47494122015e-05	0.950129934414
3934.0	3.29992162686e-05	0.95016293363
3937.0	1.64996081343e-05	0.950179433238
3940.0	2.47494122015e-05	0.950204182651
3943.0	2.47494122015e-05	0.950228932063
3946.0	4.94988244029e-05	0.950278430887
3949.0	2.47494122015e-05	0.950303180299
3955.0	3.29992162686e-05	0.950336179516
3958.0	4.94988244029e-05	0.95038567834
3961.0	8.24980406715e-06	0.950393928144
3964.0	4.12490203358e-05	0.950435177165
3967.0	5.77486284701e-05	0.950492925793
3970.0	3.29992162686e-05	0.950525925009
3973.0	1.64996081343e-05	0.950542424617
3976.0	4.94988244029e-05	0.950591923442
3979.0	2.47494122015e-05	0.950616672854
3982.0	1.64996081343e-05	0.950633172462
3985.0	3.29992162686e-05	0.950666171678
3988.0	8.24980406715e-06	0.950674421482
3991.0	4.12490203358e-05	0.950715670503
3994.0	3.29992162686e-05	0.950748669719
3997.0	2.47494122015e-05	0.950773419131
4000.0	1.64996081343e-05	0.950789918739
4003.0	1.64996081343e-05	0.950806418348
4006.0	8.24980406715e-06	0.950814668152
4009.0	8.24980406715e-06	0.950822917956
4012.0	1.64996081343e-05	0.950839417564
4015.0	2.47494122015e-05	0.950864166976
4018.0	0.000148496473209	0.951012663449
4021.0	3.29992162686e-05	0.951045662666
4024.0	8.24980406715e-06	0.95105391247
4027.0	1.64996081343e-05	0.951070412078
4030.0	3.29992162686e-05	0.951103411294
4033.0	8.24980406715e-06	0.951111661098
4036.0	1.64996081343e-05	0.951128160706
4039.0	1.64996081343e-05	0.951144660314
4042.0	1.64996081343e-05	0.951161159922
4045.0	8.24980406715e-06	0.951169409727
4048.0	3.29992162686e-05	0.951202408943
4051.0	0.000214494905746	0.951416903849
4054.0	4.12490203358e-05	0.951458152869
4057.0	8.24980406715e-06	0.951466402673
4060.0	3.29992162686e-05	0.951499401889
4063.0	1.64996081343e-05	0.951515901497
4066.0	8.24980406715e-06	0.951524151301
4072.0	2.47494122015e-05	0.951548900714
4075.0	2.47494122015e-05	0.951573650126
4077.0	0.000305242750485	0.951878892876
4079.0	2.47494122015e-05	0.951903642288
4081.0	9.89976488058e-05	0.952002639937
4084.0	8.24980406715e-06	0.952010889741
4087.0	1.64996081343e-05	0.95202738935
4090.0	4.94988244029e-05	0.952076888174
4093.0	8.24980406715e-06	0.952085137978
4099.0	2.47494122015e-05	0.95210988739
4102.0	4.94988244029e-05	0.952159386215
4105.0	3.29992162686e-05	0.952192385431
4108.0	1.64996081343e-05	0.952208885039
4111.0	8.24980406715e-06	0.952217134843
4114.0	8.24980406715e-05	0.952299632884
4117.0	2.47494122015e-05	0.952324382296
4120.0	7.42482366044e-05	0.952398630533
4123.0	4.12490203358e-05	0.952439879553
4126.0	8.24980406715e-06	0.952448129357
4129.0	8.24980406715e-06	0.952456379161
4132.0	4.12490203358e-05	0.952497628181
4135.0	2.47494122015e-05	0.952522377594
4138.0	1.64996081343e-05	0.952538877202
4141.0	5.77486284701e-05	0.95259662583
4147.0	8.24980406715e-06	0.952604875634
4150.0	8.24980406715e-06	0.952613125438
4153.0	8.24980406715e-06	0.952621375242
4156.0	2.47494122015e-05	0.952646124655
4159.0	1.64996081343e-05	0.952662624263
4162.0	5.77486284701e-05	0.952720372891
4165.0	2.47494122015e-05	0.952745122303
4168.0	5.77486284701e-05	0.952802870932
4171.0	6.59984325372e-05	0.952868869364
4174.0	8.24980406715e-06	0.952877119168
4177.0	1.64996081343e-05	0.952893618777
4186.0	1.64996081343e-05	0.952910118385
4189.0	8.24980406715e-06	0.952918368189
4192.0	7.42482366044e-05	0.952992616425
4195.0	1.64996081343e-05	0.953009116033
4198.0	3.29992162686e-05	0.95304211525
4201.0	6.59984325372e-05	0.953108113682
4204.0	2.47494122015e-05	0.953132863095
4207.0	1.64996081343e-05	0.953149362703
4210.0	8.24980406715e-06	0.953157612507
4213.0	2.47494122015e-05	0.953182361919
4219.0	1.64996081343e-05	0.953198861527
4222.0	1.64996081343e-05	0.953215361135
4225.0	2.47494122015e-05	0.953240110547
4228.0	1.64996081343e-05	0.953256610156
4231.0	5.77486284701e-05	0.953314358784
4237.0	5.77486284701e-05	0.953372107412
4240.0	6.59984325372e-05	0.953438105845
4243.0	8.24980406715e-06	0.953446355649
4246.0	1.64996081343e-05	0.953462855257
4249.0	1.64996081343e-05	0.953479354865
4258.0	8.24980406715e-06	0.953487604669
4261.0	9.89976488058e-05	0.953586602318
4264.0	5.77486284701e-05	0.953644350947
4267.0	9.07478447387e-05	0.953735098791
4270.0	0.00011549725694	0.953850596048
4273.0	0.00140246669142	0.95525306274
4276.0	4.94988244029e-05	0.955302561564
4279.0	7.42482366044e-05	0.955376809801
4282.0	2.47494122015e-05	0.955401559213
4285.0	3.29992162686e-05	0.955434558429
4288.0	4.94988244029e-05	0.955484057254
4291.0	2.47494122015e-05	0.955508806666
4294.0	4.12490203358e-05	0.955550055686
4297.0	2.47494122015e-05	0.955574805098
4300.0	2.47494122015e-05	0.955599554511
4303.0	3.29992162686e-05	0.955632553727
4306.0	3.29992162686e-05	0.955665552943
4309.0	8.24980406715e-06	0.955673802747
4312.0	2.47494122015e-05	0.955698552159
4315.0	2.47494122015e-05	0.955723301572
4318.0	1.64996081343e-05	0.95573980118
4321.0	1.64996081343e-05	0.955756300788
4324.0	4.12490203358e-05	0.955797549808
4327.0	3.29992162686e-05	0.955830549024
4330.0	2.47494122015e-05	0.955855298437
4333.0	4.12490203358e-05	0.955896547457
4336.0	3.29992162686e-05	0.955929546673
4339.0	0.000255743926082	0.956185290599
4342.0	0.000354741574888	0.956540032174
4345.0	8.24980406715e-06	0.956548281978
4348.0	0.000123747061007	0.956672029039
4351.0	6.59984325372e-05	0.956738027472
4354.0	8.24980406715e-06	0.956746277276
4357.0	8.24980406715e-06	0.95675452708
4360.0	4.94988244029e-05	0.956804025904
4363.0	7.42482366044e-05	0.956878274141
4366.0	2.47494122015e-05	0.956903023553
4369.0	2.47494122015e-05	0.956927772965
4372.0	8.24980406715e-06	0.956936022769
4375.0	4.12490203358e-05	0.95697727179
4378.0	1.64996081343e-05	0.956993771398
4381.0	8.24980406715e-05	0.957076269439
4384.0	6.59984325372e-05	0.957142267871
4387.0	2.47494122015e-05	0.957167017283
4389.0	0.000148496473209	0.957315513757
4393.0	4.12490203358e-05	0.957356762777
4396.0	1.64996081343e-05	0.957373262385
4399.0	1.64996081343e-05	0.957389761993
4402.0	3.29992162686e-05	0.957422761209
4405.0	2.47494122015e-05	0.957447510622
4409.0	8.24980406715e-06	0.957455760426
4411.0	4.94988244029e-05	0.95750525925
4414.0	2.47494122015e-05	0.957530008662
4417.0	5.77486284701e-05	0.957587757291
4420.0	6.59984325372e-05	0.957653755723
4423.0	3.29992162686e-05	0.95768675494
4425.0	5.77486284701e-05	0.957744503568
4429.0	3.29992162686e-05	0.957777502784
4432.0	8.24980406715e-06	0.957785752588
4435.0	3.29992162686e-05	0.957818751805
4438.0	8.24980406715e-06	0.957827001609
4441.0	8.24980406715e-06	0.957835251413
4444.0	0.00023099451388	0.958066245927
4447.0	0.000478488635895	0.958544734563
4450.0	0.000123747061007	0.958668481624
4453.0	4.94988244029e-05	0.958717980448
4456.0	1.64996081343e-05	0.958734480056
4459.0	8.24980406715e-06	0.95874272986
4462.0	4.94988244029e-05	0.958792228685
4465.0	5.77486284701e-05	0.958849977313
4467.0	5.77486284701e-05	0.958907725942
4471.0	4.12490203358e-05	0.958948974962
4474.0	1.64996081343e-05	0.95896547457
4477.0	8.24980406715e-05	0.959047972611
4480.0	8.24980406715e-06	0.959056222415
4483.0	1.64996081343e-05	0.959072722023
4486.0	1.64996081343e-05	0.959089221631
4489.0	1.64996081343e-05	0.959105721239
4492.0	8.24980406715e-06	0.959113971043
4495.0	0.000140246669142	0.959254217712
4498.0	8.24980406715e-06	0.959262467516
4501.0	0.00011549725694	0.959377964773
4503.0	4.12490203358e-05	0.959419213794
4507.0	3.29992162686e-05	0.95945221301
4513.0	8.24980406715e-06	0.959460462814
4516.0	0.000305242750485	0.959765705564
4519.0	2.47494122015e-05	0.959790454977
4522.0	2.47494122015e-05	0.959815204389
4525.0	3.29992162686e-05	0.959848203605
4528.0	1.64996081343e-05	0.959864703213
4531.0	8.24980406715e-06	0.959872953017
4534.0	8.24980406715e-06	0.959881202821
4537.0	2.47494122015e-05	0.959905952234
4543.0	4.12490203358e-05	0.959947201254
4546.0	8.24980406715e-06	0.959955451058
4549.0	4.12490203358e-05	0.959996700078
4552.0	1.64996081343e-05	0.960013199687
4555.0	3.29992162686e-05	0.960046198903
4558.0	3.29992162686e-05	0.960079198119
4561.0	2.47494122015e-05	0.960103947531
4564.0	3.29992162686e-05	0.960136946748
4567.0	8.24980406715e-06	0.960145196552
4570.0	2.47494122015e-05	0.960169945964
4573.0	2.47494122015e-05	0.960194695376
4576.0	1.64996081343e-05	0.960211194984
4579.0	8.24980406715e-06	0.960219444788
4582.0	8.24980406715e-06	0.960227694592
4585.0	2.47494122015e-05	0.960252444004
4587.0	3.29992162686e-05	0.960285443221
4597.0	3.29992162686e-05	0.960318442437
4600.0	1.64996081343e-05	0.960334942045
4606.0	3.29992162686e-05	0.960367941261
4609.0	3.29992162686e-05	0.960400940478
4615.0	3.29992162686e-05	0.960433939694
4618.0	2.47494122015e-05	0.960458689106
4621.0	8.24980406715e-05	0.960541187147
4628.0	1.64996081343e-05	0.960557686755
4630.0	2.47494122015e-05	0.960582436167
4632.0	1.64996081343e-05	0.960598935775
4636.0	1.64996081343e-05	0.960615435383
4639.0	0.000404240399291	0.961019675783
4642.0	0.000329992162686	0.961349667945
4651.0	9.89976488058e-05	0.961448665594
4654.0	2.47494122015e-05	0.961473415006
4657.0	4.94988244029e-05	0.961522913831
4660.0	1.64996081343e-05	0.961539413439
4663.0	8.24980406715e-06	0.961547663243
4665.0	3.29992162686e-05	0.961580662459
4669.0	3.29992162686e-05	0.961613661676
4672.0	2.47494122015e-05	0.961638411088
4681.0	2.47494122015e-05	0.9616631605
4684.0	8.24980406715e-06	0.961671410304
4687.0	4.12490203358e-05	0.961712659324
4690.0	9.07478447387e-05	0.961803407169
4692.0	0.00139421688735	0.963197624056
4699.0	8.24980406715e-06	0.96320587386
4702.0	4.12490203358e-05	0.963247122881
4705.0	8.24980406715e-06	0.963255372685
4708.0	8.24980406715e-06	0.963263622489
4717.0	1.64996081343e-05	0.963280122097
4720.0	8.24980406715e-06	0.963288371901
4723.0	1.64996081343e-05	0.963304871509
4726.0	1.64996081343e-05	0.963321371117
4729.0	1.64996081343e-05	0.963337870726
4734.0	0.000214494905746	0.963552365631
4741.0	8.24980406715e-06	0.963560615435
4744.0	8.24980406715e-06	0.963568865239
4747.0	1.64996081343e-05	0.963585364848
4750.0	0.000131996865074	0.963717361713
4753.0	0.000140246669142	0.963857608382
4756.0	2.47494122015e-05	0.963882357794
4759.0	3.29992162686e-05	0.96391535701
4762.0	8.24980406715e-06	0.963923606814
4765.0	8.24980406715e-06	0.963931856618
4768.0	8.24980406715e-06	0.963940106422
4774.0	2.47494122015e-05	0.963964855835
4777.0	1.64996081343e-05	0.963981355443
4789.0	4.12490203358e-05	0.964022604463
4792.0	3.29992162686e-05	0.964055603679
4795.0	8.24980406715e-06	0.964063853483
4801.0	2.47494122015e-05	0.964088602896
4804.0	2.47494122015e-05	0.964113352308
4810.0	1.64996081343e-05	0.964129851916
4812.0	4.94988244029e-05	0.96417935074
4816.0	0.00134471806295	0.965524068803
4819.0	8.24980406715e-06	0.965532318607
4825.0	8.24980406715e-06	0.965540568412
4828.0	3.29992162686e-05	0.965573567628
4831.0	4.12490203358e-05	0.965614816648
4834.0	1.64996081343e-05	0.965631316256
4837.0	8.24980406715e-06	0.96563956606
4840.0	8.24980406715e-06	0.965647815864
4843.0	1.64996081343e-05	0.965664315473
4846.0	8.24980406715e-06	0.965672565277
4849.0	1.64996081343e-05	0.965689064885
4852.0	8.24980406715e-06	0.965697314689
4858.0	2.47494122015e-05	0.965722064101
4861.0	6.59984325372e-05	0.965788062534
4864.0	1.64996081343e-05	0.965804562142
4867.0	3.29992162686e-05	0.965837561358
4870.0	1.64996081343e-05	0.965854060966
4873.0	2.47494122015e-05	0.965878810378
4878.0	2.47494122015e-05	0.96590355979
4881.0	0.000123747061007	0.966027306851
4885.0	3.29992162686e-05	0.966060306068
4887.0	4.12490203358e-05	0.966101555088
4894.0	1.64996081343e-05	0.966118054696
4899.0	0.00152621375242	0.967644268449
4903.0	1.64996081343e-05	0.967660768057
4906.0	2.47494122015e-05	0.967685517469
4912.0	8.24980406715e-06	0.967693767273
4915.0	1.64996081343e-05	0.967710266881
4918.0	2.47494122015e-05	0.967735016293
4921.0	8.24980406715e-06	0.967743266097
4924.0	3.29992162686e-05	0.967776265314
4926.0	3.29992162686e-05	0.96780926453
4933.0	3.29992162686e-05	0.967842263746
4936.0	1.64996081343e-05	0.967858763354
4939.0	2.47494122015e-05	0.967883512767
4941.0	0.000354741574888	0.968238254341
4944.0	3.29992162686e-05	0.968271253558
4948.0	3.29992162686e-05	0.968304252774
4951.0	8.24980406715e-06	0.968312502578
4954.0	1.64996081343e-05	0.968329002186
4960.0	1.64996081343e-05	0.968345501794
4963.0	8.24980406715e-06	0.968353751598
4969.0	1.64996081343e-05	0.968370251207
4972.0	3.29992162686e-05	0.968403250423
4975.0	8.24980406715e-06	0.968411500227
4978.0	3.29992162686e-05	0.968444499443
4981.0	4.94988244029e-05	0.968493998268
4984.0	2.47494122015e-05	0.96851874768
4987.0	8.24980406715e-06	0.968526997484
4990.0	1.64996081343e-05	0.968543497092
4993.0	8.24980406715e-06	0.968551746896
4996.0	1.64996081343e-05	0.968568246504
4999.0	2.47494122015e-05	0.968592995916
5001.0	1.64996081343e-05	0.968609495524
5005.0	1.64996081343e-05	0.968625995133
5007.0	8.24980406715e-05	0.968708493173
5010.0	9.07478447387e-05	0.968799241018
5017.0	2.47494122015e-05	0.96882399043
5019.0	6.59984325372e-05	0.968889988863
5022.0	2.47494122015e-05	0.968914738275
5025.0	1.64996081343e-05	0.968931237883
5029.0	4.94988244029e-05	0.968980736708
5032.0	4.12490203358e-05	0.969021985728
5035.0	1.64996081343e-05	0.969038485336
5038.0	1.64996081343e-05	0.969054984944
5040.0	2.47494122015e-05	0.969079734356
5047.0	8.24980406715e-05	0.969162232397
5050.0	7.42482366044e-05	0.969236480634
5053.0	8.24980406715e-05	0.969318978674
5055.0	4.12490203358e-05	0.969360227695
5059.0	2.47494122015e-05	0.969384977107
5062.0	1.64996081343e-05	0.969401476715
5065.0	2.47494122015e-05	0.969426226127
5068.0	8.24980406715e-06	0.969434475931
5070.0	6.59984325372e-05	0.969500474364
5073.0	0.00023099451388	0.969731468878
5080.0	8.24980406715e-06	0.969739718682
5083.0	4.94988244029e-05	0.969789217506
5089.0	1.64996081343e-05	0.969805717114
5091.0	2.47494122015e-05	0.969830466526
5095.0	1.64996081343e-05	0.969846966135
5097.0	0.000305242750485	0.970152208885
5101.0	0.000560986676566	0.970713195562
5103.0	0.000222744709813	0.970935940271
5107.0	4.12490203358e-05	0.970977189292
5112.0	9.89976488058e-05	0.971076186941
5116.0	4.94988244029e-05	0.971125685765
5119.0	4.12490203358e-05	0.971166934785
5121.0	9.07478447387e-05	0.97125768263
5125.0	8.24980406715e-06	0.971265932434
5128.0	2.47494122015e-05	0.971290681846
5131.0	2.47494122015e-05	0.971315431259
5136.0	8.24980406715e-06	0.971323681063
5140.0	8.24980406715e-06	0.971331930867
5146.0	4.12490203358e-05	0.971373179887
5152.0	8.24980406715e-06	0.971381429691
5155.0	1.64996081343e-05	0.971397929299
5158.0	4.94988244029e-05	0.971447428124
5160.0	0.00172420905004	0.973171637174
5167.0	1.64996081343e-05	0.973188136782
5169.0	2.47494122015e-05	0.973212886194
5173.0	8.24980406715e-06	0.973221135998
5175.0	1.64996081343e-05	0.973237635606
5179.0	8.24980406715e-06	0.97324588541
5182.0	1.64996081343e-05	0.973262385018
5185.0	1.64996081343e-05	0.973278884626
5188.0	8.24980406715e-06	0.973287134431
5199.0	2.47494122015e-05	0.973311883843
5203.0	1.64996081343e-05	0.973328383451
5206.0	3.29992162686e-05	0.973361382667
5209.0	1.64996081343e-05	0.973377882275
5215.0	8.24980406715e-06	0.973386132079
5217.0	8.24980406715e-06	0.973394381883
5224.0	8.24980406715e-06	0.973402631687
5227.0	2.47494122015e-05	0.9734273811
5230.0	1.64996081343e-05	0.973443880708
5233.0	1.64996081343e-05	0.973460380316
5235.0	4.12490203358e-05	0.973501629336
5238.0	4.12490203358e-05	0.973542878357
5242.0	5.77486284701e-05	0.973600626985
5245.0	8.24980406715e-06	0.973608876789
5247.0	3.29992162686e-05	0.973641876005
5251.0	1.64996081343e-05	0.973658375614
5254.0	8.24980406715e-06	0.973666625418
5256.0	1.64996081343e-05	0.973683125026
5260.0	2.47494122015e-05	0.973707874438
5262.0	1.64996081343e-05	0.973724374046
5266.0	8.24980406715e-06	0.97373262385
5269.0	3.29992162686e-05	0.973765623066
5272.0	2.47494122015e-05	0.973790372479
5275.0	8.24980406715e-06	0.973798622283
5281.0	1.64996081343e-05	0.973815121891
5283.0	2.47494122015e-05	0.973839871303
5287.0	8.24980406715e-06	0.973848121107
5292.0	1.64996081343e-05	0.973864620715
5296.0	8.24980406715e-06	0.973872870519
5299.0	3.29992162686e-05	0.973905869736
5302.0	1.64996081343e-05	0.973922369344
5305.0	8.24980406715e-06	0.973930619148
5307.0	0.000131996865074	0.974062616013
5313.0	0.000734232561977	0.974796848575
5317.0	2.47494122015e-05	0.974821597987
5320.0	7.42482366044e-05	0.974895846224
5322.0	4.94988244029e-05	0.974945345048
5326.0	8.24980406715e-06	0.974953594852
5329.0	1.64996081343e-05	0.97497009446
5331.0	8.24980406715e-06	0.974978344264
5335.0	8.24980406715e-06	0.974986594068
5340.0	8.24980406715e-06	0.974994843872
5344.0	8.24980406715e-06	0.975003093677
5347.0	1.64996081343e-05	0.975019593285
5350.0	7.42482366044e-05	0.975093841521
5353.0	4.12490203358e-05	0.975135090542
5355.0	1.64996081343e-05	0.97515159015
5359.0	8.24980406715e-06	0.975159839954
5362.0	8.24980406715e-06	0.975168089758
5364.0	3.29992162686e-05	0.975201088974
5368.0	2.47494122015e-05	0.975225838386
5371.0	8.24980406715e-06	0.97523408819
5374.0	8.24980406715e-06	0.975242337994
5380.0	8.24980406715e-06	0.975250587799
5383.0	1.64996081343e-05	0.975267087407
5386.0	2.47494122015e-05	0.975291836819
5388.0	1.64996081343e-05	0.975308336427
5391.0	1.64996081343e-05	0.975324836035
5394.0	3.29992162686e-05	0.975357835251
5397.0	8.24980406715e-06	0.975366085055
5401.0	2.47494122015e-05	0.975390834468
5407.0	8.24980406715e-06	0.975399084272
5409.0	3.29992162686e-05	0.975432083488
5415.0	8.24980406715e-06	0.975440333292
5422.0	1.64996081343e-05	0.9754568329
5425.0	8.24980406715e-06	0.975465082704
5428.0	3.29992162686e-05	0.975498081921
5433.0	0.00129521923854	0.976793301159
5437.0	8.24980406715e-06	0.976801550963
5439.0	1.64996081343e-05	0.976818050571
5443.0	8.24980406715e-06	0.976826300375
5451.0	2.47494122015e-05	0.976851049788
5454.0	8.24980406715e-06	0.976859299592
5458.0	2.47494122015e-05	0.976884049004
5461.0	8.24980406715e-06	0.976892298808
5473.0	8.24980406715e-06	0.976900548612
5475.0	8.24980406715e-06	0.976908798416
5479.0	4.12490203358e-05	0.976950047436
5481.0	5.77486284701e-05	0.977007796065
5484.0	8.24980406715e-06	0.977016045869
5488.0	8.24980406715e-06	0.977024295673
5491.0	2.47494122015e-05	0.977049045085
5493.0	8.24980406715e-06	0.977057294889
5499.0	8.24980406715e-06	0.977065544693
5503.0	1.64996081343e-05	0.977082044301
5505.0	1.64996081343e-05	0.97709854391
5521.0	8.24980406715e-06	0.977106793714
5524.0	1.64996081343e-05	0.977123293322
5526.0	2.47494122015e-05	0.977148042734
5530.0	8.24980406715e-06	0.977156292538
5532.0	1.64996081343e-05	0.977172792146
5536.0	1.64996081343e-05	0.977189291754
5542.0	8.24980406715e-06	0.977197541558
5545.0	1.64996081343e-05	0.977214041167
5548.0	8.24980406715e-06	0.977222290971
5550.0	1.64996081343e-05	0.977238790579
5554.0	1.64996081343e-05	0.977255290187
5556.0	1.64996081343e-05	0.977271789795
5559.0	4.12490203358e-05	0.977313038815
5563.0	8.24980406715e-06	0.977321288619
5565.0	2.47494122015e-05	0.977346038032
5568.0	4.12490203358e-05	0.977387287052
5574.0	3.29992162686e-05	0.977420286268
5589.0	3.29992162686e-05	0.977453285484
5595.0	1.64996081343e-05	0.977469785093
5599.0	8.24980406715e-06	0.977478034897
5601.0	2.47494122015e-05	0.977502784309
5604.0	3.29992162686e-05	0.977535783525
5608.0	8.24980406715e-06	0.977544033329
5611.0	8.24980406715e-06	0.977552283133
5617.0	8.24980406715e-06	0.977560532937
5628.0	8.24980406715e-06	0.977568782741
5631.0	1.64996081343e-05	0.97758528235
5634.0	8.24980406715e-06	0.977593532154
5637.0	5.77486284701e-05	0.977651280782
5640.0	4.12490203358e-05	0.977692529802
5643.0	3.29992162686e-05	0.977725529019
5647.0	2.47494122015e-05	0.977750278431
5652.0	8.24980406715e-06	0.977758528235
5656.0	8.24980406715e-06	0.977766778039
5662.0	8.24980406715e-06	0.977775027843
5665.0	8.24980406715e-06	0.977783277647
5667.0	0.00152621375242	0.9793094914
5670.0	0.000676483933507	0.979985975333
5673.0	8.24980406715e-06	0.979994225137
5676.0	2.47494122015e-05	0.980018974549
5679.0	1.64996081343e-05	0.980035474157
5683.0	1.64996081343e-05	0.980051973766
5685.0	1.64996081343e-05	0.980068473374
5688.0	2.47494122015e-05	0.980093222786
5692.0	2.47494122015e-05	0.980117972198
5701.0	1.64996081343e-05	0.980134471806
5704.0	8.24980406715e-06	0.98014272161
5706.0	1.64996081343e-05	0.980159221218
5709.0	2.47494122015e-05	0.980183970631
5716.0	8.24980406715e-06	0.980192220435
5719.0	8.24980406715e-06	0.980200470239
5722.0	8.24980406715e-06	0.980208720043
5724.0	3.29992162686e-05	0.980241719259
5734.0	8.24980406715e-06	0.980249969063
5736.0	1.64996081343e-05	0.980266468671
5745.0	8.24980406715e-06	0.980274718475
5748.0	8.24980406715e-06	0.98028296828
5751.0	8.24980406715e-06	0.980291218084
5755.0	8.24980406715e-06	0.980299467888
5758.0	8.24980406715e-06	0.980307717692
5761.0	8.24980406715e-06	0.980315967496
5763.0	2.47494122015e-05	0.980340716908
5766.0	1.64996081343e-05	0.980357216516
5769.0	8.24980406715e-06	0.98036546632
5773.0	1.64996081343e-05	0.980381965928
5778.0	8.24980406715e-06	0.980390215732
5781.0	2.47494122015e-05	0.980414965145
5785.0	1.64996081343e-05	0.980431464753
5788.0	8.24980406715e-06	0.980439714557
5791.0	8.24980406715e-06	0.980447964361
5794.0	1.64996081343e-05	0.980464463969
5796.0	1.64996081343e-05	0.980480963577
5799.0	1.64996081343e-05	0.980497463185
5805.0	8.24980406715e-06	0.980505712989
5808.0	8.24980406715e-06	0.980513962793
5815.0	8.24980406715e-06	0.980522212597
5818.0	1.64996081343e-05	0.980538712206
5821.0	2.47494122015e-05	0.980563461618
5823.0	1.64996081343e-05	0.980579961226
5826.0	2.47494122015e-05	0.980604710638
5829.0	8.24980406715e-06	0.980612960442
5832.0	8.24980406715e-05	0.980695458483
5836.0	3.29992162686e-05	0.980728457699
5838.0	0.000544487068432	0.981272944768
5842.0	8.24980406715e-06	0.981281194572
5845.0	8.24980406715e-06	0.981289444376
5848.0	8.24980406715e-06	0.98129769418
5850.0	1.64996081343e-05	0.981314193788
5853.0	0.00114672276533	0.982460916553
5856.0	0.00164171100936	0.984102627563
5859.0	2.47494122015e-05	0.984127376975
5862.0	1.64996081343e-05	0.984143876583
5866.0	1.64996081343e-05	0.984160376191
5868.0	8.24980406715e-06	0.984168625995
5875.0	8.24980406715e-06	0.984176875799
5878.0	8.24980406715e-06	0.984185125603
5880.0	8.24980406715e-06	0.984193375407
5889.0	1.64996081343e-05	0.984209875015
5893.0	1.64996081343e-05	0.984226374624
5896.0	8.24980406715e-06	0.984234624428
5901.0	1.64996081343e-05	0.984251124036
5904.0	8.24980406715e-06	0.98425937384
5907.0	1.64996081343e-05	0.984275873448
5914.0	8.24980406715e-06	0.984284123252
5920.0	8.24980406715e-06	0.984292373056
5923.0	1.64996081343e-05	0.984308872664
5925.0	8.24980406715e-06	0.984317122468
5928.0	8.24980406715e-06	0.984325372272
5931.0	8.24980406715e-06	0.984333622076
5938.0	8.24980406715e-06	0.984341871881
5943.0	8.24980406715e-06	0.984350121685
5947.0	2.47494122015e-05	0.984374871097
5953.0	8.24980406715e-06	0.984383120901
5956.0	8.24980406715e-06	0.984391370705
5958.0	8.24980406715e-06	0.984399620509
5961.0	2.47494122015e-05	0.984424369921
5968.0	1.64996081343e-05	0.984440869529
5970.0	1.64996081343e-05	0.984457369137
5979.0	8.24980406715e-06	0.984465618942
5982.0	8.24980406715e-06	0.984473868746
5985.0	2.47494122015e-05	0.984498618158
5994.0	1.64996081343e-05	0.984515117766
6003.0	8.24980406715e-06	0.98452336757
6012.0	1.64996081343e-05	0.984539867178
6015.0	8.24980406715e-06	0.984548116982
6022.0	8.24980406715e-06	0.984556366786
6024.0	7.42482366044e-05	0.984630615023
6027.0	1.64996081343e-05	0.984647114631
6030.0	2.47494122015e-05	0.984671864043
6036.0	8.24980406715e-06	0.984680113847
6048.0	1.64996081343e-05	0.984696613455
6051.0	8.24980406715e-06	0.984704863259
6058.0	8.24980406715e-06	0.984713113064
6063.0	1.64996081343e-05	0.984729612672
6066.0	8.24980406715e-06	0.984737862476
6070.0	2.47494122015e-05	0.984762611888
6078.0	2.47494122015e-05	0.9847873613
6081.0	1.64996081343e-05	0.984803860908
6084.0	1.64996081343e-05	0.984820360516
6087.0	2.47494122015e-05	0.984845109929
6090.0	1.64996081343e-05	0.984861609537
6096.0	2.47494122015e-05	0.984886358949
6099.0	3.29992162686e-05	0.984919358165
6102.0	1.64996081343e-05	0.984935857773
6105.0	8.24980406715e-06	0.984944107577
6108.0	1.64996081343e-05	0.984960607186
6112.0	8.24980406715e-06	0.98496885699
6117.0	2.47494122015e-05	0.984993606402
6126.0	2.47494122015e-05	0.985018355814
6132.0	5.77486284701e-05	0.985076104443
6135.0	2.47494122015e-05	0.985100853855
6138.0	2.47494122015e-05	0.985125603267
6141.0	8.24980406715e-06	0.985133853071
6151.0	8.24980406715e-06	0.985142102875
6153.0	8.24980406715e-06	0.985150352679
6156.0	1.64996081343e-05	0.985166852287
6162.0	5.77486284701e-05	0.985224600916
6165.0	4.94988244029e-05	0.98527409974
6168.0	2.47494122015e-05	0.985298849152
6171.0	1.64996081343e-05	0.98531534876
6177.0	8.24980406715e-06	0.985323598565
6180.0	1.64996081343e-05	0.985340098173
6184.0	8.24980406715e-06	0.985348347977
6187.0	8.24980406715e-06	0.985356597781
6192.0	8.24980406715e-06	0.985364847585
6195.0	8.24980406715e-06	0.985373097389
6198.0	1.64996081343e-05	0.985389596997
6204.0	2.47494122015e-05	0.985414346409
6207.0	8.24980406715e-06	0.985422596213
6217.0	8.24980406715e-06	0.985430846017
6222.0	8.24980406715e-06	0.985439095821
6226.0	8.24980406715e-06	0.985447345626
6238.0	1.64996081343e-05	0.985463845234
6246.0	1.64996081343e-05	0.985480344842
6249.0	8.24980406715e-06	0.985488594646
6258.0	3.29992162686e-05	0.985521593862
6264.0	2.47494122015e-05	0.985546343274
6268.0	2.47494122015e-05	0.985571092687
6283.0	8.24980406715e-06	0.985579342491
6291.0	8.24980406715e-06	0.985587592295
6294.0	4.12490203358e-05	0.985628841315
6298.0	8.24980406715e-06	0.985637091119
6300.0	8.24980406715e-06	0.985645340923
6307.0	8.24980406715e-06	0.985653590727
6309.0	8.24980406715e-06	0.985661840531
6312.0	1.64996081343e-05	0.985678340139
6315.0	8.24980406715e-06	0.985686589943
6321.0	0.000866229427051	0.986552819371
6327.0	1.64996081343e-05	0.986569318979
6331.0	1.64996081343e-05	0.986585818587
6333.0	8.24980406715e-06	0.986594068391
6336.0	8.24980406715e-06	0.986602318195
6342.0	3.29992162686e-05	0.986635317411
6346.0	8.24980406715e-06	0.986643567215
6354.0	1.64996081343e-05	0.986660066823
6364.0	8.24980406715e-06	0.986668316627
6369.0	8.24980406715e-06	0.986676566432
6372.0	8.24980406715e-06	0.986684816236
6378.0	8.24980406715e-06	0.98669306604
6394.0	8.24980406715e-06	0.986701315844
6396.0	8.24980406715e-06	0.986709565648
6403.0	8.24980406715e-06	0.986717815452
6405.0	2.47494122015e-05	0.986742564864
6409.0	1.64996081343e-05	0.986759064472
6412.0	8.24980406715e-06	0.986767314276
6417.0	8.24980406715e-06	0.98677556408
6420.0	0.000453739223693	0.987229303304
6423.0	2.47494122015e-05	0.987254052716
6426.0	1.64996081343e-05	0.987270552324
6433.0	8.24980406715e-06	0.987278802128
6436.0	8.24980406715e-06	0.987287051933
6441.0	8.24980406715e-06	0.987295301737
6447.0	3.29992162686e-05	0.987328300953
6456.0	3.29992162686e-05	0.987361300169
6459.0	8.24980406715e-06	0.987369549973
6468.0	8.24980406715e-06	0.987377799777
6472.0	8.24980406715e-06	0.987386049581
6475.0	8.24980406715e-06	0.987394299385
6483.0	1.64996081343e-05	0.987410798994
6486.0	8.24980406715e-06	0.987419048798
6489.0	1.64996081343e-05	0.987435548406
6495.0	2.47494122015e-05	0.987460297818
6504.0	8.24980406715e-06	0.987468547622
6510.0	8.24980406715e-06	0.987476797426
6526.0	8.24980406715e-06	0.98748504723
6531.0	8.24980406715e-06	0.987493297034
6535.0	8.24980406715e-06	0.987501546838
6540.0	2.47494122015e-05	0.98752629625
6543.0	3.29992162686e-05	0.987559295467
6549.0	0.000123747061007	0.987683042528
6552.0	4.12490203358e-05	0.987724291548
6558.0	1.64996081343e-05	0.987740791156
6564.0	3.29992162686e-05	0.987773790372
6567.0	4.12490203358e-05	0.987815039393
6570.0	4.12490203358e-05	0.987856288413
6576.0	8.24980406715e-06	0.987864538217
6585.0	1.64996081343e-05	0.987881037825
6588.0	1.64996081343e-05	0.987897537433
6591.0	0.000874479231118	0.988772016665
6594.0	0.000131996865074	0.98890401353
6597.0	1.64996081343e-05	0.988920513138
6612.0	8.24980406715e-06	0.988928762942
6615.0	8.24980406715e-06	0.988937012746
6618.0	8.24980406715e-06	0.98894526255
6621.0	2.47494122015e-05	0.988970011962
6625.0	8.24980406715e-06	0.988978261766
6633.0	8.24980406715e-06	0.98898651157
6642.0	8.24980406715e-06	0.988994761374
6648.0	8.24980406715e-06	0.989003011178
6651.0	8.24980406715e-06	0.989011260983
6654.0	1.64996081343e-05	0.989027760591
6660.0	8.24980406715e-06	0.989036010395
6666.0	8.24980406715e-06	0.989044260199
6669.0	8.24980406715e-06	0.989052510003
6672.0	0.00197995297612	0.991032462979
6675.0	0.000989976488058	0.992022439467
6679.0	1.64996081343e-05	0.992038939075
6682.0	8.24980406715e-06	0.992047188879
6688.0	8.24980406715e-06	0.992055438683
6693.0	1.64996081343e-05	0.992071938291
6699.0	8.24980406715e-06	0.992080188096
6717.0	8.24980406715e-06	0.9920884379
6723.0	1.64996081343e-05	0.992104937508
6726.0	1.64996081343e-05	0.992121437116
6735.0	2.47494122015e-05	0.992146186528
6741.0	8.24980406715e-06	0.992154436332
6747.0	8.24980406715e-06	0.992162686136
6750.0	8.24980406715e-06	0.99217093594
6753.0	8.24980406715e-06	0.992179185744
6762.0	8.24980406715e-06	0.992187435548
6768.0	1.64996081343e-05	0.992203935157
6777.0	8.24980406715e-06	0.992212184961
6783.0	8.24980406715e-06	0.992220434765
6786.0	8.24980406715e-06	0.992228684569
6789.0	8.24980406715e-06	0.992236934373
6792.0	1.64996081343e-05	0.992253433981
6795.0	8.24980406715e-06	0.992261683785
6798.0	8.24980406715e-06	0.992269933589
6804.0	0.000247494122015	0.992517427711
6810.0	8.24980406715e-06	0.992525677515
6816.0	1.64996081343e-05	0.992542177123
6819.0	1.64996081343e-05	0.992558676731
6822.0	8.24980406715e-06	0.992566926535
6834.0	2.47494122015e-05	0.992591675948
6837.0	4.94988244029e-05	0.992641174772
6846.0	8.24980406715e-06	0.992649424576
6858.0	8.24980406715e-06	0.99265767438
6879.0	8.24980406715e-06	0.992665924184
6885.0	8.24980406715e-06	0.992674173988
6888.0	1.64996081343e-05	0.992690673597
6891.0	8.24980406715e-06	0.992698923401
6897.0	8.24980406715e-06	0.992707173205
6900.0	1.64996081343e-05	0.992723672813
6903.0	1.64996081343e-05	0.992740172421
6906.0	8.24980406715e-06	0.992748422225
6916.0	8.24980406715e-06	0.992756672029
6921.0	8.24980406715e-06	0.992764921833
6924.0	1.64996081343e-05	0.992781421441
6927.0	8.24980406715e-06	0.992789671245
6933.0	8.24980406715e-06	0.992797921049
6939.0	1.64996081343e-05	0.992814420658
6942.0	2.47494122015e-05	0.99283917007
6948.0	8.24980406715e-06	0.992847419874
6951.0	2.47494122015e-05	0.992872169286
6958.0	8.24980406715e-06	0.99288041909
6960.0	8.24980406715e-06	0.992888668894
6973.0	8.24980406715e-06	0.992896918698
6981.0	8.24980406715e-06	0.992905168502
6985.0	8.24980406715e-06	0.992913418306
6990.0	1.64996081343e-05	0.992929917914
6993.0	8.24980406715e-06	0.992938167719
7002.0	8.24980406715e-06	0.992946417523
7009.0	8.24980406715e-06	0.992954667327
7032.0	8.24980406715e-06	0.992962917131
7038.0	0.000701233345708	0.993664150476
7041.0	1.64996081343e-05	0.993680650085
7044.0	8.24980406715e-06	0.993688899889
7047.0	8.24980406715e-06	0.993697149693
7062.0	8.24980406715e-06	0.993705399497
7075.0	8.24980406715e-06	0.993713649301
7083.0	8.24980406715e-06	0.993721899105
7086.0	1.64996081343e-05	0.993738398713
7092.0	1.64996081343e-05	0.993754898321
7097.0	8.24980406715e-06	0.993763148125
7110.0	1.64996081343e-05	0.993779647733
7137.0	8.24980406715e-06	0.993787897537
7161.0	8.24980406715e-06	0.993796147342
7170.0	8.24980406715e-06	0.993804397146
7176.0	8.24980406715e-06	0.99381264695
7179.0	8.24980406715e-06	0.993820896754
7189.0	8.24980406715e-06	0.993829146558
7203.0	8.24980406715e-06	0.993837396362
7209.0	8.24980406715e-06	0.993845646166
7212.0	0.00150146434022	0.995347110506
7215.0	8.24980406715e-06	0.99535536031
7233.0	8.24980406715e-06	0.995363610114
7242.0	1.64996081343e-05	0.995380109722
7245.0	0.000445489419626	0.995825599142
7247.0	0.000123747061007	0.995949346203
7254.0	1.64996081343e-05	0.995965845811
7281.0	2.47494122015e-05	0.995990595223
7287.0	8.24980406715e-06	0.995998845027
7299.0	1.64996081343e-05	0.996015344636
7314.0	8.24980406715e-06	0.99602359444
7320.0	8.24980406715e-06	0.996031844244
7323.0	8.24980406715e-06	0.996040094048
7326.0	8.24980406715e-06	0.996048343852
7329.0	8.24980406715e-06	0.996056593656
7332.0	8.24980406715e-06	0.99606484346
7334.0	0.00166646042156	0.997731303882
7336.0	0.000131996865074	0.997863300747
7338.0	8.24980406715e-06	0.997871550551
7350.0	8.24980406715e-06	0.997879800355
7377.0	8.24980406715e-06	0.997888050159
7393.0	8.24980406715e-06	0.997896299963
7395.0	8.24980406715e-06	0.997904549767
7413.0	8.24980406715e-06	0.997912799571
7416.0	2.47494122015e-05	0.997937548983
7428.0	8.24980406715e-06	0.997945798787
7434.0	8.24980406715e-06	0.997954048591
7440.0	8.24980406715e-06	0.997962298395
7467.0	8.24980406715e-06	0.997970548199
7470.0	8.24980406715e-06	0.997978798004
7482.0	1.64996081343e-05	0.997995297612
7494.0	1.64996081343e-05	0.99801179722
7503.0	8.24980406715e-06	0.998020047024
7506.0	8.24980406715e-06	0.998028296828
7509.0	8.24980406715e-06	0.998036546632
7521.0	8.24980406715e-06	0.998044796436
7533.0	8.24980406715e-06	0.99805304624
7539.0	1.64996081343e-05	0.998069545848
7561.0	8.24980406715e-06	0.998077795652
7587.0	8.24980406715e-06	0.998086045456
7590.0	1.64996081343e-05	0.998102545065
7602.0	8.24980406715e-06	0.998110794869
7604.0	1.64996081343e-05	0.998127294477
7626.0	8.24980406715e-06	0.998135544281
7638.0	8.24980406715e-06	0.998143794085
7641.0	8.24980406715e-06	0.998152043889
7644.0	8.24980406715e-06	0.998160293693
7656.0	8.24980406715e-06	0.998168543497
7692.0	8.24980406715e-06	0.998176793301
7701.0	8.24980406715e-06	0.998185043105
7713.0	8.24980406715e-06	0.998193292909
7716.0	8.24980406715e-06	0.998201542713
7719.0	8.24980406715e-06	0.998209792517
7722.0	8.24980406715e-06	0.998218042321
7725.0	8.24980406715e-06	0.998226292126
7740.0	8.24980406715e-06	0.99823454193
7752.0	8.24980406715e-06	0.998242791734
7754.0	8.24980406715e-06	0.998251041538
7797.0	8.24980406715e-06	0.998259291342
7806.0	8.24980406715e-06	0.998267541146
7812.0	8.24980406715e-06	0.99827579095
7827.0	1.64996081343e-05	0.998292290558
7845.0	8.24980406715e-06	0.998300540362
7854.0	8.24980406715e-06	0.998308790166
7856.0	8.24980406715e-06	0.99831703997
7860.0	8.24980406715e-06	0.998325289774
7872.0	8.24980406715e-06	0.998333539578
7887.0	8.24980406715e-06	0.998341789383
7902.0	8.24980406715e-06	0.998350039187
7917.0	8.24980406715e-06	0.998358288991
7947.0	8.24980406715e-06	0.998366538795
8004.0	8.24980406715e-06	0.998374788599
8013.0	8.24980406715e-06	0.998383038403
8054.0	0.000585736088768	0.998968774492
8060.0	8.24980406715e-06	0.998977024296
8094.0	8.24980406715e-06	0.9989852741
8097.0	8.24980406715e-06	0.998993523904
8124.0	8.24980406715e-06	0.999001773708
8136.0	8.24980406715e-06	0.999010023512
8151.0	8.24980406715e-06	0.999018273316
8160.0	8.24980406715e-06	0.99902652312
8238.0	1.64996081343e-05	0.999043022728
8243.0	8.24980406715e-06	0.999051272532
8255.0	1.64996081343e-05	0.99906777214
8268.0	8.24980406715e-06	0.999076021944
8273.0	8.24980406715e-06	0.999084271749
8286.0	8.24980406715e-06	0.999092521553
8319.0	1.64996081343e-05	0.999109021161
8346.0	8.24980406715e-06	0.999117270965
8355.0	8.24980406715e-06	0.999125520769
8424.0	8.24980406715e-06	0.999133770573
8459.0	8.24980406715e-06	0.999142020377
8463.0	8.24980406715e-06	0.999150270181
8484.0	8.24980406715e-06	0.999158519985
8514.0	8.24980406715e-06	0.999166769789
8547.0	8.24980406715e-06	0.999175019593
8610.0	8.24980406715e-06	0.999183269397
8828.0	8.24980406715e-06	0.999191519201
9036.0	8.24980406715e-06	0.999199769005
9197.0	8.24980406715e-06	0.99920801881
9227.0	8.24980406715e-06	0.999216268614
9239.0	8.24980406715e-06	0.999224518418
9315.0	8.24980406715e-06	0.999232768222
9341.0	1.64996081343e-05	0.99924926783
9377.0	8.24980406715e-06	0.999257517634
9383.0	8.24980406715e-06	0.999265767438
9473.0	8.24980406715e-06	0.999274017242
9761.0	8.24980406715e-06	0.999282267046
9770.0	0.000107247452873	0.999389514499
10240.0	0.000305242750485	0.99969475725
10242.0	4.94988244029e-05	0.999744256074
13348.0	0.000206245101679	0.999950501176
13350.0	5.77486284701e-05	1.0
