#
# Generated On: 2012-02-03T17:56:27.103916
#           By: cwa.analyze.node_utilization
#      Version: 12.1.1
#       Author: Thomas A. de Ruiter <thomas@de-ruiter.cx>
#
#  Commandline: /home/af10028/bin/cwa analyze
#     Work Dir: /scratch/af10028/var/thesis-project/result/analyses/workload-01h-04944l-0s-fair
#

Time	HostCount
0	1545
3600	1545
7200	1353
10800	62
14400	0
