#
# Generated On: 2012-02-09T13:54:34.127050
#           By: cwa.analyze.statistics
#      Version: 11.11.23
#       Author: Thomas A. de Ruiter <thomas@de-ruiter.cx>
#
#  Commandline: /home/af10028/bin/cwa analyze
#     Work Dir: /scratch/af10028/var/thesis-project/result/workload-analyses/workload-06h-00123l-5s
#

Value	PDF	CDF
1.0	0.00689655172414	0.0137931034483
3.0	0.0137931034483	0.0275862068966
6.0	0.0275862068966	0.0551724137931
8.0	0.00689655172414	0.0620689655172
10.0	0.0137931034483	0.0758620689655
12.0	0.0137931034483	0.0896551724138
14.0	0.0206896551724	0.110344827586
18.0	0.0206896551724	0.131034482759
20.0	0.0137931034483	0.144827586207
26.0	0.00689655172414	0.151724137931
29.0	0.0137931034483	0.165517241379
32.0	0.0206896551724	0.186206896552
34.0	0.0137931034483	0.2
36.0	0.00689655172414	0.206896551724
38.0	0.00689655172414	0.213793103448
45.0	0.00689655172414	0.220689655172
47.0	0.00689655172414	0.227586206897
50.0	0.00689655172414	0.234482758621
52.0	0.00689655172414	0.241379310345
58.0	0.0137931034483	0.255172413793
62.0	0.00689655172414	0.262068965517
70.0	0.0137931034483	0.275862068966
73.0	0.0137931034483	0.289655172414
78.0	0.00689655172414	0.296551724138
91.0	0.00689655172414	0.303448275862
93.0	0.00689655172414	0.310344827586
98.0	0.00689655172414	0.31724137931
113.0	0.0137931034483	0.331034482759
120.0	0.0137931034483	0.344827586207
128.0	0.00689655172414	0.351724137931
134.0	0.0137931034483	0.365517241379
137.0	0.00689655172414	0.372413793103
147.0	0.0137931034483	0.386206896552
157.0	0.00689655172414	0.393103448276
164.0	0.00689655172414	0.4
178.0	0.00689655172414	0.406896551724
197.0	0.00689655172414	0.413793103448
199.0	0.00689655172414	0.420689655172
205.0	0.00689655172414	0.427586206897
212.0	0.00689655172414	0.434482758621
224.0	0.00689655172414	0.441379310345
237.0	0.00689655172414	0.448275862069
248.0	0.00689655172414	0.455172413793
260.0	0.00689655172414	0.462068965517
270.0	0.00689655172414	0.468965517241
276.0	0.00689655172414	0.475862068966
281.0	0.00689655172414	0.48275862069
292.0	0.0137931034483	0.496551724138
302.0	0.00689655172414	0.503448275862
320.0	0.00689655172414	0.510344827586
326.0	0.00689655172414	0.51724137931
332.0	0.00689655172414	0.524137931034
357.0	0.00689655172414	0.531034482759
376.0	0.00689655172414	0.537931034483
378.0	0.00689655172414	0.544827586207
381.0	0.00689655172414	0.551724137931
387.0	0.0137931034483	0.565517241379
401.0	0.00689655172414	0.572413793103
407.0	0.00689655172414	0.579310344828
419.0	0.0137931034483	0.593103448276
435.0	0.00689655172414	0.6
446.0	0.0137931034483	0.613793103448
451.0	0.00689655172414	0.620689655172
456.0	0.00689655172414	0.627586206897
459.0	0.0137931034483	0.641379310345
495.0	0.00689655172414	0.648275862069
503.0	0.00689655172414	0.655172413793
523.0	0.00689655172414	0.662068965517
536.0	0.00689655172414	0.668965517241
548.0	0.00689655172414	0.675862068966
550.0	0.00689655172414	0.68275862069
570.0	0.00689655172414	0.689655172414
572.0	0.00689655172414	0.696551724138
581.0	0.00689655172414	0.703448275862
609.0	0.00689655172414	0.710344827586
638.0	0.00689655172414	0.71724137931
641.0	0.0137931034483	0.731034482759
655.0	0.00689655172414	0.737931034483
669.0	0.00689655172414	0.744827586207
715.0	0.00689655172414	0.751724137931
743.0	0.00689655172414	0.758620689655
779.0	0.00689655172414	0.765517241379
790.0	0.00689655172414	0.772413793103
793.0	0.00689655172414	0.779310344828
795.0	0.00689655172414	0.786206896552
816.0	0.00689655172414	0.793103448276
846.0	0.00689655172414	0.8
877.0	0.00689655172414	0.806896551724
891.0	0.00689655172414	0.813793103448
898.0	0.00689655172414	0.820689655172
946.0	0.00689655172414	0.827586206897
997.0	0.00689655172414	0.834482758621
1113.0	0.00689655172414	0.841379310345
1127.0	0.00689655172414	0.848275862069
1130.0	0.00689655172414	0.855172413793
1139.0	0.00689655172414	0.862068965517
1161.0	0.00689655172414	0.868965517241
1195.0	0.00689655172414	0.875862068966
1224.0	0.00689655172414	0.88275862069
1230.0	0.00689655172414	0.889655172414
1279.0	0.00689655172414	0.896551724138
1314.0	0.00689655172414	0.903448275862
1395.0	0.00689655172414	0.910344827586
1418.0	0.00689655172414	0.91724137931
1727.0	0.00689655172414	0.924137931034
1733.0	0.00689655172414	0.931034482759
1760.0	0.00689655172414	0.937931034483
1820.0	0.00689655172414	0.944827586207
1823.0	0.00689655172414	0.951724137931
1907.0	0.00689655172414	0.958620689655
2007.0	0.00689655172414	0.965517241379
2138.0	0.00689655172414	0.972413793103
2220.0	0.00689655172414	0.979310344828
2415.0	0.00689655172414	0.986206896552
2829.0	0.00689655172414	0.993103448276
2875.0	0.00689655172414	1.0
3520.0	0.00689655172414	1.0
