#
# Generated On: 2012-02-05T16:50:57.830551
#           By: cwa.analyze.statistics
#      Version: 11.11.23
#       Author: Thomas A. de Ruiter <thomas@de-ruiter.cx>
#
#  Commandline: /home/af10028/bin/cwa analyze
#     Work Dir: /scratch/af10028/var/thesis-project/result/analyses/workload-01h-06180l-1s-default
#

Time	Sum	Avg	StdDev	CoV	0.000000-Pct	0.010000-Pct	0.100000-Pct	1.000000-Pct	2.000000-Pct	5.000000-Pct	25.000000-Pct	50.000000-Pct	75.000000-Pct	95.000000-Pct	98.000000-Pct	99.000000-Pct	99.900000-Pct	99.990000-Pct	100.000000-Pct
1326942600	21517884.0	181.516588637	455.899781318	2.51161496996	2.0	2.0	2.0	2.0	2.0	2.0	6.0	36.0	155.0	836.0	1517.0	2132.0	5269.0	9311.0	16222.0
1326946200	1084071.0	148.910851648	381.609888191	2.56267346514	2.0	2.0	2.0	2.0	2.0	2.0	5.0	27.0	113.0	710.0	1280.0	1904.0	4000.0	7953.0	7953.0
1326949800	0	0	0	0															
