#
# Generated On: 2012-02-05T16:57:50.737822
#           By: cwa.analyze.statistics
#      Version: 11.11.23
#       Author: Thomas A. de Ruiter <thomas@de-ruiter.cx>
#
#  Commandline: /home/af10028/bin/cwa analyze
#     Work Dir: /scratch/af10028/var/thesis-project/result/analyses/workload-01h-07416l-3s-default
#

Time	Sum	Avg	StdDev	CoV	0.000000-Pct	0.010000-Pct	0.100000-Pct	1.000000-Pct	2.000000-Pct	5.000000-Pct	25.000000-Pct	50.000000-Pct	75.000000-Pct	95.000000-Pct	98.000000-Pct	99.000000-Pct	99.900000-Pct	99.990000-Pct	100.000000-Pct
1326957000	5101290.0	2515.42899408	2296.22881568	0.91285773563	2.0	2.0	2.0	2.0	3.0	3.0	296.0	1787.0	4846.0	5325.0	6849.0	8002.0	12194.0	13609.0	13609.0
1326960600	41165.0	4116.5	2474.23138458	0.601052200797	529.0	529.0	529.0	529.0	529.0	529.0	533.0	5652.5	5653.0	5657.0	5657.0	5657.0	5657.0	5657.0	5657.0
