#
# Generated On: 2012-02-05T16:58:13.319217
#           By: cwa.analyze.statistics
#      Version: 11.11.23
#       Author: Thomas A. de Ruiter <thomas@de-ruiter.cx>
#
#  Commandline: /home/af10028/bin/cwa analyze
#     Work Dir: /scratch/af10028/var/thesis-project/result/analyses/workload-01h-07416l-3s-default
#

Value	PDF	CDF
2.0	0.26302065345	0.263037922221
5.0	0.146111072736	0.409148994958
8.0	0.0527560958762	0.461905090834
11.0	0.0410133314913	0.502918422325
14.0	0.0335186848104	0.536437107135
17.0	0.0282862471507	0.564723354286
20.0	0.0232437659736	0.58796712026
23.0	0.0217931891967	0.609760309456
26.0	0.0200145057678	0.629774815224
29.0	0.0169924708158	0.64676728604
32.0	0.0148166056503	0.66158389169
35.0	0.0138322856945	0.675416177385
38.0	0.0124335152311	0.687849692616
41.0	0.0114319265041	0.69928161912
44.0	0.0113973889618	0.710679008082
47.0	0.00918698625406	0.719865994336
50.0	0.0093596739656	0.729225668301
53.0	0.0081508599848	0.737376528286
56.0	0.00784002210403	0.74521655039
59.0	0.00740830282517	0.752624853215
62.0	0.00680389583477	0.75942874905
65.0	0.00695931477516	0.766388063825
68.0	0.00635490778476	0.77274297161
71.0	0.00594045727706	0.778683428887
74.0	0.00568142570975	0.784364854597
77.0	0.00564688816744	0.790011742764
80.0	0.00497340609242	0.794985148857
83.0	0.00531878151551	0.800303930372
86.0	0.00476618083857	0.805070111211
89.0	0.00388547350971	0.808955584721
92.0	0.00455895558472	0.813514540305
95.0	0.0042653864751	0.81777992678
98.0	0.00374732334047	0.821527250121
101.0	0.00354009808662	0.825067348208
104.0	0.00409269876356	0.829160046971
107.0	0.00373005456932	0.83289010154
110.0	0.00355736685777	0.836447468398
113.0	0.00290115355391	0.839348621952
116.0	0.003246528977	0.842595150929
119.0	0.00267665952891	0.845271810458
122.0	0.00297022863853	0.848242039096
125.0	0.00288388478276	0.851125923879
128.0	0.00288388478276	0.854009808662
131.0	0.00226220902121	0.856272017683
134.0	0.00265939075775	0.858931408441
137.0	0.00210679008082	0.861038198522
140.0	0.00267665952891	0.863714858051
143.0	0.00241762796159	0.866132486012
146.0	0.00196863991158	0.868101125924
149.0	0.00212405885197	0.870225184776
152.0	0.00179595220004	0.872021136976
155.0	0.00219313393659	0.874214270912
158.0	0.00207225253851	0.876286523451
161.0	0.00212405885197	0.878410582303
164.0	0.00157145817504	0.879982040478
167.0	0.00183048974235	0.88181253022
170.0	0.00169233957312	0.883504869793
173.0	0.00151965186157	0.885024521655
176.0	0.00146784554811	0.886492367203
179.0	0.00151965186157	0.888012019065
182.0	0.00158872694619	0.889600746011
185.0	0.00141603923465	0.891016785246
188.0	0.00150238309042	0.892519168336
191.0	0.00150238309042	0.894021551426
194.0	0.00131242660772	0.895333978034
197.0	0.00132969537888	0.896663673413
200.0	0.00148511431927	0.898148787732
203.0	0.00124335152311	0.899392139255
206.0	0.00124335152311	0.900635490778
209.0	0.00108793258272	0.901723423361
212.0	0.00131242660772	0.903035849969
215.0	0.00122608275195	0.904261932721
218.0	0.00103612626925	0.90529805899
221.0	0.00103612626925	0.906334185259
224.0	0.00124335152311	0.907577536782
227.0	0.000949782413483	0.908527319196
230.0	0.00129515783657	0.909822477033
233.0	0.000984319955792	0.910806796988
236.0	0.000932513642329	0.911739310631
239.0	0.000949782413483	0.912689093044
242.0	0.000828901015404	0.91351799406
245.0	0.000984319955792	0.914502314015
248.0	0.00108793258272	0.915590246598
251.0	0.000863438557712	0.916453685156
254.0	0.000897976100021	0.917351661256
257.0	0.000915244871175	0.918266906127
260.0	0.000932513642329	0.919199419769
263.0	0.000811632244249	0.920011052014
266.0	0.000759825930787	0.920770877944
269.0	0.000638944532707	0.921409822477
272.0	0.00069075084617	0.922100573323
275.0	0.000535331905782	0.922635905229
278.0	0.00122608275195	0.923861987981
281.0	0.000794363473095	0.924656351454
284.0	0.000897976100021	0.925554327554
287.0	0.00056986944809	0.926124197002
290.0	0.000587138219244	0.926711335221
293.0	0.000708019617324	0.927419354839
296.0	0.00056986944809	0.927989224287
299.0	0.000466256821165	0.928455481108
302.0	0.000673482075016	0.929128963183
305.0	0.000777094701941	0.929906057885
308.0	0.000725288388478	0.930631346273
311.0	0.000621675761553	0.931253022035
314.0	0.000708019617324	0.931961041652
317.0	0.000604406990399	0.932565448643
320.0	0.000794363473095	0.933359812116
323.0	0.000880707328866	0.934240519445
326.0	0.000552600676936	0.934793120122
329.0	0.000414450507702	0.935207570629
332.0	0.000379912965393	0.935587483595
335.0	0.000345375423085	0.935932859018
338.0	0.000379912965393	0.936312771983
341.0	0.000414450507702	0.936727222491
344.0	0.000656213303861	0.937383435795
347.0	0.000535331905782	0.9379187677
350.0	0.000621675761553	0.938540443462
353.0	0.000293569109622	0.938834012572
356.0	0.000483525592319	0.939317538164
359.0	0.000293569109622	0.939611107274
362.0	0.000466256821165	0.940077364095
365.0	0.000552600676936	0.940629964772
368.0	0.000345375423085	0.940975340195
371.0	0.000431719278856	0.941407059474
374.0	0.000362644194239	0.941769703668
377.0	0.000431719278856	0.942201422947
380.0	0.000397181736548	0.942598604683
383.0	0.000466256821165	0.943064861504
386.0	0.000345375423085	0.943410236928
389.0	0.000224494025005	0.943634730953
392.0	0.000259031567314	0.94389376252
395.0	0.000431719278856	0.944325481799
398.0	0.000293569109622	0.944619050908
401.0	0.000241762796159	0.944860813704
404.0	0.000535331905782	0.94539614561
407.0	0.000379912965393	0.945776058576
410.0	0.000293569109622	0.946069627685
413.0	0.000310837880776	0.946380465566
416.0	0.000621675761553	0.947002141328
419.0	0.000638944532707	0.94764108586
422.0	0.000241762796159	0.947882848656
425.0	0.000224494025005	0.948107342681
428.0	0.000293569109622	0.948400911791
431.0	0.000241762796159	0.948642674587
434.0	0.000276300338468	0.948918974926
437.0	0.000224494025005	0.949143468951
440.0	0.000241762796159	0.949385231747
443.0	0.000224494025005	0.949609725772
446.0	0.000328106651931	0.949937832424
449.0	0.000224494025005	0.950162326449
452.0	0.000155418940388	0.950317745389
455.0	0.000189956482697	0.950507701872
458.0	0.00012088139808	0.95062858327
461.0	0.00012088139808	0.950749464668
464.0	0.000172687711542	0.95092215238
467.0	8.63438557712e-05	0.951008496235
470.0	0.000397181736548	0.951405677972
473.0	0.000259031567314	0.951664709539
476.0	0.000207225253851	0.951871934793
479.0	0.000276300338468	0.952148235132
482.0	0.000224494025005	0.952372729157
485.0	0.000276300338468	0.952649029495
488.0	0.000276300338468	0.952925329834
491.0	0.000241762796159	0.95316709263
494.0	0.000138150169234	0.953305242799
497.0	0.000189956482697	0.953495199282
500.0	0.000259031567314	0.953754230849
503.0	0.000172687711542	0.95392691856
506.0	0.000259031567314	0.954185950128
509.0	0.000138150169234	0.954324100297
512.0	0.000397181736548	0.954721282034
515.0	0.000362644194239	0.955083926228
518.0	0.000241762796159	0.955325689024
521.0	0.000345375423085	0.955671064447
524.0	0.000138150169234	0.955809214616
527.0	0.000310837880776	0.956120052497
530.0	0.000293569109622	0.956413621607
533.0	0.000155418940388	0.956569040547
536.0	0.000172687711542	0.956741728259
539.0	0.00012088139808	0.956862609657
542.0	0.000189956482697	0.957052566139
545.0	0.000224494025005	0.957277060164
548.0	0.000708019617324	0.957985079782
551.0	0.000328106651931	0.958313186434
554.0	0.000207225253851	0.958520411688
557.0	0.000138150169234	0.958658561857
560.0	0.000103612626925	0.958762174484
563.0	0.000259031567314	0.959021206051
566.0	0.000138150169234	0.95915935622
569.0	0.000224494025005	0.959383850245
572.0	0.000241762796159	0.959625613041
575.0	0.000138150169234	0.959763763211
578.0	0.000138150169234	0.95990191338
581.0	0.000138150169234	0.960040063549
584.0	0.000189956482697	0.960230020032
587.0	0.000155418940388	0.960385438972
590.0	0.000138150169234	0.960523589141
593.0	0.000172687711542	0.960696276853
596.0	0.00012088139808	0.960817158251
599.0	5.18063134627e-05	0.960868964564
602.0	0.000155418940388	0.961024383505
605.0	0.000172687711542	0.961197071216
608.0	0.000207225253851	0.96140429647
611.0	0.000207225253851	0.961611521724
614.0	0.00108793258272	0.962699454307
617.0	0.000138150169234	0.962837604476
620.0	0.000172687711542	0.963010292188
623.0	0.000103612626925	0.963113904815
626.0	5.18063134627e-05	0.963165711128
629.0	0.000172687711542	0.96333839884
632.0	0.000276300338468	0.963614699178
635.0	5.18063134627e-05	0.963666505491
638.0	0.000138150169234	0.963804655661
641.0	8.63438557712e-05	0.963890999516
644.0	0.000207225253851	0.96409822477
647.0	0.000397181736548	0.964495406507
650.0	0.00012088139808	0.964616287905
653.0	0.000103612626925	0.964719900532
656.0	0.000259031567314	0.964978932099
659.0	0.000189956482697	0.965168888582
662.0	0.000310837880776	0.965479726463
665.0	0.000259031567314	0.96573875803
668.0	0.000103612626925	0.965842370657
671.0	0.000103612626925	0.965945983284
674.0	0.000379912965393	0.966325896249
677.0	0.000207225253851	0.966533121503
680.0	0.000103612626925	0.96663673413
683.0	0.000466256821165	0.967102990951
686.0	0.000138150169234	0.96724114112
689.0	0.000293569109622	0.96753471023
692.0	0.00119154520964	0.96872625544
695.0	0.000414450507702	0.969140705947
698.0	5.18063134627e-05	0.969192512261
701.0	5.18063134627e-05	0.969244318574
704.0	0.000172687711542	0.969417006286
707.0	0.000293569109622	0.969710575395
710.0	3.45375423085e-05	0.969745112938
713.0	0.000155418940388	0.969900531878
716.0	0.000103612626925	0.970004144505
719.0	0.000103612626925	0.970107757132
722.0	0.000552600676936	0.970660357809
725.0	0.000172687711542	0.97083304552
728.0	1.72687711542e-05	0.970850314292
731.0	1.72687711542e-05	0.970867583063
734.0	5.18063134627e-05	0.970919389376
737.0	3.45375423085e-05	0.970953926919
740.0	6.9075084617e-05	0.971023002003
743.0	0.00012088139808	0.971143883401
746.0	8.63438557712e-05	0.971230227257
749.0	0.000103612626925	0.971333839884
752.0	0.000984319955792	0.97231815984
755.0	0.000189956482697	0.972508116322
758.0	3.45375423085e-05	0.972542653865
761.0	0.000880707328866	0.973423361194
764.0	0.00012088139808	0.973544242592
767.0	0.000189956482697	0.973734199074
770.0	0.000207225253851	0.973941424328
773.0	0.000466256821165	0.974407681149
776.0	0.000103612626925	0.974511293776
779.0	5.18063134627e-05	0.97456310009
782.0	0.000103612626925	0.974666712717
785.0	5.18063134627e-05	0.97471851903
788.0	1.72687711542e-05	0.974735787801
791.0	0.000293569109622	0.975029356911
794.0	0.000259031567314	0.975288388478
797.0	0.00012088139808	0.975409269876
800.0	8.63438557712e-05	0.975495613732
803.0	0.000155418940388	0.975651032673
806.0	6.9075084617e-05	0.975720107757
809.0	8.63438557712e-05	0.975806451613
812.0	0.000103612626925	0.97591006424
815.0	0.000259031567314	0.976169095807
818.0	0.000345375423085	0.97651447123
824.0	3.45375423085e-05	0.976549008773
827.0	6.9075084617e-05	0.976618083857
833.0	1.72687711542e-05	0.976635352628
836.0	3.45375423085e-05	0.976669890171
839.0	5.18063134627e-05	0.976721696484
842.0	1.72687711542e-05	0.976738965255
845.0	3.45375423085e-05	0.976773502798
848.0	0.000103612626925	0.976877115424
851.0	1.72687711542e-05	0.976894384196
854.0	0.000241762796159	0.977136146992
857.0	0.000241762796159	0.977377909788
860.0	5.18063134627e-05	0.977429716101
863.0	0.000103612626925	0.977533328728
866.0	5.18063134627e-05	0.977585135042
869.0	5.18063134627e-05	0.977636941355
872.0	3.45375423085e-05	0.977671478898
875.0	0.000984319955792	0.978655798853
878.0	0.000207225253851	0.978863024107
881.0	0.000345375423085	0.97920839953
884.0	0.000293569109622	0.97950196864
887.0	3.45375423085e-05	0.979536506182
890.0	0.000103612626925	0.979640118809
893.0	0.000207225253851	0.979847344063
896.0	1.72687711542e-05	0.979864612834
899.0	1.72687711542e-05	0.979881881605
902.0	5.18063134627e-05	0.979933687919
905.0	3.45375423085e-05	0.979968225461
908.0	1.72687711542e-05	0.979985494232
914.0	1.72687711542e-05	0.980002763003
917.0	1.72687711542e-05	0.980020031775
920.0	0.000379912965393	0.98039994474
923.0	0.000362644194239	0.980762588934
926.0	1.72687711542e-05	0.980779857705
932.0	3.45375423085e-05	0.980814395248
938.0	0.000103612626925	0.980918007875
941.0	5.18063134627e-05	0.980969814188
944.0	0.000846169786558	0.981815983975
947.0	0.00108793258272	0.982903916557
950.0	1.72687711542e-05	0.982921185328
953.0	6.9075084617e-05	0.982990260413
956.0	8.63438557712e-05	0.983076604269
959.0	3.45375423085e-05	0.983111141811
962.0	6.9075084617e-05	0.983180216896
965.0	3.45375423085e-05	0.983214754438
968.0	8.63438557712e-05	0.983301098294
971.0	0.000500794363473	0.983801892657
974.0	1.72687711542e-05	0.983819161428
977.0	1.72687711542e-05	0.9838364302
980.0	1.72687711542e-05	0.983853698971
983.0	3.45375423085e-05	0.983888236513
986.0	0.000293569109622	0.984181805623
989.0	1.72687711542e-05	0.984199074394
995.0	3.45375423085e-05	0.984233611936
998.0	3.45375423085e-05	0.984268149478
1001.0	0.000138150169234	0.984406299648
1004.0	0.000897976100021	0.985304275748
1007.0	1.72687711542e-05	0.985321544519
1010.0	0.000328106651931	0.985649651171
1013.0	8.63438557712e-05	0.985735995027
1016.0	1.72687711542e-05	0.985753263798
1019.0	1.72687711542e-05	0.985770532569
1022.0	3.45375423085e-05	0.985805070111
1025.0	1.72687711542e-05	0.985822338882
1028.0	0.000103612626925	0.985925951509
1031.0	5.18063134627e-05	0.985977757823
1034.0	1.72687711542e-05	0.985995026594
1037.0	1.72687711542e-05	0.986012295365
1043.0	1.72687711542e-05	0.986029564136
1046.0	1.72687711542e-05	0.986046832907
1049.0	5.18063134627e-05	0.986098639221
1052.0	6.9075084617e-05	0.986167714305
1055.0	0.000604406990399	0.986772121296
1064.0	1.72687711542e-05	0.986789390067
1067.0	1.72687711542e-05	0.986806658838
1070.0	0.000138150169234	0.986944809007
1073.0	0.000604406990399	0.987549215998
1076.0	3.45375423085e-05	0.98758375354
1082.0	5.18063134627e-05	0.987635559854
1088.0	5.18063134627e-05	0.987687366167
1094.0	0.000224494025005	0.987911860192
1097.0	1.72687711542e-05	0.987929128963
1100.0	1.72687711542e-05	0.987946397734
1106.0	3.45375423085e-05	0.987980935277
1109.0	1.72687711542e-05	0.987998204048
1118.0	3.45375423085e-05	0.98803274159
1124.0	0.000397181736548	0.988429923327
1127.0	0.000207225253851	0.988637148581
1130.0	0.000328106651931	0.988965255232
1133.0	5.18063134627e-05	0.989017061546
1139.0	3.45375423085e-05	0.989051599088
1142.0	8.63438557712e-05	0.989137942944
1145.0	1.72687711542e-05	0.989155211715
1151.0	1.72687711542e-05	0.989172480486
1154.0	1.72687711542e-05	0.989189749257
1160.0	3.45375423085e-05	0.9892242868
1166.0	0.000328106651931	0.989552393452
1169.0	3.45375423085e-05	0.989586930994
1175.0	1.72687711542e-05	0.989604199765
1178.0	0.000466256821165	0.990070456586
1181.0	1.72687711542e-05	0.990087725357
1184.0	1.72687711542e-05	0.990104994129
1187.0	1.72687711542e-05	0.9901222629
1208.0	5.18063134627e-05	0.990174069213
1214.0	3.45375423085e-05	0.990208606756
1217.0	0.000777094701941	0.990985701457
1223.0	1.72687711542e-05	0.991002970229
1238.0	1.72687711542e-05	0.991020239
1241.0	1.72687711542e-05	0.991037507771
1247.0	5.18063134627e-05	0.991089314084
1250.0	0.000328106651931	0.991417420736
1253.0	1.72687711542e-05	0.991434689507
1259.0	1.72687711542e-05	0.991451958279
1262.0	1.72687711542e-05	0.99146922705
1265.0	1.72687711542e-05	0.991486495821
1280.0	0.000673482075016	0.992159977896
1286.0	1.72687711542e-05	0.992177246667
1289.0	0.000293569109622	0.992470815777
1295.0	1.72687711542e-05	0.992488084548
1301.0	1.72687711542e-05	0.992505353319
1310.0	6.9075084617e-05	0.992574428404
1313.0	0.000155418940388	0.992729847344
1328.0	0.000138150169234	0.992867997513
1337.0	1.72687711542e-05	0.992885266284
1343.0	1.72687711542e-05	0.992902535056
1352.0	0.000155418940388	0.993057953996
1367.0	3.45375423085e-05	0.993092491538
1370.0	0.000828901015404	0.993921392554
1373.0	0.000708019617324	0.994629412171
1376.0	0.000207225253851	0.994836637425
1382.0	1.72687711542e-05	0.994853906196
1385.0	1.72687711542e-05	0.994871174967
1427.0	6.9075084617e-05	0.994940250052
1430.0	1.72687711542e-05	0.994957518823
1433.0	1.72687711542e-05	0.994974787594
1448.0	1.72687711542e-05	0.994992056365
1463.0	1.72687711542e-05	0.995009325136
1469.0	1.72687711542e-05	0.995026593908
1472.0	5.18063134627e-05	0.995078400221
1490.0	1.72687711542e-05	0.995095668992
1502.0	1.72687711542e-05	0.995112937763
1511.0	1.72687711542e-05	0.995130206535
1517.0	1.72687711542e-05	0.995147475306
1541.0	1.72687711542e-05	0.995164744077
1544.0	5.18063134627e-05	0.99521655039
1547.0	1.72687711542e-05	0.995233819161
1559.0	1.72687711542e-05	0.995251087933
1619.0	0.00012088139808	0.995371969331
1622.0	3.45375423085e-05	0.995406506873
1640.0	1.72687711542e-05	0.995423775644
1649.0	8.63438557712e-05	0.9955101195
1652.0	8.63438557712e-05	0.995596463356
1655.0	3.45375423085e-05	0.995631000898
1658.0	1.72687711542e-05	0.995648269669
1667.0	1.72687711542e-05	0.99566553844
1670.0	0.000725288388478	0.996390826829
1688.0	1.72687711542e-05	0.9964080956
1712.0	1.72687711542e-05	0.996425364371
1715.0	0.00012088139808	0.996546245769
1718.0	0.000224494025005	0.996770739794
1736.0	1.72687711542e-05	0.996788008565
1763.0	1.72687711542e-05	0.996805277336
1766.0	0.00044898805001	0.997254265386
1799.0	6.9075084617e-05	0.997323340471
1802.0	0.000138150169234	0.99746149064
1805.0	1.72687711542e-05	0.997478759411
1811.0	1.72687711542e-05	0.997496028183
1829.0	1.72687711542e-05	0.997513296954
1886.0	1.72687711542e-05	0.997530565725
1892.0	1.72687711542e-05	0.997547834496
1895.0	0.000103612626925	0.997651447123
1916.0	8.63438557712e-05	0.997737790979
1919.0	0.000638944532707	0.998376735512
2015.0	1.72687711542e-05	0.998394004283
2134.0	1.72687711542e-05	0.998411273054
2141.0	1.72687711542e-05	0.998428541825
2156.0	0.000379912965393	0.99880845479
2158.0	0.000310837880776	0.999119292671
2222.0	0.00012088139808	0.999240174069
2224.0	3.45375423085e-05	0.999274711612
2246.0	6.9075084617e-05	0.999343786696
2248.0	1.72687711542e-05	0.999361055467
2390.0	1.72687711542e-05	0.999378324238
2393.0	3.45375423085e-05	0.999412861781
2420.0	1.72687711542e-05	0.999430130552
2483.0	1.72687711542e-05	0.999447399323
2537.0	1.72687711542e-05	0.999464668094
2674.0	1.72687711542e-05	0.999481936865
2681.0	1.72687711542e-05	0.999499205637
2803.0	1.72687711542e-05	0.999516474408
2849.0	1.72687711542e-05	0.999533743179
2921.0	1.72687711542e-05	0.99955101195
2951.0	1.72687711542e-05	0.999568280721
2959.0	0.000431719278856	1.0
2977.0	1.72687711542e-05	1.0
