#
# Generated On: 2012-02-05T21:38:09.137045
#           By: cwa.analyze.statistics
#      Version: 11.11.23
#       Author: Thomas A. de Ruiter <thomas@de-ruiter.cx>
#
#  Commandline: /home/af10028/bin/cwa analyze
#     Work Dir: /scratch/af10028/var/thesis-project/result/analyses/workload-06h-11124l-2s-fair
#

Time	Sum	Avg	StdDev	CoV	0.000000-Pct	0.010000-Pct	0.100000-Pct	1.000000-Pct	2.000000-Pct	5.000000-Pct	25.000000-Pct	50.000000-Pct	75.000000-Pct	95.000000-Pct	98.000000-Pct	99.000000-Pct	99.900000-Pct	99.990000-Pct	100.000000-Pct
1327138200	135554.0	1111.09836066	2214.47394425	1.99304942088	3.0	3.0	3.0	3.0	3.0	3.0	10.0	213.5	926.0	5760.0	9529.0	11013.0	11218.0	11218.0	11218.0
1327138800	452507.0	912.3125	1536.92694079	1.68464965765	3.0	3.0	3.0	3.0	3.0	3.0	9.0	295.5	976.0	4601.0	6384.0	6912.0	9479.0	9479.0	9479.0
1327139400	372680.0	915.675675676	1676.13961173	1.83049485342	3.0	3.0	3.0	3.0	3.0	3.0	12.0	282.0	850.0	4117.0	6696.0	7749.0	13124.0	13124.0	13124.0
1327140000	457746.0	1278.62011173	2866.08344419	2.24154415991	3.0	3.0	3.0	3.0	3.0	3.0	9.0	295.0	1065.0	5662.0	7238.0	11839.0	29242.0	29242.0	29242.0
1327140600	495239.0	1149.04640371	2190.75957151	1.9065892939	2.0	2.0	2.0	3.0	3.0	3.0	19.0	375.0	1202.0	5078.0	7522.0	10985.0	18995.0	18995.0	18995.0
1327141200	559413.0	1468.27559055	3630.67793222	2.4727496361	3.0	3.0	3.0	3.0	3.0	3.0	14.0	396.0	1140.0	6025.0	12814.0	22600.0	37130.0	37130.0	37130.0
1327141800	490739.0	1264.79123711	3778.71621764	2.98762049164	2.0	2.0	2.0	3.0	3.0	3.0	10.0	246.5	835.0	5048.0	10329.0	25054.0	40501.0	40501.0	40501.0
1327142400	549660.0	1308.71428571	2884.37741437	2.20397793915	2.0	2.0	2.0	3.0	3.0	3.0	11.0	343.0	1081.0	6394.0	8742.0	15347.0	30578.0	30578.0	30578.0
1327143000	595233.0	1371.50460829	3509.16268297	2.55862259722	2.0	2.0	2.0	3.0	3.0	3.0	9.0	249.5	910.0	7260.0	12573.0	21340.0	30877.0	30877.0	30877.0
1327143600	693592.0	1441.97920998	3816.32957712	2.64659126201	3.0	3.0	3.0	3.0	3.0	3.0	9.0	262.0	938.0	7650.0	15650.0	23093.0	31677.0	31677.0	31677.0
1327144200	832235.0	1861.82326622	4559.83244742	2.44912206768	3.0	3.0	3.0	3.0	3.0	3.0	10.0	383.0	1295.0	9053.0	17542.0	29095.0	32251.0	32251.0	32251.0
1327144800	739329.0	1816.53316953	4149.30736736	2.284190257	3.0	3.0	3.0	3.0	3.0	3.0	35.0	405.0	1448.0	8346.0	19461.0	22565.0	27637.0	27637.0	27637.0
1327145400	692054.0	1605.6937355	3914.48750917	2.43787929331	3.0	3.0	3.0	3.0	3.0	3.0	10.0	363.0	1280.0	7301.0	14949.0	23102.0	33698.0	33698.0	33698.0
1327146000	596482.0	1498.69849246	4067.35580493	2.7139253328	3.0	3.0	3.0	3.0	3.0	3.0	9.0	270.5	870.0	8057.0	17610.0	22421.0	32397.0	32397.0	32397.0
1327146600	855651.0	1718.1746988	4270.14242356	2.4852783751	2.0	2.0	2.0	3.0	3.0	3.0	10.0	310.0	1209.0	7580.0	18764.0	24941.0	33955.0	33955.0	33955.0
1327147200	822103.0	1872.67198178	4534.44479562	2.42137696283	2.0	2.0	2.0	3.0	3.0	3.0	9.0	328.0	1056.0	11730.0	21593.0	24295.0	30638.0	30638.0	30638.0
1327147800	983824.0	2024.32921811	4735.07092563	2.33908145142	2.0	2.0	2.0	3.0	3.0	3.0	9.0	318.0	1255.0	13355.0	21253.0	23446.0	29774.0	29774.0	29774.0
1327148400	997703.0	2207.30752212	4858.25211975	2.2009856221	2.0	2.0	2.0	3.0	3.0	3.0	19.0	360.0	1409.0	14274.0	19930.0	23373.0	29499.0	29499.0	29499.0
1327149000	609740.0	1408.17551963	3565.46234881	2.53197296722	3.0	3.0	3.0	3.0	3.0	3.0	9.0	278.0	896.0	8013.0	17512.0	19530.0	27114.0	27114.0	27114.0
1327149600	824307.0	1819.66225166	4601.10039727	2.52854637891	2.0	2.0	2.0	3.0	3.0	3.0	9.0	353.0	952.0	9770.0	21556.0	24784.0	35674.0	35674.0	35674.0
1327150200	518619.0	1203.29234339	3068.26862441	2.54989457988	3.0	3.0	3.0	3.0	3.0	3.0	9.0	249.0	883.0	6987.0	11258.0	15767.0	30237.0	30237.0	30237.0
1327150800	700107.0	1587.54421769	4085.12478094	2.5732352746	2.0	2.0	2.0	3.0	3.0	3.0	10.0	326.0	909.0	8493.0	18897.0	24051.0	26410.0	26410.0	26410.0
1327151400	630544.0	1737.03581267	4161.25391168	2.39560628591	2.0	2.0	2.0	3.0	3.0	3.0	4.0	223.0	1074.0	10705.0	17692.0	21798.0	28235.0	28235.0	28235.0
1327152000	674123.0	1452.8512931	3800.72687738	2.61604673198	2.0	2.0	2.0	3.0	3.0	3.0	9.0	248.0	793.0	7861.0	17299.0	21332.0	23882.0	23882.0	23882.0
1327152600	746384.0	1838.38423645	4024.52712721	2.18916538089	2.0	2.0	2.0	3.0	3.0	3.0	9.0	327.0	1325.0	9417.0	15306.0	20245.0	28952.0	28952.0	28952.0
1327153200	698751.0	1505.92887931	3644.00857963	2.41977468504	2.0	2.0	2.0	3.0	3.0	3.0	9.0	292.5	937.0	8434.0	15983.0	19965.0	25796.0	25796.0	25796.0
1327153800	834546.0	1927.35796767	4006.89837722	2.07895909553	2.0	2.0	2.0	3.0	3.0	3.0	10.0	303.0	1501.0	10834.0	17300.0	20031.0	26704.0	26704.0	26704.0
1327154400	801011.0	1828.79223744	3999.00169753	2.18668999991	3.0	3.0	3.0	3.0	3.0	3.0	9.0	367.0	1146.0	10936.0	16993.0	20080.0	25618.0	25618.0	25618.0
1327155000	640682.0	1503.94835681	3487.00001547	2.31856366589	2.0	2.0	2.0	3.0	3.0	3.0	9.0	306.0	968.0	9616.0	15500.0	18045.0	22300.0	22300.0	22300.0
1327155600	821622.0	1694.06597938	3462.50152248	2.04390003968	2.0	2.0	2.0	3.0	3.0	3.0	22.0	369.0	1342.0	9467.0	15264.0	16130.0	27492.0	27492.0	27492.0
1327156200	959666.0	1878.01565558	4114.41574722	2.19083144222	2.0	2.0	2.0	3.0	3.0	3.0	18.0	333.0	1153.0	11644.0	15986.0	18749.0	26582.0	26582.0	26582.0
1327156800	857901.0	1825.3212766	3694.12521519	2.02382192251	2.0	2.0	2.0	3.0	3.0	3.0	49.0	413.0	1236.0	12193.0	14970.0	16477.0	24980.0	24980.0	24980.0
1327157400	903281.0	2516.10306407	4508.93701231	1.79203192298	2.0	2.0	2.0	3.0	3.0	3.0	28.0	562.0	2424.0	11887.0	16581.0	22305.0	29091.0	29091.0	29091.0
1327158000	632453.0	1647.01302083	3384.96811287	2.05521636445	2.0	2.0	2.0	3.0	3.0	3.0	9.0	384.0	1211.0	10219.0	14399.0	17708.0	18615.0	18615.0	18615.0
1327158600	825067.0	1624.1476378	3465.51459898	2.13374358238	2.0	2.0	2.0	3.0	3.0	3.0	9.0	293.0	1051.0	9834.0	14095.0	16598.0	24828.0	24828.0	24828.0
1327159200	518390.0	1289.52736318	2846.59877468	2.20747450264	3.0	3.0	3.0	3.0	3.0	3.0	10.0	299.0	855.0	7889.0	11701.0	13849.0	17203.0	17203.0	17203.0
1327159800	204703.0	822.100401606	2098.25943467	2.55231530185	2.0	2.0	2.0	3.0	3.0	3.0	3.0	156.0	603.0	4955.0	9103.0	13170.0	15892.0	15892.0	15892.0
