#
# Generated On: 2012-02-05T21:38:09.146853
#           By: cwa.analyze.statistics
#      Version: 11.11.23
#       Author: Thomas A. de Ruiter <thomas@de-ruiter.cx>
#
#  Commandline: /home/af10028/bin/cwa analyze
#     Work Dir: /scratch/af10028/var/thesis-project/result/analyses/workload-06h-11124l-2s-fair
#

Time	Sum	Avg	StdDev	CoV	0.000000-Pct	0.010000-Pct	0.100000-Pct	1.000000-Pct	2.000000-Pct	5.000000-Pct	25.000000-Pct	50.000000-Pct	75.000000-Pct	95.000000-Pct	98.000000-Pct	99.000000-Pct	99.900000-Pct	99.990000-Pct	100.000000-Pct
1327138200	22788.0	271.285714286	364.107973243	1.34215682607	3.0	3.0	3.0	3.0	3.0	3.0	9.0	105.5	332.0	1026.0	1379.0	1487.0	1487.0	1487.0	1487.0
1327138800	116938.0	343.935294118	445.537819498	1.29541174494	3.0	3.0	3.0	3.0	3.0	3.0	4.0	157.5	572.0	1296.0	1576.0	1701.0	2988.0	2988.0	2988.0
1327139400	96179.0	306.302547771	416.112528779	1.35850168994	3.0	3.0	3.0	3.0	3.0	3.0	5.0	132.0	488.0	1136.0	1493.0	1698.0	2382.0	2382.0	2382.0
1327140000	75493.0	311.954545455	406.55019901	1.30323537494	3.0	3.0	3.0	3.0	3.0	3.0	4.0	189.0	447.0	1233.0	1664.0	1742.0	2083.0	2083.0	2083.0
1327140600	95738.0	339.496453901	478.29550008	1.40883798515	2.0	2.0	2.0	2.0	3.0	3.0	9.0	171.0	505.0	1202.0	1862.0	2446.0	3255.0	3255.0	3255.0
1327141200	90784.0	361.689243028	425.970871121	1.17772612632	3.0	3.0	3.0	3.0	3.0	3.0	4.0	202.0	610.0	1162.0	1553.0	1770.0	2017.0	2017.0	2017.0
1327141800	87544.0	302.920415225	426.102357819	1.40664787318	2.0	2.0	2.0	3.0	3.0	3.0	9.0	142.0	459.0	1051.0	1597.0	2000.0	3627.0	3627.0	3627.0
1327142400	101469.0	347.496575342	472.173569478	1.35878625282	2.0	2.0	2.0	3.0	3.0	3.0	3.0	168.0	547.0	1181.0	1891.0	2336.0	2851.0	2851.0	2851.0
1327143000	92651.0	298.874193548	425.301880578	1.42301305954	2.0	2.0	2.0	3.0	3.0	3.0	4.0	108.0	425.0	1197.0	1514.0	2011.0	2637.0	2637.0	2637.0
1327143600	113631.0	328.413294798	496.478456409	1.51174895862	3.0	3.0	3.0	3.0	3.0	3.0	4.0	113.0	471.0	1269.0	1924.0	2411.0	3675.0	3675.0	3675.0
1327144200	101868.0	341.838926174	426.102563761	1.2465010013	3.0	3.0	3.0	3.0	3.0	3.0	4.0	168.0	561.0	1221.0	1485.0	1831.0	2704.0	2704.0	2704.0
1327144800	101677.0	394.096899225	485.892842494	1.23292734211	3.0	3.0	3.0	3.0	3.0	3.0	9.0	201.0	616.0	1527.0	1753.0	2006.0	2072.0	2072.0	2072.0
1327145400	92974.0	335.646209386	431.019247563	1.28414752054	3.0	3.0	3.0	3.0	3.0	3.0	3.0	156.0	508.0	1262.0	1587.0	1797.0	1839.0	1839.0	1839.0
1327146000	102196.0	336.171052632	440.696639879	1.31092976754	3.0	3.0	3.0	3.0	3.0	3.0	4.0	170.5	536.0	1236.0	1534.0	1927.0	3019.0	3019.0	3019.0
1327146600	109028.0	328.397590361	446.928610445	1.3609375451	2.0	2.0	2.0	3.0	3.0	3.0	4.0	162.0	466.0	1333.0	1746.0	1945.0	2466.0	2466.0	2466.0
1327147200	87666.0	305.456445993	391.532711731	1.28179554521	2.0	2.0	2.0	3.0	3.0	3.0	4.0	108.0	495.0	1091.0	1425.0	1800.0	1911.0	1911.0	1911.0
1327147800	104563.0	323.724458204	424.173132342	1.31029065488	2.0	2.0	2.0	3.0	3.0	3.0	3.0	150.0	527.0	1168.0	1447.0	1978.0	2480.0	2480.0	2480.0
1327148400	98975.0	340.120274914	434.538283661	1.27760182415	2.0	2.0	2.0	2.0	3.0	3.0	3.0	155.0	528.0	1347.0	1581.0	1831.0	2116.0	2116.0	2116.0
1327149000	100198.0	321.147435897	401.98370341	1.25171076732	3.0	3.0	3.0	3.0	3.0	3.0	4.0	176.0	526.0	1158.0	1344.0	1738.0	2053.0	2053.0	2053.0
1327149600	116486.0	359.524691358	480.766244708	1.33722733449	2.0	2.0	2.0	3.0	3.0	3.0	4.0	189.5	525.0	1413.0	1861.0	2171.0	3095.0	3095.0	3095.0
1327150200	119291.0	348.804093567	460.627278141	1.32059022998	3.0	3.0	3.0	3.0	3.0	3.0	3.0	173.5	528.0	1350.0	1689.0	1939.0	2584.0	2584.0	2584.0
1327150800	112541.0	348.424148607	431.827270548	1.23937239217	2.0	2.0	2.0	3.0	3.0	3.0	4.0	189.0	533.0	1176.0	1558.0	1855.0	2448.0	2448.0	2448.0
1327151400	87839.0	331.467924528	519.635150185	1.56767853458	2.0	2.0	2.0	3.0	3.0	3.0	3.0	109.0	487.0	1380.0	1970.0	2562.0	3719.0	3719.0	3719.0
1327152000	123337.0	328.898666667	441.546292864	1.34249949183	2.0	2.0	2.0	3.0	3.0	3.0	4.0	164.0	500.0	1220.0	1485.0	1584.0	4004.0	4004.0	4004.0
1327152600	95593.0	340.1886121	454.688445153	1.33657750136	2.0	2.0	2.0	3.0	3.0	3.0	3.0	139.0	535.0	1362.0	1726.0	1934.0	2228.0	2228.0	2228.0
1327153200	125702.0	363.300578035	484.447657213	1.33346239038	2.0	2.0	2.0	3.0	3.0	3.0	3.0	146.5	583.0	1419.0	1725.0	2178.0	3051.0	3051.0	3051.0
1327153800	85812.0	306.471428571	443.728346017	1.44786203427	3.0	3.0	3.0	3.0	3.0	3.0	3.0	128.0	417.0	1263.0	1664.0	1732.0	3304.0	3304.0	3304.0
1327154400	111935.0	364.609120521	490.668874857	1.34573944326	3.0	3.0	3.0	3.0	3.0	3.0	4.0	196.0	571.0	1242.0	1602.0	1941.0	3939.0	3939.0	3939.0
1327155000	121295.0	363.158682635	488.144395359	1.34416281009	2.0	2.0	2.0	3.0	3.0	3.0	3.0	164.5	579.0	1282.0	2017.0	2240.0	2792.0	2792.0	2792.0
1327155600	130546.0	382.832844575	487.533593027	1.27348946136	2.0	2.0	2.0	3.0	3.0	3.0	9.0	198.0	587.0	1380.0	1672.0	2199.0	3153.0	3153.0	3153.0
1327156200	117778.0	334.596590909	454.05630735	1.35702610154	2.0	2.0	2.0	3.0	3.0	3.0	10.0	179.0	495.0	1183.0	1791.0	2382.0	2891.0	2891.0	2891.0
1327156800	117303.0	356.544072948	429.510419004	1.2046488824	2.0	2.0	2.0	3.0	3.0	3.0	12.0	222.0	498.0	1236.0	1561.0	2029.0	2441.0	2441.0	2441.0
1327157400	80930.0	394.780487805	511.068618632	1.29456402841	2.0	2.0	2.0	3.0	3.0	3.0	9.0	206.0	627.0	1272.0	1879.0	2337.0	3375.0	3375.0	3375.0
1327158000	105016.0	380.492753623	515.444687044	1.35467675044	3.0	3.0	3.0	3.0	3.0	3.0	3.0	185.0	583.0	1417.0	2210.0	2466.0	3057.0	3057.0	3057.0
1327158600	116474.0	330.892045455	425.623309968	1.28629054646	2.0	2.0	2.0	3.0	3.0	3.0	3.0	176.5	570.0	1199.0	1545.0	1934.0	2263.0	2263.0	2263.0
1327159200	109087.0	343.040880503	431.866503166	1.2589359686	3.0	3.0	3.0	3.0	3.0	3.0	9.0	211.0	514.0	1197.0	1597.0	2164.0	2497.0	2497.0	2497.0
1327159800	62921.0	303.966183575	414.116246773	1.36237604428	2.0	2.0	2.0	3.0	3.0	3.0	3.0	123.0	471.0	958.0	1954.0	2074.0	2157.0	2157.0	2157.0
