#
# Generated On: 2012-02-09T17:18:44.339460
#           By: cwa.analyze.statistics
#      Version: 11.11.23
#       Author: Thomas A. de Ruiter <thomas@de-ruiter.cx>
#
#  Commandline: /home/af10028/bin/cwa analyze
#     Work Dir: /scratch/af10028/var/thesis-project/result/workload-analyses/workload-06h-11124l-5s
#

Time	Sum	Avg	StdDev	CoV	0.000000-Pct	0.010000-Pct	0.100000-Pct	1.000000-Pct	2.000000-Pct	5.000000-Pct	25.000000-Pct	50.000000-Pct	75.000000-Pct	95.000000-Pct	98.000000-Pct	99.000000-Pct	99.900000-Pct	99.990000-Pct	100.000000-Pct
1326899400	31142065.0	59.4477585443	133.454815634	2.24490912529	0.0	0.0	0.0	0.0	0.0	0.0	2.0	14.0	57.0	270.0	459.0	634.0	1417.0	2508.0	4645.0
1326985800	0	0	0	0															
