#
# Generated On: 2012-02-05T20:15:55.728735
#           By: cwa.analyze.node_utilization
#      Version: 12.1.1
#       Author: Thomas A. de Ruiter <thomas@de-ruiter.cx>
#
#  Commandline: /home/af10028/bin/cwa analyze
#     Work Dir: /scratch/af10028/var/thesis-project/result/analyses/workload-06h-08652l-5s-default
#

Time	HostCount
0	1545
3600	1545
7200	1545
10800	1545
14400	1545
18000	1545
21600	1545
25200	1545
28800	1545
32400	1264
36000	103
39600	0
