#
# Generated On: 2012-02-05T20:13:53.935825
#           By: cwa.analyze.statistics
#      Version: 11.11.23
#       Author: Thomas A. de Ruiter <thomas@de-ruiter.cx>
#
#  Commandline: /home/af10028/bin/cwa analyze
#     Work Dir: /scratch/af10028/var/thesis-project/result/analyses/workload-06h-08652l-4s-fair
#

Value	PDF	CDF
2.0	0.260623017449	0.260625895926
5.0	0.0792099157758	0.339835811702
8.0	0.0530791062906	0.392914917992
11.0	0.0407908901976	0.43370580819
14.0	0.0328606874953	0.466566495685
17.0	0.0276823083079	0.494248803993
20.0	0.0239316534545	0.518180457447
23.0	0.0215108547348	0.539691312182
26.0	0.0189662815265	0.558657593709
29.0	0.0169225632257	0.575580156935
32.0	0.0151925988613	0.590772755796
35.0	0.0139663678808	0.604739123677
38.0	0.0126624180354	0.617401541712
41.0	0.0118046320444	0.629206173756
44.0	0.0107482311762	0.639954404933
47.0	0.0100228551033	0.649977260036
50.0	0.00964577468438	0.65962303472
53.0	0.00860664467511	0.668229679395
56.0	0.00820653644439	0.67643621584
59.0	0.00789566098455	0.684331876824
62.0	0.00740919845944	0.691741075284
65.0	0.00710120147608	0.69884227676
68.0	0.00652550618009	0.70536778294
71.0	0.00629522806169	0.711663011002
74.0	0.00618584595545	0.717848856957
77.0	0.00543744207066	0.723286299028
80.0	0.00536835863514	0.728654657663
83.0	0.00516110832858	0.733815765991
86.0	0.00483008353339	0.738645849525
89.0	0.00475524314491	0.74340109267
92.0	0.00453935740891	0.747940450079
95.0	0.00423711737851	0.752177567457
98.0	0.00426014519035	0.756437712647
101.0	0.0039953253542	0.760433038002
104.0	0.00383125219484	0.764264290196
107.0	0.00364127274716	0.767905562944
110.0	0.0033332757638	0.771238838707
113.0	0.00343114396412	0.774669982672
116.0	0.00337933138748	0.778049314059
119.0	0.00322389365756	0.781273207717
122.0	0.00302527878045	0.784298486497
125.0	0.00293604600957	0.787234532507
128.0	0.00283817780925	0.790072710316
131.0	0.00276621589725	0.792838926213
134.0	0.00259638578493	0.795435311998
137.0	0.00272591722653	0.798161229225
140.0	0.00237762157245	0.800538850797
143.0	0.00248412520221	0.803022975999
146.0	0.0022423331779	0.805265309177
149.0	0.00226536098974	0.807530670167
152.0	0.00212143716574	0.809652107333
155.0	0.00206386763614	0.811715974969
158.0	0.00200917658302	0.813725151552
161.0	0.00190842990622	0.815633581458
164.0	0.00193721467102	0.817570796129
167.0	0.00183358951774	0.819404385647
170.0	0.0018393464707	0.821243732117
173.0	0.00181919713534	0.823062929253
176.0	0.0018105617059	0.824873490959
179.0	0.0017242074115	0.82659769837
182.0	0.00156301272862	0.828160711099
185.0	0.00152559253438	0.829686303633
188.0	0.00158604054046	0.831272344174
191.0	0.0015658912051	0.832838235379
194.0	0.00156013425214	0.834398369631
197.0	0.00149968624606	0.835898055877
200.0	0.00145650909886	0.837354564976
203.0	0.00129531441599	0.838649879392
206.0	0.00126940812767	0.83991928752
209.0	0.00135576242207	0.841275049942
212.0	0.00124062336287	0.842515673304
215.0	0.00135864089855	0.843874314203
218.0	0.00116002602143	0.845034340224
221.0	0.00132697765727	0.846361317882
224.0	0.00117729688031	0.847538614762
227.0	0.00116578297439	0.848704397736
230.0	0.00110533496831	0.849809732705
233.0	0.00096428962079	0.850774022325
236.0	0.00105640086815	0.851830423194
239.0	0.00109382106239	0.852924244256
242.0	0.00119744621567	0.854121690472
245.0	0.00118017535679	0.855301865828
248.0	0.00103913000927	0.856340995838
251.0	0.000981560479669	0.857322556317
254.0	0.00104776543871	0.858370321756
257.0	0.000863542943991	0.8592338647
260.0	0.00088657075583	0.860120435456
263.0	0.00096428962079	0.861084725077
266.0	0.00090959856767	0.861994323644
269.0	0.00101322372095	0.863007547365
272.0	0.000745525408312	0.863753072774
275.0	0.000852029038071	0.864605101812
278.0	0.000803094937911	0.86540819675
281.0	0.000800216461431	0.866208413211
284.0	0.000785824079031	0.86699423729
287.0	0.000843393608631	0.867837630899
290.0	0.00093550485599	0.868773135755
293.0	0.000820365796791	0.869593501551
296.0	0.000791581031991	0.870385082583
299.0	0.000745525408312	0.871130607992
302.0	0.000782945602551	0.871913553594
305.0	0.000872178373431	0.872785731968
308.0	0.000754160837752	0.873539892806
311.0	0.000653414160953	0.874193306966
314.0	0.000852029038071	0.875045336005
317.0	0.000731133025912	0.87577646903
320.0	0.000719619119992	0.87649608815
323.0	0.000716740643512	0.877212828794
326.0	0.000552667484154	0.877765496278
329.0	0.000587209201914	0.87835270548
332.0	0.000673563496313	0.879026268976
335.0	0.000682198925753	0.879708467902
338.0	0.000569938343034	0.880278406245
341.0	0.000670685019833	0.880949091265
344.0	0.000618872443193	0.881567963708
347.0	0.000716740643512	0.882284704352
350.0	0.000610237013753	0.882894941365
353.0	0.000598723107833	0.883493664473
356.0	0.000610237013753	0.884103901487
359.0	0.000636143302073	0.884740044789
362.0	0.000641900255033	0.885381945044
365.0	0.000590087678394	0.885972032723
368.0	0.000627507872633	0.886599540595
371.0	0.000587209201914	0.887186749797
374.0	0.000555545960634	0.887742295758
377.0	0.000607358537273	0.888349654295
380.0	0.000572816819514	0.888922471114
383.0	0.000598723107833	0.889521194222
386.0	0.000639021778553	0.890160216001
389.0	0.000486462525115	0.890646678526
392.0	0.000463434713275	0.891110113239
395.0	0.000480705572155	0.891590818811
398.0	0.000509490336954	0.892100309148
401.0	0.000541153578234	0.892641462727
404.0	0.000561302913594	0.89320276564
407.0	0.000564181390074	0.89376694703
410.0	0.000503733383995	0.894270680414
413.0	0.000483584048635	0.894754264463
416.0	0.000417379089595	0.895171643553
419.0	0.000457677760315	0.895629321313
422.0	0.000564181390074	0.896193502703
425.0	0.000569938343034	0.896763441046
428.0	0.000690834355192	0.897454275401
431.0	0.000523882719354	0.89797815812
434.0	0.000503733383995	0.898481891504
437.0	0.000451920807355	0.898933812312
440.0	0.000489341001595	0.899423153313
443.0	0.000371323465916	0.899794476779
446.0	0.000472070142715	0.900266546922
449.0	0.000434649948475	0.900701196871
452.0	0.000555545960634	0.901256742831
455.0	0.000391472801276	0.901648215632
458.0	0.000394351277756	0.90204256691
461.0	0.000397229754236	0.902439796664
464.0	0.000474948619195	0.902914745284
467.0	0.000477827095675	0.903392572379
470.0	0.000532518148794	0.903925090528
473.0	0.000564181390074	0.904489271918
476.0	0.000437528424955	0.904926800343
479.0	0.000523882719354	0.905450683062
482.0	0.000572816819514	0.906023499882
485.0	0.000500854907515	0.906524354789
488.0	0.000405865183676	0.906930219973
491.0	0.000497976431035	0.907428196404
494.0	0.000509490336954	0.907937686741
497.0	0.000374201942396	0.908311888684
500.0	0.000495097954555	0.908806986638
503.0	0.000388594324796	0.909195580963
506.0	0.000535396625274	0.909730977588
509.0	0.000388594324796	0.910119571913
512.0	0.000503733383995	0.910623305297
515.0	0.000417379089595	0.911040684387
518.0	0.000405865183676	0.91144654957
521.0	0.000333903271676	0.911780452842
524.0	0.000342538701116	0.912122991543
527.0	0.000518125766394	0.912641117309
530.0	0.000400108230716	0.91304122554
533.0	0.000348295654076	0.913389521194
536.0	0.000431771471995	0.913821292666
539.0	0.000495097954555	0.914316390621
542.0	0.000382837371836	0.914699227993
545.0	0.000515247289914	0.915214475283
548.0	0.000469191666235	0.915683666949
551.0	0.000538275101754	0.916221942051
554.0	0.000604480060793	0.916826422111
557.0	0.000434649948475	0.91726107206
560.0	0.000670685019833	0.91793175708
563.0	0.000472070142715	0.918403827222
566.0	0.000477827095675	0.918881654318
569.0	0.000564181390074	0.919445835708
572.0	0.000394351277756	0.919840186986
575.0	0.000420257566075	0.920260444552
578.0	0.000342538701116	0.920602983253
581.0	0.000500854907515	0.921103838161
584.0	0.000379958895356	0.921483797056
587.0	0.000466313189755	0.921950110246
590.0	0.000451920807355	0.922402031053
593.0	0.000339660224636	0.922741691278
596.0	0.000397229754236	0.923138921032
599.0	0.000466313189755	0.923605234222
602.0	0.000391472801276	0.923996707023
605.0	0.000290726124477	0.924287433147
608.0	0.000261941359677	0.924549374507
611.0	0.000310875459837	0.924860249967
614.0	0.000238913547837	0.925099163515
617.0	0.000466313189755	0.925565476704
620.0	0.000365566512956	0.925931043217
623.0	0.000362688036476	0.926293731254
626.0	0.000454799283835	0.926748530538
629.0	0.000368444989436	0.927116975527
632.0	0.000339660224636	0.927456635752
635.0	0.000319510889277	0.927776146641
638.0	0.000400108230716	0.928176254872
641.0	0.000443285377915	0.92861954025
644.0	0.000368444989436	0.928987985239
647.0	0.000434649948475	0.929422635188
650.0	0.000397229754236	0.929819864942
653.0	0.000293604600957	0.930113469543
656.0	0.000331024795196	0.930444494338
659.0	0.000316632412797	0.930761126751
662.0	0.000368444989436	0.93112957174
665.0	0.000316632412797	0.931446204153
668.0	0.000362688036476	0.93180889219
671.0	0.000382837371836	0.932191729561
674.0	0.000354052607036	0.932545782168
677.0	0.000213007259518	0.932758789428
680.0	0.000236035071357	0.932994824499
683.0	0.000293604600957	0.9332884291
686.0	0.000264819836157	0.933553248936
689.0	0.000250427453757	0.93380367639
692.0	0.000264819836157	0.934068496226
695.0	0.000221642688958	0.934290138915
698.0	0.000400108230716	0.934690247146
701.0	0.000368444989436	0.935058692135
704.0	0.000394351277756	0.935453043413
707.0	0.000238913547837	0.935691956961
710.0	0.000374201942396	0.936066158903
713.0	0.000244670500797	0.936310829404
716.0	0.000152559253438	0.936463388658
719.0	0.000192857924158	0.936656246582
722.0	0.000201493353598	0.936857739935
725.0	0.000273455265597	0.937131195201
728.0	0.000264819836157	0.937396015037
731.0	0.000405865183676	0.937801880221
734.0	0.000339660224636	0.938141540445
737.0	0.000368444989436	0.938509985435
740.0	0.000290726124477	0.938800711559
743.0	0.000218764212478	0.939019475772
746.0	0.000189979447678	0.93920945522
749.0	0.000279212218557	0.939488667438
752.0	0.000368444989436	0.939857112428
755.0	0.000299361553917	0.940156473981
758.0	0.000250427453757	0.940406901435
761.0	0.000282090695037	0.94068899213
764.0	0.000276333742077	0.940965325872
767.0	0.000296483077437	0.94126180895
770.0	0.000218764212478	0.941480573162
773.0	0.000319510889277	0.941800084052
776.0	0.000273455265597	0.942073539317
779.0	0.000224521165438	0.942298060483
782.0	0.000192857924158	0.942490918407
785.0	0.000296483077437	0.942787401484
788.0	0.000161194682878	0.942948596167
791.0	0.000236035071357	0.943184631238
794.0	0.000204371830078	0.943389003068
797.0	0.000310875459837	0.943699878528
800.0	0.000287847647997	0.943987726176
803.0	0.000253305930237	0.944241032107
806.0	0.000230278118397	0.944471310225
809.0	0.000261941359677	0.944733251585
812.0	0.000305118506877	0.945038370091
815.0	0.000195736400638	0.945234106492
818.0	0.000267698312637	0.945501804805
821.0	0.000279212218557	0.945781017023
824.0	0.000184222494718	0.945965239518
827.0	0.000267698312637	0.946232937831
830.0	0.000325267842236	0.946558205673
833.0	0.000382837371836	0.946941043045
836.0	0.000293604600957	0.947234647646
839.0	0.000310875459837	0.947545523106
842.0	0.000236035071357	0.947781558177
845.0	0.000284969171517	0.948066527348
848.0	0.000184222494718	0.948250749843
851.0	0.000569938343034	0.948820688186
854.0	0.000480705572155	0.949301393758
857.0	0.000247548977277	0.949548942736
860.0	0.000166951635838	0.949715894371
863.0	0.000198614877118	0.949914509249
866.0	0.000213007259518	0.950127516508
869.0	0.000270576789117	0.950398093297
872.0	0.000164073159358	0.950562166457
875.0	0.000241792024317	0.950803958481
878.0	0.000224521165438	0.951028479646
881.0	0.000224521165438	0.951253000812
884.0	0.000161194682878	0.951414195495
887.0	0.000181344018238	0.951595539513
890.0	0.000230278118397	0.951825817631
893.0	0.000336781748156	0.952162599379
896.0	0.000210128783038	0.952372728162
899.0	0.000282090695037	0.952654818857
902.0	0.000230278118397	0.952885096976
905.0	0.000247548977277	0.953132645953
908.0	0.000391472801276	0.953524118754
911.0	0.000181344018238	0.953705462773
914.0	0.000143923823998	0.953849386597
917.0	0.000175587065278	0.954024973662
920.0	0.000143923823998	0.954168897486
923.0	0.000192857924158	0.95436175541
926.0	0.000201493353598	0.954563248764
929.0	0.000123774488639	0.954687023252
932.0	0.000215885735998	0.954902908988
935.0	0.000267698312637	0.955170607301
938.0	0.000313753936317	0.955484361237
941.0	0.000135288394559	0.955619649632
944.0	0.000152559253438	0.955772208885
947.0	0.000213007259518	0.955985216145
950.0	0.000259062883197	0.956244279028
953.0	0.000305118506877	0.956549397535
956.0	0.000319510889277	0.956868908424
959.0	0.000192857924158	0.957061766348
962.0	0.000152559253438	0.957214325602
965.0	9.4989723839e-05	0.957309315326
968.0	0.000146802300478	0.957456117626
971.0	0.000135288394559	0.957591406021
974.0	0.000103625153279	0.957695031174
977.0	0.000161194682878	0.957856225857
980.0	0.000287847647997	0.958144073505
983.0	0.000328146318716	0.958472219823
986.0	0.000356931083516	0.958829150907
989.0	0.000215885735998	0.959045036643
992.0	0.000284969171517	0.959330005815
995.0	0.000307996983357	0.959638002798
998.0	0.000259062883197	0.959897065681
1001.0	0.000152559253438	0.960049624935
1004.0	8.63542943991e-05	0.960135979229
1007.0	0.000215885735998	0.960351864965
1010.0	0.000261941359677	0.960613806325
1013.0	0.000313753936317	0.960927560261
1016.0	0.000284969171517	0.961212529432
1019.0	0.000256184406717	0.961468713839
1022.0	0.000189979447678	0.961658693287
1025.0	0.000236035071357	0.961894728358
1028.0	0.000261941359677	0.962156669718
1031.0	0.000161194682878	0.962317864401
1034.0	0.000129531441599	0.962447395842
1037.0	0.000143923823998	0.962591319666
1040.0	0.000178465541758	0.962769785208
1043.0	0.000189979447678	0.962959764656
1046.0	0.000256184406717	0.963215949062
1049.0	0.000112260582719	0.963328209645
1052.0	0.000238913547837	0.963567123193
1055.0	0.000270576789117	0.963837699982
1058.0	0.000218764212478	0.964056464195
1061.0	0.000169830112318	0.964226294307
1064.0	0.000210128783038	0.96443642309
1067.0	0.000400108230716	0.964836531321
1070.0	0.000227399641918	0.965063930963
1073.0	0.000204371830078	0.965268302793
1076.0	0.000132409918079	0.965400712711
1079.0	0.000201493353598	0.965602206064
1082.0	0.000143923823998	0.965746129888
1085.0	0.000290726124477	0.966036856013
1088.0	0.000253305930237	0.966290161943
1091.0	0.000310875459837	0.966601037403
1094.0	0.000120896012159	0.966721933415
1097.0	0.000175587065278	0.96689752048
1100.0	0.000138166871038	0.967035687351
1103.0	0.000161194682878	0.967196882034
1106.0	0.000161194682878	0.967358076717
1109.0	0.000106503629759	0.967464580347
1112.0	0.000135288394559	0.967599868741
1115.0	0.000201493353598	0.967801362095
1118.0	0.000213007259518	0.968014369355
1121.0	0.000840515132151	0.968854884487
1124.0	0.000192857924158	0.969047742411
1127.0	9.2111247359e-05	0.969139853658
1130.0	0.000164073159358	0.969303926818
1133.0	0.000201493353598	0.969505420171
1136.0	0.000213007259518	0.969718427431
1139.0	0.000138166871038	0.969856594302
1142.0	0.000141045347518	0.969997639649
1145.0	0.000307996983357	0.970305636633
1148.0	0.000290726124477	0.970596362757
1151.0	0.000287847647997	0.970884210405
1154.0	0.000169830112318	0.971054040517
1157.0	0.000155437729918	0.971209478247
1160.0	0.000109382106239	0.971318860354
1163.0	0.000166951635838	0.971485811989
1166.0	0.000201493353598	0.971687305343
1169.0	0.000259062883197	0.971946368226
1172.0	0.000227399641918	0.972173767868
1175.0	0.000166951635838	0.972340719504
1178.0	0.000210128783038	0.972550848287
1181.0	0.000290726124477	0.972841574411
1184.0	0.000270576789117	0.973112151201
1187.0	0.000408743660156	0.973520894861
1190.0	0.000129531441599	0.973650426302
1193.0	0.000164073159358	0.973814499462
1196.0	0.000103625153279	0.973918124615
1199.0	0.000201493353598	0.974119617969
1202.0	0.000267698312637	0.974387316281
1205.0	6.62049590393e-05	0.97445352124
1208.0	0.000227399641918	0.974680920882
1211.0	0.000284969171517	0.974965890054
1214.0	0.000100746676799	0.975066636731
1217.0	0.000218764212478	0.975285400943
1220.0	0.000141045347518	0.975426446291
1223.0	0.000204371830078	0.975630818121
1226.0	0.000103625153279	0.975734443274
1229.0	0.000141045347518	0.975875488621
1232.0	0.000230278118397	0.97610576674
1235.0	0.000109382106239	0.976215148846
1238.0	0.000138166871038	0.976353315717
1241.0	0.000100746676799	0.976454062394
1244.0	0.000164073159358	0.976618135553
1247.0	0.000103625153279	0.976721760706
1250.0	0.000221642688958	0.976943403395
1253.0	0.000112260582719	0.977055663978
1256.0	0.000100746676799	0.977156410655
1259.0	0.000158316206398	0.977314726861
1262.0	0.000138166871038	0.977452893732
1265.0	0.000149680776958	0.977602574509
1268.0	0.000118017535679	0.977720592045
1271.0	8.34758179191e-05	0.977804067863
1274.0	8.34758179191e-05	0.977887543681
1277.0	0.000141045347518	0.978028589028
1280.0	0.000120896012159	0.978149485041
1283.0	8.34758179191e-05	0.978232960858
1286.0	0.000135288394559	0.978368249253
1289.0	8.05973414391e-05	0.978448846594
1292.0	6.90834355192e-05	0.97851793003
1295.0	0.000161194682878	0.978679124713
1298.0	0.000120896012159	0.978800020725
1301.0	0.000100746676799	0.978900767402
1304.0	9.4989723839e-05	0.978995757126
1307.0	8.63542943991e-05	0.97908211142
1310.0	0.000118017535679	0.979200128956
1313.0	8.9232770879e-05	0.979289361727
1316.0	7.48403884792e-05	0.979364202115
1319.0	0.000129531441599	0.979493733557
1322.0	0.000224521165438	0.979718254722
1325.0	0.000218764212478	0.979937018935
1328.0	0.000112260582719	0.980049279517
1331.0	0.000120896012159	0.980170175529
1334.0	0.000218764212478	0.980388939742
1337.0	0.000454799283835	0.980843739026
1340.0	0.000152559253438	0.980996298279
1343.0	0.000287847647997	0.981284145927
1346.0	0.000155437729918	0.981439583657
1349.0	0.000446163854395	0.981885747512
1352.0	0.000129531441599	0.982015278953
1355.0	8.05973414391e-05	0.982095876295
1358.0	8.05973414391e-05	0.982176473636
1361.0	0.000100746676799	0.982277220313
1364.0	4.89341001595e-05	0.982326154413
1367.0	0.000109382106239	0.982435536519
1370.0	0.000103625153279	0.982539161673
1373.0	0.000189979447678	0.98272914112
1376.0	7.19619119992e-05	0.982801103032
1379.0	0.000143923823998	0.982945026856
1382.0	4.60556236795e-05	0.98299108248
1385.0	6.04480060793e-05	0.983051530486
1388.0	0.000169830112318	0.983221360598
1391.0	0.000138166871038	0.983359527469
1394.0	8.05973414391e-05	0.983440124811
1397.0	0.000181344018238	0.983621468829
1400.0	0.000178465541758	0.983799934371
1403.0	0.000325267842236	0.984125202213
1406.0	6.90834355192e-05	0.984194285648
1409.0	0.000115139059199	0.984309424708
1412.0	0.000426014519035	0.984735439227
1415.0	7.19619119992e-05	0.984807401139
1418.0	6.62049590393e-05	0.984873606098
1421.0	2.30278118397e-05	0.98489663391
1424.0	5.18125766394e-05	0.984948446486
1427.0	6.04480060793e-05	0.985008894492
1430.0	6.62049590393e-05	0.985075099451
1433.0	2.01493353598e-05	0.985095248787
1436.0	3.45417177596e-05	0.985129790504
1439.0	5.18125766394e-05	0.985181603081
1442.0	6.33264825593e-05	0.985244929564
1445.0	0.000149680776958	0.985394610341
1448.0	0.000103625153279	0.985498235494
1451.0	2.87847647997e-05	0.985527020259
1454.0	2.30278118397e-05	0.985550048071
1457.0	7.77188649592e-05	0.985627766936
1460.0	9.2111247359e-05	0.985719878183
1463.0	2.59062883197e-05	0.985745784471
1466.0	0.000166951635838	0.985912736107
1469.0	0.000115139059199	0.986027875166
1472.0	0.000187100971198	0.986214976137
1475.0	0.000103625153279	0.986318601291
1478.0	6.90834355192e-05	0.986387684726
1481.0	9.2111247359e-05	0.986479795974
1484.0	3.74201942396e-05	0.986517216168
1487.0	2.87847647997e-05	0.986546000933
1490.0	0.000112260582719	0.986658261515
1493.0	0.000103625153279	0.986761886669
1496.0	5.46910531194e-05	0.986816577722
1499.0	7.48403884792e-05	0.98689141811
1502.0	7.48403884792e-05	0.986966258499
1505.0	0.000129531441599	0.98709578994
1508.0	2.87847647997e-05	0.987124574705
1511.0	6.62049590393e-05	0.987190779664
1514.0	4.31771471995e-05	0.987233956811
1517.0	5.46910531194e-05	0.987288647864
1520.0	0.000161194682878	0.987449842547
1523.0	8.34758179191e-05	0.987533318365
1526.0	2.59062883197e-05	0.987559224654
1529.0	4.60556236795e-05	0.987605280277
1532.0	0.000100746676799	0.987706026954
1535.0	4.02986707196e-05	0.987746325625
1538.0	3.74201942396e-05	0.987783745819
1540.0	0.000143923823998	0.987927669643
1544.0	4.02986707196e-05	0.987967968314
1547.0	3.45417177596e-05	0.988002510031
1550.0	4.31771471995e-05	0.988045687179
1553.0	3.74201942396e-05	0.988083107373
1556.0	5.75695295994e-05	0.988140676903
1559.0	3.74201942396e-05	0.988178097097
1562.0	6.62049590393e-05	0.988244302056
1565.0	3.45417177596e-05	0.988278843774
1568.0	1.72708588798e-05	0.988296114632
1571.0	9.78682003189e-05	0.988393982833
1574.0	8.63542943991e-05	0.988480337127
1577.0	5.75695295994e-05	0.988537906657
1580.0	1.15139059199e-05	0.988549420563
1583.0	2.87847647997e-05	0.988578205327
1586.0	7.77188649592e-05	0.988655924192
1589.0	3.45417177596e-05	0.98869046591
1592.0	2.30278118397e-05	0.988713493722
1595.0	0.000129531441599	0.988843025164
1598.0	6.62049590393e-05	0.988909230123
1601.0	7.19619119992e-05	0.988981192035
1604.0	0.000112260582719	0.989093452617
1607.0	6.62049590393e-05	0.989159657576
1610.0	7.48403884792e-05	0.989234497965
1613.0	0.000129531441599	0.989364029407
1616.0	0.000100746676799	0.989464776083
1619.0	7.19619119992e-05	0.989536737995
1622.0	2.59062883197e-05	0.989562644284
1625.0	5.75695295994e-05	0.989620213813
1628.0	0.000129531441599	0.989749745255
1631.0	0.000166951635838	0.989916696891
1634.0	6.62049590393e-05	0.98998290185
1637.0	2.59062883197e-05	0.990008808138
1640.0	4.60556236795e-05	0.990054863762
1643.0	8.05973414391e-05	0.990135461103
1646.0	7.19619119992e-05	0.990207423015
1649.0	3.16632412797e-05	0.990239086256
1652.0	1.15139059199e-05	0.990250600162
1655.0	1.15139059199e-05	0.990262114068
1658.0	6.62049590393e-05	0.990328319027
1661.0	4.31771471995e-05	0.990371496175
1664.0	6.04480060793e-05	0.990431944181
1667.0	9.78682003189e-05	0.990529812381
1670.0	3.74201942396e-05	0.990567232575
1673.0	1.43923823998e-05	0.990581624958
1676.0	1.15139059199e-05	0.990593138863
1679.0	6.04480060793e-05	0.99065358687
1682.0	6.04480060793e-05	0.990714034876
1685.0	6.33264825593e-05	0.990777361358
1688.0	6.90834355192e-05	0.990846444794
1691.0	4.60556236795e-05	0.990892500417
1694.0	1.72708588798e-05	0.990909771276
1697.0	6.62049590393e-05	0.990975976235
1700.0	3.16632412797e-05	0.991007639477
1702.0	7.19619119992e-05	0.991079601389
1706.0	4.89341001595e-05	0.991128535489
1709.0	3.16632412797e-05	0.99116019873
1712.0	1.15139059199e-05	0.991171712636
1715.0	3.45417177596e-05	0.991206254354
1718.0	3.74201942396e-05	0.991243674548
1721.0	5.46910531194e-05	0.991298365601
1724.0	2.30278118397e-05	0.991321393413
1727.0	5.18125766394e-05	0.99137320599
1730.0	8.63542943991e-06	0.991381841419
1733.0	1.72708588798e-05	0.991399112278
1736.0	5.18125766394e-05	0.991450924854
1739.0	6.33264825593e-05	0.991514251337
1742.0	9.2111247359e-05	0.991606362584
1745.0	9.4989723839e-05	0.991701352308
1748.0	1.72708588798e-05	0.991718623167
1751.0	8.63542943991e-06	0.991727258597
1754.0	3.74201942396e-05	0.991764678791
1757.0	1.15139059199e-05	0.991776192697
1760.0	3.45417177596e-05	0.991810734414
1763.0	1.15139059199e-05	0.99182224832
1766.0	6.90834355192e-05	0.991891331756
1769.0	9.2111247359e-05	0.991983443003
1772.0	8.34758179191e-05	0.992066918821
1775.0	1.15139059199e-05	0.992078432727
1778.0	5.75695295994e-06	0.99208418968
1781.0	0.000172708588798	0.992256898269
1784.0	0.000118017535679	0.992374915805
1787.0	2.01493353598e-05	0.99239506514
1790.0	7.48403884792e-05	0.992469905528
1793.0	5.46910531194e-05	0.992524596582
1796.0	0.000141045347518	0.992665641929
1798.0	6.04480060793e-05	0.992726089935
1802.0	7.19619119992e-05	0.992798051847
1805.0	7.19619119992e-05	0.992870013759
1808.0	2.87847647997e-05	0.992898798524
1811.0	2.87847647997e-05	0.992927583289
1814.0	6.04480060793e-05	0.992988031295
1817.0	5.18125766394e-05	0.993039843871
1820.0	4.89341001595e-05	0.993088777972
1823.0	2.30278118397e-05	0.993111805783
1826.0	3.45417177596e-05	0.993146347501
1829.0	2.59062883197e-05	0.99317225379
1832.0	5.75695295994e-06	0.993178010742
1835.0	4.02986707196e-05	0.993218309413
1838.0	0.000141045347518	0.993359354761
1841.0	2.87847647997e-05	0.993388139526
1844.0	1.72708588798e-05	0.993405410384
1847.0	4.02986707196e-05	0.993445709055
1850.0	6.62049590393e-05	0.993511914014
1853.0	2.30278118397e-05	0.993534941826
1856.0	1.43923823998e-05	0.993549334208
1859.0	8.63542943991e-06	0.993557969638
1861.0	0.000647657207993	0.994205626846
1865.0	5.75695295994e-06	0.994211383799
1868.0	6.62049590393e-05	0.994277588758
1871.0	6.90834355192e-05	0.994346672193
1874.0	2.30278118397e-05	0.994369700005
1876.0	3.74201942396e-05	0.994407120199
1880.0	3.74201942396e-05	0.994444540394
1883.0	2.01493353598e-05	0.994464689729
1886.0	1.43923823998e-05	0.994479082111
1889.0	2.87847647997e-05	0.994507866876
1892.0	7.48403884792e-05	0.994582707265
1895.0	1.72708588798e-05	0.994599978124
1898.0	3.16632412797e-05	0.994631641365
1901.0	2.01493353598e-05	0.9946517907
1904.0	5.75695295994e-06	0.994657547653
1907.0	2.59062883197e-05	0.994683453941
1910.0	6.90834355192e-05	0.994752537377
1913.0	1.43923823998e-05	0.994766929759
1916.0	4.89341001595e-05	0.99481586386
1919.0	1.43923823998e-05	0.994830256242
1922.0	2.30278118397e-05	0.994853284054
1924.0	6.04480060793e-05	0.99491373206
1928.0	8.63542943991e-05	0.995000086354
1931.0	5.75695295994e-06	0.995005843307
1934.0	2.01493353598e-05	0.995025992643
1937.0	5.46910531194e-05	0.995080683696
1939.0	9.78682003189e-05	0.995178551896
1942.0	9.2111247359e-05	0.995270663143
1946.0	4.89341001595e-05	0.995319597244
1949.0	2.87847647997e-06	0.99532247572
1952.0	8.63542943991e-06	0.995331111149
1955.0	2.87847647997e-06	0.995333989626
1958.0	2.87847647997e-05	0.995362774391
1961.0	4.02986707196e-05	0.995403073061
1964.0	1.72708588798e-05	0.99542034392
1966.0	8.63542943991e-06	0.99542897935
1973.0	1.43923823998e-05	0.995443371732
1976.0	1.15139059199e-05	0.995454885638
1979.0	3.74201942396e-05	0.995492305832
1982.0	6.33264825593e-05	0.995555632315
1985.0	2.87847647997e-05	0.99558441708
1988.0	3.74201942396e-05	0.995621837274
1990.0	3.16632412797e-05	0.995653500515
1997.0	2.01493353598e-05	0.995673649851
2000.0	2.30278118397e-05	0.995696677662
2006.0	5.75695295994e-06	0.995702434615
2009.0	8.63542943991e-06	0.995711070045
2012.0	1.43923823998e-05	0.995725462427
2015.0	2.87847647997e-06	0.995728340904
2018.0	2.87847647997e-06	0.99573121938
2024.0	8.63542943991e-06	0.99573985481
2027.0	1.72708588798e-05	0.995757125669
2030.0	8.63542943991e-06	0.995765761098
2033.0	1.43923823998e-05	0.99578015348
2035.0	1.72708588798e-05	0.995797424339
2039.0	4.31771471995e-05	0.995840601486
2042.0	2.87847647997e-06	0.995843479963
2045.0	1.15139059199e-05	0.995854993869
2048.0	2.01493353598e-05	0.995875143204
2051.0	8.63542943991e-06	0.995883778634
2053.0	1.43923823998e-05	0.995898171016
2056.0	2.01493353598e-05	0.995918320351
2060.0	5.75695295994e-06	0.995924077304
2063.0	2.01493353598e-05	0.99594422664
2066.0	1.15139059199e-05	0.995955740546
2068.0	4.02986707196e-05	0.995996039216
2072.0	1.72708588798e-05	0.996013310075
2075.0	2.30278118397e-05	0.996036337887
2078.0	8.63542943991e-06	0.996044973317
2084.0	8.63542943991e-06	0.996053608746
2086.0	1.72708588798e-05	0.996070879605
2089.0	1.43923823998e-05	0.996085271987
2092.0	2.59062883197e-05	0.996111178276
2096.0	4.89341001595e-05	0.996160112376
2098.0	7.77188649592e-05	0.996237831241
2102.0	6.04480060793e-05	0.996298279247
2104.0	4.31771471995e-05	0.996341456394
2108.0	5.75695295994e-06	0.996347213347
2111.0	5.75695295994e-06	0.9963529703
2114.0	1.43923823998e-05	0.996367362682
2116.0	0.000129531441599	0.996496894124
2120.0	3.45417177596e-05	0.996531435842
2123.0	2.87847647997e-06	0.996534314318
2126.0	1.72708588798e-05	0.996551585177
2129.0	1.72708588798e-05	0.996568856036
2132.0	1.43923823998e-05	0.996583248418
2135.0	2.87847647997e-05	0.996612033183
2138.0	5.75695295994e-06	0.996617790136
2140.0	5.75695295994e-05	0.996675359666
2144.0	3.45417177596e-05	0.996709901383
2147.0	5.75695295994e-06	0.996715658336
2153.0	8.63542943991e-06	0.996724293766
2156.0	1.15139059199e-05	0.996735807672
2159.0	2.30278118397e-05	0.996758835484
2162.0	5.75695295994e-06	0.996764592437
2165.0	8.63542943991e-06	0.996773227866
2167.0	8.63542943991e-06	0.996781863295
2171.0	1.43923823998e-05	0.996796255678
2174.0	3.45417177596e-05	0.996830797396
2177.0	8.63542943991e-06	0.996839432825
2180.0	2.87847647997e-06	0.996842311301
2182.0	1.43923823998e-05	0.996856703684
2186.0	4.60556236795e-05	0.996902759308
2189.0	2.30278118397e-05	0.996925787119
2192.0	5.75695295994e-06	0.996931544072
2195.0	2.87847647997e-06	0.996934422549
2198.0	4.02986707196e-05	0.99697472122
2201.0	1.15139059199e-05	0.996986235125
2216.0	3.45417177596e-05	0.997020776843
2219.0	2.87847647997e-06	0.99702365532
2222.0	2.87847647997e-06	0.997026533796
2225.0	5.75695295994e-06	0.997032290749
2237.0	2.30278118397e-05	0.997055318561
2240.0	3.45417177596e-05	0.997089860279
2243.0	8.63542943991e-06	0.997098495708
2246.0	8.63542943991e-06	0.997107131138
2248.0	2.59062883197e-05	0.997133037426
2252.0	1.15139059199e-05	0.997144551332
2255.0	5.75695295994e-06	0.997150308285
2261.0	1.15139059199e-05	0.997161822191
2263.0	4.89341001595e-05	0.997210756291
2266.0	5.18125766394e-05	0.997262568868
2269.0	8.63542943991e-06	0.997271204297
2273.0	2.87847647997e-06	0.997274082773
2276.0	5.75695295994e-06	0.997279839726
2285.0	1.15139059199e-05	0.997291353632
2287.0	4.60556236795e-05	0.997337409256
2291.0	5.46910531194e-05	0.997392100309
2294.0	1.15139059199e-05	0.997403614215
2297.0	4.02986707196e-05	0.997443912886
2300.0	2.01493353598e-05	0.997464062221
2306.0	2.87847647997e-06	0.997466940698
2312.0	5.75695295994e-06	0.997472697651
2317.0	5.75695295994e-06	0.997478454604
2320.0	4.02986707196e-05	0.997518753274
2324.0	8.63542943991e-06	0.997527388704
2326.0	4.31771471995e-05	0.997570565851
2329.0	3.16632412797e-05	0.997602229092
2332.0	2.01493353598e-05	0.997622378428
2336.0	8.63542943991e-06	0.997631013857
2339.0	5.75695295994e-06	0.99763677081
2342.0	2.87847647997e-06	0.997639649286
2347.0	5.18125766394e-05	0.997691461863
2351.0	8.63542943991e-06	0.997700097293
2353.0	5.75695295994e-06	0.997705854245
2357.0	1.72708588798e-05	0.997723125104
2359.0	5.46910531194e-05	0.997777816157
2365.0	8.63542943991e-05	0.997864170452
2368.0	8.63542943991e-06	0.997872805881
2372.0	5.75695295994e-06	0.997878562834
2375.0	1.15139059199e-05	0.99789007674
2378.0	3.16632412797e-05	0.997921739981
2380.0	1.43923823998e-05	0.997936132364
2383.0	2.87847647997e-05	0.997964917129
2389.0	2.87847647997e-06	0.997967795605
2398.0	3.45417177596e-05	0.998002337323
2408.0	5.75695295994e-06	0.998008094276
2410.0	8.63542943991e-06	0.998016729705
2413.0	1.15139059199e-05	0.998028243611
2417.0	2.87847647997e-06	0.998031122088
2419.0	3.16632412797e-05	0.998062785329
2422.0	3.74201942396e-05	0.998100205523
2426.0	2.87847647997e-06	0.998103084
2428.0	5.75695295994e-06	0.998108840953
2431.0	2.87847647997e-06	0.998111719429
2444.0	5.75695295994e-06	0.998117476382
2447.0	2.87847647997e-06	0.998120354859
2452.0	1.15139059199e-05	0.998131868765
2455.0	4.02986707196e-05	0.998172167435
2458.0	3.74201942396e-05	0.998209587629
2462.0	8.63542943991e-06	0.998218223059
2465.0	1.15139059199e-05	0.998229736965
2468.0	3.74201942396e-05	0.998267157159
2470.0	1.43923823998e-05	0.998281549541
2473.0	4.60556236795e-05	0.998327605165
2476.0	5.18125766394e-05	0.998379417742
2479.0	5.75695295994e-06	0.998385174695
2485.0	2.59062883197e-05	0.998411080983
2488.0	1.72708588798e-05	0.998428351842
2491.0	2.01493353598e-05	0.998448501177
2494.0	1.15139059199e-05	0.998460015083
2500.0	4.31771471995e-05	0.99850319223
2503.0	7.19619119992e-05	0.998575154142
2516.0	2.87847647997e-06	0.998578032619
2518.0	1.15139059199e-05	0.998589546525
2521.0	2.59062883197e-05	0.998615452813
2524.0	2.01493353598e-05	0.998635602148
2528.0	2.87847647997e-06	0.998638480625
2530.0	2.30278118397e-05	0.998661508437
2534.0	5.75695295994e-06	0.99866726539
2551.0	2.30278118397e-05	0.998690293202
2554.0	1.15139059199e-05	0.998701807108
2557.0	1.43923823998e-05	0.99871619949
2564.0	1.43923823998e-05	0.998730591872
2567.0	2.87847647997e-06	0.998733470349
2569.0	8.63542943991e-06	0.998742105778
2575.0	1.15139059199e-05	0.998753619684
2578.0	5.75695295994e-06	0.998759376637
2591.0	2.87847647997e-06	0.998762255114
2594.0	2.87847647997e-06	0.99876513359
2597.0	5.75695295994e-06	0.998770890543
2605.0	2.87847647997e-06	0.99877376902
2609.0	5.75695295994e-06	0.998779525972
2612.0	2.87847647997e-06	0.998782404449
2614.0	8.63542943991e-06	0.998791039878
2621.0	2.87847647997e-06	0.998793918355
2681.0	2.87847647997e-06	0.998796796831
2686.0	8.63542943991e-06	0.998805432261
2693.0	2.87847647997e-06	0.998808310737
2696.0	2.30278118397e-05	0.998831338549
2698.0	4.02986707196e-05	0.99887163722
2705.0	2.87847647997e-06	0.998874515696
2750.0	2.87847647997e-06	0.998877394173
2753.0	8.63542943991e-06	0.998886029602
2755.0	8.63542943991e-06	0.998894665032
2761.0	0.000100746676799	0.998995411708
2764.0	4.31771471995e-05	0.999038588856
2770.0	5.75695295994e-06	0.999044345809
2774.0	2.87847647997e-06	0.999047224285
2776.0	5.75695295994e-06	0.999052981238
2804.0	8.63542943991e-06	0.999061616668
2806.0	2.87847647997e-06	0.999064495144
2809.0	1.15139059199e-05	0.99907600905
2812.0	3.45417177596e-05	0.999110550768
2815.0	2.87847647997e-06	0.999113429244
2818.0	3.45417177596e-05	0.999147970962
2821.0	3.45417177596e-05	0.99918251268
2824.0	3.45417177596e-05	0.999217054397
2828.0	5.75695295994e-06	0.99922281135
2830.0	1.43923823998e-05	0.999237203733
2834.0	2.87847647997e-06	0.999240082209
2836.0	2.30278118397e-05	0.999263110021
2840.0	2.87847647997e-06	0.999265988498
2845.0	8.63542943991e-06	0.999274623927
2848.0	1.15139059199e-05	0.999286137833
2852.0	1.43923823998e-05	0.999300530215
2854.0	1.43923823998e-05	0.999314922598
2857.0	2.87847647997e-05	0.999343707363
2860.0	1.43923823998e-05	0.999358099745
2863.0	3.74201942396e-05	0.999395519939
2866.0	5.75695295994e-06	0.999401276892
2876.0	2.87847647997e-06	0.999404155369
2885.0	2.87847647997e-06	0.999407033845
2887.0	2.87847647997e-06	0.999409912322
2894.0	2.87847647997e-06	0.999412790798
2903.0	2.87847647997e-06	0.999415669275
2905.0	2.87847647997e-06	0.999418547751
2911.0	2.87847647997e-06	0.999421426228
2918.0	2.87847647997e-06	0.999424304704
2920.0	2.87847647997e-06	0.99942718318
2924.0	5.75695295994e-06	0.999432940133
2926.0	8.63542943991e-06	0.999441575563
2935.0	5.75695295994e-06	0.999447332516
2939.0	2.87847647997e-06	0.999450210992
2945.0	2.87847647997e-06	0.999453089469
2947.0	2.87847647997e-06	0.999455967945
2951.0	2.87847647997e-06	0.999458846422
2953.0	2.87847647997e-06	0.999461724898
2957.0	5.75695295994e-06	0.999467481851
2968.0	2.30278118397e-05	0.999490509663
2978.0	5.75695295994e-06	0.999496266616
2984.0	2.87847647997e-06	0.999499145092
2986.0	1.15139059199e-05	0.999510658998
2989.0	8.63542943991e-06	0.999519294428
3101.0	2.87847647997e-06	0.999522172904
3106.0	1.43923823998e-05	0.999536565287
3146.0	2.87847647997e-06	0.999539443763
3148.0	1.15139059199e-05	0.999550957669
3181.0	2.87847647997e-06	0.999553836146
3184.0	5.75695295994e-06	0.999559593099
3196.0	5.75695295994e-06	0.999565350052
3199.0	5.75695295994e-06	0.999571107004
3202.0	1.72708588798e-05	0.999588377863
3205.0	8.63542943991e-06	0.999597013293
3209.0	2.87847647997e-06	0.999599891769
3211.0	8.63542943991e-06	0.999608527199
3214.0	5.75695295994e-06	0.999614284152
3220.0	2.01493353598e-05	0.999634433487
3224.0	2.87847647997e-06	0.999637311964
3232.0	2.87847647997e-06	0.99964019044
3238.0	2.87847647997e-06	0.999643068916
3241.0	1.72708588798e-05	0.999660339775
3271.0	8.63542943991e-06	0.999668975205
3275.0	2.87847647997e-06	0.999671853681
3286.0	2.87847647997e-06	0.999674732158
3290.0	5.75695295994e-06	0.999680489111
3292.0	1.15139059199e-05	0.999692003017
3307.0	5.75695295994e-06	0.99969775997
3310.0	8.63542943991e-06	0.999706395399
3418.0	2.87847647997e-06	0.999709273876
3421.0	2.59062883197e-05	0.999735180164
3424.0	1.43923823998e-05	0.999749572546
3433.0	5.75695295994e-06	0.999755329499
3463.0	3.74201942396e-05	0.999792749693
3466.0	2.87847647997e-06	0.99979562817
3626.0	2.87847647997e-06	0.999798506646
3628.0	2.30278118397e-05	0.999821534458
4012.0	2.87847647997e-06	0.999824412935
4015.0	1.15139059199e-05	0.999835926841
4018.0	6.33264825593e-05	0.999899253323
4054.0	4.89341001595e-05	0.999948187423
4363.0	2.01493353598e-05	0.999968336759
4372.0	2.87847647997e-06	0.999971215235
4375.0	5.75695295994e-06	0.999976972188
4378.0	2.87847647997e-06	0.999979850665
4407.0	2.87847647997e-06	0.999982729141
4414.0	2.87847647997e-06	0.999985607618
4420.0	1.15139059199e-05	0.999997121524
6633.0	2.87847647997e-06	1.0
6642.0	2.87847647997e-06	1.0
