#
# Generated On: 2012-02-05T18:07:36.213169
#           By: cwa.analyze.statistics
#      Version: 11.11.23
#       Author: Thomas A. de Ruiter <thomas@de-ruiter.cx>
#
#  Commandline: /home/af10028/bin/cwa analyze
#     Work Dir: /scratch/af10028/var/thesis-project/result/analyses/workload-06h-04944l-3s-fair
#

Time	Sum	Avg	StdDev	CoV	0.000000-Pct	0.010000-Pct	0.100000-Pct	1.000000-Pct	2.000000-Pct	5.000000-Pct	25.000000-Pct	50.000000-Pct	75.000000-Pct	95.000000-Pct	98.000000-Pct	99.000000-Pct	99.900000-Pct	99.990000-Pct	100.000000-Pct
1327065000	43956184.0	904.113373648	2205.25672482	2.43913737933	2.0	2.0	2.0	2.0	2.0	2.0	14.0	83.0	416.0	5914.0	8771.0	11177.0	15022.0	15024.0	15024.0
1327068600	26340585.0	395.391479908	987.225041943	2.49682932514	2.0	2.0	2.0	2.0	2.0	2.0	11.0	65.0	290.0	1991.0	3961.0	5074.0	9242.0	16686.0	16707.0
1327072200	32635950.0	501.404999309	1307.44825597	2.60756924596	2.0	2.0	2.0	2.0	2.0	2.0	9.0	62.0	308.0	2921.0	5110.0	6679.0	11198.0	20017.0	20186.0
1327075800	28440877.0	603.43030213	1639.98489614	2.71777020536	2.0	2.0	2.0	2.0	2.0	2.0	6.0	53.0	320.0	3622.0	5608.0	7077.0	18030.0	23341.0	23353.0
1327079400	33064339.0	493.998969103	1422.67493743	2.87991479014	2.0	2.0	2.0	2.0	2.0	2.0	8.0	57.0	287.0	2693.0	5251.0	6837.0	16443.0	20953.0	21007.0
1327083000	31707301.0	574.355601848	1482.0224183	2.58032204009	2.0	2.0	2.0	2.0	2.0	2.0	9.0	66.0	335.0	3652.0	5761.0	7194.0	14302.0	18321.0	19949.0
1327086600	23880342.0	1389.84646723	2480.38724175	1.7846483768	2.0	2.0	2.0	2.0	2.0	3.0	6.0	107.0	1775.0	6990.0	9246.0	11744.0	14184.0	16617.0	16674.0
1327090200	3382308.0	2104.73428749	3861.07756976	1.83447268983	5.0	5.0	5.0	5.0	5.0	5.0	5.0	95.0	2600.0	11123.0	11449.0	11617.0	11620.0	11620.0	11620.0
