#
# Generated On: 2012-02-05T17:15:42.051216
#           By: cwa.analyze.statistics
#      Version: 11.11.23
#       Author: Thomas A. de Ruiter <thomas@de-ruiter.cx>
#
#  Commandline: /home/af10028/bin/cwa analyze
#     Work Dir: /scratch/af10028/var/thesis-project/result/analyses/workload-01h-09888l-5s-fair
#

Value	PDF	CDF
2.0	0.205769759803	0.205773074233
5.0	0.0665438117934	0.272316886027
8.0	0.0471046796438	0.31942156567
11.0	0.037191219412	0.356612785082
14.0	0.0309269466476	0.38753973173
17.0	0.0262270848594	0.413766816589
20.0	0.0231976958082	0.436964512398
23.0	0.0206953011325	0.45765981353
26.0	0.0184945195899	0.47615433312
29.0	0.0169930827845	0.493147415905
32.0	0.0150707133648	0.508218129269
35.0	0.014218904846	0.522437034115
38.0	0.013436699358	0.535873733473
41.0	0.0122335612556	0.548107294729
44.0	0.0113817527369	0.559489047466
47.0	0.0108580727915	0.570347120257
50.0	0.0103542794263	0.580701399684
53.0	0.0096880789895	0.590389478673
56.0	0.00900199197245	0.599391470646
59.0	0.00859431707826	0.607985787724
62.0	0.00838550798612	0.61637129571
65.0	0.00803086397248	0.624402159683
68.0	0.00754364275747	0.63194580244
71.0	0.00732489037523	0.639270692815
74.0	0.00695698864145	0.646227681457
77.0	0.00638359224556	0.652611273702
80.0	0.00649628286672	0.659107556569
83.0	0.00629410263464	0.665401659204
86.0	0.00625432947423	0.671655988678
89.0	0.0056378454879	0.677293834166
92.0	0.00568424750838	0.682978081674
95.0	0.00560801561759	0.688586097292
98.0	0.00508102124218	0.693667118534
101.0	0.00477940810908	0.698446526643
104.0	0.00485232556983	0.703298852213
107.0	0.00463025875755	0.70792911097
110.0	0.00460705774731	0.712536168718
113.0	0.00452419699646	0.717060365714
116.0	0.0043717332149	0.721432098929
119.0	0.00429550132411	0.725727600253
122.0	0.00388451199989	0.729612112253
125.0	0.00399057376098	0.733602686014
128.0	0.00398725933095	0.737589945345
131.0	0.00367238847772	0.741262333823
134.0	0.00351992469615	0.744782258519
137.0	0.00349672368591	0.748278982205
140.0	0.0032713424436	0.751550324648
143.0	0.00330448674394	0.754854811392
146.0	0.00307579107159	0.757930602464
149.0	0.00321499713302	0.761145599597
152.0	0.00298298703064	0.764128586628
155.0	0.00294984273029	0.767078429358
158.0	0.00305590449138	0.770134333849
161.0	0.00274434806818	0.772878681917
164.0	0.00278080679856	0.775659488716
167.0	0.00265154402723	0.778311032743
170.0	0.00259851314669	0.78090954589
173.0	0.00262171415693	0.783531260047
176.0	0.0025023946757	0.786033654723
179.0	0.00263497187706	0.7886686266
182.0	0.00244936379515	0.791117990395
185.0	0.00235987418424	0.793477864579
188.0	0.00229690001359	0.795774764593
191.0	0.00230352887366	0.798078293466
194.0	0.00224386913304	0.800322162599
197.0	0.00212454965182	0.802446712251
200.0	0.00224718356308	0.804693895814
203.0	0.00212786408185	0.806821759896
206.0	0.00208477649141	0.808906536387
209.0	0.00221403926274	0.81112057565
212.0	0.00207151877127	0.813192094421
215.0	0.00199197245046	0.815184066872
218.0	0.0018792818293	0.817063348701
221.0	0.00211129193168	0.819174640633
224.0	0.00186270967913	0.821037350312
227.0	0.00194888486002	0.822986235172
230.0	0.00185608081906	0.824842315991
233.0	0.00185276638903	0.82669508238
236.0	0.00177984892828	0.828474931308
239.0	0.00175333348801	0.830228264796
242.0	0.0017235036177	0.831951768414
245.0	0.00161412742658	0.833565895841
248.0	0.00162407071668	0.835189966557
251.0	0.0015876119863	0.836777578544
254.0	0.00153789553579	0.838315474079
257.0	0.00158429755627	0.839899771636
260.0	0.00170030260746	0.841600074243
263.0	0.00159092641634	0.84319100066
266.0	0.00140863276447	0.844599633424
269.0	0.00149480794535	0.846094441369
272.0	0.00147492136515	0.847569362735
275.0	0.00133902973375	0.848908392468
278.0	0.00160086970644	0.850509262175
281.0	0.00146497807505	0.85197424025
284.0	0.00132577201362	0.853300012263
287.0	0.00122633911259	0.854526351376
290.0	0.001266112273	0.855792463649
293.0	0.00130588543341	0.857098349082
296.0	0.00126942670304	0.858367775785
299.0	0.00118656595219	0.859554341738
302.0	0.00122965354263	0.86078399528
305.0	0.00121308139246	0.861997076673
308.0	0.00126279784297	0.863259874516
311.0	0.0011003907713	0.864360265287
314.0	0.00117662266208	0.865536887949
317.0	0.0010904474812	0.86662733543
320.0	0.00117330823205	0.867800643662
323.0	0.00116336494195	0.868964008604
326.0	0.00104073103069	0.870004739635
329.0	0.00106393204093	0.871068671676
332.0	0.00100427230031	0.872072943976
335.0	0.00107056090099	0.873143504877
338.0	0.000954555849803	0.874098060727
341.0	0.00102084445048	0.875118905177
344.0	0.000967813569939	0.876086718747
347.0	0.000951241419769	0.877037960167
350.0	0.00100758673035	0.878045546898
353.0	0.000898210539225	0.878943757437
356.0	0.00102415888052	0.879967916317
359.0	0.000937983699633	0.880905900017
362.0	0.000911468259361	0.881817368276
365.0	0.000901524969259	0.882718893246
368.0	0.000928040409531	0.883646933655
371.0	0.000924725979497	0.884571659635
374.0	0.000884952819088	0.885456612454
377.0	0.000981071290076	0.886437683744
380.0	0.000825293078476	0.887262976822
383.0	0.000865066238884	0.888128043061
386.0	0.000944612559701	0.889072655621
389.0	0.000795463208169	0.889868118829
392.0	0.000802092068237	0.890670210897
395.0	0.000712602457318	0.891382813355
398.0	0.00081203535834	0.892194848713
401.0	0.000818664218408	0.893013512931
404.0	0.000841865228646	0.89385537816
407.0	0.000788834348101	0.894644212508
410.0	0.000765633337863	0.895409845846
413.0	0.000768947767897	0.896178793614
416.0	0.000735803467557	0.896914597081
419.0	0.000729174607489	0.897643771689
422.0	0.000792148778135	0.898435920467
425.0	0.000735803467557	0.899171723934
428.0	0.000719231317387	0.899890955252
431.0	0.000785519918067	0.90067647517
434.0	0.00067282929691	0.901349304467
437.0	0.000679458156978	0.902028762624
440.0	0.000686087017046	0.902714849641
443.0	0.000676143726944	0.903390993368
446.0	0.000646313856638	0.904037307224
449.0	0.000652942716706	0.904690249941
452.0	0.000699344737182	0.905389594678
455.0	0.000616483986331	0.906006078665
458.0	0.00068940144708	0.906695480112
461.0	0.000696030307148	0.907391510419
464.0	0.000679458156978	0.908070968576
467.0	0.000676143726944	0.908747112303
470.0	0.000633056136501	0.909380168439
473.0	0.000636370566536	0.910016539006
476.0	0.000652942716706	0.910669481723
479.0	0.000550195385651	0.911219677108
482.0	0.000563453105787	0.911783130214
485.0	0.000606540696229	0.91238967091
488.0	0.000583339685991	0.912973010596
491.0	0.000566767535821	0.913539778132
494.0	0.000510422225242	0.914050200357
497.0	0.000507107795208	0.914557308153
500.0	0.000536937665514	0.915094245818
503.0	0.000606540696229	0.915700786514
506.0	0.000503793365174	0.916204579879
509.0	0.000606540696229	0.916811120576
512.0	0.000526994375412	0.917338114951
515.0	0.000536937665514	0.917875052617
518.0	0.000593282976093	0.918468335593
521.0	0.000457391344697	0.918925726937
524.0	0.000546880955616	0.919472607893
527.0	0.000507107795208	0.919979715688
530.0	0.000520365515344	0.920500081204
533.0	0.000513736655276	0.921013817859
536.0	0.000477277924902	0.921491095784
539.0	0.0004673346348	0.921958430419
542.0	0.000470649064834	0.922429079483
545.0	0.000556824245719	0.922985903729
548.0	0.000497164505106	0.923483068234
551.0	0.000427561474391	0.923910629709
554.0	0.000434190334459	0.924344820043
557.0	0.00053362323548	0.924878443279
560.0	0.000507107795208	0.925385551074
563.0	0.000473963494868	0.925859514569
566.0	0.00051705108531	0.926376565654
569.0	0.000420932614323	0.926797498268
572.0	0.000460705774731	0.927258204043
575.0	0.000424247044357	0.927682451087
578.0	0.000417618184289	0.928100069272
581.0	0.000364587303744	0.928464656575
584.0	0.000351329583608	0.928815986159
587.0	0.000480592354936	0.929296578514
590.0	0.000464020204765	0.929760598719
593.0	0.000434190334459	0.930194789053
596.0	0.000394417174051	0.930589206227
599.0	0.000391102744017	0.930980308971
602.0	0.00036127287371	0.931341581845
605.0	0.000444133624561	0.931785715469
608.0	0.000341386293506	0.932127101763
611.0	0.000444133624561	0.932571235388
614.0	0.000447448054595	0.933018683442
617.0	0.000391102744017	0.933409786186
620.0	0.000334757433438	0.93374454362
623.0	0.000374530593846	0.934119074213
626.0	0.000348015153574	0.934467089367
629.0	0.00036127287371	0.934828362241
632.0	0.000384473883949	0.935212836125
635.0	0.000354644013642	0.935567480138
638.0	0.000407674894187	0.935975155032
641.0	0.000381159453915	0.936356314486
644.0	0.000348015153574	0.93670432964
647.0	0.000308241993166	0.937012571633
650.0	0.000338071863472	0.937350643497
653.0	0.000404360464153	0.937755003961
656.0	0.000357958443676	0.938112962404
659.0	0.000384473883949	0.938497436288
662.0	0.000387788313983	0.938885224602
665.0	0.000294984273029	0.939180208875
668.0	0.000301613133098	0.939481822008
671.0	0.000367901733778	0.939849723742
674.0	0.000318185283268	0.940167909026
677.0	0.00034470072354	0.940512609749
680.0	0.000427561474391	0.940940171223
683.0	0.000321499713302	0.941261670937
686.0	0.000357958443676	0.94161962938
689.0	0.000357958443676	0.941977587824
692.0	0.000351329583608	0.942328917408
695.0	0.000294984273029	0.942623901681
698.0	0.000291669842995	0.942915571524
701.0	0.0003115564232	0.943227127947
704.0	0.000258525542655	0.94348565349
707.0	0.000334757433438	0.943820410923
710.0	0.000215437952213	0.944035848875
713.0	0.000321499713302	0.944357348589
716.0	0.000291669842995	0.944649018432
719.0	0.000265154402723	0.944914172834
722.0	0.000245267822519	0.945159440657
725.0	0.000321499713302	0.94548094037
728.0	0.0003115564232	0.945792496793
731.0	0.000285040982927	0.946077537776
734.0	0.000331443003404	0.94640898078
737.0	0.000281726552893	0.946690707333
740.0	0.000278412122859	0.946969119455
743.0	0.000241953392485	0.947211072848
746.0	0.000232010102383	0.94744308295
749.0	0.000275097692825	0.947718180643
752.0	0.000281726552893	0.947999907196
755.0	0.000202180232076	0.948202087428
758.0	0.00036127287371	0.948563360302
761.0	0.000238638962451	0.948801999264
764.0	0.000251896682587	0.949053895947
767.0	0.000275097692825	0.94932899364
770.0	0.000248582252553	0.949577575892
773.0	0.000268468832757	0.949846044725
776.0	0.000318185283268	0.950164230008
779.0	0.000304927563132	0.950469157571
782.0	0.000278412122859	0.950747569694
785.0	0.000251896682587	0.950999466377
788.0	0.000238638962451	0.951238105339
791.0	0.000208809092144	0.951446914431
794.0	0.000208809092144	0.951655723524
797.0	0.000241953392485	0.951897676916
800.0	0.000268468832757	0.952166145749
803.0	0.000261839972689	0.952427985721
806.0	0.000268468832757	0.952696454554
809.0	0.000248582252553	0.952945036807
812.0	0.000218752382247	0.953163789189
815.0	0.000261839972689	0.953425629162
818.0	0.000212123522179	0.953637752684
821.0	0.000248582252553	0.953886334936
824.0	0.000182293651872	0.954068628588
827.0	0.000225381242315	0.954294009831
830.0	0.000215437952213	0.954509447783
833.0	0.000222066812281	0.954731514595
836.0	0.000251896682587	0.954983411278
839.0	0.000285040982927	0.955268452261
842.0	0.000202180232076	0.955470632493
845.0	0.00018892251194	0.955659555005
848.0	0.000165721501702	0.955825276506
851.0	0.000255211112621	0.956080487619
854.0	0.000185608081906	0.956266095701
857.0	0.000195551372008	0.956461647073
860.0	0.00020549466211	0.956667141735
863.0	0.000241953392485	0.956909095127
866.0	0.000212123522179	0.95712121865
869.0	0.00020549466211	0.957326713312
872.0	0.000212123522179	0.957538836834
875.0	0.000215437952213	0.957754274786
878.0	0.000165721501702	0.957919996288
881.0	0.000135891631396	0.958055887919
884.0	0.000182293651872	0.958238181571
887.0	0.000245267822519	0.958483449394
890.0	0.000195551372008	0.958679000766
893.0	0.00020549466211	0.958884495428
896.0	0.0001557782116	0.959040273639
899.0	0.000178979221838	0.959219252861
902.0	0.000225381242315	0.959444634103
905.0	0.000162407071668	0.959607041175
908.0	0.00018892251194	0.959795963687
911.0	0.00018892251194	0.959984886199
914.0	0.00017235036177	0.960157236561
917.0	0.000145834921498	0.960303071482
920.0	0.000202180232076	0.960505251714
923.0	0.000198865802042	0.960704117516
926.0	0.000165721501702	0.960869839018
929.0	0.000185608081906	0.9610554471
932.0	0.000202180232076	0.961257627332
935.0	0.00018892251194	0.961446549844
938.0	0.000212123522179	0.961658673366
941.0	0.000159092641634	0.961817766008
944.0	0.000159092641634	0.96197685865
947.0	0.000149149351532	0.962126008001
950.0	0.000198865802042	0.962324873803
953.0	0.000178979221838	0.962503853025
956.0	0.00018892251194	0.962692775537
959.0	0.000178979221838	0.962871754759
962.0	0.0001557782116	0.96302753297
965.0	0.000142520491464	0.963170053462
968.0	0.000145834921498	0.963315888383
971.0	0.000145834921498	0.963461723305
974.0	0.000212123522179	0.963673846827
977.0	0.000202180232076	0.963876027059
980.0	0.000149149351532	0.964025176411
983.0	0.000132577201362	0.964157753612
986.0	0.0001557782116	0.964313531823
989.0	0.000149149351532	0.964462681175
992.0	0.000145834921498	0.964608516097
995.0	0.00017235036177	0.964780866458
998.0	0.000185608081906	0.96496647454
1001.0	0.00017235036177	0.965138824902
1004.0	0.00013920606143	0.965278030963
1007.0	0.000116005051191	0.965394036015
1010.0	0.000145834921498	0.965539870936
1013.0	0.000152463781566	0.965692334718
1016.0	0.000135891631396	0.965828226349
1019.0	0.0001557782116	0.965984004561
1022.0	0.0001557782116	0.966139782772
1025.0	0.000152463781566	0.966292246554
1028.0	0.000132577201362	0.966424823755
1031.0	0.000125948341293	0.966550772096
1034.0	0.000135891631396	0.966686663728
1037.0	0.000132577201362	0.966819240929
1040.0	0.000125948341293	0.966945189271
1043.0	0.000145834921498	0.967091024192
1046.0	0.000135891631396	0.967226915823
1049.0	0.000142520491464	0.967369436315
1052.0	0.000122633911259	0.967492070226
1055.0	0.000122633911259	0.967614704137
1058.0	0.000125948341293	0.967740652479
1061.0	0.000102747331055	0.96784339981
1064.0	0.0001557782116	0.967999178021
1067.0	0.000135891631396	0.968135069653
1070.0	0.000119319481225	0.968254389134
1073.0	0.000145834921498	0.968400224055
1076.0	9.94329010212e-05	0.968499656956
1079.0	0.000132577201362	0.968632234158
1082.0	0.000116005051191	0.968748239209
1085.0	0.000135891631396	0.96888413084
1088.0	0.000149149351532	0.969033280192
1091.0	0.000135891631396	0.969169171823
1094.0	0.000125948341293	0.969295120165
1097.0	0.00013920606143	0.969434326226
1100.0	0.000122633911259	0.969556960137
1103.0	0.000129262771328	0.969686222909
1106.0	0.000149149351532	0.96983537226
1109.0	0.000169035931736	0.970004408192
1112.0	0.000106061761089	0.970110469953
1115.0	0.000142520491464	0.970252990444
1118.0	0.000132577201362	0.970385567646
1121.0	0.000125948341293	0.970511515987
1124.0	0.000132577201362	0.970644093189
1127.0	0.000152463781566	0.97079655697
1130.0	0.000106061761089	0.970902618731
1133.0	0.000132577201362	0.971035195933
1136.0	7.95463208169e-05	0.971114742253
1139.0	0.000109376191123	0.971224118444
1142.0	8.94896109191e-05	0.971313608055
1145.0	0.000135891631396	0.971449499687
1148.0	0.000142520491464	0.971592020178
1151.0	0.000119319481225	0.971711339659
1154.0	7.29174607489e-05	0.97178425712
1157.0	0.000112690621157	0.971896947741
1160.0	8.94896109191e-05	0.971986437352
1163.0	8.6175180885e-05	0.972072612533
1166.0	0.000122633911259	0.972195246444
1169.0	0.000112690621157	0.972307937066
1172.0	0.000109376191123	0.972417313257
1175.0	7.95463208169e-05	0.972496859578
1178.0	0.000135891631396	0.972632751209
1181.0	9.94329010212e-05	0.97273218411
1184.0	0.000119319481225	0.972851503591
1187.0	0.000109376191123	0.972960879782
1190.0	0.00013920606143	0.973100085844
1193.0	0.000112690621157	0.973212776465
1196.0	0.000106061761089	0.973318838226
1199.0	0.000119319481225	0.973438157707
1202.0	8.94896109191e-05	0.973527647318
1205.0	9.61184709871e-05	0.973623765789
1208.0	0.000132577201362	0.97375634299
1211.0	0.000122633911259	0.973878976902
1214.0	0.00013920606143	0.974018182963
1217.0	0.000102747331055	0.974120930294
1220.0	9.94329010212e-05	0.974220363195
1223.0	0.000112690621157	0.974333053816
1226.0	9.28040409531e-05	0.974425857857
1229.0	0.000112690621157	0.974538548479
1232.0	0.000109376191123	0.97464792467
1235.0	0.000122633911259	0.974770558581
1238.0	9.94329010212e-05	0.974869991482
1241.0	7.62318907829e-05	0.974946223373
1244.0	0.000112690621157	0.975058913994
1247.0	9.61184709871e-05	0.975155032465
1250.0	7.29174607489e-05	0.975227949926
1253.0	8.6175180885e-05	0.975314125106
1256.0	7.62318907829e-05	0.975390356997
1259.0	9.61184709871e-05	0.975486475468
1262.0	9.61184709871e-05	0.975582593939
1265.0	8.2860750851e-05	0.97566545469
1268.0	0.000116005051191	0.975781459741
1271.0	8.6175180885e-05	0.975867634922
1274.0	0.000109376191123	0.975977011113
1277.0	8.94896109191e-05	0.976066500724
1280.0	0.000119319481225	0.976185820205
1283.0	8.2860750851e-05	0.976268680956
1286.0	6.29741706467e-05	0.976331655127
1289.0	7.62318907829e-05	0.976407887018
1292.0	0.000132577201362	0.976540464219
1295.0	0.000109376191123	0.97664984041
1298.0	6.29741706467e-05	0.976712814581
1301.0	7.95463208169e-05	0.976792360902
1304.0	6.29741706467e-05	0.976855335072
1307.0	7.95463208169e-05	0.976934881393
1310.0	8.6175180885e-05	0.977021056574
1313.0	7.95463208169e-05	0.977100602895
1316.0	8.6175180885e-05	0.977186778076
1319.0	9.28040409531e-05	0.977279582117
1322.0	8.6175180885e-05	0.977365757298
1325.0	8.94896109191e-05	0.977455246908
1328.0	8.94896109191e-05	0.977544736519
1331.0	8.94896109191e-05	0.97763422613
1334.0	6.96030307148e-05	0.977703829161
1337.0	8.2860750851e-05	0.977786689912
1340.0	7.62318907829e-05	0.977862921803
1343.0	8.2860750851e-05	0.977945782554
1346.0	5.96597406127e-05	0.978005442294
1349.0	9.94329010212e-05	0.978104875195
1352.0	6.96030307148e-05	0.978174478226
1355.0	7.29174607489e-05	0.978247395687
1358.0	9.61184709871e-05	0.978343514158
1361.0	0.000106061761089	0.978449575919
1364.0	8.2860750851e-05	0.97853243667
1367.0	7.62318907829e-05	0.97860866856
1370.0	5.96597406127e-05	0.978668328301
1373.0	0.000106061761089	0.978774390062
1376.0	9.94329010212e-05	0.978873822963
1379.0	7.62318907829e-05	0.978950054854
1382.0	8.2860750851e-05	0.979032915605
1385.0	9.61184709871e-05	0.979129034076
1388.0	5.96597406127e-05	0.979188693816
1391.0	7.29174607489e-05	0.979261611277
1394.0	3.97731604085e-05	0.979301384437
1397.0	8.94896109191e-05	0.979390874048
1400.0	6.96030307148e-05	0.979460477079
1403.0	7.95463208169e-05	0.9795400234
1406.0	5.96597406127e-05	0.97959968314
1409.0	7.29174607489e-05	0.979672600601
1412.0	9.61184709871e-05	0.979768719072
1415.0	8.2860750851e-05	0.979851579823
1418.0	9.28040409531e-05	0.979944383864
1421.0	7.95463208169e-05	0.980023930185
1424.0	8.94896109191e-05	0.980113419796
1427.0	9.28040409531e-05	0.980206223837
1430.0	6.62886006808e-05	0.980272512437
1433.0	5.30308805446e-05	0.980325543318
1436.0	5.96597406127e-05	0.980385203059
1439.0	6.62886006808e-05	0.980451491659
1442.0	6.29741706467e-05	0.98051446583
1445.0	6.29741706467e-05	0.980577440001
1448.0	5.96597406127e-05	0.980637099741
1451.0	8.94896109191e-05	0.980726589352
1454.0	5.96597406127e-05	0.980786249093
1457.0	4.64020204765e-05	0.980832651113
1460.0	5.30308805446e-05	0.980885681994
1463.0	6.29741706467e-05	0.980948656164
1466.0	7.95463208169e-05	0.981028202485
1469.0	5.96597406127e-05	0.981087862226
1472.0	6.62886006808e-05	0.981154150826
1475.0	6.62886006808e-05	0.981220439427
1478.0	4.30875904425e-05	0.981263527018
1481.0	5.63453105787e-05	0.981319872328
1484.0	5.63453105787e-05	0.981376217639
1487.0	4.97164505106e-05	0.981425934089
1490.0	3.64587303744e-05	0.98146239282
1493.0	7.29174607489e-05	0.98153531028
1496.0	5.63453105787e-05	0.981591655591
1499.0	5.96597406127e-05	0.981651315332
1502.0	5.96597406127e-05	0.981710975072
1505.0	4.97164505106e-05	0.981760691523
1508.0	8.6175180885e-05	0.981846866704
1511.0	7.95463208169e-05	0.981926413024
1514.0	8.6175180885e-05	0.982012588205
1517.0	7.62318907829e-05	0.982088820096
1520.0	5.63453105787e-05	0.982145165407
1523.0	3.31443003404e-05	0.982178309707
1526.0	5.63453105787e-05	0.982234655018
1529.0	9.28040409531e-05	0.982327459059
1532.0	4.97164505106e-05	0.982377175509
1535.0	6.96030307148e-05	0.98244677854
1538.0	5.30308805446e-05	0.98249980942
1541.0	4.64020204765e-05	0.982546211441
1544.0	6.29741706467e-05	0.982609185611
1547.0	6.62886006808e-05	0.982675474212
1550.0	5.63453105787e-05	0.982731819523
1553.0	5.96597406127e-05	0.982791479263
1556.0	6.62886006808e-05	0.982857767864
1559.0	7.95463208169e-05	0.982937314185
1562.0	5.96597406127e-05	0.982996973925
1565.0	7.29174607489e-05	0.983069891386
1568.0	5.96597406127e-05	0.983129551127
1571.0	4.30875904425e-05	0.983172638717
1574.0	5.30308805446e-05	0.983225669598
1577.0	5.63453105787e-05	0.983282014908
1580.0	6.62886006808e-05	0.983348303509
1583.0	4.30875904425e-05	0.983391391099
1586.0	7.29174607489e-05	0.98346430856
1589.0	8.2860750851e-05	0.983547169311
1592.0	4.64020204765e-05	0.983593571332
1595.0	4.97164505106e-05	0.983643287782
1598.0	9.61184709871e-05	0.983739406253
1601.0	5.30308805446e-05	0.983792437134
1604.0	7.62318907829e-05	0.983868669024
1607.0	4.97164505106e-05	0.983918385475
1610.0	7.29174607489e-05	0.983991302936
1613.0	5.96597406127e-05	0.984050962676
1616.0	7.29174607489e-05	0.984123880137
1619.0	5.96597406127e-05	0.984183539878
1622.0	3.64587303744e-05	0.984219998608
1625.0	3.97731604085e-05	0.984259771768
1628.0	3.64587303744e-05	0.984296230499
1631.0	6.62886006808e-05	0.984362519099
1634.0	3.31443003404e-05	0.9843956634
1637.0	5.30308805446e-05	0.98444869428
1640.0	7.95463208169e-05	0.984528240601
1643.0	3.97731604085e-05	0.984568013762
1646.0	3.97731604085e-05	0.984607786922
1649.0	5.30308805446e-05	0.984660817802
1652.0	3.97731604085e-05	0.984700590963
1655.0	5.30308805446e-05	0.984753621843
1658.0	4.64020204765e-05	0.984800023864
1661.0	7.29174607489e-05	0.984872941325
1664.0	2.32010102383e-05	0.984896142335
1667.0	4.64020204765e-05	0.984942544355
1670.0	3.64587303744e-05	0.984979003086
1673.0	6.29741706467e-05	0.985041977256
1676.0	4.64020204765e-05	0.985088379277
1679.0	5.30308805446e-05	0.985141410157
1682.0	3.64587303744e-05	0.985177868888
1685.0	7.62318907829e-05	0.985254100779
1688.0	4.64020204765e-05	0.985300502799
1691.0	4.97164505106e-05	0.98535021925
1694.0	5.96597406127e-05	0.98540987899
1697.0	5.30308805446e-05	0.985462909871
1700.0	5.96597406127e-05	0.985522569611
1703.0	5.96597406127e-05	0.985582229352
1706.0	4.30875904425e-05	0.985625316942
1709.0	5.96597406127e-05	0.985684976683
1712.0	5.30308805446e-05	0.985738007564
1715.0	6.62886006808e-05	0.985804296164
1718.0	5.30308805446e-05	0.985857327045
1721.0	6.96030307148e-05	0.985926930075
1724.0	4.97164505106e-05	0.985976646526
1727.0	3.97731604085e-05	0.986016419686
1730.0	4.30875904425e-05	0.986059507277
1733.0	5.96597406127e-05	0.986119167017
1736.0	4.30875904425e-05	0.986162254608
1739.0	6.62886006808e-05	0.986228543209
1742.0	5.63453105787e-05	0.986284888519
1745.0	4.30875904425e-05	0.98632797611
1748.0	5.30308805446e-05	0.98638100699
1751.0	4.30875904425e-05	0.986424094581
1754.0	3.31443003404e-05	0.986457238881
1757.0	5.30308805446e-05	0.986510269761
1760.0	3.64587303744e-05	0.986546728492
1763.0	2.98298703064e-05	0.986576558362
1766.0	4.97164505106e-05	0.986626274813
1769.0	5.96597406127e-05	0.986685934553
1772.0	3.31443003404e-05	0.986719078854
1775.0	3.97731604085e-05	0.986758852014
1778.0	5.96597406127e-05	0.986818511755
1781.0	8.2860750851e-05	0.986901372505
1784.0	5.96597406127e-05	0.986961032246
1787.0	3.97731604085e-05	0.987000805406
1789.0	5.30308805446e-05	0.987053836287
1793.0	3.31443003404e-05	0.987086980587
1796.0	6.62886006808e-05	0.987153269188
1799.0	2.32010102383e-05	0.987176470198
1802.0	2.98298703064e-05	0.987206300069
1805.0	4.30875904425e-05	0.987249387659
1808.0	4.64020204765e-05	0.98729578968
1811.0	3.31443003404e-05	0.98732893398
1813.0	2.98298703064e-05	0.98735876385
1817.0	3.64587303744e-05	0.987395222581
1820.0	1.98865802042e-05	0.987415109161
1823.0	2.98298703064e-05	0.987444939031
1826.0	5.30308805446e-05	0.987497969912
1829.0	3.64587303744e-05	0.987534428642
1832.0	4.97164505106e-05	0.987584145092
1835.0	4.97164505106e-05	0.987633861543
1838.0	2.98298703064e-05	0.987663691413
1841.0	5.30308805446e-05	0.987716722294
1844.0	4.30875904425e-05	0.987759809884
1847.0	3.97731604085e-05	0.987799583045
1850.0	3.97731604085e-05	0.987839356205
1853.0	3.64587303744e-05	0.987875814935
1856.0	3.31443003404e-05	0.987908959236
1859.0	3.97731604085e-05	0.987948732396
1862.0	2.98298703064e-05	0.987978562267
1865.0	4.97164505106e-05	0.988028278717
1868.0	2.65154402723e-05	0.988054794157
1871.0	3.97731604085e-05	0.988094567318
1874.0	4.64020204765e-05	0.988140969338
1877.0	3.64587303744e-05	0.988177428069
1880.0	3.97731604085e-05	0.988217201229
1883.0	9.94329010212e-06	0.988227144519
1886.0	3.97731604085e-05	0.98826691768
1889.0	3.97731604085e-05	0.98830669084
1892.0	3.64587303744e-05	0.98834314957
1895.0	5.96597406127e-05	0.988402809311
1898.0	2.65154402723e-05	0.988429324751
1901.0	4.64020204765e-05	0.988475726772
1904.0	4.64020204765e-05	0.988522128792
1907.0	3.97731604085e-05	0.988561901953
1910.0	3.97731604085e-05	0.988601675113
1913.0	6.29741706467e-05	0.988664649284
1916.0	3.97731604085e-05	0.988704422444
1919.0	3.97731604085e-05	0.988744195604
1922.0	3.64587303744e-05	0.988780654335
1925.0	3.31443003404e-05	0.988813798635
1927.0	2.65154402723e-05	0.988840314075
1931.0	2.32010102383e-05	0.988863515086
1934.0	3.31443003404e-05	0.988896659386
1937.0	3.31443003404e-05	0.988929803686
1940.0	3.64587303744e-05	0.988966262417
1943.0	2.32010102383e-05	0.988989463427
1946.0	4.64020204765e-05	0.989035865447
1949.0	4.64020204765e-05	0.989082267468
1951.0	2.98298703064e-05	0.989112097338
1955.0	3.97731604085e-05	0.989151870499
1957.0	3.64587303744e-05	0.989188329229
1961.0	2.65154402723e-05	0.989214844669
1964.0	4.97164505106e-05	0.98926456112
1967.0	4.97164505106e-05	0.98931427757
1970.0	3.64587303744e-05	0.989350736301
1973.0	4.30875904425e-05	0.989393823891
1976.0	3.64587303744e-05	0.989430282621
1979.0	1.65721501702e-05	0.989446854772
1982.0	1.65721501702e-05	0.989463426922
1985.0	3.64587303744e-05	0.989499885652
1988.0	4.30875904425e-05	0.989542973243
1991.0	2.32010102383e-05	0.989566174253
1993.0	3.97731604085e-05	0.989605947413
1997.0	2.98298703064e-05	0.989635777284
2000.0	3.64587303744e-05	0.989672236014
2003.0	3.97731604085e-05	0.989712009174
2006.0	4.30875904425e-05	0.989755096765
2009.0	3.31443003404e-05	0.989788241065
2012.0	3.64587303744e-05	0.989824699795
2015.0	2.32010102383e-05	0.989847900806
2018.0	2.98298703064e-05	0.989877730676
2021.0	1.65721501702e-05	0.989894302826
2023.0	4.97164505106e-05	0.989944019277
2027.0	3.64587303744e-05	0.989980478007
2029.0	2.65154402723e-05	0.990006993447
2033.0	1.65721501702e-05	0.990023565598
2035.0	9.94329010212e-06	0.990033508888
2039.0	3.31443003404e-05	0.990066653188
2042.0	3.97731604085e-05	0.990106426348
2045.0	2.65154402723e-05	0.990132941789
2047.0	2.98298703064e-05	0.990162771659
2051.0	2.65154402723e-05	0.990189287099
2053.0	1.65721501702e-05	0.990205859249
2057.0	3.31443003404e-05	0.99023900355
2059.0	2.65154402723e-05	0.99026551899
2063.0	3.64587303744e-05	0.99030197772
2066.0	3.64587303744e-05	0.990338436451
2069.0	3.31443003404e-05	0.990371580751
2072.0	3.64587303744e-05	0.990408039481
2075.0	3.97731604085e-05	0.990447812642
2078.0	3.97731604085e-05	0.990487585802
2081.0	3.31443003404e-05	0.990520730103
2084.0	1.65721501702e-05	0.990537302253
2087.0	3.64587303744e-05	0.990573760983
2090.0	2.98298703064e-05	0.990603590853
2093.0	1.65721501702e-05	0.990620163004
2095.0	4.30875904425e-05	0.990663250594
2098.0	6.62886006808e-05	0.990729539195
2102.0	2.32010102383e-05	0.990752740205
2104.0	5.30308805446e-05	0.990805771086
2108.0	3.64587303744e-05	0.990842229816
2111.0	2.32010102383e-05	0.990865430826
2114.0	1.65721501702e-05	0.990882002976
2117.0	2.65154402723e-05	0.990908518417
2120.0	1.65721501702e-05	0.990925090567
2123.0	1.65721501702e-05	0.990941662717
2126.0	3.31443003404e-05	0.990974807017
2129.0	2.65154402723e-05	0.991001322458
2131.0	4.64020204765e-05	0.991047724478
2135.0	2.65154402723e-05	0.991074239918
2138.0	2.65154402723e-05	0.991100755359
2141.0	1.98865802042e-05	0.991120641939
2144.0	2.65154402723e-05	0.991147157379
2147.0	4.30875904425e-05	0.99119024497
2150.0	4.64020204765e-05	0.99123664699
2153.0	3.97731604085e-05	0.99127642015
2156.0	3.64587303744e-05	0.991312878881
2159.0	2.98298703064e-05	0.991342708751
2161.0	2.65154402723e-05	0.991369224191
2165.0	1.65721501702e-05	0.991385796342
2167.0	3.64587303744e-05	0.991422255072
2171.0	3.31443003404e-05	0.991455399372
2174.0	9.94329010212e-06	0.991465342662
2176.0	2.65154402723e-05	0.991491858103
2179.0	3.31443003404e-05	0.991525002403
2183.0	2.65154402723e-05	0.991551517843
2186.0	2.32010102383e-05	0.991574718853
2189.0	2.65154402723e-05	0.991601234294
2192.0	2.32010102383e-05	0.991624435304
2195.0	3.64587303744e-05	0.991660894034
2198.0	1.32577201362e-05	0.991674151754
2201.0	2.32010102383e-05	0.991697352765
2204.0	2.98298703064e-05	0.991727182635
2207.0	1.65721501702e-05	0.991743754785
2210.0	2.98298703064e-05	0.991773584656
2212.0	1.98865802042e-05	0.991793471236
2216.0	2.32010102383e-05	0.991816672246
2219.0	3.31443003404e-05	0.991849816546
2221.0	3.31443003404e-05	0.991882960847
2225.0	3.64587303744e-05	0.991919419577
2228.0	1.98865802042e-05	0.991939306157
2231.0	3.31443003404e-05	0.991972450458
2233.0	2.98298703064e-05	0.992002280328
2237.0	2.65154402723e-05	0.992028795768
2240.0	2.65154402723e-05	0.992055311208
2242.0	3.31443003404e-05	0.992088455509
2245.0	2.65154402723e-05	0.992114970949
2249.0	9.94329010212e-06	0.992124914239
2252.0	2.98298703064e-05	0.992154744109
2255.0	3.31443003404e-05	0.99218788841
2258.0	1.98865802042e-05	0.99220777499
2261.0	3.31443003404e-05	0.99224091929
2264.0	2.32010102383e-05	0.992264120301
2267.0	1.98865802042e-05	0.992284006881
2270.0	2.65154402723e-05	0.992310522321
2273.0	1.32577201362e-05	0.992323780041
2275.0	2.98298703064e-05	0.992353609911
2278.0	2.32010102383e-05	0.992376810922
2282.0	1.98865802042e-05	0.992396697502
2285.0	1.65721501702e-05	0.992413269652
2288.0	3.64587303744e-05	0.992449728382
2291.0	2.32010102383e-05	0.992472929393
2294.0	1.65721501702e-05	0.992489501543
2297.0	1.32577201362e-05	0.992502759263
2299.0	3.31443003404e-05	0.992535903563
2303.0	1.32577201362e-05	0.992549161283
2305.0	2.32010102383e-05	0.992572362294
2308.0	3.31443003404e-05	0.992605506594
2312.0	1.32577201362e-05	0.992618764314
2315.0	2.65154402723e-05	0.992645279754
2318.0	1.32577201362e-05	0.992658537475
2321.0	3.31443003404e-05	0.992691681775
2324.0	1.65721501702e-05	0.992708253925
2327.0	1.32577201362e-05	0.992721511645
2329.0	1.32577201362e-05	0.992734769365
2333.0	1.98865802042e-05	0.992754655946
2335.0	1.32577201362e-05	0.992767913666
2338.0	9.94329010212e-06	0.992777856956
2342.0	1.32577201362e-05	0.992791114676
2345.0	1.32577201362e-05	0.992804372396
2348.0	2.98298703064e-05	0.992834202266
2350.0	1.65721501702e-05	0.992850774417
2353.0	9.94329010212e-06	0.992860717707
2357.0	2.32010102383e-05	0.992883918717
2360.0	2.32010102383e-05	0.992907119727
2362.0	2.32010102383e-05	0.992930320737
2366.0	9.94329010212e-06	0.992940264027
2368.0	1.32577201362e-05	0.992953521748
2372.0	1.65721501702e-05	0.992970093898
2374.0	1.65721501702e-05	0.992986666048
2378.0	2.32010102383e-05	0.993009867058
2381.0	5.30308805446e-05	0.993062897939
2384.0	1.65721501702e-05	0.993079470089
2386.0	2.32010102383e-05	0.993102671099
2389.0	9.94329010212e-06	0.993112614389
2392.0	1.98865802042e-05	0.993132500969
2395.0	1.98865802042e-05	0.99315238755
2399.0	3.31443003404e-06	0.99315570198
2401.0	2.65154402723e-05	0.99318221742
2404.0	1.32577201362e-05	0.99319547514
2408.0	1.32577201362e-05	0.99320873286
2410.0	2.32010102383e-05	0.99323193387
2413.0	1.98865802042e-05	0.993251820451
2416.0	9.94329010212e-06	0.993261763741
2420.0	2.65154402723e-05	0.993288279181
2423.0	9.94329010212e-06	0.993298222471
2426.0	1.65721501702e-05	0.993314794621
2429.0	1.32577201362e-05	0.993328052341
2431.0	1.32577201362e-05	0.993341310062
2435.0	1.32577201362e-05	0.993354567782
2438.0	6.62886006808e-06	0.993361196642
2441.0	1.65721501702e-05	0.993377768792
2444.0	9.94329010212e-06	0.993387712082
2447.0	9.94329010212e-06	0.993397655372
2450.0	6.62886006808e-06	0.993404284232
2452.0	1.98865802042e-05	0.993424170812
2455.0	2.32010102383e-05	0.993447371823
2459.0	2.65154402723e-05	0.993473887263
2461.0	1.65721501702e-05	0.993490459413
2465.0	6.62886006808e-06	0.993497088273
2468.0	2.98298703064e-05	0.993526918144
2470.0	3.31443003404e-06	0.993530232574
2474.0	9.94329010212e-06	0.993540175864
2476.0	1.65721501702e-05	0.993556748014
2479.0	1.65721501702e-05	0.993573320164
2482.0	1.32577201362e-05	0.993586577884
2486.0	1.32577201362e-05	0.993599835604
2489.0	9.94329010212e-06	0.993609778894
2491.0	1.65721501702e-05	0.993626351045
2494.0	1.98865802042e-05	0.993646237625
2497.0	2.65154402723e-05	0.993672753065
2500.0	1.32577201362e-05	0.993686010785
2504.0	1.32577201362e-05	0.993699268505
2506.0	1.32577201362e-05	0.993712526225
2509.0	2.98298703064e-05	0.993742356096
2513.0	1.98865802042e-05	0.993762242676
2516.0	1.32577201362e-05	0.993775500396
2518.0	3.31443003404e-05	0.993808644696
2521.0	1.32577201362e-05	0.993821902417
2524.0	1.65721501702e-05	0.993838474567
2527.0	1.65721501702e-05	0.993855046717
2531.0	3.31443003404e-06	0.993858361147
2534.0	1.32577201362e-05	0.993871618867
2536.0	1.98865802042e-05	0.993891505447
2540.0	1.98865802042e-05	0.993911392027
2542.0	1.98865802042e-05	0.993931278608
2545.0	1.98865802042e-05	0.993951165188
2549.0	9.94329010212e-06	0.993961108478
2552.0	9.94329010212e-06	0.993971051768
2554.0	2.98298703064e-05	0.994000881638
2557.0	1.65721501702e-05	0.994017453789
2560.0	2.98298703064e-05	0.994047283659
2564.0	1.98865802042e-05	0.994067170239
2567.0	2.32010102383e-05	0.994090371249
2569.0	1.98865802042e-05	0.99411025783
2572.0	9.94329010212e-06	0.99412020112
2576.0	3.64587303744e-05	0.99415665985
2578.0	1.65721501702e-05	0.994173232
2581.0	2.65154402723e-05	0.99419974744
2585.0	6.62886006808e-06	0.9942063763
2587.0	1.98865802042e-05	0.994226262881
2591.0	6.62886006808e-06	0.994232891741
2593.0	1.65721501702e-05	0.994249463891
2596.0	1.98865802042e-05	0.994269350471
2600.0	1.65721501702e-05	0.994285922621
2602.0	1.65721501702e-05	0.994302494771
2605.0	1.32577201362e-05	0.994315752492
2608.0	1.32577201362e-05	0.994329010212
2611.0	1.65721501702e-05	0.994345582362
2614.0	2.65154402723e-05	0.994372097802
2617.0	1.32577201362e-05	0.994385355522
2620.0	2.65154402723e-05	0.994411870963
2623.0	1.65721501702e-05	0.994428443113
2627.0	1.32577201362e-05	0.994441700833
2630.0	6.62886006808e-06	0.994448329693
2632.0	1.65721501702e-05	0.994464901843
2636.0	6.62886006808e-06	0.994471530703
2639.0	6.62886006808e-06	0.994478159563
2641.0	2.32010102383e-05	0.994501360574
2644.0	1.32577201362e-05	0.994514618294
2647.0	1.65721501702e-05	0.994531190444
2650.0	2.32010102383e-05	0.994554391454
2653.0	1.65721501702e-05	0.994570963604
2659.0	1.98865802042e-05	0.994590850184
2662.0	6.62886006808e-06	0.994597479045
2665.0	1.32577201362e-05	0.994610736765
2669.0	1.32577201362e-05	0.994623994485
2671.0	1.98865802042e-05	0.994643881065
2674.0	1.65721501702e-05	0.994660453215
2678.0	1.65721501702e-05	0.994677025365
2680.0	1.98865802042e-05	0.994696911946
2683.0	6.62886006808e-06	0.994703540806
2687.0	6.62886006808e-06	0.994710169666
2690.0	3.31443003404e-06	0.994713484096
2692.0	1.32577201362e-05	0.994726741816
2695.0	6.62886006808e-06	0.994733370676
2698.0	1.65721501702e-05	0.994749942826
2701.0	9.94329010212e-06	0.994759886116
2705.0	1.32577201362e-05	0.994773143836
2707.0	1.65721501702e-05	0.994789715986
2711.0	6.62886006808e-06	0.994796344847
2713.0	9.94329010212e-06	0.994806288137
2716.0	1.65721501702e-05	0.994822860287
2719.0	2.32010102383e-05	0.994846061297
2723.0	1.65721501702e-05	0.994862633447
2725.0	1.32577201362e-05	0.994875891167
2729.0	1.98865802042e-05	0.994895777748
2731.0	6.62886006808e-06	0.994902406608
2734.0	1.65721501702e-05	0.994918978758
2738.0	2.32010102383e-05	0.994942179768
2741.0	9.94329010212e-06	0.994952123058
2743.0	1.32577201362e-05	0.994965380778
2746.0	6.62886006808e-06	0.994972009638
2749.0	1.65721501702e-05	0.994988581789
2753.0	1.65721501702e-05	0.995005153939
2755.0	3.97731604085e-05	0.995044927099
2758.0	1.32577201362e-05	0.995058184819
2762.0	9.94329010212e-06	0.995068128109
2765.0	3.31443003404e-06	0.995071442539
2768.0	3.31443003404e-06	0.995074756969
2770.0	9.94329010212e-06	0.99508470026
2774.0	3.31443003404e-06	0.99508801469
2776.0	1.32577201362e-05	0.99510127241
2779.0	9.94329010212e-06	0.9951112157
2782.0	9.94329010212e-06	0.99512115899
2785.0	1.65721501702e-05	0.99513773114
2788.0	2.32010102383e-05	0.99516093215
2791.0	1.98865802042e-05	0.995180818731
2794.0	2.32010102383e-05	0.995204019741
2797.0	1.32577201362e-05	0.995217277461
2800.0	9.94329010212e-06	0.995227220751
2804.0	6.62886006808e-06	0.995233849611
2806.0	9.94329010212e-06	0.995243792901
2809.0	2.32010102383e-05	0.995266993911
2812.0	1.65721501702e-05	0.995283566062
2815.0	6.62886006808e-06	0.995290194922
2819.0	1.32577201362e-05	0.995303452642
2821.0	1.98865802042e-05	0.995323339222
2824.0	1.98865802042e-05	0.995343225802
2827.0	9.94329010212e-06	0.995353169092
2830.0	1.32577201362e-05	0.995366426812
2833.0	1.98865802042e-05	0.995386313393
2836.0	1.65721501702e-05	0.995402885543
2839.0	1.32577201362e-05	0.995416143263
2843.0	1.32577201362e-05	0.995429400983
2845.0	3.31443003404e-06	0.995432715413
2848.0	3.64587303744e-05	0.995469174143
2851.0	9.94329010212e-06	0.995479117434
2854.0	1.32577201362e-05	0.995492375154
2857.0	1.98865802042e-05	0.995512261734
2863.0	1.65721501702e-05	0.995528833884
2867.0	3.31443003404e-06	0.995532148314
2869.0	1.65721501702e-05	0.995548720464
2872.0	9.94329010212e-06	0.995558663754
2875.0	1.32577201362e-05	0.995571921475
2878.0	9.94329010212e-06	0.995581864765
2881.0	1.32577201362e-05	0.995595122485
2884.0	6.62886006808e-06	0.995601751345
2887.0	1.65721501702e-05	0.995618323495
2890.0	1.98865802042e-05	0.995638210075
2893.0	1.32577201362e-05	0.995651467795
2896.0	9.94329010212e-06	0.995661411085
2899.0	1.32577201362e-05	0.995674668806
2902.0	3.31443003404e-06	0.995677983236
2905.0	1.98865802042e-05	0.995697869816
2908.0	1.65721501702e-05	0.995714441966
2911.0	1.32577201362e-05	0.995727699686
2914.0	9.94329010212e-06	0.995737642976
2917.0	1.98865802042e-05	0.995757529556
2920.0	1.65721501702e-05	0.995774101707
2923.0	9.94329010212e-06	0.995784044997
2926.0	1.65721501702e-05	0.995800617147
2930.0	6.62886006808e-06	0.995807246007
2933.0	9.94329010212e-06	0.995817189297
2935.0	9.94329010212e-06	0.995827132587
2938.0	2.32010102383e-05	0.995850333597
2942.0	6.62886006808e-06	0.995856962457
2944.0	9.94329010212e-06	0.995866905748
2947.0	6.62886006808e-06	0.995873534608
2950.0	1.98865802042e-05	0.995893421188
2953.0	1.32577201362e-05	0.995906678908
2960.0	6.62886006808e-06	0.995913307768
2962.0	9.94329010212e-06	0.995923251058
2965.0	1.32577201362e-05	0.995936508778
2968.0	3.31443003404e-06	0.995939823208
2971.0	9.94329010212e-06	0.995949766498
2978.0	3.31443003404e-06	0.995953080928
2984.0	6.62886006808e-06	0.995959709789
2986.0	1.98865802042e-05	0.995979596369
2990.0	6.62886006808e-06	0.995986225229
2995.0	6.62886006808e-06	0.995992854089
2998.0	3.31443003404e-06	0.995996168519
3001.0	1.32577201362e-05	0.996009426239
3004.0	9.94329010212e-06	0.996019369529
3007.0	1.65721501702e-05	0.996035941679
3010.0	9.94329010212e-06	0.996045884969
3013.0	1.32577201362e-05	0.99605914269
3016.0	9.94329010212e-06	0.99606908598
3019.0	9.94329010212e-06	0.99607902927
3022.0	9.94329010212e-06	0.99608897256
3026.0	6.62886006808e-06	0.99609560142
3029.0	3.31443003404e-06	0.99609891585
3031.0	1.32577201362e-05	0.99611217357
3034.0	6.62886006808e-06	0.99611880243
3040.0	1.98865802042e-05	0.99613868901
3043.0	9.94329010212e-06	0.9961486323
3046.0	6.62886006808e-06	0.996155261161
3049.0	6.62886006808e-06	0.996161890021
3052.0	9.94329010212e-06	0.996171833311
3055.0	9.94329010212e-06	0.996181776601
3058.0	6.62886006808e-06	0.996188405461
3062.0	9.94329010212e-06	0.996198348751
3067.0	6.62886006808e-06	0.996204977611
3070.0	1.32577201362e-05	0.996218235331
3073.0	3.31443003404e-06	0.996221549761
3076.0	9.94329010212e-06	0.996231493051
3079.0	3.31443003404e-06	0.996234807481
3082.0	1.65721501702e-05	0.996251379632
3085.0	3.31443003404e-06	0.996254694062
3088.0	1.98865802042e-05	0.996274580642
3091.0	1.32577201362e-05	0.996287838362
3094.0	9.94329010212e-06	0.996297781652
3097.0	1.32577201362e-05	0.996311039372
3100.0	6.62886006808e-06	0.996317668232
3106.0	1.32577201362e-05	0.996330925952
3109.0	6.62886006808e-06	0.996337554812
3112.0	2.32010102383e-05	0.996360755823
3115.0	9.94329010212e-06	0.996370699113
3118.0	1.32577201362e-05	0.996383956833
3121.0	6.62886006808e-06	0.996390585693
3124.0	9.94329010212e-06	0.996400528983
3127.0	1.32577201362e-05	0.996413786703
3130.0	1.65721501702e-05	0.996430358853
3133.0	6.62886006808e-06	0.996436987713
3136.0	2.98298703064e-05	0.996466817584
3139.0	9.94329010212e-06	0.996476760874
3142.0	1.98865802042e-05	0.996496647454
3145.0	3.31443003404e-06	0.996499961884
3148.0	6.62886006808e-06	0.996506590744
3151.0	1.32577201362e-05	0.996519848464
3154.0	3.31443003404e-06	0.996523162894
3157.0	3.31443003404e-06	0.996526477324
3160.0	6.62886006808e-06	0.996533106184
3163.0	9.94329010212e-06	0.996543049474
3166.0	6.62886006808e-06	0.996549678335
3173.0	3.31443003404e-06	0.996552992765
3175.0	1.32577201362e-05	0.996566250485
3178.0	1.32577201362e-05	0.996579508205
3181.0	6.62886006808e-06	0.996586137065
3184.0	6.62886006808e-06	0.996592765925
3188.0	6.62886006808e-06	0.996599394785
3191.0	3.31443003404e-06	0.996602709215
3193.0	6.62886006808e-06	0.996609338075
3196.0	6.62886006808e-06	0.996615966935
3199.0	9.94329010212e-06	0.996625910225
3202.0	3.31443003404e-06	0.996629224655
3205.0	6.62886006808e-06	0.996635853515
3208.0	3.31443003404e-06	0.996639167945
3211.0	1.65721501702e-05	0.996655740096
3215.0	3.31443003404e-06	0.996659054526
3218.0	3.31443003404e-06	0.996662368956
3220.0	3.31443003404e-06	0.996665683386
3223.0	3.31443003404e-06	0.996668997816
3226.0	9.94329010212e-06	0.996678941106
3232.0	3.31443003404e-06	0.996682255536
3235.0	1.98865802042e-05	0.996702142116
3238.0	1.98865802042e-05	0.996722028696
3241.0	1.32577201362e-05	0.996735286416
3244.0	6.62886006808e-06	0.996741915277
3248.0	6.62886006808e-06	0.996748544137
3250.0	6.62886006808e-06	0.996755172997
3253.0	1.65721501702e-05	0.996771745147
3256.0	1.32577201362e-05	0.996785002867
3259.0	3.31443003404e-06	0.996788317297
3262.0	9.94329010212e-06	0.996798260587
3265.0	1.32577201362e-05	0.996811518307
3269.0	9.94329010212e-06	0.996821461597
3274.0	6.62886006808e-06	0.996828090457
3277.0	3.31443003404e-06	0.996831404887
3280.0	1.32577201362e-05	0.996844662608
3283.0	3.31443003404e-06	0.996847977038
3286.0	3.31443003404e-06	0.996851291468
3289.0	3.31443003404e-06	0.996854605898
3292.0	3.31443003404e-06	0.996857920328
3295.0	9.94329010212e-06	0.996867863618
3298.0	3.31443003404e-06	0.996871178048
3302.0	6.62886006808e-06	0.996877806908
3304.0	6.62886006808e-06	0.996884435768
3307.0	3.31443003404e-06	0.996887750198
3310.0	3.31443003404e-06	0.996891064628
3313.0	9.94329010212e-06	0.996901007918
3317.0	3.31443003404e-06	0.996904322348
3319.0	6.62886006808e-06	0.996910951208
3322.0	9.94329010212e-06	0.996920894498
3325.0	9.94329010212e-06	0.996930837788
3328.0	1.32577201362e-05	0.996944095509
3331.0	6.62886006808e-06	0.996950724369
3334.0	1.98865802042e-05	0.996970610949
3338.0	3.31443003404e-06	0.996973925379
3340.0	3.31443003404e-06	0.996977239809
3343.0	3.31443003404e-06	0.996980554239
3346.0	3.31443003404e-06	0.996983868669
3349.0	9.94329010212e-06	0.996993811959
3352.0	6.62886006808e-06	0.997000440819
3355.0	6.62886006808e-06	0.997007069679
3358.0	9.94329010212e-06	0.997017012969
3361.0	6.62886006808e-06	0.997023641829
3364.0	1.32577201362e-05	0.99703689955
3367.0	1.32577201362e-05	0.99705015727
3370.0	9.94329010212e-06	0.99706010056
3373.0	1.32577201362e-05	0.99707335828
3376.0	9.94329010212e-06	0.99708330157
3379.0	9.94329010212e-06	0.99709324486
3382.0	9.94329010212e-06	0.99710318815
3386.0	6.62886006808e-06	0.99710981701
3388.0	3.31443003404e-06	0.99711313144
3391.0	1.65721501702e-05	0.997129703591
3394.0	6.62886006808e-06	0.997136332451
3400.0	9.94329010212e-06	0.997146275741
3406.0	9.94329010212e-06	0.997156219031
3409.0	3.31443003404e-06	0.997159533461
3413.0	3.31443003404e-06	0.997162847891
3415.0	6.62886006808e-06	0.997169476751
3418.0	3.31443003404e-06	0.997172791181
3421.0	6.62886006808e-06	0.997179420041
3424.0	3.31443003404e-06	0.997182734471
3427.0	6.62886006808e-06	0.997189363331
3431.0	6.62886006808e-06	0.997195992191
3433.0	9.94329010212e-06	0.997205935481
3436.0	1.32577201362e-05	0.997219193201
3439.0	6.62886006808e-06	0.997225822062
3442.0	9.94329010212e-06	0.997235765352
3445.0	9.94329010212e-06	0.997245708642
3448.0	9.94329010212e-06	0.997255651932
3451.0	9.94329010212e-06	0.997265595222
3454.0	6.62886006808e-06	0.997272224082
3457.0	6.62886006808e-06	0.997278852942
3460.0	1.32577201362e-05	0.997292110662
3463.0	1.32577201362e-05	0.997305368382
3466.0	9.94329010212e-06	0.997315311672
3469.0	6.62886006808e-06	0.997321940532
3472.0	3.31443003404e-06	0.997325254963
3475.0	9.94329010212e-06	0.997335198253
3478.0	1.32577201362e-05	0.997348455973
3485.0	3.31443003404e-06	0.997351770403
3491.0	3.31443003404e-06	0.997355084833
3493.0	6.62886006808e-06	0.997361713693
3496.0	1.32577201362e-05	0.997374971413
3499.0	6.62886006808e-06	0.997381600273
3502.0	6.62886006808e-06	0.997388229133
3505.0	9.94329010212e-06	0.997398172423
3508.0	6.62886006808e-06	0.997404801283
3511.0	3.31443003404e-06	0.997408115713
3518.0	3.31443003404e-06	0.997411430143
3520.0	6.62886006808e-06	0.997418059003
3526.0	6.62886006808e-06	0.997424687864
3532.0	2.32010102383e-05	0.997447888874
3535.0	3.31443003404e-06	0.997451203304
3541.0	6.62886006808e-06	0.997457832164
3544.0	3.31443003404e-06	0.997461146594
3547.0	6.62886006808e-06	0.997467775454
3553.0	9.94329010212e-06	0.997477718744
3556.0	9.94329010212e-06	0.997487662034
3559.0	6.62886006808e-06	0.997494290894
3562.0	9.94329010212e-06	0.997504234184
3565.0	1.65721501702e-05	0.997520806335
3572.0	3.31443003404e-06	0.997524120765
3574.0	3.31443003404e-06	0.997527435195
3577.0	6.62886006808e-06	0.997534064055
3583.0	9.94329010212e-06	0.997544007345
3586.0	3.31443003404e-06	0.997547321775
3592.0	6.62886006808e-06	0.997553950635
3595.0	3.31443003404e-06	0.997557265065
3598.0	1.32577201362e-05	0.997570522785
3601.0	3.31443003404e-06	0.997573837215
3607.0	6.62886006808e-06	0.997580466075
3614.0	3.31443003404e-06	0.997583780505
3616.0	6.62886006808e-06	0.997590409365
3622.0	1.65721501702e-05	0.997606981515
3625.0	3.31443003404e-06	0.997610295945
3628.0	3.31443003404e-06	0.997613610375
3632.0	3.31443003404e-06	0.997616924806
3634.0	9.94329010212e-06	0.997626868096
3640.0	6.62886006808e-06	0.997633496956
3643.0	3.31443003404e-06	0.997636811386
3646.0	9.94329010212e-06	0.997646754676
3650.0	3.31443003404e-06	0.997650069106
3652.0	6.62886006808e-06	0.997656697966
3655.0	6.62886006808e-06	0.997663326826
3659.0	3.31443003404e-06	0.997666641256
3664.0	6.62886006808e-06	0.997673270116
3667.0	6.62886006808e-06	0.997679898976
3669.0	9.94329010212e-06	0.997689842266
3673.0	3.31443003404e-06	0.997693156696
3676.0	6.62886006808e-06	0.997699785556
3679.0	3.31443003404e-06	0.997703099986
3688.0	6.62886006808e-06	0.997709728846
3691.0	3.31443003404e-06	0.997713043277
3694.0	3.31443003404e-06	0.997716357707
3697.0	3.31443003404e-06	0.997719672137
3703.0	1.65721501702e-05	0.997736244287
3706.0	9.94329010212e-06	0.997746187577
3709.0	3.31443003404e-06	0.997749502007
3712.0	6.62886006808e-06	0.997756130867
3715.0	3.31443003404e-06	0.997759445297
3718.0	3.31443003404e-06	0.997762759727
3727.0	3.31443003404e-06	0.997766074157
3730.0	3.31443003404e-06	0.997769388587
3733.0	6.62886006808e-06	0.997776017447
3736.0	3.31443003404e-06	0.997779331877
3739.0	6.62886006808e-06	0.997785960737
3742.0	3.31443003404e-06	0.997789275167
3745.0	3.31443003404e-06	0.997792589597
3749.0	3.31443003404e-06	0.997795904027
3751.0	9.94329010212e-06	0.997805847317
3758.0	3.31443003404e-06	0.997809161748
3760.0	3.31443003404e-06	0.997812476178
3763.0	3.31443003404e-06	0.997815790608
3766.0	3.31443003404e-06	0.997819105038
3769.0	3.31443003404e-06	0.997822419468
3772.0	2.32010102383e-05	0.997845620478
3775.0	3.31443003404e-06	0.997848934908
3785.0	3.31443003404e-06	0.997852249338
3787.0	9.94329010212e-06	0.997862192628
3791.0	3.31443003404e-06	0.997865507058
3793.0	6.62886006808e-06	0.997872135918
3796.0	6.62886006808e-06	0.997878764778
3805.0	6.62886006808e-06	0.997885393638
3808.0	6.62886006808e-06	0.997892022498
3811.0	6.62886006808e-06	0.997898651358
3814.0	6.62886006808e-06	0.997905280218
3817.0	9.94329010212e-06	0.997915223509
3820.0	6.62886006808e-06	0.997921852369
3835.0	3.31443003404e-06	0.997925166799
3838.0	9.94329010212e-06	0.997935110089
3847.0	3.31443003404e-06	0.997938424519
3853.0	3.31443003404e-06	0.997941738949
3856.0	3.31443003404e-06	0.997945053379
3862.0	3.31443003404e-06	0.997948367809
3865.0	6.62886006808e-06	0.997954996669
3871.0	6.62886006808e-06	0.997961625529
3877.0	3.31443003404e-06	0.997964939959
3880.0	3.31443003404e-06	0.997968254389
3886.0	3.31443003404e-06	0.997971568819
3889.0	6.62886006808e-06	0.997978197679
3892.0	6.62886006808e-06	0.997984826539
3895.0	3.31443003404e-06	0.997988140969
3898.0	9.94329010212e-06	0.997998084259
3901.0	3.31443003404e-06	0.998001398689
3904.0	3.31443003404e-06	0.99800471312
3907.0	6.62886006808e-06	0.99801134198
3910.0	6.62886006808e-06	0.99801797084
3913.0	3.31443003404e-06	0.99802128527
3916.0	6.62886006808e-06	0.99802791413
3920.0	6.62886006808e-06	0.99803454299
3922.0	9.94329010212e-06	0.99804448628
3925.0	3.31443003404e-06	0.99804780071
3928.0	3.31443003404e-06	0.99805111514
3934.0	6.62886006808e-06	0.998057744
3937.0	6.62886006808e-06	0.99806437286
3940.0	6.62886006808e-06	0.99807100172
3944.0	3.31443003404e-06	0.99807431615
3961.0	6.62886006808e-06	0.99808094501
3964.0	3.31443003404e-06	0.99808425944
3967.0	3.31443003404e-06	0.99808757387
3970.0	3.31443003404e-06	0.9980908883
3973.0	3.31443003404e-06	0.99809420273
3976.0	3.31443003404e-06	0.99809751716
3979.0	6.62886006808e-06	0.998104146021
3982.0	6.62886006808e-06	0.998110774881
3985.0	1.32577201362e-05	0.998124032601
3989.0	3.31443003404e-06	0.998127347031
3994.0	3.31443003404e-06	0.998130661461
3997.0	6.62886006808e-06	0.998137290321
4000.0	3.31443003404e-06	0.998140604751
4004.0	3.31443003404e-06	0.998143919181
4006.0	6.62886006808e-06	0.998150548041
4009.0	3.31443003404e-06	0.998153862471
4015.0	3.31443003404e-06	0.998157176901
4018.0	3.31443003404e-06	0.998160491331
4027.0	3.31443003404e-06	0.998163805761
4030.0	3.31443003404e-06	0.998167120191
4033.0	3.31443003404e-06	0.998170434621
4039.0	3.31443003404e-06	0.998173749051
4042.0	6.62886006808e-06	0.998180377911
4045.0	9.94329010212e-06	0.998190321201
4048.0	3.31443003404e-06	0.998193635631
4051.0	9.94329010212e-06	0.998203578922
4054.0	3.31443003404e-06	0.998206893352
4057.0	3.31443003404e-06	0.998210207782
4060.0	3.31443003404e-06	0.998213522212
4063.0	3.31443003404e-06	0.998216836642
4066.0	6.62886006808e-06	0.998223465502
4075.0	3.31443003404e-06	0.998226779932
4078.0	3.31443003404e-06	0.998230094362
4084.0	1.32577201362e-05	0.998243352082
4093.0	3.31443003404e-06	0.998246666512
4096.0	6.62886006808e-06	0.998253295372
4103.0	3.31443003404e-06	0.998256609802
4105.0	6.62886006808e-06	0.998263238662
4108.0	6.62886006808e-06	0.998269867522
4111.0	3.31443003404e-06	0.998273181952
4114.0	3.31443003404e-06	0.998276496382
4129.0	3.31443003404e-06	0.998279810812
4138.0	3.31443003404e-06	0.998283125242
4141.0	3.31443003404e-06	0.998286439672
4144.0	6.62886006808e-06	0.998293068532
4147.0	3.31443003404e-06	0.998296382963
4156.0	3.31443003404e-06	0.998299697393
4159.0	3.31443003404e-06	0.998303011823
4161.0	9.94329010212e-06	0.998312955113
4165.0	3.31443003404e-06	0.998316269543
4171.0	3.31443003404e-06	0.998319583973
4186.0	6.62886006808e-06	0.998326212833
4189.0	3.31443003404e-06	0.998329527263
4201.0	3.31443003404e-06	0.998332841693
4204.0	3.31443003404e-06	0.998336156123
4213.0	3.31443003404e-06	0.998339470553
4216.0	3.31443003404e-06	0.998342784983
4219.0	3.31443003404e-06	0.998346099413
4225.0	1.32577201362e-05	0.998359357133
4229.0	3.31443003404e-06	0.998362671563
4231.0	3.31443003404e-06	0.998365985993
4243.0	3.31443003404e-06	0.998369300423
4246.0	6.62886006808e-06	0.998375929283
4249.0	3.31443003404e-06	0.998379243713
4252.0	3.31443003404e-06	0.998382558143
4258.0	3.31443003404e-06	0.998385872573
4261.0	3.31443003404e-06	0.998389187003
4264.0	3.31443003404e-06	0.998392501433
4270.0	3.31443003404e-06	0.998395815864
4282.0	9.94329010212e-06	0.998405759154
4285.0	3.31443003404e-06	0.998409073584
4289.0	3.31443003404e-06	0.998412388014
4291.0	3.31443003404e-06	0.998415702444
4297.0	3.31443003404e-06	0.998419016874
4306.0	3.31443003404e-06	0.998422331304
4309.0	1.32577201362e-05	0.998435589024
4315.0	6.62886006808e-06	0.998442217884
4318.0	3.31443003404e-06	0.998445532314
4324.0	6.62886006808e-06	0.998452161174
4330.0	6.62886006808e-06	0.998458790034
4336.0	3.31443003404e-06	0.998462104464
4345.0	3.31443003404e-06	0.998465418894
4348.0	3.31443003404e-06	0.998468733324
4354.0	6.62886006808e-06	0.998475362184
4357.0	6.62886006808e-06	0.998481991044
4360.0	3.31443003404e-06	0.998485305474
4363.0	3.31443003404e-06	0.998488619904
4366.0	3.31443003404e-06	0.998491934335
4375.0	1.32577201362e-05	0.998505192055
4381.0	9.94329010212e-06	0.998515135345
4387.0	9.94329010212e-06	0.998525078635
4393.0	9.94329010212e-06	0.998535021925
4396.0	3.31443003404e-06	0.998538336355
4405.0	3.31443003404e-06	0.998541650785
4414.0	3.31443003404e-06	0.998544965215
4417.0	3.31443003404e-06	0.998548279645
4432.0	6.62886006808e-06	0.998554908505
4435.0	3.31443003404e-06	0.998558222935
4444.0	3.31443003404e-06	0.998561537365
4459.0	3.31443003404e-06	0.998564851795
4465.0	3.31443003404e-06	0.998568166225
4468.0	9.94329010212e-06	0.998578109515
4471.0	3.31443003404e-06	0.998581423945
4483.0	6.62886006808e-06	0.998588052805
4486.0	3.31443003404e-06	0.998591367236
4489.0	3.31443003404e-06	0.998594681666
4492.0	3.31443003404e-06	0.998597996096
4495.0	3.31443003404e-06	0.998601310526
4498.0	6.62886006808e-06	0.998607939386
4501.0	3.31443003404e-06	0.998611253816
4507.0	6.62886006808e-06	0.998617882676
4513.0	3.31443003404e-06	0.998621197106
4516.0	3.31443003404e-06	0.998624511536
4522.0	3.31443003404e-06	0.998627825966
4525.0	6.62886006808e-06	0.998634454826
4540.0	3.31443003404e-06	0.998637769256
4543.0	6.62886006808e-06	0.998644398116
4549.0	3.31443003404e-06	0.998647712546
4552.0	3.31443003404e-06	0.998651026976
4573.0	3.31443003404e-06	0.998654341406
4576.0	3.31443003404e-06	0.998657655836
4579.0	6.62886006808e-06	0.998664284696
4585.0	3.31443003404e-06	0.998667599126
4588.0	3.31443003404e-06	0.998670913556
4591.0	3.31443003404e-06	0.998674227986
4594.0	3.31443003404e-06	0.998677542416
4600.0	6.62886006808e-06	0.998684171276
4609.0	3.31443003404e-06	0.998687485707
4615.0	3.31443003404e-06	0.998690800137
4618.0	3.31443003404e-06	0.998694114567
4621.0	6.62886006808e-06	0.998700743427
4627.0	3.31443003404e-06	0.998704057857
4630.0	6.62886006808e-06	0.998710686717
4633.0	6.62886006808e-06	0.998717315577
4639.0	3.31443003404e-06	0.998720630007
4642.0	3.31443003404e-06	0.998723944437
4645.0	6.62886006808e-06	0.998730573297
4651.0	3.31443003404e-06	0.998733887727
4657.0	3.31443003404e-06	0.998737202157
4669.0	3.31443003404e-06	0.998740516587
4675.0	6.62886006808e-06	0.998747145447
4678.0	6.62886006808e-06	0.998753774307
4681.0	3.31443003404e-06	0.998757088737
4684.0	3.31443003404e-06	0.998760403167
4690.0	3.31443003404e-06	0.998763717597
4693.0	3.31443003404e-06	0.998767032027
4702.0	3.31443003404e-06	0.998770346457
4708.0	3.31443003404e-06	0.998773660887
4711.0	3.31443003404e-06	0.998776975317
4714.0	3.31443003404e-06	0.998780289747
4726.0	3.31443003404e-06	0.998783604178
4741.0	3.31443003404e-06	0.998786918608
4747.0	3.31443003404e-06	0.998790233038
4756.0	3.31443003404e-06	0.998793547468
4768.0	6.62886006808e-06	0.998800176328
4771.0	3.31443003404e-06	0.998803490758
4789.0	3.31443003404e-06	0.998806805188
4807.0	3.31443003404e-06	0.998810119618
4813.0	3.31443003404e-06	0.998813434048
4819.0	3.31443003404e-06	0.998816748478
4822.0	3.31443003404e-06	0.998820062908
4825.0	3.31443003404e-06	0.998823377338
4837.0	3.31443003404e-06	0.998826691768
4840.0	3.31443003404e-06	0.998830006198
4843.0	3.31443003404e-06	0.998833320628
4846.0	3.31443003404e-06	0.998836635058
4849.0	3.31443003404e-06	0.998839949488
4861.0	3.31443003404e-06	0.998843263918
4864.0	3.31443003404e-06	0.998846578348
4870.0	6.62886006808e-06	0.998853207208
4873.0	3.31443003404e-06	0.998856521638
4879.0	3.31443003404e-06	0.998859836068
4882.0	3.31443003404e-06	0.998863150498
4885.0	6.62886006808e-06	0.998869779358
4888.0	3.31443003404e-06	0.998873093788
4894.0	3.31443003404e-06	0.998876408218
4897.0	3.31443003404e-06	0.998879722648
4900.0	6.62886006808e-06	0.998886351509
4903.0	3.31443003404e-06	0.998889665939
4909.0	3.31443003404e-06	0.998892980369
4912.0	9.94329010212e-06	0.998902923659
4918.0	3.31443003404e-06	0.998906238089
4924.0	3.31443003404e-06	0.998909552519
4930.0	3.31443003404e-06	0.998912866949
4936.0	3.31443003404e-06	0.998916181379
4939.0	3.31443003404e-06	0.998919495809
4945.0	3.31443003404e-06	0.998922810239
4966.0	3.31443003404e-06	0.998926124669
4969.0	6.62886006808e-06	0.998932753529
4972.0	6.62886006808e-06	0.998939382389
4981.0	3.31443003404e-06	0.998942696819
4984.0	3.31443003404e-06	0.998946011249
4993.0	6.62886006808e-06	0.998952640109
5014.0	3.31443003404e-06	0.998955954539
5017.0	3.31443003404e-06	0.998959268969
5020.0	3.31443003404e-06	0.998962583399
5026.0	3.31443003404e-06	0.998965897829
5029.0	3.31443003404e-06	0.998969212259
5032.0	6.62886006808e-06	0.998975841119
5035.0	3.31443003404e-06	0.99897915555
5038.0	3.31443003404e-06	0.99898246998
5041.0	3.31443003404e-06	0.99898578441
5047.0	6.62886006808e-06	0.99899241327
5056.0	3.31443003404e-06	0.9989957277
5065.0	3.31443003404e-06	0.99899904213
5089.0	3.31443003404e-06	0.99900235656
5092.0	6.62886006808e-06	0.99900898542
5097.0	3.31443003404e-06	0.99901229985
5101.0	3.31443003404e-06	0.99901561428
5107.0	3.31443003404e-06	0.99901892871
5113.0	3.31443003404e-06	0.99902224314
5116.0	3.31443003404e-06	0.99902555757
5119.0	3.31443003404e-06	0.999028872
5125.0	6.62886006808e-06	0.99903550086
5131.0	3.31443003404e-06	0.99903881529
5133.0	9.94329010212e-06	0.99904875858
5137.0	3.31443003404e-06	0.99905207301
5149.0	6.62886006808e-06	0.99905870187
5166.0	3.31443003404e-06	0.9990620163
5173.0	3.31443003404e-06	0.99906533073
5176.0	3.31443003404e-06	0.99906864516
5179.0	6.62886006808e-06	0.999075274021
5182.0	3.31443003404e-06	0.999078588451
5185.0	3.31443003404e-06	0.999081902881
5188.0	6.62886006808e-06	0.999088531741
5191.0	3.31443003404e-06	0.999091846171
5194.0	3.31443003404e-06	0.999095160601
5200.0	3.31443003404e-06	0.999098475031
5206.0	3.31443003404e-06	0.999101789461
5208.0	3.31443003404e-06	0.999105103891
5215.0	3.31443003404e-06	0.999108418321
5217.0	6.62886006808e-06	0.999115047181
5221.0	3.31443003404e-06	0.999118361611
5224.0	3.31443003404e-06	0.999121676041
5239.0	6.62886006808e-06	0.999128304901
5257.0	6.62886006808e-06	0.999134933761
5263.0	3.31443003404e-06	0.999138248191
5269.0	3.31443003404e-06	0.999141562621
5271.0	6.62886006808e-06	0.999148191481
5274.0	9.94329010212e-06	0.999158134771
5290.0	3.31443003404e-06	0.999161449201
5293.0	3.31443003404e-06	0.999164763631
5296.0	6.62886006808e-06	0.999171392491
5302.0	3.31443003404e-06	0.999174706922
5314.0	3.31443003404e-06	0.999178021352
5320.0	3.31443003404e-06	0.999181335782
5329.0	3.31443003404e-06	0.999184650212
5341.0	3.31443003404e-06	0.999187964642
5343.0	3.31443003404e-06	0.999191279072
5353.0	3.31443003404e-06	0.999194593502
5362.0	3.31443003404e-06	0.999197907932
5365.0	3.31443003404e-06	0.999201222362
5376.0	3.31443003404e-06	0.999204536792
5379.0	9.94329010212e-06	0.999214480082
5395.0	3.31443003404e-06	0.999217794512
5413.0	3.31443003404e-06	0.999221108942
5446.0	3.31443003404e-06	0.999224423372
5455.0	3.31443003404e-06	0.999227737802
5458.0	3.31443003404e-06	0.999231052232
5461.0	3.31443003404e-06	0.999234366662
5464.0	3.31443003404e-06	0.999237681092
5466.0	3.31443003404e-06	0.999240995522
5482.0	3.31443003404e-06	0.999244309952
5488.0	3.31443003404e-06	0.999247624382
5491.0	3.31443003404e-06	0.999250938812
5496.0	3.31443003404e-06	0.999254253242
5509.0	3.31443003404e-06	0.999257567672
5512.0	3.31443003404e-06	0.999260882102
5524.0	3.31443003404e-06	0.999264196532
5526.0	3.31443003404e-06	0.999267510962
5551.0	3.31443003404e-06	0.999270825393
5560.0	3.31443003404e-06	0.999274139823
5568.0	3.31443003404e-06	0.999277454253
5572.0	3.31443003404e-06	0.999280768683
5584.0	3.31443003404e-06	0.999284083113
5602.0	3.31443003404e-06	0.999287397543
5610.0	6.62886006808e-06	0.999294026403
5613.0	3.31443003404e-06	0.999297340833
5619.0	3.31443003404e-06	0.999300655263
5632.0	3.31443003404e-06	0.999303969693
5634.0	3.31443003404e-06	0.999307284123
5647.0	3.31443003404e-06	0.999310598553
5650.0	3.31443003404e-06	0.999313912983
5671.0	3.31443003404e-06	0.999317227413
5679.0	6.62886006808e-06	0.999323856273
5686.0	3.31443003404e-06	0.999327170703
5695.0	3.31443003404e-06	0.999330485133
5698.0	3.31443003404e-06	0.999333799563
5703.0	6.62886006808e-06	0.999340428423
5706.0	3.31443003404e-06	0.999343742853
5718.0	3.31443003404e-06	0.999347057283
5733.0	3.31443003404e-06	0.999350371713
5737.0	3.31443003404e-06	0.999353686143
5755.0	3.31443003404e-06	0.999357000573
5757.0	3.31443003404e-06	0.999360315003
5760.0	3.31443003404e-06	0.999363629433
5773.0	3.31443003404e-06	0.999366943863
5787.0	3.31443003404e-06	0.999370258294
5791.0	3.31443003404e-06	0.999373572724
5796.0	3.31443003404e-06	0.999376887154
5799.0	6.62886006808e-06	0.999383516014
5803.0	3.31443003404e-06	0.999386830444
5812.0	3.31443003404e-06	0.999390144874
5818.0	3.31443003404e-06	0.999393459304
5823.0	3.31443003404e-06	0.999396773734
5830.0	3.31443003404e-06	0.999400088164
5839.0	3.31443003404e-06	0.999403402594
5841.0	3.31443003404e-06	0.999406717024
5847.0	3.31443003404e-06	0.999410031454
5860.0	3.31443003404e-06	0.999413345884
5869.0	3.31443003404e-06	0.999416660314
5875.0	3.31443003404e-06	0.999419974744
5889.0	6.62886006808e-06	0.999426603604
5892.0	3.31443003404e-06	0.999429918034
5902.0	3.31443003404e-06	0.999433232464
5904.0	3.31443003404e-06	0.999436546894
5919.0	3.31443003404e-06	0.999439861324
5931.0	3.31443003404e-06	0.999443175754
5934.0	3.31443003404e-06	0.999446490184
5938.0	3.31443003404e-06	0.999449804614
5955.0	3.31443003404e-06	0.999453119044
5967.0	3.31443003404e-06	0.999456433474
5971.0	3.31443003404e-06	0.999459747904
5991.0	3.31443003404e-06	0.999463062334
6003.0	3.31443003404e-06	0.999466376765
6021.0	3.31443003404e-06	0.999469691195
6027.0	3.31443003404e-06	0.999473005625
6048.0	6.62886006808e-06	0.999479634485
6067.0	3.31443003404e-06	0.999482948915
6081.0	3.31443003404e-06	0.999486263345
6090.0	3.31443003404e-06	0.999489577775
6159.0	3.31443003404e-06	0.999492892205
6174.0	3.31443003404e-06	0.999496206635
6198.0	3.31443003404e-06	0.999499521065
6207.0	3.31443003404e-06	0.999502835495
6223.0	3.31443003404e-06	0.999506149925
6232.0	3.31443003404e-06	0.999509464355
6241.0	3.31443003404e-06	0.999512778785
6246.0	3.31443003404e-06	0.999516093215
6252.0	3.31443003404e-06	0.999519407645
6297.0	3.31443003404e-06	0.999522722075
6300.0	3.31443003404e-06	0.999526036505
6342.0	3.31443003404e-06	0.999529350935
6351.0	3.31443003404e-06	0.999532665365
6354.0	6.62886006808e-06	0.999539294225
6363.0	3.31443003404e-06	0.999542608655
6372.0	6.62886006808e-06	0.999549237515
6381.0	9.94329010212e-06	0.999559180805
6397.0	3.31443003404e-06	0.999562495236
6402.0	3.31443003404e-06	0.999565809666
6420.0	6.62886006808e-06	0.999572438526
6423.0	3.31443003404e-06	0.999575752956
6444.0	6.62886006808e-06	0.999582381816
6492.0	3.31443003404e-06	0.999585696246
6519.0	3.31443003404e-06	0.999589010676
6532.0	6.62886006808e-06	0.999595639536
6570.0	3.31443003404e-06	0.999598953966
6583.0	3.31443003404e-06	0.999602268396
6624.0	3.31443003404e-06	0.999605582826
6639.0	3.31443003404e-06	0.999608897256
6678.0	6.62886006808e-06	0.999615526116
6694.0	3.31443003404e-06	0.999618840546
6696.0	6.62886006808e-06	0.999625469406
6709.0	3.31443003404e-06	0.999628783836
6711.0	3.31443003404e-06	0.999632098266
6723.0	3.31443003404e-06	0.999635412696
6729.0	3.31443003404e-06	0.999638727126
6732.0	3.31443003404e-06	0.999642041556
6742.0	3.31443003404e-06	0.999645355986
6801.0	3.31443003404e-06	0.999648670416
6810.0	3.31443003404e-06	0.999651984846
6819.0	3.31443003404e-06	0.999655299276
6834.0	3.31443003404e-06	0.999658613706
6837.0	3.31443003404e-06	0.999661928137
6843.0	3.31443003404e-06	0.999665242567
6879.0	3.31443003404e-06	0.999668556997
6901.0	3.31443003404e-06	0.999671871427
6918.0	3.31443003404e-06	0.999675185857
6924.0	6.62886006808e-06	0.999681814717
6966.0	3.31443003404e-06	0.999685129147
6969.0	3.31443003404e-06	0.999688443577
6979.0	3.31443003404e-06	0.999691758007
7002.0	3.31443003404e-06	0.999695072437
7020.0	3.31443003404e-06	0.999698386867
7029.0	3.31443003404e-06	0.999701701297
7050.0	3.31443003404e-06	0.999705015727
7065.0	3.31443003404e-06	0.999708330157
7089.0	3.31443003404e-06	0.999711644587
7140.0	3.31443003404e-06	0.999714959017
7160.0	3.31443003404e-06	0.999718273447
7164.0	3.31443003404e-06	0.999721587877
7174.0	3.31443003404e-06	0.999724902307
7191.0	3.31443003404e-06	0.999728216737
7200.0	3.31443003404e-06	0.999731531167
7233.0	3.31443003404e-06	0.999734845597
7236.0	3.31443003404e-06	0.999738160027
7245.0	3.31443003404e-06	0.999741474457
7314.0	6.62886006808e-06	0.999748103317
7350.0	3.31443003404e-06	0.999751417747
7362.0	3.31443003404e-06	0.999754732177
7395.0	3.31443003404e-06	0.999758046608
7398.0	3.31443003404e-06	0.999761361038
7428.0	3.31443003404e-06	0.999764675468
7440.0	3.31443003404e-06	0.999767989898
7463.0	3.31443003404e-06	0.999771304328
7575.0	3.31443003404e-06	0.999774618758
7599.0	3.31443003404e-06	0.999777933188
7662.0	3.31443003404e-06	0.999781247618
7671.0	3.31443003404e-06	0.999784562048
7703.0	6.62886006808e-06	0.999791190908
7719.0	3.31443003404e-06	0.999794505338
7743.0	6.62886006808e-06	0.999801134198
7755.0	3.31443003404e-06	0.999804448628
7797.0	3.31443003404e-06	0.999807763058
7809.0	3.31443003404e-06	0.999811077488
7842.0	3.31443003404e-06	0.999814391918
7893.0	3.31443003404e-06	0.999817706348
7899.0	3.31443003404e-06	0.999821020778
8059.0	3.31443003404e-06	0.999824335208
8061.0	3.31443003404e-06	0.999827649638
8103.0	3.31443003404e-06	0.999830964068
8139.0	3.31443003404e-06	0.999834278498
8232.0	3.31443003404e-06	0.999837592928
8238.0	3.31443003404e-06	0.999840907358
8262.0	3.31443003404e-06	0.999844221788
8292.0	3.31443003404e-06	0.999847536218
8316.0	3.31443003404e-06	0.999850850648
8346.0	3.31443003404e-06	0.999854165079
8391.0	3.31443003404e-06	0.999857479509
8505.0	3.31443003404e-06	0.999860793939
8631.0	3.31443003404e-06	0.999864108369
8679.0	3.31443003404e-06	0.999867422799
8742.0	3.31443003404e-06	0.999870737229
8835.0	3.31443003404e-06	0.999874051659
8886.0	3.31443003404e-06	0.999877366089
8916.0	3.31443003404e-06	0.999880680519
8958.0	3.31443003404e-06	0.999883994949
8961.0	3.31443003404e-06	0.999887309379
8990.0	3.31443003404e-06	0.999890623809
9041.0	3.31443003404e-06	0.999893938239
9123.0	3.31443003404e-06	0.999897252669
9162.0	3.31443003404e-06	0.999900567099
9195.0	3.31443003404e-06	0.999903881529
9321.0	3.31443003404e-06	0.999907195959
9356.0	3.31443003404e-06	0.999910510389
9410.0	3.31443003404e-06	0.999913824819
9443.0	3.31443003404e-06	0.999917139249
9641.0	3.31443003404e-06	0.999920453679
9720.0	3.31443003404e-06	0.999923768109
9872.0	3.31443003404e-06	0.999927082539
9893.0	3.31443003404e-06	0.999930396969
10304.0	3.31443003404e-06	0.999933711399
10523.0	3.31443003404e-06	0.999937025829
10874.0	3.31443003404e-06	0.999940340259
11033.0	3.31443003404e-06	0.999943654689
11174.0	3.31443003404e-06	0.999946969119
11324.0	3.31443003404e-06	0.999950283549
11330.0	3.31443003404e-06	0.99995359798
11807.0	3.31443003404e-06	0.99995691241
11822.0	3.31443003404e-06	0.99996022684
11945.0	3.31443003404e-06	0.99996354127
12175.0	3.31443003404e-06	0.9999668557
12197.0	3.31443003404e-06	0.99997017013
12380.0	3.31443003404e-06	0.99997348456
12430.0	3.31443003404e-06	0.99997679899
12652.0	3.31443003404e-06	0.99998011342
12722.0	3.31443003404e-06	0.99998342785
13273.0	3.31443003404e-06	0.99998674228
13597.0	3.31443003404e-06	0.99999005671
16135.0	3.31443003404e-06	0.99999337114
16400.0	3.31443003404e-06	0.99999668557
16530.0	3.31443003404e-06	1.0
17250.0	3.31443003404e-06	1.0
