#set terminal postscript eps enhanced size 21.0cm,29.7cm #A4
#set terminal postscript eps enhanced color size 14.8cm,21.0cm #A5
set terminal postscript eps enhanced color size 14.8cm,12.0cm #A5
#set terminal postscript eps enhanced size 10.5cm,14.8cm #A6
set output "./output/task-count.eps"

set style line 1 linewidth 2.0
set style line 2 linewidth 2.0

set lmargin at screen 0.13
set rmargin at screen 0.96
set bmargin 0
set tmargin 0

#set grid
set yrange [0:39000]
set xrange [0:14]
set mxtics 6
set nokey
set format x ""

set ytics 8500

set multiplot

set size 1.0,0.18

set origin 0.0,0.82
set ylabel "90% Load\n\nTask Count"
plot "../analyses/workload-06h-11124l-3s-default/cwa/data/cumulative_tasks_600.dat" using ($1/3600):2 with steps ls 1 title "Hadoop Default Scheduler", \
     "../analyses/workload-06h-11124l-3s-fair/cwa/data/cumulative_tasks_600.dat" using ($1/3600):2 with steps ls 2 title "Fair Scheduler"


set origin 0.0,0.64
set ylabel "80% Load\n\nTask Count"
plot "../analyses/workload-06h-09888l-3s-default/cwa/data/cumulative_tasks_600.dat" using ($1/3600):2 with steps ls 1 title "Hadoop Default Scheduler", \
     "../analyses/workload-06h-09888l-3s-fair/cwa/data/cumulative_tasks_600.dat" using ($1/3600):2 with steps ls 2 title "Fair Scheduler"

set origin 0.0,0.46
set ylabel "60% Load\n\nTask Count"
plot "../analyses/workload-06h-07416l-3s-default/cwa/data/cumulative_tasks_600.dat" using ($1/3600):2 with steps ls 1 title "Hadoop Default Scheduler", \
     "../analyses/workload-06h-07416l-3s-fair/cwa/data/cumulative_tasks_600.dat" using ($1/3600):2 with steps ls 2 title "Fair Scheduler"

set origin 0.0,0.28
set ylabel "40% Load\n\nTask Count"
plot "../analyses/workload-06h-04944l-3s-default/cwa/data/cumulative_tasks_600.dat" using ($1/3600):2 with steps ls 1 title "Hadoop Default Scheduler", \
     "../analyses/workload-06h-04944l-3s-fair/cwa/data/cumulative_tasks_600.dat" using ($1/3600):2 with steps ls 2 title "Fair Scheduler"

set key below
set format x
set xlabel "Time since workload start (hours)"
set bmargin

set size 1.0,0.28
set origin 0.0,0.0
set ylabel "30% Load\n\nTask Count"
plot "../analyses/workload-06h-03708l-3s-default/cwa/data/cumulative_tasks_600.dat" using ($1/3600):2 with steps ls 1 title "Hadoop Default Scheduler", \
     "../analyses/workload-06h-03708l-3s-fair/cwa/data/cumulative_tasks_600.dat" using ($1/3600):2 with steps ls 2 title "Fair Scheduler"


unset multiplot
