#
# Generated On: 2012-02-05T16:44:23.281361
#           By: cwa.analyze.statistics
#      Version: 11.11.23
#       Author: Thomas A. de Ruiter <thomas@de-ruiter.cx>
#
#  Commandline: /home/af10028/bin/cwa analyze
#     Work Dir: /scratch/af10028/var/thesis-project/result/analyses/workload-01h-03708l-2s-fair
#

Time	Sum	Avg	StdDev	CoV	0.000000-Pct	0.010000-Pct	0.100000-Pct	1.000000-Pct	2.000000-Pct	5.000000-Pct	25.000000-Pct	50.000000-Pct	75.000000-Pct	95.000000-Pct	98.000000-Pct	99.000000-Pct	99.900000-Pct	99.990000-Pct	100.000000-Pct
1326949200	316003.0	341.255939525	475.013632057	1.39195711207	2.0	2.0	2.0	3.0	3.0	3.0	7.0	153.5	518.0	1257.0	1681.0	2054.0	3649.0	3649.0	3649.0
1326952800	8565.0	231.486486486	307.814755045	1.32973099085	3.0	3.0	3.0	3.0	3.0	3.0	4.0	130.0	302.0	860.0	1260.0	1260.0	1260.0	1260.0	1260.0
