#
# Generated On: 2012-01-20T17:01:36.212719
#           By: cwa.analyze.statistics
#      Version: 11.11.23
#       Author: Thomas A. de Ruiter <thomas@de-ruiter.cx>
#
#  Commandline: /home/af10028/bin/cwa analyze
#     Work Dir: /media/Thomas_EXT4/result/analyses/workload-01h-00123l-0s-fair
#

Time	Sum	Avg	StdDev	CoV	0.000000-Pct	0.010000-Pct	0.100000-Pct	1.000000-Pct	2.000000-Pct	5.000000-Pct	25.000000-Pct	50.000000-Pct	75.000000-Pct	95.000000-Pct	98.000000-Pct	99.000000-Pct	99.900000-Pct	99.990000-Pct	100.000000-Pct
1326903600	2613825.0	96808.3333333	444727.374728	4.59389558124	2.0	2.0	2.0	2.0	2.0	2.0	8.0	1858.0	14626.0	63188.0	2320129.0	2320129.0	2320129.0	2320129.0	2320129.0
