#
# Generated On: 2012-02-09T14:35:52.641822
#           By: cwa.analyze.statistics
#      Version: 11.11.23
#       Author: Thomas A. de Ruiter <thomas@de-ruiter.cx>
#
#  Commandline: /home/af10028/bin/cwa analyze
#     Work Dir: /scratch/af10028/var/thesis-project/result/workload-analyses/workload-06h-06180l-2s
#

Time	Sum	Avg	StdDev	CoV	0.000000-Pct	0.010000-Pct	0.100000-Pct	1.000000-Pct	2.000000-Pct	5.000000-Pct	25.000000-Pct	50.000000-Pct	75.000000-Pct	95.000000-Pct	98.000000-Pct	99.000000-Pct	99.900000-Pct	99.990000-Pct	100.000000-Pct
1326890400	1840883.0	4362.28199052	6858.61280432	1.5722534259	2.0	2.0	2.0	3.0	11.0	29.0	690.0	2513.0	5982.0	12691.0	19523.0	27290.0	77223.0	77223.0	77223.0
1326894000	1586746.0	4419.90529248	5734.56790947	1.29744135451	6.0	6.0	6.0	12.0	29.0	52.0	851.0	2717.0	5889.0	13570.0	19679.0	28648.0	55296.0	55296.0	55296.0
1326897600	1518081.0	4518.09821429	6862.287094	1.51884416153	5.0	5.0	5.0	7.0	11.0	44.0	845.0	2525.5	5961.0	13820.0	20065.0	22601.0	87650.0	87650.0	87650.0
1326901200	1893561.0	4698.66253102	5575.64396569	1.18664490775	0.0	0.0	0.0	5.0	13.0	44.0	1098.0	3121.0	6383.0	16193.0	21650.0	23925.0	44497.0	44497.0	44497.0
1326904800	2385312.0	4409.07948244	4999.31472037	1.13386813286	0.0	0.0	0.0	12.0	24.0	73.0	1090.0	2856.0	5819.0	14377.0	19714.0	24373.0	33229.0	33229.0	33229.0
1326908400	1768109.0	4111.88139535	5211.56162409	1.26743967615	3.0	3.0	3.0	5.0	17.0	36.0	869.0	2711.5	5388.0	12913.0	17674.0	27650.0	42329.0	42329.0	42329.0
1326912000	67540.0	4502.66666667	3881.25934398	0.861991266801	124.0	124.0	124.0	124.0	124.0	124.0	1836.0	3769.0	6179.0	16008.0	16008.0	16008.0	16008.0	16008.0	16008.0
