#
# Generated On: 2012-02-09T14:15:25.122477
#           By: cwa.analyze.statistics
#      Version: 11.11.23
#       Author: Thomas A. de Ruiter <thomas@de-ruiter.cx>
#
#  Commandline: /home/af10028/bin/cwa analyze
#     Work Dir: /scratch/af10028/var/thesis-project/result/workload-analyses/workload-06h-04944l-2s
#

Time	Sum	Avg	StdDev	CoV	0.000000-Pct	0.010000-Pct	0.100000-Pct	1.000000-Pct	2.000000-Pct	5.000000-Pct	25.000000-Pct	50.000000-Pct	75.000000-Pct	95.000000-Pct	98.000000-Pct	99.000000-Pct	99.900000-Pct	99.990000-Pct	100.000000-Pct
1326889800	283437.0	414.381578947	492.164323116	1.18770801628	0.0	0.0	0.0	2.0	4.0	8.0	62.0	236.0	616.0	1481.0	1762.0	2286.0	3591.0	3591.0	3591.0
1326893400	335714.0	464.334716459	593.955013591	1.27915271578	0.0	0.0	0.0	0.0	2.0	6.0	60.0	229.0	693.0	1618.0	2384.0	3066.0	4022.0	4022.0	4022.0
1326897000	363474.0	436.343337335	566.689975747	1.29872494263	1.0	1.0	1.0	2.0	4.0	8.0	64.0	234.0	606.0	1473.0	2117.0	2384.0	6063.0	6063.0	6063.0
1326900600	362093.0	442.656479218	558.525998197	1.26175945551	0.0	0.0	0.0	2.0	3.0	7.0	63.0	247.5	617.0	1515.0	2010.0	2435.0	6376.0	6376.0	6376.0
1326904200	385474.0	459.992840095	530.512128257	1.15330518655	0.0	0.0	0.0	1.0	3.0	6.0	67.0	284.0	655.0	1492.0	1890.0	2443.0	3781.0	3781.0	3781.0
1326907800	326669.0	434.978695073	523.26081917	1.20295735193	0.0	0.0	0.0	1.0	2.0	6.0	58.0	239.0	630.0	1452.0	1914.0	2370.0	4281.0	4281.0	4281.0
1326911400	17129.0	407.833333333	616.516686881	1.51168783052	1.0	1.0	1.0	1.0	1.0	7.0	37.0	195.0	471.0	1237.0	3463.0	3463.0	3463.0	3463.0	3463.0
