#
# Generated On: 2012-02-05T19:05:23.575162
#           By: cwa.analyze.statistics
#      Version: 11.11.23
#       Author: Thomas A. de Ruiter <thomas@de-ruiter.cx>
#
#  Commandline: /home/af10028/bin/cwa analyze
#     Work Dir: /scratch/af10028/var/thesis-project/result/analyses/workload-06h-07416l-1s-fair
#

Value	PDF	CDF
2.0	0.177770608163	0.177851266333
4.0	0.0382319728989	0.216083239232
6.0	0.00306501048556	0.219148249718
8.0	0.022906920471	0.242055170189
10.0	0.0197612518148	0.261816422004
12.0	0.008872398774	0.270688820778
14.0	0.00669462816583	0.277383448943
16.0	0.00500080658171	0.282384255525
18.0	0.004436199387	0.286820454912
20.0	0.00298435231489	0.289804807227
22.0	0.00225842877884	0.292063236006
24.0	0.00290369414422	0.29496693015
26.0	0.00233908694951	0.2973060171
28.0	0.00161316341345	0.298919180513
30.0	0.00290369414422	0.301822874657
32.0	0.00209711243749	0.303919987095
34.0	0.00161316341345	0.305533150508
36.0	0.0026617196322	0.30819487014
38.0	0.00145184707211	0.309646717212
40.0	0.00145184707211	0.311098564285
42.0	0.00201645426682	0.313115018551
44.0	0.00241974512018	0.315534763672
46.0	0.00120987256009	0.316744636232
48.0	0.00185513792547	0.318599774157
50.0	0.00241974512018	0.321019519277
52.0	0.00137118890144	0.322390708179
54.0	0.00225842877884	0.324649136958
57.0	0.00209711243749	0.326746249395
59.0	0.00209711243749	0.328843361833
61.0	0.000967898048072	0.329811259881
63.0	0.00161316341345	0.331424423294
65.0	0.00225842877884	0.333682852073
67.0	0.00120987256009	0.334892724633
69.0	0.00274237780287	0.337635102436
71.0	0.00169382158413	0.33932892402
73.0	0.000967898048072	0.340296822068
75.0	0.00185513792547	0.342151959994
77.0	0.00161316341345	0.343765123407
79.0	0.00169382158413	0.345458944991
81.0	0.00169382158413	0.347152766575
83.0	0.0008872398774	0.348040006453
85.0	0.00153250524278	0.349572511695
87.0	0.00201645426682	0.351588965962
89.0	0.00120987256009	0.352798838522
91.0	0.00112921438942	0.353928052912
93.0	0.00225842877884	0.356186481691
95.0	0.000967898048072	0.357154379739
97.0	0.000967898048072	0.358122277787
99.0	0.00225842877884	0.360380706566
101.0	0.00145184707211	0.361832553638
103.0	0.000725923536054	0.362558477174
105.0	0.00137118890144	0.363929666075
107.0	0.00153250524278	0.365462171318
109.0	0.00145184707211	0.36691401839
111.0	0.00201645426682	0.368930472657
113.0	0.00161316341345	0.37054363607
115.0	0.00145184707211	0.371995483142
117.0	0.00185513792547	0.373850621068
119.0	0.00120987256009	0.375060493628
121.0	0.000806581706727	0.375867075335
123.0	0.00193579609614	0.377802871431
125.0	0.00209711243749	0.379899983868
127.0	0.00169382158413	0.381593805452
129.0	0.00161316341345	0.383206968866
131.0	0.00129053073076	0.384497499597
133.0	0.000967898048072	0.385465397645
135.0	0.00225842877884	0.387723826424
137.0	0.00161316341345	0.389336989837
139.0	0.00145184707211	0.390788836909
141.0	0.00250040329085	0.3932892402
143.0	0.00145184707211	0.394741087272
145.0	0.000967898048072	0.39570898532
147.0	0.00201645426682	0.397725439587
149.0	0.00209711243749	0.399822552025
151.0	0.000806581706727	0.400629133731
153.0	0.0008872398774	0.401516373609
155.0	0.00169382158413	0.403210195193
157.0	0.00145184707211	0.404662042265
159.0	0.00201645426682	0.406678496532
161.0	0.00169382158413	0.408372318116
163.0	0.00104855621874	0.409420874335
165.0	0.00153250524278	0.410953379577
167.0	0.00145184707211	0.412405226649
169.0	0.000564607194709	0.412969833844
171.0	0.00209711243749	0.415066946282
173.0	0.00145184707211	0.416518793354
175.0	0.000725923536054	0.41724471689
177.0	0.00201645426682	0.419261171157
179.0	0.00129053073076	0.420551701887
181.0	0.00153250524278	0.42208420713
183.0	0.00161316341345	0.423697370544
185.0	0.000967898048072	0.424665268592
187.0	0.00112921438942	0.425794482981
189.0	0.00137118890144	0.427165671883
191.0	0.00120987256009	0.428375544443
193.0	0.00112921438942	0.429504758832
195.0	0.00193579609614	0.431440554928
197.0	0.00112921438942	0.432569769318
199.0	0.00137118890144	0.433940958219
201.0	0.00185513792547	0.435796096145
203.0	0.00161316341345	0.437409259558
205.0	0.00137118890144	0.438780448459
207.0	0.00112921438942	0.439909662849
209.0	0.00201645426682	0.441926117116
211.0	0.00120987256009	0.443135989676
213.0	0.00153250524278	0.444668494919
215.0	0.0008872398774	0.445555734796
217.0	0.00104855621874	0.446604291015
219.0	0.00129053073076	0.447894821745
221.0	0.00137118890144	0.449266010647
223.0	0.000725923536054	0.449991934183
225.0	0.0017744797548	0.451766413938
227.0	0.00112921438942	0.452895628327
229.0	0.0008872398774	0.453782868205
231.0	0.0017744797548	0.455557347959
233.0	0.0008872398774	0.456444587837
235.0	0.000806581706727	0.457251169543
237.0	0.00161316341345	0.458864332957
239.0	0.00153250524278	0.4603968382
241.0	0.00120987256009	0.46160671076
243.0	0.0017744797548	0.463381190515
245.0	0.000645265365382	0.46402645588
247.0	0.000806581706727	0.464833037587
249.0	0.00169382158413	0.466526859171
251.0	0.00137118890144	0.467898048072
253.0	0.00153250524278	0.469430553315
255.0	0.00120987256009	0.470640425875
257.0	0.00161316341345	0.472253589289
259.0	0.000564607194709	0.472818196483
261.0	0.00137118890144	0.474189385385
263.0	0.00169382158413	0.475883206969
265.0	0.0008872398774	0.476770446846
267.0	0.00185513792547	0.478625584772
269.0	0.00153250524278	0.480158090015
271.0	0.000645265365382	0.48080335538
273.0	0.00185513792547	0.482658493305
275.0	0.00104855621874	0.483707049524
277.0	0.000564607194709	0.484271656719
279.0	0.00129053073076	0.48556218745
281.0	0.00104855621874	0.486610743668
283.0	0.00104855621874	0.487659299887
285.0	0.00201645426682	0.489675754154
287.0	0.00153250524278	0.491208259397
289.0	0.000967898048072	0.492176157445
291.0	0.00153250524278	0.493708662688
293.0	0.000645265365382	0.494353928053
295.0	0.00137118890144	0.495725116954
297.0	0.00120987256009	0.496934989514
299.0	0.00217777060816	0.499112760123
301.0	0.000645265365382	0.499758025488
303.0	0.00145184707211	0.50120987256
305.0	0.0008872398774	0.502097112437
307.0	0.000967898048072	0.503065010486
309.0	0.00104855621874	0.504113566704
311.0	0.00169382158413	0.505807388288
313.0	0.0008872398774	0.506694628166
315.0	0.00120987256009	0.507904500726
317.0	0.00112921438942	0.509033715115
319.0	0.000967898048072	0.510001613163
321.0	0.00153250524278	0.511534118406
323.0	0.00153250524278	0.513066623649
325.0	0.000967898048072	0.514034521697
327.0	0.00145184707211	0.515486368769
329.0	0.00104855621874	0.516534924988
331.0	0.000403290853363	0.516938215841
333.0	0.00145184707211	0.518390062913
335.0	0.000967898048072	0.519357960961
337.0	0.00120987256009	0.520567833522
339.0	0.00185513792547	0.522422971447
341.0	0.0008872398774	0.523310211324
343.0	0.000967898048072	0.524278109372
345.0	0.00104855621874	0.525326665591
347.0	0.000645265365382	0.525971930957
349.0	0.000806581706727	0.526778512663
351.0	0.000725923536054	0.527504436199
353.0	0.00137118890144	0.528875625101
355.0	0.000645265365382	0.529520890466
357.0	0.00112921438942	0.530650104856
359.0	0.00120987256009	0.531859977416
361.0	0.000725923536054	0.532585900952
363.0	0.00153250524278	0.534118406195
365.0	0.00137118890144	0.535489595096
367.0	0.000806581706727	0.536296176803
369.0	0.00104855621874	0.537344733021
371.0	0.000403290853363	0.537748023875
373.0	0.000725923536054	0.538473947411
375.0	0.00145184707211	0.539925794483
377.0	0.00137118890144	0.541296983384
379.0	0.000725923536054	0.54202290692
381.0	0.00112921438942	0.54315212131
383.0	0.00112921438942	0.544281335699
385.0	0.000725923536054	0.545007259235
387.0	0.00145184707211	0.546459106307
389.0	0.000483949024036	0.546943055332
392.0	0.00209711243749	0.549040167769
394.0	0.000806581706727	0.549846749476
396.0	0.000806581706727	0.550653331182
398.0	0.0008872398774	0.55154057106
400.0	0.000725923536054	0.552266494596
402.0	0.00112921438942	0.553395708985
404.0	0.000967898048072	0.554363607033
406.0	0.000564607194709	0.554928214228
408.0	0.000645265365382	0.555573479593
410.0	0.00129053073076	0.556864010324
412.0	0.000322632682691	0.557186643007
414.0	0.000806581706727	0.557993224714
416.0	0.000806581706727	0.55879980642
418.0	0.000725923536054	0.559525729956
420.0	0.00104855621874	0.560574286175
422.0	0.000967898048072	0.561542184223
424.0	0.000806581706727	0.56234876593
426.0	0.000967898048072	0.563316663978
428.0	0.00112921438942	0.564445878367
430.0	0.00112921438942	0.565575092757
432.0	0.00129053073076	0.566865623488
434.0	0.0008872398774	0.567752863365
436.0	0.000725923536054	0.568478786901
438.0	0.000806581706727	0.569285368608
440.0	0.00120987256009	0.570495241168
442.0	0.00129053073076	0.571785771899
444.0	0.00137118890144	0.5731569608
446.0	0.000806581706727	0.573963542507
448.0	0.000403290853363	0.57436683336
450.0	0.00104855621874	0.575415389579
452.0	0.000564607194709	0.575979996774
454.0	0.00112921438942	0.577109211163
456.0	0.00104855621874	0.578157767382
458.0	0.0008872398774	0.579045007259
460.0	0.000403290853363	0.579448298113
462.0	0.00104855621874	0.580496854331
464.0	0.00120987256009	0.581706726891
466.0	0.000725923536054	0.582432650427
468.0	0.000645265365382	0.583077915793
470.0	0.0008872398774	0.58396515567
472.0	0.00104855621874	0.585013711889
474.0	0.00153250524278	0.586546217132
476.0	0.00129053073076	0.587836747863
478.0	0.0008872398774	0.58872398774
480.0	0.00120987256009	0.5899338603
482.0	0.00120987256009	0.59114373286
484.0	0.000967898048072	0.592111630908
486.0	0.000645265365382	0.592756896274
488.0	0.00112921438942	0.593886110663
490.0	0.000483949024036	0.594370059687
492.0	0.000806581706727	0.595176641394
494.0	0.000725923536054	0.59590256493
496.0	0.000403290853363	0.596305855783
498.0	0.00104855621874	0.597354412002
500.0	0.000967898048072	0.59832231005
502.0	0.000483949024036	0.598806259074
504.0	0.000806581706727	0.599612840781
506.0	0.00112921438942	0.60074205517
508.0	0.000806581706727	0.601548636877
510.0	0.00129053073076	0.602839167608
512.0	0.000806581706727	0.603645749314
514.0	0.000725923536054	0.60437167285
516.0	0.00104855621874	0.605420229069
518.0	0.00169382158413	0.607114050653
520.0	0.00104855621874	0.608162606872
522.0	0.000967898048072	0.60913050492
524.0	0.000645265365382	0.609775770286
526.0	0.0008872398774	0.610663010163
528.0	0.000967898048072	0.611630908211
530.0	0.00120987256009	0.612840780771
532.0	0.000645265365382	0.613486046136
534.0	0.000483949024036	0.613969995161
536.0	0.000967898048072	0.614937893209
538.0	0.000564607194709	0.615502500403
540.0	0.0008872398774	0.616389740281
542.0	0.000806581706727	0.617196321987
544.0	0.000967898048072	0.618164220035
546.0	0.00120987256009	0.619374092596
548.0	0.000645265365382	0.620019357961
550.0	0.000725923536054	0.620745281497
552.0	0.0008872398774	0.621632521374
554.0	0.000806581706727	0.622439103081
556.0	0.000645265365382	0.623084368447
558.0	0.000806581706727	0.623890950153
560.0	0.00112921438942	0.625020164543
562.0	0.000645265365382	0.625665429908
564.0	0.000806581706727	0.626472011615
566.0	0.00137118890144	0.627843200516
568.0	0.000645265365382	0.628488465882
570.0	0.00112921438942	0.629617680271
572.0	0.000967898048072	0.630585578319
574.0	0.000806581706727	0.631392160026
576.0	0.000806581706727	0.632198741733
578.0	0.000725923536054	0.632924665269
580.0	0.000645265365382	0.633569930634
582.0	0.000564607194709	0.634134537829
584.0	0.000645265365382	0.634779803194
586.0	0.000967898048072	0.635747701242
588.0	0.000725923536054	0.636473624778
590.0	0.00129053073076	0.637764155509
592.0	0.0008872398774	0.638651395386
594.0	0.000322632682691	0.638974028069
596.0	0.000806581706727	0.639780609776
598.0	0.000564607194709	0.64034521697
600.0	0.000645265365382	0.640990482336
602.0	0.00112921438942	0.642119696725
604.0	0.000403290853363	0.642522987579
606.0	0.000806581706727	0.643329569285
608.0	0.000483949024036	0.643813518309
610.0	0.000403290853363	0.644216809163
612.0	0.000564607194709	0.644781416357
614.0	0.000806581706727	0.645587998064
616.0	0.000806581706727	0.646394579771
618.0	0.000725923536054	0.647120503307
620.0	0.000806581706727	0.647927085014
622.0	0.000564607194709	0.648491692208
624.0	0.00104855621874	0.649540248427
626.0	0.000806581706727	0.650346830134
628.0	0.000725923536054	0.65107275367
630.0	0.000564607194709	0.651637360865
632.0	0.00129053073076	0.652927891595
634.0	0.000322632682691	0.653250524278
636.0	0.000645265365382	0.653895789643
638.0	0.0008872398774	0.654783029521
640.0	0.000645265365382	0.655428294886
642.0	0.000645265365382	0.656073560252
644.0	0.000564607194709	0.656638167446
646.0	0.000403290853363	0.6570414583
648.0	0.000322632682691	0.657364090982
650.0	0.0008872398774	0.65825133086
652.0	0.000967898048072	0.659219228908
654.0	0.000645265365382	0.659864494273
656.0	0.000483949024036	0.660348443297
658.0	0.000483949024036	0.660832392321
660.0	0.0008872398774	0.661719632199
662.0	0.000564607194709	0.662284239393
664.0	0.000483949024036	0.662768188417
666.0	0.000564607194709	0.663332795612
669.0	0.000806581706727	0.664139377319
671.0	0.000564607194709	0.664703984514
673.0	0.000645265365382	0.665349249879
675.0	0.000483949024036	0.665833198903
677.0	0.000645265365382	0.666478464268
679.0	0.000645265365382	0.667123729634
681.0	0.000725923536054	0.66784965317
683.0	0.000725923536054	0.668575576706
685.0	0.000645265365382	0.669220842071
687.0	0.000806581706727	0.670027423778
689.0	0.000725923536054	0.670753347314
691.0	0.000403290853363	0.671156638167
693.0	0.000967898048072	0.672124536216
695.0	0.000483949024036	0.67260848524
697.0	0.000967898048072	0.673576383288
699.0	0.000645265365382	0.674221648653
701.0	0.000564607194709	0.674786255848
703.0	0.000403290853363	0.675189546701
705.0	0.000645265365382	0.675834812066
707.0	0.000725923536054	0.676560735603
709.0	0.000806581706727	0.677367317309
711.0	0.000322632682691	0.677689949992
714.0	0.000725923536054	0.678415873528
716.0	0.0008872398774	0.679303113405
718.0	0.000403290853363	0.679706404259
720.0	0.000645265365382	0.680351669624
722.0	0.000967898048072	0.681319567672
724.0	0.000322632682691	0.681642200355
726.0	0.000483949024036	0.682126149379
728.0	0.000806581706727	0.682932731086
730.0	0.000483949024036	0.68341668011
732.0	0.000483949024036	0.683900629134
734.0	0.000725923536054	0.68462655267
736.0	0.000645265365382	0.685271818035
738.0	0.00104855621874	0.686320374254
740.0	0.000967898048072	0.687288272302
742.0	0.000645265365382	0.687933537667
744.0	0.000483949024036	0.688417486691
746.0	0.0008872398774	0.689304726569
748.0	0.000564607194709	0.689869333764
750.0	0.000241974512018	0.690111308276
752.0	0.000645265365382	0.690756573641
754.0	0.000161316341345	0.690917889982
756.0	0.000322632682691	0.691240522665
758.0	0.000483949024036	0.691724471689
760.0	0.000564607194709	0.692289078884
762.0	0.000725923536054	0.69301500242
764.0	0.00112921438942	0.694144216809
766.0	0.000322632682691	0.694466849492
768.0	0.000725923536054	0.695192773028
770.0	0.000806581706727	0.695999354735
772.0	0.000645265365382	0.6966446201
774.0	0.000806581706727	0.697451201807
777.0	0.000483949024036	0.697935150831
779.0	0.000403290853363	0.698338441684
781.0	0.000564607194709	0.698903048879
783.0	0.000483949024036	0.699386997903
785.0	0.000806581706727	0.70019357961
787.0	0.000564607194709	0.700758186804
789.0	0.000806581706727	0.701564768511
791.0	0.0008872398774	0.702452008388
793.0	0.000564607194709	0.703016615583
795.0	0.000483949024036	0.703500564607
797.0	0.000806581706727	0.704307146314
799.0	0.000483949024036	0.704791095338
801.0	0.000725923536054	0.705517018874
803.0	0.000403290853363	0.705920309727
805.0	0.000241974512018	0.706162284239
807.0	0.000403290853363	0.706565575093
809.0	0.000483949024036	0.707049524117
811.0	0.000322632682691	0.707372156799
813.0	0.000161316341345	0.707533473141
815.0	0.000322632682691	0.707856105824
817.0	0.000241974512018	0.708098080336
819.0	0.000806581706727	0.708904662042
821.0	0.000161316341345	0.709065978384
823.0	0.000645265365382	0.709711243749
825.0	0.000564607194709	0.710275850944
827.0	0.000483949024036	0.710759799968
829.0	0.000403290853363	0.711163090821
831.0	0.000322632682691	0.711485723504
833.0	0.000645265365382	0.712130988869
835.0	0.000322632682691	0.712453621552
837.0	0.000806581706727	0.713260203259
839.0	0.000403290853363	0.713663494112
841.0	0.000725923536054	0.714389417648
843.0	0.000645265365382	0.715034683013
845.0	0.000645265365382	0.715679948379
847.0	0.000483949024036	0.716163897403
849.0	0.000483949024036	0.716647846427
851.0	0.000806581706727	0.717454428134
853.0	0.000564607194709	0.718019035328
855.0	0.000483949024036	0.718502984352
857.0	0.000403290853363	0.718906275206
859.0	0.000241974512018	0.719148249718
861.0	0.000725923536054	0.719874173254
863.0	0.00112921438942	0.721003387643
865.0	0.000645265365382	0.721648653009
867.0	0.000483949024036	0.722132602033
869.0	0.000241974512018	0.722374576545
871.0	0.000483949024036	0.722858525569
873.0	0.000645265365382	0.723503790934
875.0	0.000645265365382	0.724149056299
877.0	0.000403290853363	0.724552347153
879.0	0.000645265365382	0.725197612518
881.0	0.000483949024036	0.725681561542
883.0	0.000161316341345	0.725842877884
885.0	0.000483949024036	0.726326826908
887.0	0.000725923536054	0.727052750444
889.0	0.000725923536054	0.72777867398
893.0	0.000645265365382	0.728423939345
895.0	0.000725923536054	0.729149862881
897.0	0.000322632682691	0.729472495564
899.0	0.000241974512018	0.729714470076
901.0	0.000483949024036	0.7301984191
903.0	0.000645265365382	0.730843684465
906.0	0.000483949024036	0.731327633489
908.0	0.000564607194709	0.731892240684
910.0	0.000403290853363	0.732295531537
912.0	0.000241974512018	0.732537506049
914.0	0.000322632682691	0.732860138732
916.0	0.000483949024036	0.733344087756
918.0	0.000403290853363	0.733747378609
921.0	0.000241974512018	0.733989353121
923.0	0.000564607194709	0.734553960316
925.0	0.000564607194709	0.735118567511
927.0	0.000483949024036	0.735602516535
929.0	0.000483949024036	0.736086465559
931.0	0.000322632682691	0.736409098242
933.0	0.000483949024036	0.736893047266
935.0	0.000483949024036	0.73737699629
937.0	0.000403290853363	0.737780287143
939.0	0.000322632682691	0.738102919826
941.0	0.000725923536054	0.738828843362
943.0	0.000322632682691	0.739151476045
945.0	0.000241974512018	0.739393450557
947.0	0.000806581706727	0.740200032263
950.0	0.000403290853363	0.740603323117
952.0	0.000403290853363	0.74100661397
954.0	0.000241974512018	0.741248588482
956.0	0.000645265365382	0.741893853847
958.0	0.000322632682691	0.74221648653
960.0	0.000483949024036	0.742700435554
962.0	0.000241974512018	0.742942410066
964.0	0.000403290853363	0.74334570092
966.0	0.000645265365382	0.743990966285
968.0	0.000322632682691	0.744313598968
970.0	0.000322632682691	0.74463623165
972.0	0.000241974512018	0.744878206162
974.0	0.000241974512018	0.745120180674
976.0	0.000564607194709	0.745684787869
978.0	0.000645265365382	0.746330053234
981.0	0.000403290853363	0.746733344088
983.0	0.000322632682691	0.74705597677
985.0	0.000241974512018	0.747297951282
987.0	0.000241974512018	0.747539925794
989.0	0.000564607194709	0.748104532989
991.0	0.000564607194709	0.748669140184
993.0	0.000645265365382	0.749314405549
995.0	0.000241974512018	0.749556380061
997.0	0.000322632682691	0.749879012744
999.0	0.000483949024036	0.750362961768
1001.0	0.000806581706727	0.751169543475
1003.0	0.000241974512018	0.751411517987
1005.0	0.000564607194709	0.751976125181
1007.0	8.06581706727e-05	0.752056783352
1009.0	0.000403290853363	0.752460074206
1011.0	0.000241974512018	0.752702048718
1013.0	0.000564607194709	0.753266655912
1015.0	0.000403290853363	0.753669946766
1017.0	0.000403290853363	0.754073237619
1019.0	0.000564607194709	0.754637844814
1021.0	0.000403290853363	0.755041135667
1023.0	0.000322632682691	0.75536376835
1025.0	0.000403290853363	0.755767059203
1027.0	0.000161316341345	0.755928375544
1029.0	0.000564607194709	0.756492982739
1031.0	0.000322632682691	0.756815615422
1033.0	0.000483949024036	0.757299564446
1035.0	8.06581706727e-05	0.757380222617
1037.0	0.000322632682691	0.757702855299
1039.0	0.000322632682691	0.758025487982
1041.0	0.000241974512018	0.758267462494
1043.0	0.000403290853363	0.758670753347
1046.0	0.000241974512018	0.758912727859
1048.0	8.06581706727e-05	0.75899338603
1051.0	0.000161316341345	0.759154702371
1053.0	0.000241974512018	0.759396676883
1055.0	0.000403290853363	0.759799967737
1057.0	0.000322632682691	0.760122600419
1059.0	0.000161316341345	0.760283916761
1062.0	0.000403290853363	0.760687207614
1064.0	8.06581706727e-05	0.760767865785
1066.0	0.000483949024036	0.761251814809
1068.0	0.000322632682691	0.761574447492
1071.0	0.000483949024036	0.762058396516
1073.0	0.000564607194709	0.76262300371
1075.0	0.000403290853363	0.763026294564
1077.0	0.000403290853363	0.763429585417
1079.0	0.000403290853363	0.76383287627
1081.0	0.000161316341345	0.763994192612
1083.0	0.000483949024036	0.764478141636
1086.0	0.000483949024036	0.76496209066
1088.0	0.000241974512018	0.765204065172
1090.0	0.000241974512018	0.765446039684
1092.0	0.000322632682691	0.765768672367
1095.0	0.000564607194709	0.766333279561
1097.0	0.000161316341345	0.766494595903
1099.0	0.000483949024036	0.766978544927
1101.0	0.000241974512018	0.767220519439
1105.0	0.000403290853363	0.767623810292
1107.0	0.000322632682691	0.767946442975
1109.0	0.000483949024036	0.768430391999
1111.0	0.000403290853363	0.768833682852
1114.0	0.000161316341345	0.768994999193
1116.0	0.000322632682691	0.769317631876
1119.0	0.000322632682691	0.769640264559
1121.0	0.000161316341345	0.7698015809
1124.0	0.000322632682691	0.770124213583
1126.0	0.000241974512018	0.770366188095
1128.0	0.000483949024036	0.770850137119
1130.0	0.000483949024036	0.771334086143
1132.0	0.000483949024036	0.771818035167
1134.0	0.000161316341345	0.771979351508
1137.0	8.06581706727e-05	0.772060009679
1139.0	0.000564607194709	0.772624616874
1141.0	0.000161316341345	0.772785933215
1143.0	0.000161316341345	0.772947249556
1145.0	0.000483949024036	0.77343119858
1147.0	8.06581706727e-05	0.773511856751
1149.0	0.000322632682691	0.773834489434
1153.0	0.000241974512018	0.774076463946
1155.0	0.000322632682691	0.774399096628
1157.0	0.000241974512018	0.774641071141
1159.0	0.000241974512018	0.774883045653
1161.0	0.000725923536054	0.775608969189
1163.0	0.000241974512018	0.775850943701
1165.0	0.000322632682691	0.776173576383
1167.0	0.000322632682691	0.776496209066
1169.0	0.000241974512018	0.776738183578
1172.0	0.000241974512018	0.77698015809
1174.0	0.000241974512018	0.777222132602
1176.0	0.000322632682691	0.777544765285
1178.0	0.000241974512018	0.777786739797
1182.0	0.000403290853363	0.77819003065
1184.0	0.000161316341345	0.778351346991
1186.0	0.000241974512018	0.778593321503
1188.0	0.000241974512018	0.778835296015
1190.0	0.000403290853363	0.779238586869
1192.0	0.000241974512018	0.779480561381
1194.0	0.000403290853363	0.779883852234
1196.0	0.000403290853363	0.780287143088
1199.0	0.000322632682691	0.78060977577
1201.0	0.000241974512018	0.780851750282
1203.0	0.000322632682691	0.781174382965
1205.0	0.000322632682691	0.781497015648
1207.0	0.000322632682691	0.78181964833
1209.0	0.000322632682691	0.782142281013
1213.0	0.000322632682691	0.782464913696
1215.0	0.000241974512018	0.782706888208
1217.0	0.000322632682691	0.78302952089
1219.0	0.000161316341345	0.783190837232
1222.0	0.000564607194709	0.783755444427
1224.0	0.000161316341345	0.783916760768
1226.0	0.000241974512018	0.78415873528
1228.0	0.000241974512018	0.784400709792
1230.0	0.000241974512018	0.784642684304
1232.0	0.000241974512018	0.784884658816
1234.0	0.000483949024036	0.78536860784
1236.0	0.000322632682691	0.785691240523
1238.0	8.06581706727e-05	0.785771898693
1240.0	0.000241974512018	0.786013873205
1242.0	0.000322632682691	0.786336505888
1244.0	0.000403290853363	0.786739796741
1246.0	0.000483949024036	0.787223745765
1248.0	0.000241974512018	0.787465720277
1250.0	8.06581706727e-05	0.787546378448
1252.0	0.000161316341345	0.787707694789
1254.0	0.000241974512018	0.787949669302
1256.0	8.06581706727e-05	0.788030327472
1258.0	0.000161316341345	0.788191643814
1260.0	0.000483949024036	0.788675592838
1262.0	8.06581706727e-05	0.788756251008
1264.0	0.000322632682691	0.789078883691
1266.0	0.000241974512018	0.789320858203
1268.0	0.000403290853363	0.789724149056
1270.0	0.000241974512018	0.789966123568
1275.0	0.000241974512018	0.79020809808
1277.0	0.000322632682691	0.790530730763
1279.0	0.000322632682691	0.790853363446
1281.0	0.000161316341345	0.791014679787
1283.0	0.000322632682691	0.79133731247
1286.0	0.000161316341345	0.791498628811
1288.0	0.000241974512018	0.791740603323
1291.0	0.000403290853363	0.792143894176
1293.0	8.06581706727e-05	0.792224552347
1295.0	0.000241974512018	0.792466526859
1297.0	0.000725923536054	0.793192450395
1299.0	0.000322632682691	0.793515083078
1301.0	0.000403290853363	0.793918373931
1303.0	0.000161316341345	0.794079690273
1306.0	8.06581706727e-05	0.794160348443
1308.0	0.000403290853363	0.794563639297
1310.0	0.000161316341345	0.794724955638
1312.0	8.06581706727e-05	0.794805613809
1314.0	0.000403290853363	0.795208904662
1316.0	8.06581706727e-05	0.795289562833
1318.0	8.06581706727e-05	0.795370221003
1320.0	0.000322632682691	0.795692853686
1323.0	0.000241974512018	0.795934828198
1326.0	0.000241974512018	0.79617680271
1329.0	0.000161316341345	0.796338119051
1331.0	0.000564607194709	0.796902726246
1333.0	0.000322632682691	0.797225358929
1335.0	0.000322632682691	0.797547991612
1337.0	0.000322632682691	0.797870624294
1339.0	0.000161316341345	0.798031940636
1341.0	0.000161316341345	0.798193256977
1345.0	0.000322632682691	0.79851588966
1347.0	0.000241974512018	0.798757864172
1349.0	0.000322632682691	0.799080496854
1351.0	0.000241974512018	0.799322471366
1353.0	0.000161316341345	0.799483787708
1355.0	0.000241974512018	0.79972576222
1357.0	8.06581706727e-05	0.79980642039
1360.0	0.000322632682691	0.800129053073
1362.0	0.000241974512018	0.800371027585
1364.0	0.000322632682691	0.800693660268
1367.0	0.000322632682691	0.80101629295
1369.0	0.000241974512018	0.801258267462
1371.0	0.000161316341345	0.801419583804
1374.0	0.000161316341345	0.801580900145
1376.0	0.000161316341345	0.801742216487
1378.0	8.06581706727e-05	0.801822874657
1382.0	0.000403290853363	0.802226165511
1386.0	8.06581706727e-05	0.802306823681
1388.0	8.06581706727e-05	0.802387481852
1390.0	0.000241974512018	0.802629456364
1392.0	8.06581706727e-05	0.802710114535
1395.0	0.000322632682691	0.803032747217
1397.0	0.000241974512018	0.803274721729
1401.0	0.000322632682691	0.803597354412
1404.0	0.000161316341345	0.803758670753
1406.0	0.000161316341345	0.803919987095
1408.0	0.000161316341345	0.804081303436
1410.0	0.000322632682691	0.804403936119
1413.0	8.06581706727e-05	0.804484594289
1415.0	8.06581706727e-05	0.80456525246
1417.0	0.000161316341345	0.804726568801
1419.0	0.000161316341345	0.804887885143
1421.0	8.06581706727e-05	0.804968543313
1424.0	0.000322632682691	0.805291175996
1426.0	0.000403290853363	0.805694466849
1428.0	8.06581706727e-05	0.80577512502
1432.0	0.000241974512018	0.806017099532
1434.0	0.000161316341345	0.806178415874
1436.0	0.000241974512018	0.806420390386
1438.0	0.000241974512018	0.806662364898
1440.0	0.000241974512018	0.80690433941
1442.0	0.000161316341345	0.807065655751
1445.0	8.06581706727e-05	0.807146313922
1447.0	0.000161316341345	0.807307630263
1449.0	0.000483949024036	0.807791579287
1452.0	0.000241974512018	0.808033553799
1454.0	0.000241974512018	0.808275528311
1456.0	0.000161316341345	0.808436844652
1458.0	0.000161316341345	0.808598160994
1460.0	8.06581706727e-05	0.808678819164
1462.0	0.000403290853363	0.809082110018
1464.0	8.06581706727e-05	0.809162768188
1468.0	0.000161316341345	0.80932408453
1470.0	8.06581706727e-05	0.8094047427
1472.0	0.000241974512018	0.809646717212
1474.0	0.000322632682691	0.809969349895
1476.0	0.000161316341345	0.810130666236
1478.0	8.06581706727e-05	0.810211324407
1480.0	0.000241974512018	0.810453298919
1482.0	0.000161316341345	0.810614615261
1484.0	0.000161316341345	0.810775931602
1486.0	0.000322632682691	0.811098564285
1488.0	8.06581706727e-05	0.811179222455
1490.0	0.000161316341345	0.811340538797
1493.0	0.000241974512018	0.811582513309
1496.0	0.000161316341345	0.81174382965
1500.0	8.06581706727e-05	0.811824487821
1502.0	0.000161316341345	0.811985804162
1504.0	0.000161316341345	0.812147120503
1506.0	8.06581706727e-05	0.812227778674
1510.0	0.000241974512018	0.812469753186
1513.0	0.000322632682691	0.812792385869
1515.0	8.06581706727e-05	0.812873044039
1517.0	8.06581706727e-05	0.81295370221
1519.0	0.000241974512018	0.813195676722
1521.0	0.000161316341345	0.813356993063
1524.0	0.000161316341345	0.813518309405
1526.0	8.06581706727e-05	0.813598967575
1528.0	0.000161316341345	0.813760283917
1531.0	0.000322632682691	0.814082916599
1533.0	0.000322632682691	0.814405549282
1536.0	0.000241974512018	0.814647523794
1542.0	0.000241974512018	0.814889498306
1544.0	0.000161316341345	0.815050814648
1546.0	8.06581706727e-05	0.815131472818
1548.0	0.000161316341345	0.81529278916
1550.0	0.000161316341345	0.815454105501
1552.0	0.000241974512018	0.815696080013
1557.0	0.000161316341345	0.815857396354
1559.0	0.000241974512018	0.816099370866
1561.0	0.000241974512018	0.816341345378
1563.0	0.000322632682691	0.816663978061
1565.0	0.000161316341345	0.816825294402
1567.0	0.000241974512018	0.817067268914
1569.0	8.06581706727e-05	0.817147927085
1571.0	0.000161316341345	0.817309243426
1575.0	0.000161316341345	0.817470559768
1577.0	0.000161316341345	0.817631876109
1580.0	0.000241974512018	0.817873850621
1584.0	0.000161316341345	0.818035166962
1586.0	0.000322632682691	0.818357799645
1588.0	0.000403290853363	0.818761090498
1590.0	0.000241974512018	0.81900306501
1592.0	0.000322632682691	0.819325697693
1594.0	8.06581706727e-05	0.819406355864
1596.0	0.000241974512018	0.819648330376
1598.0	0.000161316341345	0.819809646717
1602.0	0.000403290853363	0.820212937571
1605.0	0.000161316341345	0.820374253912
1607.0	0.000161316341345	0.820535570253
1609.0	8.06581706727e-05	0.820616228424
1612.0	0.000241974512018	0.820858202936
1617.0	0.000241974512018	0.821100177448
1619.0	0.000241974512018	0.82134215196
1625.0	8.06581706727e-05	0.821422810131
1627.0	8.06581706727e-05	0.821503468301
1629.0	8.06581706727e-05	0.821584126472
1631.0	0.000161316341345	0.821745442813
1634.0	0.000241974512018	0.821987417325
1637.0	0.000161316341345	0.822148733667
1640.0	0.000322632682691	0.822471366349
1643.0	0.000161316341345	0.822632682691
1645.0	8.06581706727e-05	0.822713340861
1647.0	0.000241974512018	0.822955315373
1649.0	0.000483949024036	0.823439264397
1651.0	8.06581706727e-05	0.823519922568
1653.0	8.06581706727e-05	0.823600580739
1655.0	0.000322632682691	0.823923213422
1660.0	0.000241974512018	0.824165187934
1662.0	0.000322632682691	0.824487820616
1667.0	0.000322632682691	0.824810453299
1670.0	8.06581706727e-05	0.82489111147
1674.0	0.000161316341345	0.825052427811
1677.0	8.06581706727e-05	0.825133085982
1679.0	0.000241974512018	0.825375060494
1682.0	8.06581706727e-05	0.825455718664
1686.0	0.000161316341345	0.825617035006
1688.0	0.000241974512018	0.825859009518
1690.0	0.000161316341345	0.826020325859
1695.0	0.000241974512018	0.826262300371
1697.0	8.06581706727e-05	0.826342958542
1700.0	8.06581706727e-05	0.826423616712
1703.0	0.000241974512018	0.826665591224
1705.0	8.06581706727e-05	0.826746249395
1709.0	8.06581706727e-05	0.826826907566
1711.0	0.000241974512018	0.827068882078
1713.0	0.000161316341345	0.827230198419
1717.0	8.06581706727e-05	0.82731085659
1719.0	0.000161316341345	0.827472172931
1722.0	0.000241974512018	0.827714147443
1726.0	0.000161316341345	0.827875463784
1729.0	0.000241974512018	0.828117438296
1736.0	8.06581706727e-05	0.828198096467
1738.0	8.06581706727e-05	0.828278754638
1740.0	8.06581706727e-05	0.828359412809
1743.0	0.000322632682691	0.828682045491
1745.0	0.000161316341345	0.828843361833
1747.0	0.000161316341345	0.829004678174
1749.0	0.000322632682691	0.829327310857
1751.0	0.000241974512018	0.829569285369
1757.0	0.000161316341345	0.82973060171
1760.0	8.06581706727e-05	0.829811259881
1763.0	0.000161316341345	0.829972576222
1767.0	0.000241974512018	0.830214550734
1769.0	0.000241974512018	0.830456525246
1772.0	8.06581706727e-05	0.830537183417
1774.0	0.000241974512018	0.830779157929
1777.0	0.000483949024036	0.831263106953
1781.0	0.000161316341345	0.831424423294
1784.0	0.000403290853363	0.831827714147
1786.0	0.000241974512018	0.832069688659
1788.0	8.06581706727e-05	0.83215034683
1790.0	0.000322632682691	0.832472979513
1792.0	0.000241974512018	0.832714954025
1794.0	0.000322632682691	0.833037586708
1799.0	0.000161316341345	0.833198903049
1803.0	0.000161316341345	0.83336021939
1806.0	8.06581706727e-05	0.833440877561
1809.0	0.000161316341345	0.833602193902
1812.0	0.000161316341345	0.833763510244
1814.0	0.000161316341345	0.833924826585
1817.0	0.000161316341345	0.834086142926
1821.0	0.000483949024036	0.83457009195
1823.0	8.06581706727e-05	0.834650750121
1825.0	8.06581706727e-05	0.834731408292
1827.0	0.000161316341345	0.834892724633
1831.0	0.000322632682691	0.835215357316
1834.0	0.000161316341345	0.835376673657
1839.0	0.000322632682691	0.83569930634
1841.0	0.000161316341345	0.835860622681
1845.0	0.000161316341345	0.836021939022
1853.0	8.06581706727e-05	0.836102597193
1856.0	0.000161316341345	0.836263913534
1859.0	0.000241974512018	0.836505888046
1862.0	8.06581706727e-05	0.836586546217
1864.0	0.000161316341345	0.836747862558
1866.0	8.06581706727e-05	0.836828520729
1868.0	8.06581706727e-05	0.8369091789
1872.0	0.000241974512018	0.837151153412
1875.0	8.06581706727e-05	0.837231811583
1878.0	0.000161316341345	0.837393127924
1880.0	0.000161316341345	0.837554444265
1882.0	8.06581706727e-05	0.837635102436
1885.0	0.000322632682691	0.837957735119
1889.0	0.000161316341345	0.83811905146
1891.0	0.000403290853363	0.838522342313
1893.0	0.000241974512018	0.838764316825
1895.0	0.000241974512018	0.839006291337
1897.0	0.000161316341345	0.839167607679
1899.0	0.000161316341345	0.83932892402
1902.0	0.000161316341345	0.839490240361
1904.0	0.000241974512018	0.839732214873
1906.0	8.06581706727e-05	0.839812873044
1909.0	0.000161316341345	0.839974189385
1912.0	8.06581706727e-05	0.840054847556
1914.0	8.06581706727e-05	0.840135505727
1918.0	0.000241974512018	0.840377480239
1921.0	0.000403290853363	0.840780771092
1924.0	0.000161316341345	0.840942087433
1929.0	0.000241974512018	0.841184061945
1931.0	0.000161316341345	0.841345378287
1937.0	0.000241974512018	0.841587352799
1939.0	8.06581706727e-05	0.84166801097
1942.0	0.000161316341345	0.841829327311
1945.0	0.000161316341345	0.841990643652
1947.0	0.000161316341345	0.842151959994
1949.0	0.000161316341345	0.842313276335
1951.0	0.000241974512018	0.842555250847
1953.0	8.06581706727e-05	0.842635909018
1955.0	8.06581706727e-05	0.842716567188
1957.0	0.000241974512018	0.8429585417
1960.0	0.000161316341345	0.843119858042
1963.0	0.000161316341345	0.843281174383
1965.0	0.000241974512018	0.843523148895
1967.0	0.000241974512018	0.843765123407
1970.0	0.000161316341345	0.843926439748
1972.0	0.000161316341345	0.84408775609
1974.0	0.000161316341345	0.844249072431
1976.0	0.000241974512018	0.844491046943
1979.0	8.06581706727e-05	0.844571705114
1982.0	8.06581706727e-05	0.844652363284
1984.0	8.06581706727e-05	0.844733021455
1988.0	8.06581706727e-05	0.844813679626
1990.0	0.000241974512018	0.845055654138
1994.0	0.000161316341345	0.845216970479
2000.0	0.000241974512018	0.845458944991
2007.0	0.000161316341345	0.845620261332
2010.0	0.000161316341345	0.845781577674
2013.0	8.06581706727e-05	0.845862235844
2017.0	0.000161316341345	0.846023552186
2020.0	8.06581706727e-05	0.846104210357
2025.0	0.000322632682691	0.846426843039
2030.0	0.000241974512018	0.846668817551
2033.0	0.000161316341345	0.846830133893
2035.0	0.000161316341345	0.846991450234
2038.0	0.000322632682691	0.847314082917
2040.0	0.000161316341345	0.847475399258
2046.0	0.000161316341345	0.847636715599
2048.0	0.000241974512018	0.847878690111
2051.0	0.000322632682691	0.848201322794
2054.0	0.000241974512018	0.848443297306
2056.0	0.000241974512018	0.848685271818
2063.0	8.06581706727e-05	0.848765929989
2065.0	8.06581706727e-05	0.848846588159
2067.0	0.000161316341345	0.849007904501
2070.0	0.000161316341345	0.849169220842
2072.0	0.000161316341345	0.849330537183
2077.0	0.000161316341345	0.849491853525
2079.0	8.06581706727e-05	0.849572511695
2081.0	8.06581706727e-05	0.849653169866
2084.0	8.06581706727e-05	0.849733828037
2087.0	0.000161316341345	0.849895144378
2091.0	8.06581706727e-05	0.849975802549
2093.0	8.06581706727e-05	0.850056460719
2095.0	0.000241974512018	0.850298435231
2097.0	0.000241974512018	0.850540409744
2099.0	8.06581706727e-05	0.850621067914
2102.0	8.06581706727e-05	0.850701726085
2108.0	0.000241974512018	0.850943700597
2110.0	0.000161316341345	0.851105016938
2112.0	0.000322632682691	0.851427649621
2114.0	0.000241974512018	0.851669624133
2119.0	0.000322632682691	0.851992256816
2122.0	8.06581706727e-05	0.852072914986
2126.0	8.06581706727e-05	0.852153573157
2133.0	8.06581706727e-05	0.852234231328
2135.0	0.000161316341345	0.852395547669
2138.0	8.06581706727e-05	0.85247620584
2143.0	0.000241974512018	0.852718180352
2146.0	0.000403290853363	0.853121471205
2148.0	0.000241974512018	0.853363445717
2153.0	8.06581706727e-05	0.853444103888
2155.0	0.000241974512018	0.8536860784
2158.0	0.000322632682691	0.854008711082
2160.0	0.000241974512018	0.854250685594
2162.0	0.000161316341345	0.854412001936
2165.0	8.06581706727e-05	0.854492660106
2167.0	0.000161316341345	0.854653976448
2169.0	8.06581706727e-05	0.854734634618
2172.0	0.000161316341345	0.85489595096
2175.0	0.000161316341345	0.855057267301
2180.0	8.06581706727e-05	0.855137925472
2182.0	0.000161316341345	0.855299241813
2186.0	0.000241974512018	0.855541216325
2188.0	0.000161316341345	0.855702532667
2192.0	0.000161316341345	0.855863849008
2194.0	8.06581706727e-05	0.855944507179
2198.0	8.06581706727e-05	0.856025165349
2203.0	0.000241974512018	0.856267139861
2206.0	0.000241974512018	0.856509114373
2209.0	0.000161316341345	0.856670430715
2211.0	8.06581706727e-05	0.856751088885
2213.0	8.06581706727e-05	0.856831747056
2217.0	0.000161316341345	0.856993063397
2219.0	0.000161316341345	0.857154379739
2227.0	8.06581706727e-05	0.857235037909
2229.0	0.000161316341345	0.857396354251
2231.0	0.000161316341345	0.857557670592
2233.0	0.000161316341345	0.857718986933
2235.0	8.06581706727e-05	0.857799645104
2240.0	0.000161316341345	0.857960961445
2242.0	0.000161316341345	0.858122277787
2245.0	0.000161316341345	0.858283594128
2249.0	8.06581706727e-05	0.858364252299
2251.0	8.06581706727e-05	0.858444910469
2257.0	8.06581706727e-05	0.85852556864
2260.0	8.06581706727e-05	0.858606226811
2262.0	0.000161316341345	0.858767543152
2265.0	8.06581706727e-05	0.858848201323
2268.0	0.000161316341345	0.859009517664
2273.0	8.06581706727e-05	0.859090175835
2276.0	0.000161316341345	0.859251492176
2279.0	8.06581706727e-05	0.859332150347
2281.0	8.06581706727e-05	0.859412808518
2285.0	8.06581706727e-05	0.859493466688
2288.0	0.000241974512018	0.8597354412
2292.0	0.000161316341345	0.859896757542
2294.0	0.000241974512018	0.860138732054
2298.0	8.06581706727e-05	0.860219390224
2302.0	8.06581706727e-05	0.860300048395
2304.0	0.000161316341345	0.860461364736
2309.0	0.000241974512018	0.860703339248
2311.0	0.000161316341345	0.86086465559
2313.0	8.06581706727e-05	0.86094531376
2315.0	0.000161316341345	0.861106630102
2317.0	8.06581706727e-05	0.861187288272
2324.0	0.000161316341345	0.861348604614
2326.0	8.06581706727e-05	0.861429262784
2330.0	0.000161316341345	0.861590579126
2335.0	8.06581706727e-05	0.861671237296
2337.0	0.000241974512018	0.861913211808
2342.0	0.000403290853363	0.862316502662
2344.0	0.000241974512018	0.862558477174
2350.0	0.000161316341345	0.862719793515
2352.0	0.000322632682691	0.863042426198
2355.0	0.000161316341345	0.863203742539
2360.0	8.06581706727e-05	0.86328440071
2365.0	0.000161316341345	0.863445717051
2367.0	8.06581706727e-05	0.863526375222
2373.0	8.06581706727e-05	0.863607033392
2376.0	0.000161316341345	0.863768349734
2378.0	8.06581706727e-05	0.863849007905
2381.0	0.000161316341345	0.864010324246
2387.0	0.000161316341345	0.864171640587
2390.0	8.06581706727e-05	0.864252298758
2392.0	8.06581706727e-05	0.864332956929
2394.0	0.000241974512018	0.864574931441
2397.0	8.06581706727e-05	0.864655589611
2402.0	0.000403290853363	0.865058880465
2404.0	0.000161316341345	0.865220196806
2411.0	8.06581706727e-05	0.865300854977
2413.0	0.000241974512018	0.865542829489
2416.0	8.06581706727e-05	0.865623487659
2421.0	8.06581706727e-05	0.86570414583
2425.0	0.000241974512018	0.865946120342
2428.0	0.000161316341345	0.866107436683
2430.0	8.06581706727e-05	0.866188094854
2432.0	8.06581706727e-05	0.866268753025
2441.0	0.000161316341345	0.866430069366
2445.0	0.000161316341345	0.866591385707
2447.0	8.06581706727e-05	0.866672043878
2450.0	0.000241974512018	0.86691401839
2452.0	8.06581706727e-05	0.866994676561
2455.0	0.000161316341345	0.867155992902
2464.0	8.06581706727e-05	0.867236651073
2466.0	8.06581706727e-05	0.867317309243
2471.0	0.000241974512018	0.867559283755
2473.0	8.06581706727e-05	0.867639941926
2476.0	0.000161316341345	0.867801258267
2478.0	8.06581706727e-05	0.867881916438
2480.0	0.000161316341345	0.868043232779
2482.0	0.000241974512018	0.868285207291
2484.0	0.000241974512018	0.868527181804
2490.0	8.06581706727e-05	0.868607839974
2493.0	0.000322632682691	0.868930472657
2495.0	0.000241974512018	0.869172447169
2498.0	0.000161316341345	0.86933376351
2500.0	8.06581706727e-05	0.869414421681
2503.0	0.000241974512018	0.869656396193
2505.0	8.06581706727e-05	0.869737054364
2510.0	8.06581706727e-05	0.869817712534
2512.0	0.000322632682691	0.870140345217
2515.0	8.06581706727e-05	0.870221003388
2520.0	0.000161316341345	0.870382319729
2527.0	0.000161316341345	0.87054363607
2530.0	0.000241974512018	0.870785610582
2540.0	8.06581706727e-05	0.870866268753
2545.0	0.000161316341345	0.871027585094
2547.0	0.000161316341345	0.871188901436
2551.0	0.000241974512018	0.871430875948
2553.0	8.06581706727e-05	0.871511534118
2556.0	8.06581706727e-05	0.871592192289
2561.0	8.06581706727e-05	0.87167285046
2566.0	8.06581706727e-05	0.87175350863
2568.0	0.000161316341345	0.871914824972
2570.0	0.000241974512018	0.872156799484
2572.0	0.000241974512018	0.872398773996
2575.0	8.06581706727e-05	0.872479432166
2579.0	0.000241974512018	0.872721406678
2582.0	8.06581706727e-05	0.872802064849
2584.0	0.000241974512018	0.873044039361
2587.0	8.06581706727e-05	0.873124697532
2590.0	0.000161316341345	0.873286013873
2592.0	8.06581706727e-05	0.873366672044
2594.0	0.000161316341345	0.873527988385
2599.0	8.06581706727e-05	0.873608646556
2603.0	0.000161316341345	0.873769962897
2611.0	8.06581706727e-05	0.873850621068
2613.0	8.06581706727e-05	0.873931279239
2615.0	0.000161316341345	0.87409259558
2618.0	0.000161316341345	0.874253911921
2622.0	0.000161316341345	0.874415228263
2624.0	8.06581706727e-05	0.874495886433
2628.0	0.000241974512018	0.874737860945
2633.0	0.000241974512018	0.874979835457
2639.0	0.000161316341345	0.875141151799
2645.0	8.06581706727e-05	0.875221809969
2650.0	0.000403290853363	0.875625100823
2657.0	8.06581706727e-05	0.875705758993
2660.0	0.000161316341345	0.875867075335
2664.0	0.000161316341345	0.876028391676
2670.0	8.06581706727e-05	0.876109049847
2672.0	8.06581706727e-05	0.876189708017
2674.0	0.000241974512018	0.876431682529
2677.0	0.000161316341345	0.876592998871
2682.0	0.000322632682691	0.876915631553
2687.0	8.06581706727e-05	0.876996289724
2693.0	8.06581706727e-05	0.877076947895
2695.0	8.06581706727e-05	0.877157606065
2697.0	0.000322632682691	0.877480238748
2700.0	0.000322632682691	0.877802871431
2703.0	0.000241974512018	0.878044845943
2709.0	8.06581706727e-05	0.878125504114
2711.0	0.000161316341345	0.878286820455
2713.0	0.000161316341345	0.878448136796
2715.0	8.06581706727e-05	0.878528794967
2723.0	8.06581706727e-05	0.878609453138
2725.0	8.06581706727e-05	0.878690111308
2727.0	8.06581706727e-05	0.878770769479
2729.0	8.06581706727e-05	0.87885142765
2746.0	8.06581706727e-05	0.87893208582
2748.0	8.06581706727e-05	0.879012743991
2751.0	0.000241974512018	0.879254718503
2757.0	8.06581706727e-05	0.879335376674
2763.0	0.000161316341345	0.879496693015
2765.0	0.000161316341345	0.879658009356
2767.0	0.000161316341345	0.879819325698
2770.0	0.000161316341345	0.879980642039
2776.0	0.000161316341345	0.88014195838
2778.0	0.000161316341345	0.880303274722
2781.0	8.06581706727e-05	0.880383932892
2783.0	8.06581706727e-05	0.880464591063
2795.0	8.06581706727e-05	0.880545249234
2798.0	0.000161316341345	0.880706565575
2801.0	8.06581706727e-05	0.880787223746
2805.0	0.000161316341345	0.880948540087
2809.0	0.000161316341345	0.881109856428
2811.0	8.06581706727e-05	0.881190514599
2815.0	0.000161316341345	0.88135183094
2819.0	0.000241974512018	0.881593805452
2825.0	8.06581706727e-05	0.881674463623
2830.0	0.000161316341345	0.881835779965
2833.0	8.06581706727e-05	0.881916438135
2840.0	0.000241974512018	0.882158412647
2847.0	0.000403290853363	0.882561703501
2850.0	0.000161316341345	0.882723019842
2853.0	0.000161316341345	0.882884336183
2855.0	0.000161316341345	0.883045652525
2860.0	0.000161316341345	0.883206968866
2867.0	8.06581706727e-05	0.883287627037
2870.0	0.000161316341345	0.883448943378
2876.0	8.06581706727e-05	0.883529601549
2884.0	0.000161316341345	0.88369091789
2895.0	0.000161316341345	0.883852234231
2897.0	0.000161316341345	0.884013550573
2899.0	8.06581706727e-05	0.884094208743
2906.0	8.06581706727e-05	0.884174866914
2909.0	0.000161316341345	0.884336183255
2914.0	0.000161316341345	0.884497499597
2921.0	0.000161316341345	0.884658815938
2928.0	0.000161316341345	0.884820132279
2930.0	0.000161316341345	0.884981448621
2932.0	0.000161316341345	0.885142764962
2937.0	8.06581706727e-05	0.885223423133
2944.0	0.000161316341345	0.885384739474
2949.0	0.000161316341345	0.885546055815
2951.0	0.000161316341345	0.885707372157
2955.0	0.000161316341345	0.885868688498
2958.0	8.06581706727e-05	0.885949346669
2961.0	0.000161316341345	0.88611066301
2963.0	8.06581706727e-05	0.886191321181
2966.0	8.06581706727e-05	0.886271979352
2969.0	8.06581706727e-05	0.886352637522
2972.0	8.06581706727e-05	0.886433295693
2974.0	8.06581706727e-05	0.886513953864
2976.0	8.06581706727e-05	0.886594612034
2981.0	8.06581706727e-05	0.886675270205
2983.0	8.06581706727e-05	0.886755928376
2985.0	8.06581706727e-05	0.886836586546
2990.0	0.000241974512018	0.887078561058
2995.0	0.000161316341345	0.8872398774
2999.0	8.06581706727e-05	0.88732053557
3002.0	0.000161316341345	0.887481851912
3008.0	8.06581706727e-05	0.887562510082
3011.0	0.000241974512018	0.887804484594
3013.0	0.000241974512018	0.888046459106
3016.0	8.06581706727e-05	0.888127117277
3019.0	0.000161316341345	0.888288433618
3034.0	8.06581706727e-05	0.888369091789
3036.0	8.06581706727e-05	0.88844974996
3039.0	8.06581706727e-05	0.88853040813
3045.0	8.06581706727e-05	0.888611066301
3050.0	0.000322632682691	0.888933698984
3052.0	8.06581706727e-05	0.889014357154
3057.0	0.000241974512018	0.889256331666
3059.0	0.000161316341345	0.889417648008
3064.0	8.06581706727e-05	0.889498306178
3074.0	8.06581706727e-05	0.889578964349
3076.0	0.000161316341345	0.88974028069
3079.0	0.000161316341345	0.889901597032
3081.0	8.06581706727e-05	0.889982255202
3083.0	0.000241974512018	0.890224229714
3085.0	8.06581706727e-05	0.890304887885
3095.0	8.06581706727e-05	0.890385546056
3099.0	0.000241974512018	0.890627520568
3101.0	8.06581706727e-05	0.890708178739
3104.0	8.06581706727e-05	0.890788836909
3110.0	8.06581706727e-05	0.89086949508
3113.0	0.000161316341345	0.891030811421
3116.0	8.06581706727e-05	0.891111469592
3119.0	0.000161316341345	0.891272785933
3121.0	8.06581706727e-05	0.891353444104
3123.0	0.000241974512018	0.891595418616
3125.0	8.06581706727e-05	0.891676076787
3127.0	8.06581706727e-05	0.891756734957
3132.0	8.06581706727e-05	0.891837393128
3134.0	0.000161316341345	0.891998709469
3144.0	8.06581706727e-05	0.89207936764
3146.0	8.06581706727e-05	0.892160025811
3151.0	8.06581706727e-05	0.892240683981
3156.0	0.000161316341345	0.892402000323
3163.0	8.06581706727e-05	0.892482658493
3165.0	8.06581706727e-05	0.892563316664
3167.0	0.000161316341345	0.892724633005
3184.0	0.000161316341345	0.892885949347
3188.0	8.06581706727e-05	0.892966607517
3191.0	0.000161316341345	0.893127923859
3196.0	8.06581706727e-05	0.893208582029
3205.0	0.000161316341345	0.893369898371
3208.0	0.000241974512018	0.893611872883
3212.0	0.000241974512018	0.893853847395
3216.0	8.06581706727e-05	0.893934505565
3219.0	0.000161316341345	0.894095821907
3222.0	0.000161316341345	0.894257138248
3224.0	8.06581706727e-05	0.894337796419
3226.0	8.06581706727e-05	0.894418454589
3228.0	0.000241974512018	0.894660429101
3232.0	0.000241974512018	0.894902403613
3238.0	0.000161316341345	0.895063719955
3240.0	0.000161316341345	0.895225036296
3248.0	0.000161316341345	0.895386352638
3250.0	8.06581706727e-05	0.895467010808
3255.0	0.000322632682691	0.895789643491
3263.0	0.000161316341345	0.895950959832
3267.0	0.000161316341345	0.896112276174
3269.0	8.06581706727e-05	0.896192934344
3271.0	8.06581706727e-05	0.896273592515
3274.0	8.06581706727e-05	0.896354250686
3278.0	0.000161316341345	0.896515567027
3283.0	8.06581706727e-05	0.896596225198
3285.0	0.000161316341345	0.896757541539
3292.0	0.000241974512018	0.896999516051
3297.0	0.000161316341345	0.897160832392
3299.0	0.000161316341345	0.897322148734
3302.0	0.000161316341345	0.897483465075
3305.0	0.000161316341345	0.897644781416
3309.0	8.06581706727e-05	0.897725439587
3312.0	0.000322632682691	0.89804807227
3321.0	0.000161316341345	0.898209388611
3324.0	8.06581706727e-05	0.898290046782
3326.0	8.06581706727e-05	0.898370704952
3330.0	8.06581706727e-05	0.898451363123
3332.0	8.06581706727e-05	0.898532021294
3334.0	8.06581706727e-05	0.898612679464
3337.0	8.06581706727e-05	0.898693337635
3342.0	0.000241974512018	0.898935312147
3347.0	0.000161316341345	0.899096628488
3351.0	0.000241974512018	0.899338603
3353.0	8.06581706727e-05	0.899419261171
3357.0	8.06581706727e-05	0.899499919342
3359.0	8.06581706727e-05	0.899580577513
3361.0	8.06581706727e-05	0.899661235683
3364.0	0.000161316341345	0.899822552025
3366.0	8.06581706727e-05	0.899903210195
3372.0	8.06581706727e-05	0.899983868366
3383.0	8.06581706727e-05	0.900064526537
3386.0	8.06581706727e-05	0.900145184707
3391.0	8.06581706727e-05	0.900225842878
3394.0	0.000241974512018	0.90046781739
3400.0	0.000161316341345	0.900629133731
3405.0	0.000161316341345	0.900790450073
3411.0	0.000161316341345	0.900951766414
3421.0	8.06581706727e-05	0.901032424585
3424.0	0.000241974512018	0.901274399097
3429.0	0.000161316341345	0.901435715438
3433.0	0.000161316341345	0.901597031779
3449.0	8.06581706727e-05	0.90167768995
3456.0	0.000161316341345	0.901839006291
3459.0	8.06581706727e-05	0.901919664462
3462.0	8.06581706727e-05	0.902000322633
3466.0	8.06581706727e-05	0.902080980803
3469.0	8.06581706727e-05	0.902161638974
3471.0	0.000161316341345	0.902322955315
3479.0	0.000161316341345	0.902484271657
3484.0	0.000161316341345	0.902645587998
3491.0	0.000161316341345	0.902806904339
3493.0	0.000161316341345	0.902968220681
3495.0	8.06581706727e-05	0.903048878851
3501.0	0.000161316341345	0.903210195193
3503.0	0.000161316341345	0.903371511534
3505.0	8.06581706727e-05	0.903452169705
3510.0	8.06581706727e-05	0.903532827875
3512.0	8.06581706727e-05	0.903613486046
3525.0	8.06581706727e-05	0.903694144217
3530.0	8.06581706727e-05	0.903774802387
3534.0	8.06581706727e-05	0.903855460558
3538.0	8.06581706727e-05	0.903936118729
3550.0	8.06581706727e-05	0.904016776899
3552.0	0.000161316341345	0.904178093241
3572.0	0.000161316341345	0.904339409582
3576.0	8.06581706727e-05	0.904420067753
3581.0	0.000241974512018	0.904662042265
3585.0	8.06581706727e-05	0.904742700436
3590.0	8.06581706727e-05	0.904823358606
3594.0	0.000161316341345	0.904984674948
3596.0	0.000161316341345	0.905145991289
3604.0	0.000161316341345	0.90530730763
3608.0	8.06581706727e-05	0.905387965801
3611.0	0.000161316341345	0.905549282142
3613.0	8.06581706727e-05	0.905629940313
3617.0	0.000241974512018	0.905871914825
3620.0	8.06581706727e-05	0.905952572996
3628.0	8.06581706727e-05	0.906033231166
3633.0	0.000161316341345	0.906194547508
3645.0	8.06581706727e-05	0.906275205678
3653.0	0.000161316341345	0.90643652202
3655.0	0.000161316341345	0.906597838361
3661.0	8.06581706727e-05	0.906678496532
3665.0	8.06581706727e-05	0.906759154702
3671.0	8.06581706727e-05	0.906839812873
3680.0	8.06581706727e-05	0.906920471044
3682.0	0.000161316341345	0.907081787385
3684.0	8.06581706727e-05	0.907162445556
3688.0	0.000161316341345	0.907323761897
3692.0	8.06581706727e-05	0.907404420068
3694.0	8.06581706727e-05	0.907485078238
3700.0	0.000161316341345	0.90764639458
3707.0	8.06581706727e-05	0.90772705275
3711.0	8.06581706727e-05	0.907807710921
3714.0	8.06581706727e-05	0.907888369092
3721.0	0.000161316341345	0.908049685433
3723.0	8.06581706727e-05	0.908130343604
3729.0	0.000322632682691	0.908452976286
3732.0	0.000161316341345	0.908614292628
3735.0	8.06581706727e-05	0.908694950799
3737.0	8.06581706727e-05	0.908775608969
3741.0	0.000161316341345	0.908936925311
3744.0	0.000161316341345	0.909098241652
3746.0	8.06581706727e-05	0.909178899823
3752.0	0.000161316341345	0.909340216164
3756.0	0.000161316341345	0.909501532505
3759.0	0.000241974512018	0.909743507017
3775.0	0.000161316341345	0.909904823359
3779.0	8.06581706727e-05	0.909985481529
3792.0	0.000161316341345	0.910146797871
3802.0	0.000161316341345	0.910308114212
3804.0	8.06581706727e-05	0.910388772383
3817.0	8.06581706727e-05	0.910469430553
3821.0	0.000161316341345	0.910630746895
3824.0	8.06581706727e-05	0.910711405065
3826.0	0.000161316341345	0.910872721407
3829.0	8.06581706727e-05	0.910953379577
3833.0	0.000241974512018	0.911195354089
3836.0	8.06581706727e-05	0.91127601226
3839.0	0.000161316341345	0.911437328601
3849.0	0.000161316341345	0.911598644943
3852.0	0.000161316341345	0.911759961284
3854.0	8.06581706727e-05	0.911840619455
3857.0	0.000161316341345	0.912001935796
3867.0	0.000241974512018	0.912243910308
3874.0	8.06581706727e-05	0.912324568479
3877.0	0.000161316341345	0.91248588482
3879.0	0.000161316341345	0.912647201161
3888.0	0.000161316341345	0.912808517503
3891.0	8.06581706727e-05	0.912889175673
3893.0	8.06581706727e-05	0.912969833844
3902.0	8.06581706727e-05	0.913050492015
3904.0	8.06581706727e-05	0.913131150186
3906.0	0.000161316341345	0.913292466527
3911.0	8.06581706727e-05	0.913373124698
3913.0	8.06581706727e-05	0.913453782868
3915.0	8.06581706727e-05	0.913534441039
3920.0	8.06581706727e-05	0.91361509921
3936.0	8.06581706727e-05	0.91369575738
3945.0	0.000161316341345	0.913857073722
3948.0	0.000161316341345	0.914018390063
3950.0	8.06581706727e-05	0.914099048234
3954.0	8.06581706727e-05	0.914179706404
3956.0	8.06581706727e-05	0.914260364575
3959.0	8.06581706727e-05	0.914341022746
3961.0	0.000161316341345	0.914502339087
3965.0	8.06581706727e-05	0.914582997258
3972.0	0.000161316341345	0.914744313599
3975.0	0.000161316341345	0.91490562994
3979.0	8.06581706727e-05	0.914986288111
3981.0	8.06581706727e-05	0.915066946282
3985.0	8.06581706727e-05	0.915147604452
3990.0	8.06581706727e-05	0.915228262623
3994.0	0.000161316341345	0.915389578964
3997.0	8.06581706727e-05	0.915470237135
3999.0	8.06581706727e-05	0.915550895306
4001.0	8.06581706727e-05	0.915631553476
4009.0	0.000161316341345	0.915792869818
4012.0	8.06581706727e-05	0.915873527988
4015.0	8.06581706727e-05	0.915954186159
4017.0	0.000161316341345	0.9161155025
4021.0	8.06581706727e-05	0.916196160671
4024.0	8.06581706727e-05	0.916276818842
4029.0	8.06581706727e-05	0.916357477012
4032.0	0.000161316341345	0.916518793354
4038.0	8.06581706727e-05	0.916599451524
4041.0	8.06581706727e-05	0.916680109695
4043.0	8.06581706727e-05	0.916760767866
4047.0	8.06581706727e-05	0.916841426036
4052.0	0.000161316341345	0.917002742378
4056.0	8.06581706727e-05	0.917083400548
4059.0	0.000161316341345	0.91724471689
4062.0	8.06581706727e-05	0.91732537506
4064.0	0.000161316341345	0.917486691402
4066.0	8.06581706727e-05	0.917567349573
4069.0	8.06581706727e-05	0.917648007743
4072.0	8.06581706727e-05	0.917728665914
4081.0	8.06581706727e-05	0.917809324085
4084.0	8.06581706727e-05	0.917889982255
4091.0	8.06581706727e-05	0.917970640426
4098.0	8.06581706727e-05	0.918051298597
4100.0	0.000161316341345	0.918212614938
4102.0	0.000161316341345	0.918373931279
4108.0	8.06581706727e-05	0.91845458945
4110.0	0.000161316341345	0.918615905791
4112.0	8.06581706727e-05	0.918696563962
4114.0	0.000241974512018	0.918938538474
4121.0	8.06581706727e-05	0.919019196645
4126.0	0.000161316341345	0.919180512986
4132.0	8.06581706727e-05	0.919261171157
4137.0	0.000161316341345	0.919422487498
4139.0	8.06581706727e-05	0.919503145669
4142.0	8.06581706727e-05	0.919583803839
4145.0	0.000161316341345	0.919745120181
4150.0	8.06581706727e-05	0.919825778351
4153.0	8.06581706727e-05	0.919906436522
4155.0	0.000161316341345	0.920067752863
4157.0	8.06581706727e-05	0.920148411034
4159.0	0.000161316341345	0.920309727375
4162.0	0.000161316341345	0.920471043717
4166.0	0.000161316341345	0.920632360058
4177.0	0.000161316341345	0.920793676399
4185.0	8.06581706727e-05	0.92087433457
4198.0	8.06581706727e-05	0.920954992741
4200.0	8.06581706727e-05	0.921035650911
4217.0	8.06581706727e-05	0.921116309082
4224.0	8.06581706727e-05	0.921196967253
4228.0	8.06581706727e-05	0.921277625423
4231.0	0.000161316341345	0.921438941765
4234.0	8.06581706727e-05	0.921519599935
4239.0	8.06581706727e-05	0.921600258106
4247.0	0.000241974512018	0.921842232618
4252.0	0.000241974512018	0.92208420713
4254.0	8.06581706727e-05	0.922164865301
4257.0	8.06581706727e-05	0.922245523472
4259.0	8.06581706727e-05	0.922326181642
4265.0	8.06581706727e-05	0.922406839813
4267.0	0.000161316341345	0.922568156154
4271.0	8.06581706727e-05	0.922648814325
4278.0	0.000161316341345	0.922810130666
4285.0	0.000161316341345	0.922971447008
4287.0	8.06581706727e-05	0.923052105178
4289.0	8.06581706727e-05	0.923132763349
4302.0	0.000161316341345	0.92329407969
4311.0	8.06581706727e-05	0.923374737861
4316.0	8.06581706727e-05	0.923455396032
4320.0	0.000161316341345	0.923616712373
4324.0	8.06581706727e-05	0.923697370544
4328.0	0.000161316341345	0.923858686885
4338.0	8.06581706727e-05	0.923939345056
4340.0	0.000161316341345	0.924100661397
4343.0	0.000161316341345	0.924261977738
4345.0	8.06581706727e-05	0.924342635909
4355.0	0.000161316341345	0.92450395225
4357.0	8.06581706727e-05	0.924584610421
4361.0	8.06581706727e-05	0.924665268592
4365.0	0.000161316341345	0.924826584933
4373.0	8.06581706727e-05	0.924907243104
4391.0	8.06581706727e-05	0.924987901274
4394.0	0.000161316341345	0.925149217616
4403.0	8.06581706727e-05	0.925229875786
4412.0	8.06581706727e-05	0.925310533957
4420.0	0.000161316341345	0.925471850298
4423.0	8.06581706727e-05	0.925552508469
4427.0	8.06581706727e-05	0.92563316664
4435.0	0.000161316341345	0.925794482981
4442.0	8.06581706727e-05	0.925875141152
4444.0	8.06581706727e-05	0.925955799322
4446.0	0.000161316341345	0.926117115664
4450.0	8.06581706727e-05	0.926197773834
4453.0	8.06581706727e-05	0.926278432005
4461.0	8.06581706727e-05	0.926359090176
4465.0	8.06581706727e-05	0.926439748347
4469.0	8.06581706727e-05	0.926520406517
4474.0	8.06581706727e-05	0.926601064688
4480.0	8.06581706727e-05	0.926681722859
4485.0	0.000161316341345	0.9268430392
4487.0	8.06581706727e-05	0.926923697371
4491.0	8.06581706727e-05	0.927004355541
4493.0	8.06581706727e-05	0.927085013712
4506.0	0.000322632682691	0.927407646395
4508.0	0.000161316341345	0.927568962736
4515.0	8.06581706727e-05	0.927649620907
4518.0	8.06581706727e-05	0.927730279077
4520.0	0.000161316341345	0.927891595419
4526.0	8.06581706727e-05	0.927972253589
4531.0	8.06581706727e-05	0.92805291176
4542.0	8.06581706727e-05	0.928133569931
4545.0	8.06581706727e-05	0.928214228101
4548.0	0.000161316341345	0.928375544443
4551.0	8.06581706727e-05	0.928456202613
4559.0	8.06581706727e-05	0.928536860784
4567.0	8.06581706727e-05	0.928617518955
4573.0	8.06581706727e-05	0.928698177125
4579.0	8.06581706727e-05	0.928778835296
4584.0	0.000241974512018	0.929020809808
4589.0	0.000161316341345	0.929182126149
4596.0	8.06581706727e-05	0.92926278432
4602.0	8.06581706727e-05	0.929343442491
4606.0	0.000241974512018	0.929585417003
4609.0	8.06581706727e-05	0.929666075173
4612.0	8.06581706727e-05	0.929746733344
4614.0	8.06581706727e-05	0.929827391515
4616.0	8.06581706727e-05	0.929908049685
4622.0	0.000241974512018	0.930150024197
4633.0	0.000161316341345	0.930311340539
4639.0	8.06581706727e-05	0.930391998709
4643.0	0.000161316341345	0.930553315051
4645.0	8.06581706727e-05	0.930633973221
4655.0	8.06581706727e-05	0.930714631392
4658.0	8.06581706727e-05	0.930795289563
4660.0	8.06581706727e-05	0.930875947734
4664.0	8.06581706727e-05	0.930956605904
4667.0	8.06581706727e-05	0.931037264075
4681.0	8.06581706727e-05	0.931117922246
4688.0	8.06581706727e-05	0.931198580416
4694.0	0.000161316341345	0.931359896758
4699.0	8.06581706727e-05	0.931440554928
4704.0	8.06581706727e-05	0.931521213099
4711.0	8.06581706727e-05	0.93160187127
4715.0	8.06581706727e-05	0.93168252944
4718.0	8.06581706727e-05	0.931763187611
4722.0	8.06581706727e-05	0.931843845782
4726.0	0.000241974512018	0.932085820294
4728.0	8.06581706727e-05	0.932166478464
4732.0	0.000241974512018	0.932408452976
4743.0	8.06581706727e-05	0.932489111147
4751.0	8.06581706727e-05	0.932569769318
4761.0	0.000161316341345	0.932731085659
4774.0	8.06581706727e-05	0.93281174383
4786.0	0.000241974512018	0.933053718342
4796.0	0.000161316341345	0.933215034683
4801.0	0.000241974512018	0.933457009195
4806.0	8.06581706727e-05	0.933537667366
4808.0	8.06581706727e-05	0.933618325536
4817.0	0.000241974512018	0.933860300048
4820.0	8.06581706727e-05	0.933940958219
4824.0	0.000241974512018	0.934182932731
4828.0	0.000161316341345	0.934344249072
4845.0	8.06581706727e-05	0.934424907243
4861.0	0.000161316341345	0.934586223584
4864.0	8.06581706727e-05	0.934666881755
4877.0	8.06581706727e-05	0.934747539926
4879.0	8.06581706727e-05	0.934828198096
4885.0	0.000161316341345	0.934989514438
4892.0	0.000241974512018	0.93523148895
4898.0	8.06581706727e-05	0.935312147121
4910.0	8.06581706727e-05	0.935392805291
4915.0	0.000241974512018	0.935634779803
4917.0	0.000161316341345	0.935796096145
4922.0	0.000161316341345	0.935957412486
4928.0	8.06581706727e-05	0.936038070657
4930.0	0.000161316341345	0.936199386998
4938.0	8.06581706727e-05	0.936280045169
4944.0	8.06581706727e-05	0.936360703339
4953.0	8.06581706727e-05	0.93644136151
4956.0	8.06581706727e-05	0.936522019681
4961.0	8.06581706727e-05	0.936602677851
4969.0	8.06581706727e-05	0.936683336022
4975.0	0.000161316341345	0.936844652363
4981.0	8.06581706727e-05	0.936925310534
4983.0	8.06581706727e-05	0.937005968705
4996.0	0.000161316341345	0.937167285046
5000.0	8.06581706727e-05	0.937247943217
5003.0	8.06581706727e-05	0.937328601387
5007.0	0.000161316341345	0.937489917729
5017.0	8.06581706727e-05	0.937570575899
5020.0	8.06581706727e-05	0.93765123407
5022.0	8.06581706727e-05	0.937731892241
5030.0	8.06581706727e-05	0.937812550411
5033.0	8.06581706727e-05	0.937893208582
5044.0	8.06581706727e-05	0.937973866753
5051.0	8.06581706727e-05	0.938054524923
5059.0	8.06581706727e-05	0.938135183094
5063.0	0.000161316341345	0.938296499435
5065.0	8.06581706727e-05	0.938377157606
5080.0	0.000161316341345	0.938538473947
5088.0	0.000161316341345	0.938699790289
5090.0	8.06581706727e-05	0.938780448459
5099.0	0.000322632682691	0.939103081142
5105.0	8.06581706727e-05	0.939183739313
5112.0	8.06581706727e-05	0.939264397483
5121.0	8.06581706727e-05	0.939345055654
5136.0	0.000241974512018	0.939587030166
5138.0	8.06581706727e-05	0.939667688337
5140.0	8.06581706727e-05	0.939748346508
5142.0	8.06581706727e-05	0.939829004678
5144.0	8.06581706727e-05	0.939909662849
5150.0	8.06581706727e-05	0.93999032102
5152.0	8.06581706727e-05	0.94007097919
5168.0	8.06581706727e-05	0.940151637361
5170.0	8.06581706727e-05	0.940232295532
5172.0	8.06581706727e-05	0.940312953702
5178.0	8.06581706727e-05	0.940393611873
5181.0	0.000161316341345	0.940554928214
5183.0	8.06581706727e-05	0.940635586385
5185.0	8.06581706727e-05	0.940716244556
5194.0	8.06581706727e-05	0.940796902726
5197.0	8.06581706727e-05	0.940877560897
5210.0	0.000161316341345	0.941038877238
5214.0	8.06581706727e-05	0.941119535409
5216.0	8.06581706727e-05	0.94120019358
5219.0	8.06581706727e-05	0.94128085175
5221.0	8.06581706727e-05	0.941361509921
5223.0	8.06581706727e-05	0.941442168092
5227.0	8.06581706727e-05	0.941522826262
5233.0	8.06581706727e-05	0.941603484433
5239.0	8.06581706727e-05	0.941684142604
5242.0	8.06581706727e-05	0.941764800774
5246.0	8.06581706727e-05	0.941845458945
5253.0	8.06581706727e-05	0.941926117116
5257.0	8.06581706727e-05	0.942006775286
5260.0	8.06581706727e-05	0.942087433457
5269.0	8.06581706727e-05	0.942168091628
5277.0	0.000241974512018	0.94241006614
5281.0	0.000161316341345	0.942571382481
5286.0	8.06581706727e-05	0.942652040652
5291.0	8.06581706727e-05	0.942732698822
5305.0	8.06581706727e-05	0.942813356993
5309.0	8.06581706727e-05	0.942894015164
5311.0	8.06581706727e-05	0.942974673334
5314.0	8.06581706727e-05	0.943055331505
5316.0	8.06581706727e-05	0.943135989676
5321.0	8.06581706727e-05	0.943216647846
5324.0	8.06581706727e-05	0.943297306017
5326.0	0.000161316341345	0.943458622358
5331.0	0.000161316341345	0.9436199387
5333.0	8.06581706727e-05	0.94370059687
5336.0	8.06581706727e-05	0.943781255041
5341.0	0.000161316341345	0.943942571382
5350.0	8.06581706727e-05	0.944023229553
5358.0	8.06581706727e-05	0.944103887724
5364.0	8.06581706727e-05	0.944184545894
5367.0	8.06581706727e-05	0.944265204065
5371.0	0.000161316341345	0.944426520407
5379.0	8.06581706727e-05	0.944507178577
5384.0	8.06581706727e-05	0.944587836748
5391.0	8.06581706727e-05	0.944668494919
5393.0	8.06581706727e-05	0.944749153089
5398.0	8.06581706727e-05	0.94482981126
5405.0	8.06581706727e-05	0.944910469431
5421.0	8.06581706727e-05	0.944991127601
5424.0	0.000161316341345	0.945152443943
5429.0	8.06581706727e-05	0.945233102113
5437.0	8.06581706727e-05	0.945313760284
5447.0	8.06581706727e-05	0.945394418455
5451.0	8.06581706727e-05	0.945475076625
5464.0	8.06581706727e-05	0.945555734796
5470.0	0.000161316341345	0.945717051137
5474.0	8.06581706727e-05	0.945797709308
5486.0	8.06581706727e-05	0.945878367479
5497.0	8.06581706727e-05	0.945959025649
5517.0	8.06581706727e-05	0.94603968382
5526.0	8.06581706727e-05	0.946120341991
5530.0	0.000241974512018	0.946362316503
5535.0	0.000161316341345	0.946523632844
5541.0	8.06581706727e-05	0.946604291015
5543.0	8.06581706727e-05	0.946684949185
5550.0	8.06581706727e-05	0.946765607356
5565.0	8.06581706727e-05	0.946846265527
5567.0	8.06581706727e-05	0.946926923697
5569.0	0.000322632682691	0.94724955638
5577.0	0.000161316341345	0.947410872721
5580.0	8.06581706727e-05	0.947491530892
5601.0	8.06581706727e-05	0.947572189063
5603.0	8.06581706727e-05	0.947652847233
5613.0	0.000161316341345	0.947814163575
5618.0	0.000161316341345	0.947975479916
5627.0	8.06581706727e-05	0.948056138087
5633.0	8.06581706727e-05	0.948136796257
5660.0	8.06581706727e-05	0.948217454428
5664.0	8.06581706727e-05	0.948298112599
5671.0	8.06581706727e-05	0.948378770769
5687.0	8.06581706727e-05	0.94845942894
5689.0	8.06581706727e-05	0.948540087111
5718.0	8.06581706727e-05	0.948620745281
5722.0	8.06581706727e-05	0.948701403452
5737.0	8.06581706727e-05	0.948782061623
5743.0	8.06581706727e-05	0.948862719794
5754.0	8.06581706727e-05	0.948943377964
5761.0	0.000161316341345	0.949104694306
5765.0	8.06581706727e-05	0.949185352476
5778.0	8.06581706727e-05	0.949266010647
5780.0	0.000161316341345	0.949427326988
5782.0	0.000161316341345	0.94958864333
5784.0	8.06581706727e-05	0.9496693015
5795.0	8.06581706727e-05	0.949749959671
5797.0	8.06581706727e-05	0.949830617842
5804.0	8.06581706727e-05	0.949911276012
5809.0	8.06581706727e-05	0.949991934183
5812.0	0.000161316341345	0.950153250524
5815.0	8.06581706727e-05	0.950233908695
5836.0	8.06581706727e-05	0.950314566866
5854.0	8.06581706727e-05	0.950395225036
5863.0	8.06581706727e-05	0.950475883207
5865.0	0.000161316341345	0.950637199548
5871.0	0.000161316341345	0.95079851589
5882.0	8.06581706727e-05	0.95087917406
5888.0	8.06581706727e-05	0.950959832231
5895.0	8.06581706727e-05	0.951040490402
5898.0	0.000161316341345	0.951201806743
5904.0	8.06581706727e-05	0.951282464914
5908.0	8.06581706727e-05	0.951363123084
5913.0	8.06581706727e-05	0.951443781255
5917.0	8.06581706727e-05	0.951524439426
5932.0	8.06581706727e-05	0.951605097596
5940.0	8.06581706727e-05	0.951685755767
5943.0	8.06581706727e-05	0.951766413938
5952.0	8.06581706727e-05	0.951847072108
5956.0	0.000161316341345	0.95200838845
5968.0	8.06581706727e-05	0.95208904662
5973.0	8.06581706727e-05	0.952169704791
5975.0	8.06581706727e-05	0.952250362962
5980.0	0.000161316341345	0.952411679303
5988.0	0.000161316341345	0.952572995644
6005.0	0.000161316341345	0.952734311986
6008.0	8.06581706727e-05	0.952814970156
6023.0	8.06581706727e-05	0.952895628327
6025.0	8.06581706727e-05	0.952976286498
6028.0	8.06581706727e-05	0.953056944668
6037.0	8.06581706727e-05	0.953137602839
6044.0	8.06581706727e-05	0.95321826101
6047.0	0.000161316341345	0.953379577351
6052.0	8.06581706727e-05	0.953460235522
6055.0	0.000161316341345	0.953621551863
6060.0	0.000161316341345	0.953782868205
6070.0	8.06581706727e-05	0.953863526375
6073.0	8.06581706727e-05	0.953944184546
6075.0	8.06581706727e-05	0.954024842717
6080.0	8.06581706727e-05	0.954105500887
6108.0	0.000161316341345	0.954266817229
6113.0	8.06581706727e-05	0.954347475399
6116.0	8.06581706727e-05	0.95442813357
6127.0	8.06581706727e-05	0.954508791741
6136.0	8.06581706727e-05	0.954589449911
6139.0	8.06581706727e-05	0.954670108082
6142.0	8.06581706727e-05	0.954750766253
6153.0	0.000161316341345	0.954912082594
6159.0	8.06581706727e-05	0.954992740765
6165.0	8.06581706727e-05	0.955073398935
6175.0	8.06581706727e-05	0.955154057106
6177.0	8.06581706727e-05	0.955234715277
6183.0	8.06581706727e-05	0.955315373447
6186.0	8.06581706727e-05	0.955396031618
6188.0	8.06581706727e-05	0.955476689789
6213.0	0.000161316341345	0.95563800613
6229.0	8.06581706727e-05	0.955718664301
6235.0	8.06581706727e-05	0.955799322471
6238.0	0.000161316341345	0.955960638813
6241.0	8.06581706727e-05	0.956041296983
6244.0	8.06581706727e-05	0.956121955154
6259.0	8.06581706727e-05	0.956202613325
6276.0	8.06581706727e-05	0.956283271495
6278.0	8.06581706727e-05	0.956363929666
6282.0	0.000161316341345	0.956525246007
6297.0	8.06581706727e-05	0.956605904178
6304.0	8.06581706727e-05	0.956686562349
6307.0	8.06581706727e-05	0.956767220519
6318.0	8.06581706727e-05	0.95684787869
6324.0	0.000241974512018	0.957089853202
6326.0	8.06581706727e-05	0.957170511373
6344.0	8.06581706727e-05	0.957251169543
6347.0	8.06581706727e-05	0.957331827714
6360.0	8.06581706727e-05	0.957412485885
6362.0	8.06581706727e-05	0.957493144055
6372.0	8.06581706727e-05	0.957573802226
6374.0	8.06581706727e-05	0.957654460397
6384.0	8.06581706727e-05	0.957735118568
6390.0	8.06581706727e-05	0.957815776738
6398.0	8.06581706727e-05	0.957896434909
6402.0	8.06581706727e-05	0.95797709308
6405.0	8.06581706727e-05	0.95805775125
6419.0	8.06581706727e-05	0.958138409421
6424.0	8.06581706727e-05	0.958219067592
6431.0	8.06581706727e-05	0.958299725762
6441.0	8.06581706727e-05	0.958380383933
6443.0	8.06581706727e-05	0.958461042104
6445.0	8.06581706727e-05	0.958541700274
6449.0	8.06581706727e-05	0.958622358445
6472.0	8.06581706727e-05	0.958703016616
6475.0	8.06581706727e-05	0.958783674786
6484.0	8.06581706727e-05	0.958864332957
6491.0	0.000161316341345	0.959025649298
6493.0	0.000241974512018	0.95926762381
6498.0	8.06581706727e-05	0.959348281981
6504.0	8.06581706727e-05	0.959428940152
6506.0	8.06581706727e-05	0.959509598322
6510.0	8.06581706727e-05	0.959590256493
6517.0	8.06581706727e-05	0.959670914664
6519.0	8.06581706727e-05	0.959751572834
6522.0	8.06581706727e-05	0.959832231005
6524.0	8.06581706727e-05	0.959912889176
6528.0	8.06581706727e-05	0.959993547346
6534.0	8.06581706727e-05	0.960074205517
6536.0	8.06581706727e-05	0.960154863688
6539.0	8.06581706727e-05	0.960235521858
6541.0	0.000161316341345	0.9603968382
6546.0	8.06581706727e-05	0.96047749637
6556.0	8.06581706727e-05	0.960558154541
6559.0	8.06581706727e-05	0.960638812712
6567.0	8.06581706727e-05	0.960719470882
6572.0	8.06581706727e-05	0.960800129053
6575.0	8.06581706727e-05	0.960880787224
6597.0	8.06581706727e-05	0.960961445394
6601.0	8.06581706727e-05	0.961042103565
6610.0	8.06581706727e-05	0.961122761736
6644.0	8.06581706727e-05	0.961203419906
6672.0	8.06581706727e-05	0.961284078077
6691.0	8.06581706727e-05	0.961364736248
6709.0	8.06581706727e-05	0.961445394418
6711.0	8.06581706727e-05	0.961526052589
6744.0	8.06581706727e-05	0.96160671076
6751.0	8.06581706727e-05	0.96168736893
6772.0	0.000161316341345	0.961848685272
6776.0	8.06581706727e-05	0.961929343442
6789.0	8.06581706727e-05	0.962010001613
6792.0	0.000161316341345	0.962171317955
6794.0	8.06581706727e-05	0.962251976125
6809.0	8.06581706727e-05	0.962332634296
6816.0	8.06581706727e-05	0.962413292467
6819.0	8.06581706727e-05	0.962493950637
6831.0	8.06581706727e-05	0.962574608808
6838.0	0.000161316341345	0.962735925149
6858.0	8.06581706727e-05	0.96281658332
6864.0	8.06581706727e-05	0.962897241491
6870.0	8.06581706727e-05	0.962977899661
6872.0	8.06581706727e-05	0.963058557832
6875.0	0.000161316341345	0.963219874173
6890.0	8.06581706727e-05	0.963300532344
6898.0	8.06581706727e-05	0.963381190515
6919.0	8.06581706727e-05	0.963461848685
6921.0	8.06581706727e-05	0.963542506856
6943.0	0.000161316341345	0.963703823197
6945.0	8.06581706727e-05	0.963784481368
6947.0	8.06581706727e-05	0.963865139539
6966.0	8.06581706727e-05	0.963945797709
6968.0	8.06581706727e-05	0.96402645588
6977.0	0.000161316341345	0.964187772221
6979.0	0.000161316341345	0.964349088563
7001.0	8.06581706727e-05	0.964429746733
7005.0	8.06581706727e-05	0.964510404904
7027.0	8.06581706727e-05	0.964591063075
7047.0	8.06581706727e-05	0.964671721245
7049.0	0.000241974512018	0.964913695757
7053.0	8.06581706727e-05	0.964994353928
7058.0	8.06581706727e-05	0.965075012099
7065.0	0.000161316341345	0.96523632844
7090.0	8.06581706727e-05	0.965316986611
7098.0	8.06581706727e-05	0.965397644781
7107.0	8.06581706727e-05	0.965478302952
7118.0	0.000161316341345	0.965639619293
7120.0	8.06581706727e-05	0.965720277464
7127.0	8.06581706727e-05	0.965800935635
7132.0	8.06581706727e-05	0.965881593805
7139.0	8.06581706727e-05	0.965962251976
7146.0	8.06581706727e-05	0.966042910147
7173.0	8.06581706727e-05	0.966123568317
7176.0	8.06581706727e-05	0.966204226488
7183.0	8.06581706727e-05	0.966284884659
7201.0	8.06581706727e-05	0.966365542829
7204.0	0.000161316341345	0.966526859171
7213.0	8.06581706727e-05	0.966607517342
7231.0	8.06581706727e-05	0.966688175512
7237.0	0.000161316341345	0.966849491854
7257.0	8.06581706727e-05	0.966930150024
7272.0	8.06581706727e-05	0.967010808195
7274.0	8.06581706727e-05	0.967091466366
7285.0	0.000161316341345	0.967252782707
7293.0	8.06581706727e-05	0.967333440878
7297.0	8.06581706727e-05	0.967414099048
7299.0	8.06581706727e-05	0.967494757219
7325.0	8.06581706727e-05	0.96757541539
7328.0	8.06581706727e-05	0.96765607356
7333.0	8.06581706727e-05	0.967736731731
7337.0	8.06581706727e-05	0.967817389902
7365.0	0.000161316341345	0.967978706243
7367.0	8.06581706727e-05	0.968059364414
7372.0	8.06581706727e-05	0.968140022584
7414.0	0.000161316341345	0.968301338926
7447.0	8.06581706727e-05	0.968381997096
7454.0	8.06581706727e-05	0.968462655267
7460.0	8.06581706727e-05	0.968543313438
7468.0	8.06581706727e-05	0.968623971608
7479.0	8.06581706727e-05	0.968704629779
7500.0	8.06581706727e-05	0.96878528795
7524.0	0.000161316341345	0.968946604291
7530.0	8.06581706727e-05	0.969027262462
7540.0	8.06581706727e-05	0.969107920632
7547.0	8.06581706727e-05	0.969188578803
7550.0	8.06581706727e-05	0.969269236974
7556.0	8.06581706727e-05	0.969349895144
7570.0	0.000161316341345	0.969511211486
7581.0	8.06581706727e-05	0.969591869656
7586.0	8.06581706727e-05	0.969672527827
7594.0	8.06581706727e-05	0.969753185998
7600.0	8.06581706727e-05	0.969833844168
7603.0	0.000161316341345	0.96999516051
7645.0	8.06581706727e-05	0.97007581868
7669.0	8.06581706727e-05	0.970156476851
7685.0	8.06581706727e-05	0.970237135022
7692.0	8.06581706727e-05	0.970317793192
7696.0	8.06581706727e-05	0.970398451363
7698.0	8.06581706727e-05	0.970479109534
7705.0	8.06581706727e-05	0.970559767704
7710.0	8.06581706727e-05	0.970640425875
7714.0	8.06581706727e-05	0.970721084046
7717.0	8.06581706727e-05	0.970801742216
7722.0	0.000161316341345	0.970963058558
7733.0	8.06581706727e-05	0.971043716729
7749.0	8.06581706727e-05	0.971124374899
7776.0	8.06581706727e-05	0.97120503307
7783.0	8.06581706727e-05	0.971285691241
7800.0	8.06581706727e-05	0.971366349411
7809.0	8.06581706727e-05	0.971447007582
7812.0	8.06581706727e-05	0.971527665753
7814.0	8.06581706727e-05	0.971608323923
7819.0	8.06581706727e-05	0.971688982094
7823.0	8.06581706727e-05	0.971769640265
7825.0	0.000161316341345	0.971930956606
7834.0	8.06581706727e-05	0.972011614777
7839.0	8.06581706727e-05	0.972092272947
7860.0	8.06581706727e-05	0.972172931118
7877.0	8.06581706727e-05	0.972253589289
7893.0	8.06581706727e-05	0.972334247459
7903.0	0.000161316341345	0.972495563801
7918.0	0.000161316341345	0.972656880142
7931.0	0.000161316341345	0.972818196483
7960.0	8.06581706727e-05	0.972898854654
8000.0	8.06581706727e-05	0.972979512825
8004.0	8.06581706727e-05	0.973060170995
8012.0	8.06581706727e-05	0.973140829166
8015.0	8.06581706727e-05	0.973221487337
8037.0	8.06581706727e-05	0.973302145507
8052.0	0.000161316341345	0.973463461849
8059.0	8.06581706727e-05	0.973544120019
8066.0	8.06581706727e-05	0.97362477819
8135.0	8.06581706727e-05	0.973705436361
8153.0	8.06581706727e-05	0.973786094531
8158.0	8.06581706727e-05	0.973866752702
8160.0	8.06581706727e-05	0.973947410873
8179.0	8.06581706727e-05	0.974028069043
8190.0	8.06581706727e-05	0.974108727214
8195.0	8.06581706727e-05	0.974189385385
8206.0	8.06581706727e-05	0.974270043555
8221.0	8.06581706727e-05	0.974350701726
8224.0	8.06581706727e-05	0.974431359897
8227.0	0.000161316341345	0.974592676238
8242.0	8.06581706727e-05	0.974673334409
8254.0	8.06581706727e-05	0.974753992579
8268.0	8.06581706727e-05	0.97483465075
8291.0	8.06581706727e-05	0.974915308921
8315.0	8.06581706727e-05	0.974995967091
8319.0	8.06581706727e-05	0.975076625262
8363.0	8.06581706727e-05	0.975157283433
8369.0	8.06581706727e-05	0.975237941603
8393.0	8.06581706727e-05	0.975318599774
8398.0	8.06581706727e-05	0.975399257945
8417.0	8.06581706727e-05	0.975479916116
8425.0	8.06581706727e-05	0.975560574286
8427.0	8.06581706727e-05	0.975641232457
8463.0	8.06581706727e-05	0.975721890628
8483.0	8.06581706727e-05	0.975802548798
8509.0	8.06581706727e-05	0.975883206969
8511.0	8.06581706727e-05	0.97596386514
8544.0	8.06581706727e-05	0.97604452331
8563.0	8.06581706727e-05	0.976125181481
8574.0	8.06581706727e-05	0.976205839652
8583.0	8.06581706727e-05	0.976286497822
8586.0	0.000161316341345	0.976447814164
8597.0	0.000161316341345	0.976609130505
8600.0	8.06581706727e-05	0.976689788676
8626.0	8.06581706727e-05	0.976770446846
8639.0	8.06581706727e-05	0.976851105017
8643.0	8.06581706727e-05	0.976931763188
8664.0	8.06581706727e-05	0.977012421358
8667.0	0.000161316341345	0.9771737377
8669.0	8.06581706727e-05	0.97725439587
8697.0	8.06581706727e-05	0.977335054041
8713.0	8.06581706727e-05	0.977415712212
8729.0	8.06581706727e-05	0.977496370382
8731.0	8.06581706727e-05	0.977577028553
8740.0	8.06581706727e-05	0.977657686724
8760.0	8.06581706727e-05	0.977738344894
8790.0	8.06581706727e-05	0.977819003065
8800.0	8.06581706727e-05	0.977899661236
8809.0	8.06581706727e-05	0.977980319406
8850.0	8.06581706727e-05	0.978060977577
8864.0	8.06581706727e-05	0.978141635748
8874.0	8.06581706727e-05	0.978222293918
8877.0	8.06581706727e-05	0.978302952089
8892.0	8.06581706727e-05	0.97838361026
8895.0	8.06581706727e-05	0.97846426843
8914.0	0.000161316341345	0.978625584772
8916.0	8.06581706727e-05	0.978706242942
8921.0	8.06581706727e-05	0.978786901113
8926.0	8.06581706727e-05	0.978867559284
8945.0	0.000161316341345	0.979028875625
8960.0	0.000161316341345	0.979190191966
8970.0	8.06581706727e-05	0.979270850137
8987.0	8.06581706727e-05	0.979351508308
8999.0	8.06581706727e-05	0.979432166478
9006.0	8.06581706727e-05	0.979512824649
9034.0	8.06581706727e-05	0.97959348282
9045.0	8.06581706727e-05	0.97967414099
9101.0	8.06581706727e-05	0.979754799161
9103.0	8.06581706727e-05	0.979835457332
9132.0	8.06581706727e-05	0.979916115503
9138.0	8.06581706727e-05	0.979996773673
9157.0	8.06581706727e-05	0.980077431844
9174.0	8.06581706727e-05	0.980158090015
9199.0	8.06581706727e-05	0.980238748185
9240.0	8.06581706727e-05	0.980319406356
9252.0	8.06581706727e-05	0.980400064527
9302.0	8.06581706727e-05	0.980480722697
9304.0	8.06581706727e-05	0.980561380868
9342.0	8.06581706727e-05	0.980642039039
9361.0	8.06581706727e-05	0.980722697209
9369.0	8.06581706727e-05	0.98080335538
9385.0	8.06581706727e-05	0.980884013551
9412.0	0.000161316341345	0.981045329892
9415.0	8.06581706727e-05	0.981125988063
9469.0	8.06581706727e-05	0.981206646233
9483.0	8.06581706727e-05	0.981287304404
9492.0	8.06581706727e-05	0.981367962575
9498.0	8.06581706727e-05	0.981448620745
9505.0	8.06581706727e-05	0.981529278916
9539.0	8.06581706727e-05	0.981609937087
9542.0	8.06581706727e-05	0.981690595257
9546.0	8.06581706727e-05	0.981771253428
9559.0	8.06581706727e-05	0.981851911599
9561.0	8.06581706727e-05	0.981932569769
9580.0	8.06581706727e-05	0.98201322794
9585.0	0.000161316341345	0.982174544281
9587.0	8.06581706727e-05	0.982255202452
9591.0	0.000161316341345	0.982416518793
9621.0	8.06581706727e-05	0.982497176964
9633.0	8.06581706727e-05	0.982577835135
9636.0	8.06581706727e-05	0.982658493305
9645.0	8.06581706727e-05	0.982739151476
9670.0	8.06581706727e-05	0.982819809647
9687.0	8.06581706727e-05	0.982900467817
9733.0	8.06581706727e-05	0.982981125988
9738.0	0.000161316341345	0.983142442329
9749.0	8.06581706727e-05	0.9832231005
9857.0	8.06581706727e-05	0.983303758671
9859.0	8.06581706727e-05	0.983384416841
9888.0	8.06581706727e-05	0.983465075012
9891.0	8.06581706727e-05	0.983545733183
9906.0	8.06581706727e-05	0.983626391353
9922.0	0.000161316341345	0.983787707695
9938.0	0.000161316341345	0.983949024036
9956.0	0.000161316341345	0.984110340377
9971.0	8.06581706727e-05	0.984190998548
9985.0	8.06581706727e-05	0.984271656719
10006.0	8.06581706727e-05	0.984352314889
10054.0	8.06581706727e-05	0.98443297306
10074.0	8.06581706727e-05	0.984513631231
10119.0	8.06581706727e-05	0.984594289402
10121.0	8.06581706727e-05	0.984674947572
10126.0	8.06581706727e-05	0.984755605743
10182.0	0.000161316341345	0.984916922084
10262.0	8.06581706727e-05	0.984997580255
10269.0	8.06581706727e-05	0.985078238426
10346.0	8.06581706727e-05	0.985158896596
10369.0	8.06581706727e-05	0.985239554767
10390.0	8.06581706727e-05	0.985320212938
10461.0	8.06581706727e-05	0.985400871108
10467.0	8.06581706727e-05	0.985481529279
10477.0	8.06581706727e-05	0.98556218745
10521.0	8.06581706727e-05	0.98564284562
10536.0	8.06581706727e-05	0.985723503791
10569.0	8.06581706727e-05	0.985804161962
10600.0	8.06581706727e-05	0.985884820132
10631.0	8.06581706727e-05	0.985965478303
10634.0	8.06581706727e-05	0.986046136474
10690.0	8.06581706727e-05	0.986126794644
10744.0	8.06581706727e-05	0.986207452815
10791.0	8.06581706727e-05	0.986288110986
10858.0	8.06581706727e-05	0.986368769156
10891.0	8.06581706727e-05	0.986449427327
10971.0	8.06581706727e-05	0.986530085498
11013.0	8.06581706727e-05	0.986610743668
11070.0	8.06581706727e-05	0.986691401839
11074.0	8.06581706727e-05	0.98677206001
11079.0	8.06581706727e-05	0.98685271818
11089.0	8.06581706727e-05	0.986933376351
11104.0	8.06581706727e-05	0.987014034522
11137.0	8.06581706727e-05	0.987094692692
11150.0	8.06581706727e-05	0.987175350863
11223.0	8.06581706727e-05	0.987256009034
11272.0	8.06581706727e-05	0.987336667204
11312.0	8.06581706727e-05	0.987417325375
11325.0	0.000161316341345	0.987578641716
11331.0	8.06581706727e-05	0.987659299887
11370.0	8.06581706727e-05	0.987739958058
11378.0	8.06581706727e-05	0.987820616228
11395.0	8.06581706727e-05	0.987901274399
11474.0	8.06581706727e-05	0.98798193257
11504.0	8.06581706727e-05	0.98806259074
11510.0	8.06581706727e-05	0.988143248911
11576.0	8.06581706727e-05	0.988223907082
11632.0	0.000161316341345	0.988385223423
11650.0	0.000161316341345	0.988546539764
11666.0	8.06581706727e-05	0.988627197935
11699.0	8.06581706727e-05	0.988707856106
11741.0	8.06581706727e-05	0.988788514276
11865.0	8.06581706727e-05	0.988869172447
12109.0	8.06581706727e-05	0.988949830618
12159.0	8.06581706727e-05	0.989030488789
12227.0	8.06581706727e-05	0.989111146959
12247.0	8.06581706727e-05	0.98919180513
12277.0	8.06581706727e-05	0.989272463301
12290.0	8.06581706727e-05	0.989353121471
12339.0	8.06581706727e-05	0.989433779642
12351.0	8.06581706727e-05	0.989514437813
12353.0	8.06581706727e-05	0.989595095983
12434.0	8.06581706727e-05	0.989675754154
12453.0	8.06581706727e-05	0.989756412325
12465.0	8.06581706727e-05	0.989837070495
12492.0	8.06581706727e-05	0.989917728666
12509.0	8.06581706727e-05	0.989998386837
12513.0	8.06581706727e-05	0.990079045007
12555.0	8.06581706727e-05	0.990159703178
12602.0	8.06581706727e-05	0.990240361349
12660.0	8.06581706727e-05	0.990321019519
12684.0	8.06581706727e-05	0.99040167769
12749.0	8.06581706727e-05	0.990482335861
12783.0	8.06581706727e-05	0.990562994031
12841.0	8.06581706727e-05	0.990643652202
12867.0	8.06581706727e-05	0.990724310373
12968.0	8.06581706727e-05	0.990804968543
12987.0	8.06581706727e-05	0.990885626714
13021.0	8.06581706727e-05	0.990966284885
13059.0	8.06581706727e-05	0.991046943055
13074.0	8.06581706727e-05	0.991127601226
13173.0	8.06581706727e-05	0.991208259397
13215.0	8.06581706727e-05	0.991288917567
13271.0	8.06581706727e-05	0.991369575738
13335.0	8.06581706727e-05	0.991450233909
13356.0	8.06581706727e-05	0.991530892079
13363.0	8.06581706727e-05	0.99161155025
13435.0	8.06581706727e-05	0.991692208421
13457.0	8.06581706727e-05	0.991772866591
13460.0	8.06581706727e-05	0.991853524762
13557.0	8.06581706727e-05	0.991934182933
13578.0	8.06581706727e-05	0.992014841103
13581.0	8.06581706727e-05	0.992095499274
13588.0	8.06581706727e-05	0.992176157445
13782.0	8.06581706727e-05	0.992256815615
13797.0	8.06581706727e-05	0.992337473786
13851.0	8.06581706727e-05	0.992418131957
13857.0	8.06581706727e-05	0.992498790127
13943.0	8.06581706727e-05	0.992579448298
13977.0	8.06581706727e-05	0.992660106469
14035.0	8.06581706727e-05	0.992740764639
14098.0	8.06581706727e-05	0.99282142281
14126.0	8.06581706727e-05	0.992902080981
14202.0	8.06581706727e-05	0.992982739151
14311.0	0.000161316341345	0.993144055493
14320.0	8.06581706727e-05	0.993224713663
14330.0	8.06581706727e-05	0.993305371834
14362.0	8.06581706727e-05	0.993386030005
14420.0	8.06581706727e-05	0.993466688176
14464.0	8.06581706727e-05	0.993547346346
14476.0	8.06581706727e-05	0.993628004517
14522.0	8.06581706727e-05	0.993708662688
14670.0	8.06581706727e-05	0.993789320858
14690.0	8.06581706727e-05	0.993869979029
14799.0	8.06581706727e-05	0.9939506372
14804.0	8.06581706727e-05	0.99403129537
14874.0	8.06581706727e-05	0.994111953541
14879.0	0.000161316341345	0.994273269882
14928.0	8.06581706727e-05	0.994353928053
14943.0	8.06581706727e-05	0.994434586224
14988.0	0.000161316341345	0.994595902565
15037.0	8.06581706727e-05	0.994676560736
15041.0	8.06581706727e-05	0.994757218906
15058.0	8.06581706727e-05	0.994837877077
15164.0	8.06581706727e-05	0.994918535248
15250.0	8.06581706727e-05	0.994999193418
15278.0	8.06581706727e-05	0.995079851589
15456.0	8.06581706727e-05	0.99516050976
15488.0	8.06581706727e-05	0.99524116793
15494.0	8.06581706727e-05	0.995321826101
16073.0	8.06581706727e-05	0.995402484272
16168.0	8.06581706727e-05	0.995483142442
16173.0	8.06581706727e-05	0.995563800613
16204.0	8.06581706727e-05	0.995644458784
16252.0	8.06581706727e-05	0.995725116954
16309.0	8.06581706727e-05	0.995805775125
16385.0	8.06581706727e-05	0.995886433296
16402.0	8.06581706727e-05	0.995967091466
16481.0	8.06581706727e-05	0.996047749637
16550.0	8.06581706727e-05	0.996128407808
16701.0	8.06581706727e-05	0.996209065978
16726.0	8.06581706727e-05	0.996289724149
16781.0	8.06581706727e-05	0.99637038232
16965.0	8.06581706727e-05	0.99645104049
16973.0	8.06581706727e-05	0.996531698661
17320.0	8.06581706727e-05	0.996612356832
17392.0	8.06581706727e-05	0.996693015002
17440.0	8.06581706727e-05	0.996773673173
17464.0	8.06581706727e-05	0.996854331344
17548.0	8.06581706727e-05	0.996934989514
17584.0	8.06581706727e-05	0.997015647685
18176.0	8.06581706727e-05	0.997096305856
18200.0	8.06581706727e-05	0.997176964026
18473.0	8.06581706727e-05	0.997257622197
18601.0	8.06581706727e-05	0.997338280368
18655.0	8.06581706727e-05	0.997418938538
18677.0	8.06581706727e-05	0.997499596709
18766.0	8.06581706727e-05	0.99758025488
18802.0	8.06581706727e-05	0.99766091305
18932.0	8.06581706727e-05	0.997741571221
19238.0	8.06581706727e-05	0.997822229392
19249.0	8.06581706727e-05	0.997902887563
19353.0	8.06581706727e-05	0.997983545733
19430.0	8.06581706727e-05	0.998064203904
19503.0	8.06581706727e-05	0.998144862075
19663.0	8.06581706727e-05	0.998225520245
19918.0	8.06581706727e-05	0.998306178416
20126.0	8.06581706727e-05	0.998386836587
20501.0	8.06581706727e-05	0.998467494757
20653.0	8.06581706727e-05	0.998548152928
20675.0	8.06581706727e-05	0.998628811099
20846.0	8.06581706727e-05	0.998709469269
20997.0	8.06581706727e-05	0.99879012744
21596.0	8.06581706727e-05	0.998870785611
21642.0	8.06581706727e-05	0.998951443781
21647.0	8.06581706727e-05	0.999032101952
21768.0	8.06581706727e-05	0.999112760123
21914.0	8.06581706727e-05	0.999193418293
21956.0	8.06581706727e-05	0.999274076464
22384.0	8.06581706727e-05	0.999354734635
22479.0	8.06581706727e-05	0.999435392805
23903.0	8.06581706727e-05	0.999516050976
24410.0	8.06581706727e-05	0.999596709147
24809.0	8.06581706727e-05	0.999677367317
26637.0	8.06581706727e-05	0.999758025488
26748.0	8.06581706727e-05	0.999838683659
27414.0	8.06581706727e-05	0.999919341829
27920.0	8.06581706727e-05	1.0
28988.0	8.06581706727e-05	1.0
