#
# Generated On: 2012-02-05T19:05:23.659178
#           By: cwa.analyze.statistics
#      Version: 11.11.23
#       Author: Thomas A. de Ruiter <thomas@de-ruiter.cx>
#
#  Commandline: /home/af10028/bin/cwa analyze
#     Work Dir: /scratch/af10028/var/thesis-project/result/analyses/workload-06h-07416l-1s-fair
#

Time	Sum	Avg	StdDev	CoV	0.000000-Pct	0.010000-Pct	0.100000-Pct	1.000000-Pct	2.000000-Pct	5.000000-Pct	25.000000-Pct	50.000000-Pct	75.000000-Pct	95.000000-Pct	98.000000-Pct	99.000000-Pct	99.900000-Pct	99.990000-Pct	100.000000-Pct
1327086000	11471995.0	3217.95091164	3794.24381269	1.17908691489	2.0	2.0	3.0	3.0	3.0	3.0	461.0	2098.0	4542.0	10536.0	14928.0	18473.0	26748.0	28988.0	28988.0
