#
# Generated On: 2012-02-05T19:07:51.472633
#           By: cwa.analyze.statistics
#      Version: 11.11.23
#       Author: Thomas A. de Ruiter <thomas@de-ruiter.cx>
#
#  Commandline: /home/af10028/bin/cwa analyze
#     Work Dir: /scratch/af10028/var/thesis-project/result/analyses/workload-06h-07416l-1s-fair
#

Value	PDF	CDF
2.0	0.259538992904	0.259541714637
5.0	0.0784376165242	0.337979331161
8.0	0.0531472756816	0.391126606843
11.0	0.0411253820632	0.432251988906
14.0	0.0328322623315	0.465084251238
17.0	0.0280637865291	0.493148037767
20.0	0.0238913702019	0.517039407969
23.0	0.021561566956	0.538600974925
26.0	0.0189432600371	0.557544234962
29.0	0.0171414729473	0.574685707909
32.0	0.0147436263823	0.589429334291
35.0	0.0139461586825	0.603375492974
38.0	0.012694161611	0.616069654585
41.0	0.0120246153511	0.628094269936
44.0	0.0107780617452	0.638872331681
47.0	0.010250045589	0.64912237727
50.0	0.0094444126909	0.658566789961
53.0	0.00874764910333	0.667314439064
56.0	0.00824685027476	0.675561289339
59.0	0.00790935541203	0.683470644751
62.0	0.00727519167803	0.690745836429
65.0	0.00671451472866	0.697460351158
68.0	0.00660292368534	0.704063274843
71.0	0.00615383777928	0.710217112623
74.0	0.00578640385615	0.716003516479
77.0	0.00553872617463	0.721542242653
80.0	0.005269274631	0.726811517284
83.0	0.00510052719964	0.731912044484
86.0	0.00462966743147	0.736541711915
89.0	0.00459972837107	0.741141440287
92.0	0.00432211162915	0.745463551916
95.0	0.00427039870663	0.749733950622
98.0	0.00407715568039	0.753811106303
101.0	0.00387030399033	0.757681410293
104.0	0.00369339136068	0.761374801654
107.0	0.00376143467977	0.765136236333
110.0	0.00354641779142	0.768682654125
113.0	0.00334773129965	0.772030385425
116.0	0.00325247065292	0.775282856077
119.0	0.0032007577304	0.778483613808
122.0	0.00292586272124	0.781409476529
125.0	0.00299118430758	0.784400660837
128.0	0.00291769752295	0.78731835836
131.0	0.00274622835882	0.790064586718
134.0	0.00271084583289	0.792775432551
137.0	0.00259653305681	0.795371965608
140.0	0.00254482013429	0.797916785742
143.0	0.00235974230634	0.800276528049
146.0	0.00225903819408	0.802535566243
149.0	0.00232163804765	0.804857204291
152.0	0.00214472541799	0.807001929709
155.0	0.0021365602197	0.809138489928
158.0	0.00217466447839	0.811313154407
161.0	0.00197325625386	0.81328641066
164.0	0.00190793466753	0.815194345328
167.0	0.00185077827948	0.817045123607
170.0	0.0018344478829	0.81887957149
173.0	0.00197325625386	0.820852827744
176.0	0.00182628268461	0.822679110429
179.0	0.00162759619284	0.824306706622
182.0	0.00168203084812	0.82598873747
185.0	0.00152144861505	0.827510186085
188.0	0.00148334435635	0.828993530441
191.0	0.00163303965837	0.8306265701
194.0	0.0016684221843	0.832294992284
197.0	0.00152417034781	0.833819162632
200.0	0.00146701395977	0.835286176591
203.0	0.00139352717514	0.836679703767
206.0	0.00133092732157	0.838010631088
209.0	0.0013962489079	0.839406879996
212.0	0.00130370999393	0.84071058999
215.0	0.00120300588166	0.841913595872
218.0	0.00127377093353	0.843187366805
221.0	0.001268327468	0.844455694273
224.0	0.00125471880418	0.845710413077
227.0	0.00115401469191	0.846864427769
230.0	0.00111318870045	0.84797761647
233.0	0.00111863216598	0.849096248636
236.0	0.0010342584503	0.850130507086
239.0	0.00102609325201	0.851156600338
242.0	0.00108052790729	0.852237128245
245.0	0.00111591043322	0.853353038679
248.0	0.00108869310558	0.854441731784
251.0	0.000990710726077	0.85543244251
254.0	0.000895450079339	0.85632789259
257.0	0.000857345820643	0.85718523841
260.0	0.000996154191605	0.858181392602
263.0	0.00090361527763	0.859085007879
266.0	0.000925389139742	0.860010397019
269.0	0.000914502208686	0.860924899228
272.0	0.000808354630892	0.861733253859
275.0	0.000849180622351	0.862582434481
278.0	0.000979823795021	0.863562258276
281.0	0.000849180622351	0.864411438898
284.0	0.000868232751699	0.86527967165
287.0	0.000843737156824	0.866123408807
290.0	0.00073758957903	0.866860998386
293.0	0.000783859036017	0.867644857422
296.0	0.000860067553407	0.868504924975
299.0	0.000753919975613	0.869258844951
302.0	0.0008001894326	0.870059034384
305.0	0.000767528639433	0.870826563023
308.0	0.000821963294712	0.871648526318
311.0	0.000762085173905	0.872410611492
314.0	0.000740311311794	0.873150922803
317.0	0.000623276802944	0.873774199606
320.0	0.000764806906669	0.874539006513
323.0	0.000778415570489	0.875317422084
326.0	0.000631442001236	0.875948864085
329.0	0.000851902355115	0.87680076644
332.0	0.000636885466764	0.877437651907
335.0	0.000772972104961	0.878210624012
338.0	0.000574285613193	0.878784909625
341.0	0.000699485320334	0.879484394945
344.0	0.000729424380738	0.880213819326
347.0	0.00072398091521	0.880937800241
350.0	0.000642328932291	0.881580129173
353.0	0.000645050665055	0.882225179838
356.0	0.00062055507018	0.882845734909
359.0	0.000601502940832	0.88344723785
362.0	0.000639607199528	0.884086845049
365.0	0.000476303233691	0.884563148283
368.0	0.000560676949373	0.885123825232
371.0	0.000544346552789	0.885668171785
374.0	0.000560676949373	0.886228848734
377.0	0.000604224673596	0.886833073408
380.0	0.000511685759622	0.887344759167
383.0	0.000473581500927	0.887818340668
386.0	0.000541624820025	0.888359965488
389.0	0.000511685759622	0.888871651248
392.0	0.000449085906051	0.889320737154
395.0	0.000484468431983	0.889805205586
398.0	0.000481746699219	0.890286952285
401.0	0.00048991189751	0.890776864183
404.0	0.000470859768163	0.891247723951
407.0	0.000506242294094	0.891753966245
410.0	0.000457251104343	0.892211217349
413.0	0.000375599121425	0.892586816471
416.0	0.000511685759622	0.89309850223
419.0	0.000525294423442	0.893623796654
422.0	0.000498077095802	0.89412187375
425.0	0.000525294423442	0.894647168173
428.0	0.000528016156206	0.895175184329
431.0	0.000372877388661	0.895548061718
434.0	0.000492633630274	0.896040695348
437.0	0.000568842147665	0.896609537496
440.0	0.000416425112884	0.897025962609
443.0	0.000361990457605	0.897387953066
446.0	0.000430033776704	0.897817986843
449.0	0.000443642440523	0.898261629284
452.0	0.000459972837107	0.898721602121
455.0	0.000443642440523	0.899165244561
458.0	0.000421868578412	0.89958711314
461.0	0.000533459621734	0.900120572761
464.0	0.000451807638815	0.9005723804
467.0	0.000549790018317	0.901122170419
470.0	0.000449085906051	0.901571256325
473.0	0.000438198974995	0.9020094553
476.0	0.000473581500927	0.902483036801
479.0	0.000473581500927	0.902956618301
482.0	0.000484468431983	0.903441086733
485.0	0.000492633630274	0.903933720364
488.0	0.000468138035399	0.904401858399
491.0	0.00041370338012	0.904815561779
494.0	0.000473581500927	0.90528914328
497.0	0.000528016156206	0.905817159436
500.0	0.000438198974995	0.906255358411
503.0	0.000391929518008	0.906647287929
506.0	0.000370155655897	0.907017443585
509.0	0.000465416302635	0.907482859888
512.0	0.000424590311176	0.907907450199
515.0	0.00053073788897	0.908438188088
518.0	0.000459972837107	0.908898160925
521.0	0.000577007345957	0.909475168271
524.0	0.000560676949373	0.910035845221
527.0	0.000394651250772	0.910430496471
530.0	0.000525294423442	0.910955790895
533.0	0.000367433923133	0.911323224818
536.0	0.000484468431983	0.91180769325
539.0	0.000590616009776	0.91239830926
542.0	0.000391929518008	0.912790238778
545.0	0.000481746699219	0.913271985477
548.0	0.000451807638815	0.913723793116
551.0	0.000457251104343	0.91418104422
554.0	0.000378320854189	0.914559365074
557.0	0.00042731204394	0.914986677118
560.0	0.000383764319717	0.915370441438
563.0	0.000451807638815	0.915822249077
566.0	0.000596059475304	0.916418308552
569.0	0.000345660061021	0.916763968613
572.0	0.000435477242231	0.917199445855
575.0	0.000361990457605	0.917561436313
578.0	0.000340216595493	0.917901652908
581.0	0.000402816449064	0.918304469357
584.0	0.000424590311176	0.918729059669
587.0	0.000378320854189	0.919107380523
590.0	0.000315721000618	0.919423101523
593.0	0.000264008078103	0.919687109601
596.0	0.000533459621734	0.920220569223
599.0	0.000337494862729	0.920558064086
602.0	0.000318442733382	0.920876506819
605.0	0.000481746699219	0.921358253519
608.0	0.000367433923133	0.921725687442
611.0	0.000315721000618	0.922041408442
614.0	0.000389207785244	0.922430616228
617.0	0.000264008078103	0.922694624306
620.0	0.000304834069562	0.922999458375
623.0	0.00032388619891	0.923323344574
626.0	0.000307555802326	0.923630900376
629.0	0.000465416302635	0.924096316679
632.0	0.000508964026858	0.924605280706
635.0	0.000419146845648	0.925024427552
638.0	0.000264008078103	0.92528843563
641.0	0.000168747431365	0.925457183061
644.0	0.000408259914592	0.925865442976
647.0	0.000391929518008	0.926257372494
650.0	0.000277616741923	0.926534989236
653.0	0.000291225405742	0.926826214641
656.0	0.000408259914592	0.927234474556
659.0	0.000342938328257	0.927577412884
662.0	0.00028306020745	0.927860473092
665.0	0.000410981647356	0.928271454739
668.0	0.000405538181828	0.928676992921
671.0	0.000302112336798	0.928979105258
674.0	0.00041370338012	0.929392808638
677.0	0.000239512483227	0.929632321121
680.0	0.000291225405742	0.929923546527
683.0	0.000223182086644	0.930146728613
686.0	0.000408259914592	0.930554988528
689.0	0.000315721000618	0.930870709529
692.0	0.000370155655897	0.931240865184
695.0	0.000498077095802	0.93173894228
698.0	0.000416425112884	0.932155367393
701.0	0.000342938328257	0.932498305721
704.0	0.0004000947163	0.932898400438
707.0	0.000250399414283	0.933148799852
710.0	0.000408259914592	0.933557059767
713.0	0.000253121147047	0.933810180914
716.0	0.000299390604034	0.934109571518
719.0	0.000359268724841	0.934468840242
722.0	0.000326607931674	0.934795448174
725.0	0.000304834069562	0.935100282244
728.0	0.000269451543631	0.935369733787
731.0	0.000367433923133	0.93573716771
734.0	0.000353825259313	0.93609099297
737.0	0.000318442733382	0.936409435703
740.0	0.000269451543631	0.936678887247
743.0	0.000370155655897	0.937049042903
746.0	0.000201408224532	0.937250451127
749.0	0.000201408224532	0.937451859352
752.0	0.000217738621116	0.937669597973
755.0	0.000225903819408	0.937895501792
758.0	0.000304834069562	0.938200335862
761.0	0.000215016888352	0.93841535275
764.0	0.000332051397202	0.938747404147
767.0	0.0004000947163	0.939147498864
770.0	0.000234069017699	0.939381567881
773.0	0.000312999267854	0.939694567149
776.0	0.000225903819408	0.939920470969
779.0	0.000204129957296	0.940124600926
782.0	0.000340216595493	0.940464817521
785.0	0.000348381793785	0.940813199315
788.0	0.000299390604034	0.941112589919
791.0	0.000337494862729	0.941450084782
794.0	0.000274895009159	0.941724979791
797.0	0.00017963436242	0.941904614154
800.0	0.000190521293476	0.942095135447
803.0	0.000168747431365	0.942263882878
806.0	0.000250399414283	0.942514282293
809.0	0.000176912629657	0.942691194922
812.0	0.000127921439906	0.942819116362
815.0	0.000212295155588	0.943031411518
818.0	0.000264008078103	0.943295419596
821.0	0.000212295155588	0.943507714752
824.0	0.000332051397202	0.943839766149
827.0	0.000269451543631	0.944109217692
830.0	0.00041370338012	0.944522921072
833.0	0.000272173276395	0.944795094349
836.0	0.000361990457605	0.945157084806
839.0	0.00022046035388	0.94537754516
842.0	0.000381042586953	0.945758587747
845.0	0.000359268724841	0.946117856472
848.0	0.000155138767545	0.94627299524
851.0	0.000195964759004	0.946468959999
854.0	0.000364712190369	0.946833672189
857.0	0.000440920707759	0.947274592897
860.0	0.000280338474687	0.947554931372
863.0	0.00019324302624	0.947748174398
866.0	0.000166025698601	0.947914200096
869.0	0.000419146845648	0.948333346942
872.0	0.000432755509468	0.948766102451
875.0	0.000253121147047	0.949019223599
878.0	0.000285781940214	0.949305005539
881.0	0.000274895009159	0.949579900548
884.0	0.000329329664438	0.949909230212
887.0	0.000253121147047	0.950162351359
890.0	0.00042731204394	0.950589663403
893.0	0.000176912629657	0.950766576033
896.0	0.00032388619891	0.951090462232
899.0	0.00020685169006	0.951297313922
902.0	0.00022046035388	0.951517774276
905.0	0.00019324302624	0.951711017302
908.0	0.000315721000618	0.952026738303
911.0	0.000157860500309	0.952184598803
914.0	0.000217738621116	0.952402337424
917.0	0.000291225405742	0.95269356283
920.0	0.000258564612575	0.952952127442
923.0	0.000174190896893	0.953126318339
926.0	0.000130643172669	0.953256961512
929.0	0.000264008078103	0.95352096959
932.0	0.000215016888352	0.953735986478
935.0	0.000261286345339	0.953997272824
938.0	0.000359268724841	0.954356541549
941.0	0.000337494862729	0.954694036411
944.0	0.000127921439906	0.954821957851
947.0	0.000108869310558	0.954930827162
950.0	0.000187799560712	0.955118626723
953.0	0.000356546992077	0.955475173715
956.0	0.000174190896893	0.955649364611
959.0	0.000141530103725	0.955790894715
962.0	0.000280338474687	0.95607123319
965.0	0.00017963436242	0.956250867552
968.0	0.00038648605248	0.956637353605
971.0	0.00032388619891	0.956961239804
974.0	0.000155138767545	0.957116378571
977.0	0.000174190896893	0.957290569468
980.0	0.000182356095184	0.957472925563
983.0	0.000269451543631	0.957742377107
986.0	0.000163303965837	0.957905681073
989.0	0.000163303965837	0.958068985039
992.0	0.000149695302017	0.958218680341
995.0	0.000187799560712	0.958406479901
998.0	0.000160582233073	0.958567062134
1001.0	0.000370155655897	0.95893721779
1004.0	0.000168747431365	0.959105965222
1007.0	0.000119756241614	0.959225721463
1010.0	0.00017963436242	0.959405355826
1013.0	0.000247677681519	0.959653033507
1016.0	0.000255842879811	0.959908876387
1019.0	0.000176912629657	0.960085789017
1022.0	0.000136086638197	0.960221875655
1025.0	0.000239512483227	0.960461388138
1028.0	0.000231347284935	0.960692735423
1031.0	9.25389139742e-05	0.960785274337
1034.0	0.000239512483227	0.96102478682
1037.0	0.000155138767545	0.961179925588
1040.0	0.000160582233073	0.961340507821
1043.0	0.000231347284935	0.961571855106
1046.0	8.98171812102e-05	0.961661672287
1049.0	0.000168747431365	0.961830419718
1052.0	0.000264008078103	0.962094427797
1055.0	0.000176912629657	0.962271340426
1058.0	0.000106147577794	0.962377488004
1061.0	0.00017963436242	0.962557122366
1064.0	9.52606467381e-05	0.962652383013
1067.0	0.000201408224532	0.962853791238
1070.0	0.000209573422824	0.96306336466
1073.0	0.000144251836489	0.963207616497
1076.0	0.000138808370961	0.963346424868
1079.0	0.000247677681519	0.963594102549
1082.0	0.0004000947163	0.963994197266
1085.0	0.000190521293476	0.964184718559
1088.0	0.000176912629657	0.964361631189
1091.0	0.000166025698601	0.964527656887
1094.0	0.00022046035388	0.964748117241
1097.0	0.000182356095184	0.964930473337
1100.0	0.000125199707142	0.965055673044
1103.0	0.000146973569253	0.965202646613
1106.0	0.000204129957296	0.96540677657
1109.0	0.000190521293476	0.965597297864
1112.0	0.000277616741923	0.965874914606
1115.0	0.000212295155588	0.966087209761
1118.0	0.00020685169006	0.966294061451
1121.0	0.000304834069562	0.966598895521
1124.0	0.00017963436242	0.966778529883
1127.0	0.000166025698601	0.966944555582
1130.0	0.000114312776086	0.967058868358
1133.0	0.000174190896893	0.967233059255
1136.0	0.000239512483227	0.967472571738
1139.0	0.00019324302624	0.967665814764
1142.0	0.000217738621116	0.967883553385
1145.0	0.000171469164129	0.96805502255
1148.0	0.000127921439906	0.968182943989
1151.0	0.00017963436242	0.968362578352
1154.0	0.000130643172669	0.968493221525
1157.0	0.000683154923751	0.969176376448
1160.0	0.000187799560712	0.969364176009
1163.0	0.000201408224532	0.969565584234
1166.0	5.44346552789e-05	0.969620018889
1169.0	0.00017963436242	0.969799653251
1172.0	0.00028306020745	0.970082713459
1175.0	0.000228625552172	0.970311339011
1178.0	0.000394651250772	0.970705990262
1181.0	0.000234069017699	0.970940059279
1184.0	0.000244955948755	0.971185015228
1187.0	0.000291225405742	0.971476240634
1190.0	0.000250399414283	0.971726640048
1193.0	0.000195964759004	0.971922604807
1196.0	0.000138808370961	0.972061413178
1199.0	0.000198686491768	0.97226009967
1202.0	0.000166025698601	0.972426125368
1205.0	0.000182356095184	0.972608481464
1208.0	0.000157860500309	0.972766341964
1211.0	0.000255842879811	0.973022184844
1214.0	0.000182356095184	0.973204540939
1217.0	0.000293947138506	0.973498488077
1220.0	0.000255842879811	0.973754330957
1223.0	0.000174190896893	0.973928521854
1226.0	0.000136086638197	0.974064608492
1229.0	0.000138808370961	0.974203416863
1232.0	0.000149695302017	0.974353112165
1235.0	0.000223182086644	0.974576294252
1238.0	0.000152417034781	0.974728711287
1241.0	0.000590616009776	0.975319327297
1244.0	0.000138808370961	0.975458135667
1247.0	9.79823795021e-05	0.975556118047
1250.0	0.000160582233073	0.97571670028
1253.0	0.000149695302017	0.975866395582
1256.0	7.89302501545e-05	0.975945325832
1259.0	0.000149695302017	0.976095021134
1262.0	0.000141530103725	0.976236551238
1265.0	0.000152417034781	0.976388968273
1268.0	0.000122477974378	0.976511446247
1271.0	0.000277616741923	0.976789062989
1274.0	5.98781208068e-05	0.97684894111
1277.0	0.000247677681519	0.977096618791
1280.0	0.000176912629657	0.977273531421
1283.0	0.000155138767545	0.977428670189
1286.0	0.000141530103725	0.977570200292
1289.0	0.000185077827948	0.97775527812
1292.0	0.000111591043322	0.977866869164
1295.0	0.000133364905433	0.978000234069
1298.0	0.000176912629657	0.978177146699
1301.0	0.000163303965837	0.978340450665
1304.0	0.000410981647356	0.978751432312
1307.0	0.000149695302017	0.978901127614
1310.0	0.000155138767545	0.979056266381
1313.0	0.00017963436242	0.979235900744
1316.0	0.000160582233073	0.979396482977
1319.0	0.000133364905433	0.979529847882
1322.0	0.000146973569253	0.979676821452
1325.0	0.00011703450885	0.97979385596
1328.0	0.00017963436242	0.979973490323
1331.0	0.000239512483227	0.980213002806
1334.0	0.000146973569253	0.980359976375
1337.0	7.07650518626e-05	0.980430741427
1340.0	1.36086638197e-05	0.980444350091
1343.0	4.8991189751e-05	0.980493341281
1346.0	7.89302501545e-05	0.980572271531
1349.0	6.80433190987e-05	0.98064031485
1352.0	0.00010342584503	0.980743740695
1355.0	6.53215863347e-05	0.980809062281
1358.0	6.25998535708e-05	0.980871662135
1361.0	0.000217738621116	0.981089400756
1364.0	6.25998535708e-05	0.98115200061
1367.0	2.17738621116e-05	0.981173774472
1370.0	4.8991189751e-05	0.981222765662
1373.0	7.62085173905e-05	0.981298974179
1376.0	6.53215863347e-05	0.981364295765
1379.0	4.62694569871e-05	0.981410565222
1382.0	9.79823795021e-05	0.981508547602
1385.0	5.71563880429e-05	0.98156570399
1388.0	0.000160582233073	0.981726286223
1391.0	8.70954484463e-05	0.981813381671
1394.0	4.8991189751e-05	0.981862372861
1397.0	7.07650518626e-05	0.981933137913
1400.0	2.44955948755e-05	0.981957633508
1403.0	5.44346552789e-05	0.982012068163
1406.0	5.98781208068e-05	0.982071946284
1409.0	0.000108869310558	0.982180815594
1412.0	8.43737156824e-05	0.98226518931
1415.0	0.000217738621116	0.982482927931
1418.0	8.98171812102e-05	0.982572745112
1421.0	0.000280338474687	0.982853083587
1424.0	9.25389139742e-05	0.982945622501
1427.0	0.000168747431365	0.983114369932
1430.0	0.000247677681519	0.983362047614
1433.0	0.000100704112266	0.983462751726
1436.0	0.000136086638197	0.983598838364
1439.0	0.000244955948755	0.983843794313
1442.0	7.34867846266e-05	0.983917281098
1445.0	0.000127921439906	0.984045202538
1448.0	0.000215016888352	0.984260219426
1451.0	9.52606467381e-05	0.984355480073
1454.0	0.000100704112266	0.984456184185
1457.0	0.000157860500309	0.984614044685
1460.0	5.1712922515e-05	0.984665757608
1463.0	0.000100704112266	0.98476646172
1466.0	0.000144251836489	0.984910713557
1469.0	9.52606467381e-05	0.985005974203
1472.0	0.00022046035388	0.985226434557
1475.0	0.000106147577794	0.985332582135
1478.0	3.53825259313e-05	0.985367964661
1481.0	6.53215863347e-05	0.985433286247
1484.0	3.26607931674e-05	0.985465947041
1487.0	0.00010342584503	0.985569372886
1490.0	0.000130643172669	0.985700016058
1493.0	0.000114312776086	0.985814328834
1496.0	8.43737156824e-05	0.98589870255
1499.0	0.000146973569253	0.986045676119
1502.0	4.8991189751e-05	0.986094667309
1505.0	5.98781208068e-05	0.98615454543
1508.0	6.53215863347e-05	0.986219867016
1511.0	3.53825259313e-05	0.986255249542
1514.0	0.000108869310558	0.986364118853
1517.0	7.62085173905e-05	0.98644032737
1520.0	2.44955948755e-05	0.986464822965
1523.0	9.25389139742e-05	0.986557361879
1526.0	2.44955948755e-05	0.986581857474
1529.0	2.44955948755e-05	0.986606353069
1532.0	7.34867846266e-05	0.986679839853
1535.0	7.07650518626e-05	0.986750604905
1538.0	9.25389139742e-05	0.986843143819
1541.0	8.70954484463e-05	0.986930239268
1544.0	0.000114312776086	0.987044552044
1547.0	7.89302501545e-05	0.987123482294
1550.0	6.25998535708e-05	0.987186082147
1553.0	0.000141530103725	0.987327612251
1556.0	0.000119756241614	0.987447368493
1559.0	5.1712922515e-05	0.987499081415
1562.0	4.8991189751e-05	0.987548072605
1565.0	7.34867846266e-05	0.98762155939
1568.0	5.44346552789e-06	0.987627002855
1571.0	4.08259914592e-05	0.987667828847
1574.0	3.26607931674e-05	0.98770048964
1577.0	9.79823795021e-05	0.987798472019
1580.0	0.000108869310558	0.98790734133
1583.0	0.000106147577794	0.988013488908
1586.0	0.000127921439906	0.988141410347
1589.0	3.26607931674e-05	0.988174071141
1592.0	6.80433190987e-05	0.98824211446
1595.0	9.25389139742e-05	0.988334653374
1598.0	7.07650518626e-05	0.988405418426
1601.0	7.62085173905e-05	0.988481626943
1604.0	1.63303965837e-05	0.98849795734
1607.0	8.16519829184e-05	0.988579609322
1610.0	1.36086638197e-05	0.988593217986
1613.0	2.17738621116e-05	0.988614991848
1616.0	2.17738621116e-05	0.988636765711
1619.0	3.81042586953e-05	0.988674869969
1622.0	2.99390604034e-05	0.98870480903
1625.0	1.36086638197e-05	0.988718417693
1628.0	3.81042586953e-05	0.988756521952
1631.0	4.35477242231e-05	0.988800069676
1634.0	2.99390604034e-05	0.988830008737
1637.0	6.53215863347e-05	0.988895330323
1640.0	0.000114312776086	0.989009643099
1643.0	7.07650518626e-05	0.989080408151
1646.0	4.35477242231e-05	0.989123955875
1649.0	3.81042586953e-05	0.989162060134
1652.0	6.53215863347e-05	0.98922738172
1655.0	2.72173276395e-05	0.989254599048
1658.0	3.53825259313e-05	0.989289981574
1661.0	2.72173276395e-05	0.989317198902
1664.0	2.17738621116e-05	0.989338972764
1667.0	3.26607931674e-05	0.989371633557
1670.0	8.16519829184e-05	0.98945328554
1673.0	3.26607931674e-05	0.989485946333
1676.0	6.80433190987e-05	0.989553989652
1679.0	0.000119756241614	0.989673745894
1682.0	8.43737156824e-05	0.989758119609
1685.0	6.53215863347e-05	0.989823441196
1688.0	5.44346552789e-06	0.989828884661
1691.0	1.36086638197e-05	0.989842493325
1694.0	2.17738621116e-05	0.989864267187
1697.0	4.08259914592e-05	0.989905093179
1700.0	2.72173276395e-05	0.989932310506
1703.0	4.62694569871e-05	0.989978579963
1706.0	2.44955948755e-05	0.990003075558
1709.0	2.99390604034e-05	0.990033014618
1712.0	2.72173276395e-05	0.990060231946
1715.0	8.43737156824e-05	0.990144605662
1718.0	1.36086638197e-05	0.990158214326
1721.0	1.36086638197e-05	0.990171822989
1724.0	5.44346552789e-05	0.990226257645
1727.0	4.8991189751e-05	0.990275248834
1730.0	3.26607931674e-05	0.990307909628
1733.0	2.17738621116e-05	0.99032968349
1736.0	6.25998535708e-05	0.990392283343
1739.0	0.000111591043322	0.990503874387
1742.0	3.81042586953e-05	0.990541978645
1745.0	8.16519829184e-06	0.990550143844
1748.0	2.44955948755e-05	0.990574639438
1751.0	3.53825259313e-05	0.990610021964
1754.0	2.17738621116e-05	0.990631795826
1757.0	4.62694569871e-05	0.990678065283
1760.0	4.8991189751e-05	0.990727056473
1763.0	4.08259914592e-05	0.990767882465
1766.0	2.17738621116e-05	0.990789656327
1769.0	4.62694569871e-05	0.990835925784
1772.0	3.53825259313e-05	0.99087130831
1775.0	6.53215863347e-05	0.990936629896
1778.0	0.000157860500309	0.991094490396
1781.0	9.79823795021e-05	0.991192472776
1784.0	7.89302501545e-05	0.991271403026
1787.0	1.63303965837e-05	0.991287733423
1790.0	2.99390604034e-05	0.991317672483
1793.0	8.16519829184e-06	0.991325837681
1796.0	1.63303965837e-05	0.991342168078
1799.0	5.44346552789e-05	0.991396602733
1802.0	4.62694569871e-05	0.99144287219
1804.0	8.70954484463e-05	0.991529967639
1808.0	4.8991189751e-05	0.991578958828
1811.0	1.36086638197e-05	0.991592567492
1814.0	5.71563880429e-05	0.99164972388
1817.0	0.000152417034781	0.991802140915
1820.0	5.44346552789e-05	0.99185657557
1823.0	3.26607931674e-05	0.991889236363
1826.0	5.44346552789e-05	0.991943671019
1829.0	3.81042586953e-05	0.991981775277
1832.0	1.36086638197e-05	0.991995383941
1835.0	1.63303965837e-05	0.992011714338
1841.0	5.44346552789e-06	0.992017157803
1844.0	8.16519829184e-06	0.992025323002
1847.0	1.08869310558e-05	0.992036209933
1853.0	2.72173276395e-06	0.992038931665
1856.0	8.16519829184e-06	0.992047096864
1859.0	2.44955948755e-05	0.992071592459
1862.0	5.1712922515e-05	0.992123305381
1865.0	2.72173276395e-05	0.992150522709
1868.0	5.1712922515e-05	0.992202235631
1871.0	9.25389139742e-05	0.992294774545
1874.0	2.72173276395e-05	0.992321991873
1876.0	0.000266729810867	0.992588721684
1879.0	7.34867846266e-05	0.992662208468
1883.0	6.53215863347e-05	0.992727530055
1885.0	0.000100704112266	0.992828234167
1888.0	0.000155138767545	0.992983372935
1892.0	0.000166025698601	0.993149398633
1895.0	7.07650518626e-05	0.993220163685
1898.0	5.98781208068e-05	0.993280041806
1901.0	5.71563880429e-05	0.993337198194
1904.0	1.90521293476e-05	0.993356250323
1906.0	5.98781208068e-05	0.993416128444
1909.0	6.53215863347e-05	0.99348145003
1913.0	4.35477242231e-05	0.993524997755
1916.0	8.70954484463e-05	0.993612093203
1919.0	1.63303965837e-05	0.9936284236
1922.0	0.000212295155588	0.993840718755
1925.0	1.63303965837e-05	0.993857049152
1928.0	4.8991189751e-05	0.993906040342
1931.0	2.99390604034e-05	0.993935979402
1934.0	1.08869310558e-05	0.993946866333
1937.0	4.08259914592e-05	0.993987692324
1939.0	5.44346552789e-05	0.99404212698
1943.0	7.34867846266e-05	0.994115613764
1945.0	4.8991189751e-05	0.994164604954
1949.0	5.1712922515e-05	0.994216317877
1952.0	0.00010342584503	0.994319743722
1955.0	1.08869310558e-05	0.994330630653
1958.0	0.000136086638197	0.994466717291
1960.0	0.000201408224532	0.994668125515
1963.0	0.000136086638197	0.994804212154
1967.0	1.36086638197e-05	0.994817820817
1970.0	8.16519829184e-06	0.994825986016
1973.0	0.00017963436242	0.995005620378
1975.0	8.43737156824e-05	0.995089994094
1978.0	7.07650518626e-05	0.995160759146
1982.0	3.26607931674e-05	0.995193419939
1985.0	3.53825259313e-05	0.995228802465
1987.0	1.36086638197e-05	0.995242411129
1990.0	0.000100704112266	0.995343115241
1994.0	5.44346552789e-05	0.995397549896
1997.0	3.53825259313e-05	0.995432932422
2000.0	9.25389139742e-05	0.995525471336
2002.0	5.71563880429e-05	0.995582627724
2006.0	1.08869310558e-05	0.995593514655
2009.0	4.62694569871e-05	0.995639784112
2012.0	2.44955948755e-05	0.995664279707
2015.0	2.72173276395e-06	0.99566700144
2018.0	2.72173276395e-06	0.995669723173
2021.0	3.53825259313e-05	0.995705105698
2024.0	0.000114312776086	0.995819418475
2026.0	0.000106147577794	0.995925566052
2030.0	3.81042586953e-05	0.995963670311
2032.0	2.17738621116e-05	0.995985444173
2035.0	2.17738621116e-05	0.996007218035
2039.0	8.70954484463e-05	0.996094313484
2042.0	4.8991189751e-05	0.996143304673
2044.0	3.81042586953e-05	0.996181408932
2048.0	3.81042586953e-05	0.996219513191
2051.0	8.16519829184e-06	0.996227678389
2054.0	5.98781208068e-05	0.99628755651
2057.0	2.99390604034e-05	0.99631749557
2060.0	2.17738621116e-05	0.996339269432
2063.0	3.81042586953e-05	0.996377373691
2065.0	5.1712922515e-05	0.996429086614
2069.0	1.63303965837e-05	0.99644541701
2072.0	2.99390604034e-05	0.996475356071
2075.0	4.08259914592e-05	0.996516182062
2077.0	2.44955948755e-05	0.996540677657
2081.0	4.62694569871e-05	0.996586947114
2084.0	1.90521293476e-05	0.996605999243
2087.0	7.34867846266e-05	0.996679486028
2090.0	5.44346552789e-06	0.996684929494
2096.0	1.36086638197e-05	0.996698538157
2098.0	0.000100704112266	0.99679924227
2101.0	5.44346552789e-05	0.996853676925
2105.0	2.44955948755e-05	0.99687817252
2107.0	5.44346552789e-05	0.996932607175
2111.0	4.62694569871e-05	0.996978876632
2114.0	5.44346552789e-06	0.996984320098
2117.0	5.44346552789e-06	0.996989763563
2119.0	5.44346552789e-06	0.996995207029
2123.0	3.81042586953e-05	0.997033311287
2126.0	1.90521293476e-05	0.997052363417
2129.0	5.44346552789e-06	0.997057806882
2132.0	1.90521293476e-05	0.997076859012
2135.0	8.43737156824e-05	0.997161232727
2138.0	3.53825259313e-05	0.997196615253
2141.0	1.08869310558e-05	0.997207502184
2144.0	1.63303965837e-05	0.997223832581
2146.0	7.07650518626e-05	0.997294597633
2149.0	5.44346552789e-06	0.997300041098
2152.0	2.99390604034e-05	0.997329980159
2155.0	1.36086638197e-05	0.997343588822
2159.0	1.08869310558e-05	0.997354475753
2162.0	5.44346552789e-06	0.997359919219
2165.0	2.72173276395e-06	0.997362640952
2168.0	2.72173276395e-06	0.997365362684
2171.0	2.72173276395e-06	0.997368084417
2173.0	4.08259914592e-05	0.997408910409
2180.0	1.08869310558e-05	0.99741979734
2183.0	2.72173276395e-06	0.997422519073
2186.0	1.63303965837e-05	0.997438849469
2188.0	3.26607931674e-05	0.997471510262
2192.0	3.53825259313e-05	0.997506892788
2195.0	6.80433190987e-05	0.997574936107
2197.0	2.72173276395e-05	0.997602153435
2201.0	2.44955948755e-05	0.99762664903
2203.0	3.81042586953e-05	0.997664753289
2206.0	7.07650518626e-05	0.99773551834
2210.0	4.08259914592e-05	0.997776344332
2213.0	5.44346552789e-06	0.997781787797
2216.0	8.16519829184e-06	0.997789952996
2219.0	1.63303965837e-05	0.997806283392
2221.0	1.63303965837e-05	0.997822613789
2228.0	2.72173276395e-05	0.997849831116
2231.0	3.26607931674e-05	0.99788249191
2233.0	5.44346552789e-05	0.997936926565
2237.0	5.44346552789e-06	0.99794237003
2240.0	5.44346552789e-06	0.997947813496
2243.0	2.99390604034e-05	0.997977752556
2245.0	4.8991189751e-05	0.998026743746
2258.0	2.72173276395e-06	0.998029465479
2261.0	2.72173276395e-06	0.998032187212
2264.0	8.16519829184e-06	0.99804035241
2267.0	2.72173276395e-06	0.998043074143
2273.0	1.63303965837e-05	0.998059404539
2275.0	1.63303965837e-05	0.998075734936
2279.0	2.72173276395e-06	0.998078456669
2282.0	5.44346552789e-06	0.998083900134
2285.0	2.72173276395e-06	0.998086621867
2291.0	5.44346552789e-06	0.998092065332
2294.0	2.72173276395e-06	0.998094787065
2297.0	2.72173276395e-06	0.998097508798
2303.0	2.72173276395e-06	0.998100230531
2306.0	2.72173276395e-06	0.998102952264
2308.0	4.8991189751e-05	0.998151943453
2312.0	1.08869310558e-05	0.998162830384
2315.0	8.16519829184e-06	0.998170995583
2317.0	8.16519829184e-06	0.998179160781
2320.0	8.16519829184e-06	0.998187325979
2324.0	1.90521293476e-05	0.998206378109
2327.0	5.44346552789e-06	0.998211821574
2330.0	8.16519829184e-06	0.998219986772
2332.0	1.36086638197e-05	0.998233595436
2336.0	3.81042586953e-05	0.998271699695
2339.0	2.72173276395e-06	0.998274421428
2341.0	1.08869310558e-05	0.998285308359
2345.0	5.44346552789e-06	0.998290751824
2347.0	2.17738621116e-05	0.998312525686
2350.0	1.90521293476e-05	0.998331577816
2354.0	5.44346552789e-06	0.998337021281
2357.0	8.16519829184e-06	0.99834518648
2363.0	8.16519829184e-06	0.998353351678
2366.0	1.08869310558e-05	0.998364238609
2368.0	5.44346552789e-06	0.998369682074
2375.0	8.16519829184e-06	0.998377847273
2384.0	2.72173276395e-06	0.998380569005
2393.0	2.17738621116e-05	0.998402342868
2395.0	1.36086638197e-05	0.998415951531
2398.0	2.72173276395e-06	0.998418673264
2462.0	2.72173276395e-06	0.998421394997
2465.0	2.72173276395e-05	0.998448612325
2468.0	2.17738621116e-05	0.998470386187
2488.0	2.44955948755e-05	0.998494881782
2492.0	8.16519829184e-06	0.99850304698
2513.0	2.72173276395e-06	0.998505768713
2522.0	8.16519829184e-06	0.998513933911
2524.0	8.16519829184e-06	0.998522099109
2536.0	1.63303965837e-05	0.998538429506
2539.0	1.08869310558e-05	0.998549316437
2542.0	4.62694569871e-05	0.998595585894
2546.0	8.16519829184e-06	0.998603751092
2549.0	8.16519829184e-06	0.99861191629
2563.0	1.36086638197e-05	0.998625524954
2570.0	5.44346552789e-06	0.99863096842
2572.0	1.36086638197e-05	0.998644577084
2575.0	2.44955948755e-05	0.998669072678
2578.0	2.72173276395e-05	0.998696290006
2581.0	5.44346552789e-06	0.998701733472
2587.0	9.25389139742e-05	0.998794272386
2590.0	1.08869310558e-05	0.998805159317
2603.0	2.72173276395e-06	0.998807881049
2609.0	2.72173276395e-06	0.998810602782
2615.0	2.72173276395e-06	0.998813324515
2617.0	1.90521293476e-05	0.998832376644
2621.0	1.08869310558e-05	0.998843263575
2624.0	5.44346552789e-06	0.998848707041
2626.0	8.16519829184e-06	0.998856872239
2630.0	2.72173276395e-06	0.998859593972
2632.0	1.36086638197e-05	0.998873202636
2636.0	5.44346552789e-06	0.998878646101
2639.0	2.72173276395e-06	0.998881367834
2641.0	5.44346552789e-06	0.9988868113
2644.0	2.72173276395e-06	0.998889533032
2651.0	2.72173276395e-06	0.998892254765
2662.0	2.72173276395e-05	0.998919472093
2666.0	5.44346552789e-06	0.998924915558
2744.0	2.72173276395e-06	0.998927637291
2747.0	2.72173276395e-06	0.998930359024
2749.0	2.72173276395e-06	0.998933080757
2761.0	2.17738621116e-05	0.998954854619
2908.0	2.72173276395e-06	0.998957576351
2912.0	2.72173276395e-06	0.998960298084
2917.0	1.08869310558e-05	0.998971185015
2920.0	8.16519829184e-06	0.998979350214
2926.0	2.72173276395e-05	0.999006567541
2947.0	1.36086638197e-05	0.999020176205
2950.0	2.99390604034e-05	0.999050115265
2957.0	5.44346552789e-06	0.999055558731
2989.0	1.63303965837e-05	0.999071889127
3004.0	2.72173276395e-05	0.999099106455
3007.0	4.35477242231e-05	0.999142654179
3010.0	2.72173276395e-06	0.999145375912
3059.0	2.72173276395e-06	0.999148097645
3070.0	0.000106147577794	0.999254245223
3073.0	4.08259914592e-05	0.999295071214
3080.0	2.72173276395e-06	0.999297792947
3082.0	8.16519829184e-06	0.999305958145
3085.0	8.16519829184e-06	0.999314123343
3167.0	2.72173276395e-06	0.999316845076
3169.0	1.36086638197e-05	0.99933045374
3172.0	1.63303965837e-05	0.999346784137
3175.0	1.08869310558e-05	0.999357671068
3178.0	1.90521293476e-05	0.999376723197
3182.0	2.72173276395e-06	0.99937944493
3185.0	5.44346552789e-06	0.999384888395
3188.0	2.72173276395e-06	0.999387610128
3196.0	1.36086638197e-05	0.999401218792
3199.0	2.72173276395e-06	0.999403940525
3203.0	2.72173276395e-06	0.999406662257
3205.0	8.16519829184e-06	0.999414827456
3208.0	5.44346552789e-06	0.999420270921
3226.0	2.72173276395e-06	0.999422992654
3229.0	2.72173276395e-06	0.999425714387
3253.0	2.72173276395e-06	0.99942843612
3256.0	2.72173276395e-06	0.999431157852
3265.0	5.44346552789e-06	0.999436601318
3284.0	2.72173276395e-06	0.999439323051
3286.0	2.72173276395e-06	0.999442044783
3289.0	1.36086638197e-05	0.999455653447
3292.0	1.36086638197e-05	0.999469262111
3295.0	4.35477242231e-05	0.999512809835
3298.0	2.72173276395e-06	0.999515531568
3319.0	8.16519829184e-06	0.999523696766
3322.0	2.72173276395e-06	0.999526418499
3424.0	7.34867846266e-05	0.999599905284
3431.0	2.72173276395e-06	0.999602627016
3433.0	2.72173276395e-06	0.999605348749
3439.0	2.72173276395e-06	0.999608070482
3445.0	2.72173276395e-06	0.999610792215
3496.0	2.72173276395e-06	0.999613513948
3499.0	1.36086638197e-05	0.999627122611
3565.0	3.26607931674e-05	0.999659783405
3568.0	5.44346552789e-06	0.99966522687
3637.0	2.72173276395e-06	0.999667948603
3640.0	5.44346552789e-06	0.999673392068
3658.0	2.72173276395e-06	0.999676113801
3661.0	8.16519829184e-06	0.999684278999
3664.0	2.72173276395e-06	0.999687000732
3670.0	5.44346552789e-06	0.999692444198
3680.0	2.72173276395e-06	0.99969516593
3682.0	2.72173276395e-06	0.999697887663
3970.0	3.26607931674e-05	0.999730548456
4099.0	2.99390604034e-05	0.999760487517
4102.0	8.16519829184e-06	0.999768652715
4105.0	1.08869310558e-05	0.999779539646
4108.0	1.36086638197e-05	0.99979314831
4111.0	2.72173276395e-06	0.999795870043
4141.0	8.16519829184e-06	0.999804035241
4144.0	2.72173276395e-06	0.999806756974
4147.0	2.99390604034e-05	0.999836696034
4150.0	1.08869310558e-05	0.999847582965
4234.0	4.08259914592e-05	0.999888408957
4237.0	2.44955948755e-05	0.999912904552
4243.0	1.63303965837e-05	0.999929234948
4246.0	4.35477242231e-05	0.999972782672
4249.0	8.16519829184e-06	0.999980947871
5200.0	1.63303965837e-05	0.999997278267
5202.0	5.44346552789e-06	1.0
