#
# Generated On: 2012-02-05T18:52:23.921419
#           By: cwa.analyze.jobs_per_executableid
#      Version: 11.3.16
#       Author: Thomas A. de Ruiter <thomas@de-ruiter.cx>
#
#  Commandline: /home/af10028/bin/cwa analyze
#     Work Dir: /scratch/af10028/var/thesis-project/result/analyses/workload-06h-06180l-5s-default
#

Time	ID_-1
0	118215
3600	120434
7200	130955
10800	119599
14400	120686
18000	125564
21600	17184
25200	7346
28800	274
