#
# Generated On: 2012-02-05T23:50:56.599391
#           By: cwa.analyze.statistics
#      Version: 11.11.23
#       Author: Thomas A. de Ruiter <thomas@de-ruiter.cx>
#
#  Commandline: /home/af10028/bin/cwa analyze
#     Work Dir: /scratch/af10028/var/thesis-project/result/analyses/workload-24h-08652l-0s-fair
#

Time	Sum	Avg	StdDev	CoV	0.000000-Pct	0.010000-Pct	0.100000-Pct	1.000000-Pct	2.000000-Pct	5.000000-Pct	25.000000-Pct	50.000000-Pct	75.000000-Pct	95.000000-Pct	98.000000-Pct	99.000000-Pct	99.900000-Pct	99.990000-Pct	100.000000-Pct
1327483800	239886.0	1012.17721519	1846.20971613	1.82399849396	3.0	3.0	3.0	3.0	3.0	3.0	10.0	247.0	1053.0	5108.0	6684.0	7345.0	13355.0	13355.0	13355.0
1327484400	330798.0	993.387387387	1657.12721646	1.66815809975	3.0	3.0	3.0	3.0	3.0	3.0	9.0	365.0	992.0	4643.0	6813.0	7349.0	11569.0	11569.0	11569.0
1327485000	478223.0	1332.09749304	2235.15509416	1.67792155292	2.0	2.0	2.0	3.0	3.0	3.0	16.0	505.0	1643.0	5850.0	8162.0	9162.0	19647.0	19647.0	19647.0
1327485600	348053.0	935.626344086	1952.53344796	2.08687309875	3.0	3.0	3.0	3.0	3.0	3.0	10.0	262.0	907.0	4510.0	8432.0	10662.0	16210.0	16210.0	16210.0
1327486200	455673.0	1344.16814159	2434.51624383	1.81116942777	2.0	2.0	2.0	3.0	3.0	3.0	15.0	432.0	1520.0	7479.0	10012.0	11640.0	19500.0	19500.0	19500.0
1327486800	396706.0	1228.19195046	2279.66831799	1.85611729268	2.0	2.0	2.0	3.0	3.0	3.0	11.0	425.0	1135.0	5497.0	8387.0	9895.0	17226.0	17226.0	17226.0
1327487400	378686.0	983.6	1972.58475103	2.00547453338	3.0	3.0	3.0	3.0	3.0	3.0	9.0	219.0	965.0	4433.0	7458.0	8554.0	20847.0	20847.0	20847.0
1327488000	413194.0	1303.4511041	2734.53068457	2.09791581438	2.0	2.0	2.0	3.0	3.0	3.0	11.0	386.0	1210.0	6094.0	11164.0	12703.0	24098.0	24098.0	24098.0
1327488600	422161.0	1071.47461929	2139.20510804	1.99650562835	3.0	3.0	3.0	3.0	3.0	3.0	9.0	270.5	837.0	5558.0	8836.0	11140.0	15239.0	15239.0	15239.0
1327489200	264439.0	688.643229167	1347.50262198	1.95674997576	2.0	2.0	2.0	3.0	3.0	3.0	9.0	222.5	726.0	3172.0	5590.0	7559.0	9860.0	9860.0	9860.0
1327489800	360370.0	1075.73134328	2159.09119952	2.00709146666	3.0	3.0	3.0	3.0	3.0	3.0	4.0	251.0	987.0	5309.0	7731.0	9725.0	18188.0	18188.0	18188.0
1327490400	242085.0	817.85472973	2759.89381444	3.37455261199	3.0	3.0	3.0	3.0	3.0	3.0	4.0	108.5	602.0	3662.0	6412.0	9787.0	37955.0	37955.0	37955.0
1327491000	260580.0	883.322033898	1570.05615655	1.77744480076	3.0	3.0	3.0	3.0	3.0	3.0	12.0	272.0	896.0	4336.0	6580.0	8435.0	9707.0	9707.0	9707.0
1327491600	167860.0	777.12962963	1385.44073144	1.78276657924	3.0	3.0	3.0	3.0	3.0	3.0	5.0	366.5	838.0	3515.0	4557.0	5087.0	12774.0	12774.0	12774.0
1327492200	332927.0	1027.55246914	3030.62490981	2.94936268545	3.0	3.0	3.0	3.0	3.0	3.0	4.0	186.5	924.0	4082.0	7493.0	8478.0	38736.0	38736.0	38736.0
1327492800	470055.0	1446.32307692	3895.69003503	2.69351301738	2.0	2.0	2.0	3.0	3.0	3.0	11.0	310.0	1091.0	6745.0	10103.0	11506.0	48655.0	48655.0	48655.0
1327493400	315755.0	909.956772334	1745.29028371	1.91799252094	3.0	3.0	3.0	3.0	3.0	3.0	12.0	276.0	880.0	4168.0	6940.0	8978.0	14449.0	14449.0	14449.0
1327494000	196815.0	609.334365325	1602.25756481	2.62952109054	2.0	2.0	2.0	3.0	3.0	3.0	4.0	198.0	612.0	2432.0	3987.0	7183.0	17530.0	17530.0	17530.0
1327494600	451497.0	1203.992	2607.39542988	2.16562521169	2.0	2.0	2.0	3.0	3.0	3.0	15.0	336.0	1055.0	6042.0	9497.0	12678.0	22279.0	22279.0	22279.0
1327495200	577483.0	1368.44312796	2375.16608052	1.73567028983	3.0	3.0	3.0	3.0	3.0	3.0	18.0	416.5	1376.0	6915.0	9443.0	11251.0	16536.0	16536.0	16536.0
1327495800	512513.0	1345.17847769	3789.58184746	2.81715914305	3.0	3.0	3.0	3.0	3.0	3.0	12.0	326.0	1054.0	6058.0	10616.0	13965.0	58273.0	58273.0	58273.0
1327496400	651036.0	1754.81401617	5891.29266414	3.35721769364	2.0	2.0	2.0	3.0	3.0	3.0	10.0	360.0	1130.0	6508.0	12084.0	32857.0	86150.0	86150.0	86150.0
1327497000	445536.0	1379.36842105	3405.52105952	2.46889881452	2.0	2.0	2.0	3.0	3.0	3.0	9.0	297.0	1193.0	6816.0	9067.0	15073.0	40629.0	40629.0	40629.0
1327497600	358843.0	1233.13745704	2372.04049255	1.92358157559	2.0	2.0	2.0	3.0	3.0	3.0	21.0	348.0	1212.0	6125.0	8634.0	10633.0	22946.0	22946.0	22946.0
1327498200	411725.0	1821.7920354	6264.47658724	3.43863430376	3.0	3.0	3.0	3.0	3.0	3.0	10.0	338.0	1210.0	7866.0	12941.0	15528.0	85572.0	85572.0	85572.0
1327498800	512065.0	1426.36490251	4958.86717758	3.47657683449	2.0	2.0	2.0	3.0	3.0	3.0	20.0	405.0	1083.0	6330.0	8983.0	11782.0	85830.0	85830.0	85830.0
1327499400	315282.0	1043.98013245	1984.06185592	1.90047855725	3.0	3.0	3.0	3.0	3.0	3.0	4.0	270.5	919.0	5357.0	7284.0	7602.0	14980.0	14980.0	14980.0
1327500000	421669.0	1197.92329545	3868.22852074	3.22911202697	3.0	3.0	3.0	3.0	3.0	3.0	9.0	264.0	758.0	6147.0	11234.0	13521.0	44518.0	44518.0	44518.0
1327500600	305409.0	991.587662338	2628.92616925	2.65122920454	3.0	3.0	3.0	3.0	3.0	3.0	9.0	204.0	716.0	4921.0	9296.0	11299.0	22566.0	22566.0	22566.0
1327501200	328903.0	1018.2755418	2437.99978885	2.39424368825	3.0	3.0	3.0	3.0	3.0	3.0	9.0	288.0	808.0	4949.0	10756.0	11084.0	21141.0	21141.0	21141.0
1327501800	594918.0	1685.32011331	4240.02148996	2.51585527074	3.0	3.0	3.0	3.0	3.0	3.0	11.0	384.0	1293.0	7452.0	13854.0	17426.0	49921.0	49921.0	49921.0
1327502400	580494.0	1819.73040752	7583.46345568	4.16735546339	3.0	3.0	3.0	3.0	3.0	3.0	39.0	345.0	987.0	6746.0	13366.0	19109.0	90553.0	90553.0	90553.0
1327503000	505982.0	1441.54415954	3149.02984746	2.18448378887	3.0	3.0	3.0	3.0	3.0	3.0	15.0	372.0	1125.0	6699.0	10748.0	14139.0	30650.0	30650.0	30650.0
1327503600	552893.0	1611.93294461	4645.21404761	2.88176630619	2.0	2.0	2.0	3.0	3.0	3.0	9.0	285.0	1027.0	7418.0	19028.0	24502.0	58724.0	58724.0	58724.0
1327504200	509790.0	1320.69948187	3130.17165503	2.37008622932	3.0	3.0	3.0	3.0	3.0	3.0	9.0	311.0	1116.0	5743.0	10358.0	12070.0	39441.0	39441.0	39441.0
1327504800	413669.0	1220.26253687	3141.07864941	2.57410069923	3.0	3.0	3.0	3.0	3.0	3.0	12.0	343.0	860.0	5455.0	10620.0	13798.0	33163.0	33163.0	33163.0
1327505400	444722.0	1376.84829721	2934.24397638	2.13113091858	2.0	2.0	2.0	3.0	3.0	3.0	9.0	277.0	1097.0	6519.0	13428.0	14896.0	19657.0	19657.0	19657.0
1327506000	701884.0	2064.36470588	6376.14996437	3.08867417961	3.0	3.0	3.0	3.0	3.0	3.0	11.0	329.5	1275.0	9604.0	16682.0	31799.0	81326.0	81326.0	81326.0
1327506600	537162.0	1395.22597403	2909.94862916	2.08564682949	2.0	2.0	2.0	3.0	3.0	3.0	9.0	227.0	1031.0	7990.0	11727.0	14821.0	22677.0	22677.0	22677.0
1327507200	380576.0	1326.04878049	5469.37048938	4.12456205975	2.0	2.0	2.0	3.0	3.0	3.0	4.0	234.0	762.0	4632.0	11852.0	20763.0	72069.0	72069.0	72069.0
1327507800	421017.0	1371.39087948	4647.70131991	3.38904202256	2.0	2.0	2.0	3.0	3.0	3.0	9.0	312.0	945.0	5449.0	10541.0	15958.0	56112.0	56112.0	56112.0
1327508400	644730.0	1941.95783133	5715.41848753	2.94312183063	2.0	2.0	2.0	3.0	3.0	3.0	10.0	403.5	1194.0	8676.0	14736.0	31651.0	59970.0	59970.0	59970.0
1327509000	578790.0	1732.90419162	5574.73363452	3.21698894924	2.0	2.0	2.0	3.0	3.0	3.0	11.0	318.5	993.0	7486.0	13761.0	19822.0	82493.0	82493.0	82493.0
1327509600	388799.0	1246.15064103	3366.64534431	2.70163592865	3.0	3.0	3.0	3.0	3.0	3.0	9.0	244.5	818.0	5548.0	12372.0	21999.0	30203.0	30203.0	30203.0
1327510200	303794.0	1036.83959044	1986.91836795	1.91632185563	3.0	3.0	3.0	3.0	3.0	3.0	10.0	312.0	939.0	5123.0	8685.0	11024.0	13019.0	13019.0	13019.0
1327510800	420941.0	1271.72507553	4432.41158041	3.48535360802	2.0	2.0	2.0	3.0	3.0	3.0	10.0	252.0	800.0	5010.0	7693.0	21003.0	52506.0	52506.0	52506.0
1327511400	437256.0	1353.73374613	3490.71794352	2.57858530416	2.0	2.0	2.0	3.0	3.0	3.0	10.0	279.0	1014.0	6388.0	11089.0	21063.0	26875.0	26875.0	26875.0
1327512000	676923.0	1683.8880597	5766.81273859	3.42470077234	2.0	2.0	2.0	3.0	3.0	3.0	9.0	288.5	1012.0	7375.0	12325.0	16810.0	71006.0	71006.0	71006.0
1327512600	429540.0	1346.52037618	3424.63767244	2.5433240618	2.0	2.0	2.0	3.0	3.0	3.0	3.0	263.0	876.0	7198.0	13642.0	16316.0	29666.0	29666.0	29666.0
1327513200	453104.0	1332.65882353	4843.09041077	3.6341562636	2.0	2.0	2.0	2.0	3.0	3.0	11.0	246.5	865.0	6269.0	8569.0	12256.0	78998.0	78998.0	78998.0
1327513800	414549.0	1142.00826446	3666.84755651	3.21087655021	3.0	3.0	3.0	3.0	3.0	3.0	9.0	252.0	779.0	5510.0	8869.0	14271.0	56917.0	56917.0	56917.0
1327514400	463877.0	1427.31384615	5034.66597945	3.52737135776	3.0	3.0	3.0	3.0	3.0	3.0	3.0	207.0	816.0	5663.0	12000.0	21756.0	60063.0	60063.0	60063.0
1327515000	446397.0	1279.07449857	2970.30738476	2.32223172934	2.0	2.0	2.0	3.0	3.0	3.0	9.0	300.0	987.0	5806.0	12833.0	18597.0	21013.0	21013.0	21013.0
1327515600	523210.0	1453.36111111	4916.30554982	3.38271439372	2.0	2.0	2.0	3.0	3.0	3.0	9.0	288.5	802.0	8804.0	12954.0	13486.0	52330.0	52330.0	52330.0
1327516200	639570.0	1733.25203252	5560.54995021	3.20816006321	3.0	3.0	3.0	3.0	3.0	3.0	10.0	243.0	918.0	6894.0	19404.0	33079.0	60065.0	60065.0	60065.0
1327516800	393453.0	1245.10443038	3402.58898047	2.73277397257	3.0	3.0	3.0	3.0	3.0	3.0	9.0	243.5	839.0	5752.0	14689.0	20596.0	27863.0	27863.0	27863.0
1327517400	908272.0	2371.46736292	6326.34629368	2.66769275116	2.0	2.0	2.0	3.0	3.0	3.0	12.0	346.0	1812.0	13368.0	22707.0	33294.0	55857.0	55857.0	55857.0
1327518000	572673.0	1645.61206897	3781.87921078	2.29815962225	2.0	2.0	2.0	3.0	3.0	3.0	15.0	372.5	1311.0	7218.0	15286.0	22012.0	36320.0	36320.0	36320.0
1327518600	759511.0	1847.95863747	5075.54652693	2.74656933549	2.0	2.0	2.0	3.0	3.0	3.0	15.0	372.0	1136.0	8834.0	15153.0	28933.0	58634.0	58634.0	58634.0
1327519200	585962.0	1940.27152318	6218.03410081	3.2047236825	2.0	2.0	2.0	3.0	3.0	3.0	32.0	382.5	1243.0	7617.0	16644.0	26470.0	71037.0	71037.0	71037.0
1327519800	1032079.0	3008.97667638	10360.356448	3.44314946983	3.0	3.0	3.0	3.0	3.0	3.0	10.0	279.0	939.0	11298.0	52653.0	65005.0	72424.0	72424.0	72424.0
1327520400	1003450.0	2540.37974684	7017.13024792	2.76223673121	2.0	2.0	2.0	3.0	3.0	3.0	10.0	408.0	1586.0	12850.0	21070.0	51284.0	70738.0	70738.0	70738.0
1327521000	651463.0	1794.66391185	4577.3232953	2.55051838124	2.0	2.0	2.0	3.0	3.0	3.0	11.0	330.0	1086.0	9608.0	14934.0	20185.0	53561.0	53561.0	53561.0
1327521600	592047.0	1545.81462141	4651.90431193	3.00935458075	2.0	2.0	2.0	3.0	3.0	3.0	9.0	225.0	841.0	7266.0	22145.0	25617.0	42959.0	42959.0	42959.0
1327522200	502944.0	1528.70516717	5474.93092238	3.58141716268	2.0	2.0	2.0	3.0	3.0	3.0	9.0	245.0	770.0	6386.0	13329.0	30313.0	67252.0	67252.0	67252.0
1327522800	692496.0	1827.16622691	6155.37174369	3.36880774886	2.0	2.0	2.0	3.0	3.0	3.0	9.0	322.0	1002.0	8939.0	15268.0	33326.0	70737.0	70737.0	70737.0
1327523400	640844.0	1668.86458333	5320.54467533	3.18812246869	3.0	3.0	3.0	3.0	3.0	3.0	9.0	287.5	873.0	7637.0	16164.0	27677.0	68962.0	68962.0	68962.0
1327524000	555462.0	1619.42274052	5239.22315335	3.23524118949	3.0	3.0	3.0	3.0	3.0	3.0	5.0	315.0	1088.0	6831.0	11904.0	18766.0	66013.0	66013.0	66013.0
1327524600	427785.0	1205.02816901	3124.89059321	2.59320958096	3.0	3.0	3.0	3.0	3.0	3.0	9.0	226.0	736.0	6861.0	11477.0	19933.0	22146.0	22146.0	22146.0
1327525200	560731.0	1570.67507003	4696.97077803	2.99041531101	2.0	2.0	2.0	3.0	3.0	3.0	12.0	281.0	911.0	6669.0	14509.0	26344.0	51904.0	51904.0	51904.0
1327525800	1006655.0	3595.19642857	8592.496205	2.38999353046	2.0	2.0	2.0	3.0	3.0	3.0	14.0	441.5	2680.0	18412.0	32912.0	54330.0	63548.0	63548.0	63548.0
1327526400	656879.0	1761.06970509	5045.97026759	2.86528707693	3.0	3.0	3.0	3.0	3.0	3.0	9.0	329.0	1009.0	9041.0	15925.0	29176.0	51211.0	51211.0	51211.0
1327527000	947484.0	2547.0	8199.76878906	3.2193831131	3.0	3.0	3.0	3.0	3.0	3.0	19.0	379.0	1212.0	10058.0	23958.0	61024.0	66838.0	66838.0	66838.0
1327527600	681297.0	1882.0359116	4398.97008928	2.33734652041	2.0	2.0	2.0	2.0	3.0	3.0	16.0	313.5	1075.0	10338.0	19633.0	22187.0	29183.0	29183.0	29183.0
1327528200	581857.0	1901.49346405	5756.7836257	3.0275063967	3.0	3.0	3.0	3.0	3.0	3.0	9.0	300.0	1040.0	9869.0	18477.0	30597.0	55109.0	55109.0	55109.0
1327528800	508668.0	1678.77227723	4163.37135632	2.48000959558	2.0	2.0	2.0	3.0	3.0	3.0	7.0	416.0	1138.0	6788.0	18294.0	22139.0	31932.0	31932.0	31932.0
1327529400	479825.0	2123.11946903	5869.74233838	2.76467830662	2.0	2.0	2.0	3.0	3.0	3.0	15.0	433.0	1108.0	8978.0	23879.0	29803.0	52984.0	52984.0	52984.0
1327530000	748513.0	2221.10682493	5675.66667422	2.55533259838	2.0	2.0	2.0	3.0	3.0	3.0	20.0	363.0	1151.0	12205.0	18937.0	37826.0	45318.0	45318.0	45318.0
1327530600	592151.0	1772.90718563	5480.57864816	3.09129473477	2.0	2.0	2.0	3.0	3.0	3.0	9.0	311.0	771.0	9402.0	21634.0	27882.0	57169.0	57169.0	57169.0
1327531200	1225412.0	2967.09927361	7310.44084956	2.46383426216	3.0	3.0	3.0	3.0	3.0	3.0	19.0	442.0	1882.0	15801.0	26363.0	38538.0	63684.0	63684.0	63684.0
1327531800	679227.0	1792.15567282	6405.77667534	3.57434165596	2.0	2.0	2.0	3.0	3.0	3.0	9.0	240.0	921.0	6552.0	19508.0	46014.0	51760.0	51760.0	51760.0
1327532400	765412.0	1982.93264249	5646.54923152	2.84757490524	2.0	2.0	2.0	2.0	3.0	3.0	10.0	371.0	1245.0	10070.0	20312.0	35487.0	51150.0	51150.0	51150.0
1327533000	478792.0	1510.38485804	4132.28368722	2.73591440302	2.0	2.0	2.0	3.0	3.0	3.0	28.0	307.0	771.0	7611.0	17680.0	21873.0	33934.0	33934.0	33934.0
1327533600	609143.0	1971.33656958	5974.59100785	3.03073107862	3.0	3.0	3.0	3.0	3.0	3.0	4.0	285.0	981.0	8756.0	23673.0	36866.0	46549.0	46549.0	46549.0
1327534200	592869.0	1864.36792453	5189.41231818	2.78347007042	2.0	2.0	2.0	3.0	3.0	3.0	9.0	255.0	1086.0	8110.0	17732.0	30178.0	52731.0	52731.0	52731.0
1327534800	471626.0	1424.85196375	4994.41673719	3.50521799054	2.0	2.0	2.0	3.0	3.0	3.0	9.0	240.0	816.0	6143.0	12244.0	23664.0	54637.0	54637.0	54637.0
1327535400	557366.0	1736.34267913	6449.09707447	3.71418450516	3.0	3.0	3.0	3.0	3.0	3.0	9.0	218.0	716.0	7539.0	18816.0	37608.0	55615.0	55615.0	55615.0
1327536000	667584.0	2047.80368098	5887.05664094	2.87481495205	2.0	2.0	2.0	3.0	3.0	3.0	9.0	250.5	933.0	11102.0	23072.0	34236.0	48335.0	48335.0	48335.0
1327536600	630577.0	1476.76112412	4283.65113058	2.90070686492	2.0	2.0	2.0	3.0	3.0	3.0	15.0	310.0	949.0	6502.0	14346.0	16322.0	50890.0	50890.0	50890.0
1327537200	1045130.0	2911.22562674	7259.81659023	2.49373202941	2.0	2.0	2.0	3.0	3.0	3.0	10.0	315.0	1496.0	18958.0	31111.0	42895.0	49547.0	49547.0	49547.0
1327537800	897505.0	2711.49546828	6783.70197466	2.50183046737	2.0	2.0	2.0	3.0	3.0	3.0	9.0	390.0	1887.0	13298.0	19032.0	44906.0	54223.0	54223.0	54223.0
1327538400	773625.0	2772.84946237	7462.55501304	2.69129468236	2.0	2.0	2.0	3.0	3.0	3.0	4.0	284.0	1202.0	14824.0	33367.0	38786.0	48197.0	48197.0	48197.0
1327539000	732546.0	1888.00515464	4910.05992111	2.60066023075	2.0	2.0	2.0	3.0	3.0	3.0	10.0	338.0	934.0	10005.0	22275.0	29584.0	35092.0	35092.0	35092.0
1327539600	532508.0	1664.0875	5406.48289581	3.24891743722	2.0	2.0	2.0	3.0	3.0	3.0	4.0	189.5	805.0	8418.0	18815.0	30660.0	45477.0	45477.0	45477.0
1327540200	525165.0	1615.89230769	4581.80126489	2.83546201877	2.0	2.0	2.0	3.0	3.0	3.0	14.0	330.0	949.0	8762.0	17190.0	24460.0	44462.0	44462.0	44462.0
1327540800	647239.0	2201.49319728	6912.11477581	3.13973932981	2.0	2.0	2.0	3.0	3.0	3.0	10.0	270.5	986.0	11794.0	35453.0	41499.0	50071.0	50071.0	50071.0
1327541400	541023.0	1723.00318471	4933.1188532	2.86309328791	3.0	3.0	3.0	3.0	3.0	3.0	3.0	237.0	808.0	9550.0	20959.0	28609.0	38731.0	38731.0	38731.0
1327542000	513150.0	1639.45686901	4434.89558519	2.70510049335	2.0	2.0	2.0	3.0	3.0	3.0	10.0	283.0	850.0	9197.0	15073.0	18544.0	39680.0	39680.0	39680.0
1327542600	620328.0	2146.46366782	5674.27176369	2.64354428577	2.0	2.0	2.0	3.0	3.0	3.0	9.0	309.0	1204.0	11778.0	22272.0	31921.0	46310.0	46310.0	46310.0
1327543200	551159.0	1592.94508671	5402.34809173	3.39142142238	2.0	2.0	2.0	3.0	3.0	3.0	11.0	317.5	859.0	7600.0	19633.0	34517.0	51891.0	51891.0	51891.0
1327543800	648320.0	2258.95470383	5557.16077971	2.46005852631	2.0	2.0	2.0	2.0	3.0	3.0	16.0	374.0	1515.0	13742.0	23065.0	31755.0	47111.0	47111.0	47111.0
1327544400	459769.0	1939.9535865	5457.95989719	2.81344870062	2.0	2.0	2.0	2.0	3.0	3.0	9.0	312.0	830.0	10002.0	25576.0	33439.0	42121.0	42121.0	42121.0
1327545000	697092.0	2068.52225519	5664.30528935	2.73833422634	3.0	3.0	3.0	3.0	3.0	3.0	9.0	316.0	1070.0	12055.0	25141.0	30172.0	46591.0	46591.0	46591.0
1327545600	712194.0	1869.27559055	4876.55684346	2.60879501563	3.0	3.0	3.0	3.0	3.0	3.0	10.0	378.0	1109.0	8032.0	19786.0	28582.0	42407.0	42407.0	42407.0
1327546200	597290.0	1958.32786885	5670.19573864	2.89542717991	2.0	2.0	2.0	3.0	3.0	3.0	3.0	296.0	1085.0	10938.0	21391.0	26809.0	51926.0	51926.0	51926.0
1327546800	857148.0	2756.10289389	6667.77989427	2.4192782893	2.0	2.0	2.0	3.0	3.0	3.0	66.0	486.0	1939.0	12425.0	27563.0	42658.0	47840.0	47840.0	47840.0
1327547400	558456.0	1939.08333333	4628.93476958	2.38717681185	3.0	3.0	3.0	3.0	3.0	3.0	12.0	349.5	1006.0	12011.0	19292.0	27891.0	35926.0	35926.0	35926.0
1327548000	562586.0	2023.69064748	5263.70993496	2.60104475035	2.0	2.0	2.0	3.0	3.0	3.0	3.0	289.5	945.0	11903.0	20336.0	30295.0	43507.0	43507.0	43507.0
1327548600	568944.0	1835.30322581	5334.63160194	2.90667587074	2.0	2.0	2.0	3.0	3.0	3.0	9.0	177.0	824.0	10160.0	21671.0	33208.0	35857.0	35857.0	35857.0
1327549200	724904.0	2552.47887324	6026.19778598	2.36091975105	2.0	2.0	2.0	3.0	3.0	3.0	17.0	307.0	1581.0	14684.0	28146.0	33602.0	38217.0	38217.0	38217.0
1327549800	746291.0	2022.46883469	5269.75584264	2.60560546212	2.0	2.0	2.0	3.0	3.0	3.0	9.0	330.0	1074.0	10946.0	23068.0	30239.0	36746.0	36746.0	36746.0
1327550400	720186.0	2105.80701754	5770.49414049	2.74027681189	2.0	2.0	2.0	3.0	3.0	3.0	25.0	387.5	1093.0	11391.0	28560.0	32158.0	40821.0	40821.0	40821.0
1327551000	640397.0	1917.35628743	5259.27706201	2.74298370966	2.0	2.0	2.0	3.0	3.0	3.0	5.0	237.0	912.0	11329.0	23734.0	25066.0	41740.0	41740.0	41740.0
1327551600	449646.0	1383.52615385	3816.74619723	2.75870910471	2.0	2.0	2.0	3.0	3.0	3.0	4.0	252.0	863.0	7215.0	13778.0	24968.0	29174.0	29174.0	29174.0
1327552200	481892.0	1644.68259386	4446.7148677	2.70369181526	2.0	2.0	2.0	3.0	3.0	3.0	9.0	292.0	894.0	8771.0	17614.0	30441.0	33578.0	33578.0	33578.0
1327552800	579637.0	1888.06840391	4976.12824845	2.63556565967	2.0	2.0	2.0	3.0	3.0	3.0	4.0	260.0	937.0	9345.0	24645.0	27336.0	34253.0	34253.0	34253.0
1327553400	782217.0	1945.81343284	5390.97537916	2.77055101388	2.0	2.0	2.0	3.0	3.0	3.0	9.0	311.0	973.0	10566.0	26127.0	30989.0	37508.0	37508.0	37508.0
1327554000	488650.0	1726.67844523	4209.19920019	2.43774352533	3.0	3.0	3.0	3.0	3.0	3.0	9.0	237.0	844.0	9631.0	19309.0	24156.0	27052.0	27052.0	27052.0
1327554600	769177.0	2465.31089744	5974.52190148	2.42343548138	3.0	3.0	3.0	3.0	3.0	3.0	9.0	330.0	1465.0	15384.0	27153.0	31064.0	40267.0	40267.0	40267.0
1327555200	533030.0	2074.04669261	4129.74083414	1.99115133177	3.0	3.0	3.0	3.0	3.0	3.0	42.0	384.0	1546.0	10257.0	17465.0	20663.0	27267.0	27267.0	27267.0
1327555800	616755.0	1787.69565217	4250.37255927	2.37757056359	2.0	2.0	2.0	3.0	3.0	3.0	10.0	320.0	980.0	9309.0	19632.0	24132.0	30576.0	30576.0	30576.0
1327556400	395222.0	1502.74524715	4015.49656314	2.67210731211	2.0	2.0	2.0	3.0	3.0	3.0	9.0	202.0	863.0	6786.0	16855.0	22065.0	30609.0	30609.0	30609.0
1327557000	715010.0	2134.35820896	4755.77771429	2.22820035284	2.0	2.0	2.0	3.0	3.0	3.0	4.0	291.0	1233.0	13191.0	21300.0	23027.0	29312.0	29312.0	29312.0
1327557600	578365.0	1896.27868852	4937.2612958	2.60365806233	3.0	3.0	3.0	3.0	3.0	3.0	17.0	303.0	982.0	13518.0	22803.0	23965.0	28797.0	28797.0	28797.0
1327558200	602102.0	1551.80927835	4237.38238756	2.73060771493	3.0	3.0	3.0	3.0	3.0	3.0	9.0	279.0	1023.0	6957.0	20696.0	26634.0	33299.0	33299.0	33299.0
1327558800	437766.0	1407.60771704	3928.52711961	2.79092468167	2.0	2.0	2.0	3.0	3.0	3.0	9.0	228.0	801.0	6484.0	18299.0	22022.0	27482.0	27482.0	27482.0
1327559400	749063.0	2340.821875	5748.65888922	2.45582927544	3.0	3.0	3.0	3.0	3.0	3.0	12.0	280.5	962.0	17661.0	23837.0	29344.0	32562.0	32562.0	32562.0
1327560000	1040696.0	2782.60962567	5726.57940961	2.0579887875	2.0	2.0	2.0	3.0	3.0	3.0	10.0	454.0	2224.0	15956.0	23159.0	26318.0	32767.0	32767.0	32767.0
1327560600	403076.0	1580.69019608	4005.90367607	2.5342750186	3.0	3.0	3.0	3.0	3.0	3.0	3.0	248.0	1074.0	11988.0	17303.0	22073.0	24158.0	24158.0	24158.0
1327561200	732844.0	2234.2804878	4631.21067724	2.07279735133	3.0	3.0	3.0	3.0	3.0	3.0	9.0	290.0	1666.0	14748.0	19523.0	20937.0	26322.0	26322.0	26322.0
1327561800	647332.0	1955.6858006	4808.34756386	2.4586503427	3.0	3.0	3.0	3.0	3.0	3.0	9.0	270.0	976.0	14602.0	20808.0	22160.0	33031.0	33031.0	33031.0
1327562400	477604.0	1941.4796748	4671.56348403	2.40618716985	2.0	2.0	2.0	2.0	3.0	3.0	3.0	240.0	842.0	13276.0	18849.0	22545.0	26780.0	26780.0	26780.0
1327563000	642213.0	1840.15186246	4568.98038217	2.48293658549	2.0	2.0	2.0	3.0	3.0	3.0	10.0	238.0	898.0	12626.0	19890.0	25268.0	28477.0	28477.0	28477.0
1327563600	596038.0	1811.6656535	4182.86712529	2.30885159037	2.0	2.0	2.0	3.0	3.0	3.0	10.0	259.0	998.0	11259.0	16633.0	18801.0	33470.0	33470.0	33470.0
1327564200	662386.0	1936.80116959	5076.06929823	2.62085204095	2.0	2.0	2.0	3.0	3.0	3.0	4.0	196.0	740.0	12166.0	21932.0	25706.0	31997.0	31997.0	31997.0
1327564800	397012.0	1417.9	3549.27726259	2.50319293504	2.0	2.0	2.0	3.0	3.0	3.0	9.0	276.5	878.0	8230.0	16378.0	19056.0	26892.0	26892.0	26892.0
1327565400	370645.0	1282.50865052	3559.41343201	2.77535237721	2.0	2.0	2.0	3.0	3.0	3.0	9.0	162.0	642.0	8047.0	16117.0	21618.0	26165.0	26165.0	26165.0
1327566000	631337.0	1734.44230769	3940.71651614	2.27203666485	2.0	2.0	2.0	3.0	3.0	3.0	9.0	281.5	961.0	11407.0	17270.0	20744.0	22665.0	22665.0	22665.0
1327566600	588338.0	1730.40588235	3601.64379383	2.08138670272	2.0	2.0	2.0	3.0	3.0	3.0	12.0	379.5	1202.0	10206.0	16481.0	18545.0	20793.0	20793.0	20793.0
1327567200	436590.0	1450.46511628	3479.79282759	2.39908756752	2.0	2.0	2.0	3.0	3.0	3.0	3.0	217.0	876.0	9135.0	14052.0	15933.0	25710.0	25710.0	25710.0
1327567800	603516.0	1605.09574468	3781.61702787	2.35600713565	3.0	3.0	3.0	3.0	3.0	3.0	9.0	261.0	795.0	10351.0	16615.0	18861.0	24011.0	24011.0	24011.0
1327568400	470742.0	1489.68987342	3425.37492032	2.29938793399	2.0	2.0	2.0	3.0	3.0	3.0	11.0	346.0	1089.0	7988.0	13633.0	15432.0	25549.0	25549.0	25549.0
1327569000	889741.0	2154.33656174	4160.99188027	1.93144931677	2.0	2.0	2.0	3.0	3.0	3.0	22.0	423.0	1635.0	12137.0	16146.0	18876.0	26732.0	26732.0	26732.0
1327569600	542440.0	1532.31638418	3446.83878266	2.24943022097	2.0	2.0	2.0	3.0	3.0	3.0	9.0	275.0	1026.0	9094.0	13259.0	17740.0	26311.0	26311.0	26311.0
1327570200	38215.0	932.073170732	1771.85963595	1.9009877031	2.0	2.0	2.0	2.0	2.0	3.0	9.0	222.0	777.0	4239.0	8129.0	8129.0	8129.0	8129.0	8129.0
