#
# Generated On: 2012-02-05T17:26:17.030579
#           By: cwa.analyze.statistics
#      Version: 11.11.23
#       Author: Thomas A. de Ruiter <thomas@de-ruiter.cx>
#
#  Commandline: /home/af10028/bin/cwa analyze
#     Work Dir: /scratch/af10028/var/thesis-project/result/analyses/workload-06h-00123l-2s-fair
#

Time	Sum	Avg	StdDev	CoV	0.000000-Pct	0.010000-Pct	0.100000-Pct	1.000000-Pct	2.000000-Pct	5.000000-Pct	25.000000-Pct	50.000000-Pct	75.000000-Pct	95.000000-Pct	98.000000-Pct	99.000000-Pct	99.900000-Pct	99.990000-Pct	100.000000-Pct
1326972000	192162.0	194.103030303	493.710582244	2.54354907017	2.0	2.0	2.0	2.0	2.0	2.0	6.0	35.0	155.0	1040.0	1670.0	2306.0	7869.0	7869.0	7869.0
1326975600	3277.0	64.2549019608	138.162490299	2.15022490242	2.0	2.0	2.0	2.0	2.0	2.0	3.0	20.0	80.0	203.0	296.0	917.0	917.0	917.0	917.0
1326979200	472384.0	169.739130435	468.742391305	2.76154585041	2.0	2.0	2.0	2.0	2.0	2.0	5.0	32.0	143.0	761.0	1427.0	2009.0	6303.0	11213.0	11213.0
1326982800	217550.0	178.027823241	474.334030365	2.66438145303	2.0	2.0	2.0	2.0	2.0	2.0	5.0	33.0	137.0	806.0	1457.0	2332.0	5373.0	5478.0	5478.0
1326986400	548676.0	169.344444444	454.711648653	2.68512882218	2.0	2.0	2.0	2.0	2.0	2.0	6.0	35.0	146.0	770.0	1232.0	1763.0	5755.0	11006.0	11006.0
1326990000	867916.0	204.745458835	434.207356453	2.12071788515	2.0	2.0	2.0	2.0	2.0	2.0	8.0	47.0	191.0	935.0	1649.0	2087.0	4126.0	5163.0	5163.0
