#
# Generated On: 2012-01-25T15:48:03.573181
#           By: cwa.analyze.statistics
#      Version: 11.11.23
#       Author: Thomas A. de Ruiter <thomas@de-ruiter.cx>
#
#  Commandline: /home/af10028/bin/cwa analyze
#     Work Dir: /scratch/af10028/var/thesis-project/result/analyses/workload-01h-08652l-0s-default
#

Time	Sum	Avg	StdDev	CoV	0.000000-Pct	0.010000-Pct	0.100000-Pct	1.000000-Pct	2.000000-Pct	5.000000-Pct	25.000000-Pct	50.000000-Pct	75.000000-Pct	95.000000-Pct	98.000000-Pct	99.000000-Pct	99.900000-Pct	99.990000-Pct	100.000000-Pct
1326937800	30358.0	326.430107527	444.128198243	1.36056138206	2.0	2.0	2.0	2.0	2.0	3.0	9.0	176.0	417.0	1202.0	1883.0	2351.0	2351.0	2351.0	2351.0
1326938400	53966.0	296.516483516	425.558375157	1.43519297851	2.0	2.0	2.0	2.0	2.0	2.0	3.0	110.5	459.0	1029.0	1569.0	1803.0	3122.0	3122.0	3122.0
1326939000	163842.0	595.789090909	583.6957817	0.979702029806	2.0	2.0	2.0	2.0	2.0	3.0	24.0	522.0	843.0	1464.0	2037.0	2449.0	4744.0	4744.0	4744.0
1326939600	567667.0	2489.76754386	1469.10412133	0.590056740417	28.0	28.0	28.0	36.0	46.0	143.0	334.0	3384.5	3604.0	3921.0	3939.0	4281.0	4282.0	4282.0	4282.0
1326940200	979678.0	3498.85	1791.68299337	0.512077680773	340.0	340.0	340.0	350.0	353.0	394.0	1382.0	4500.5	4583.0	4925.0	4947.0	4952.0	4954.0	4954.0	4954.0
1326940800	679040.0	4115.39393939	2342.24876753	0.569143270856	574.0	574.0	574.0	588.0	598.0	633.0	736.0	5396.0	5844.0	5976.0	5998.0	6000.0	6000.0	6000.0	6000.0
1326941400	489485.0	4331.72566372	2497.40960886	0.576539190784	560.0	560.0	560.0	561.0	562.0	635.0	716.0	5928.0	6137.0	6196.0	6198.0	6198.0	6198.0	6198.0	6198.0
