#
# Generated On: 2012-01-25T15:48:03.444556
#           By: cwa.analyze.jobs_per_executableid
#      Version: 11.3.16
#       Author: Thomas A. de Ruiter <thomas@de-ruiter.cx>
#
#  Commandline: /home/af10028/bin/cwa analyze
#     Work Dir: /scratch/af10028/var/thesis-project/result/analyses/workload-01h-08652l-0s-default
#

Time	ID_-1
0	1955
3600	809
7200	46
10800	9
14400	1
