#
# Generated On: 2012-02-05T20:30:08.661739
#           By: cwa.analyze.statistics
#      Version: 11.11.23
#       Author: Thomas A. de Ruiter <thomas@de-ruiter.cx>
#
#  Commandline: /home/af10028/bin/cwa analyze
#     Work Dir: /scratch/af10028/var/thesis-project/result/analyses/workload-06h-09888l-1s-default
#

Time	Sum	Avg	StdDev	CoV	0.000000-Pct	0.010000-Pct	0.100000-Pct	1.000000-Pct	2.000000-Pct	5.000000-Pct	25.000000-Pct	50.000000-Pct	75.000000-Pct	95.000000-Pct	98.000000-Pct	99.000000-Pct	99.900000-Pct	99.990000-Pct	100.000000-Pct
1327108200	33263870.0	8355.65687013	3463.65864932	0.414528588614	2.0	2.0	2.0	199.0	737.0	1495.0	6637.0	8531.0	10717.0	13320.0	14246.0	15439.0	20885.0	26197.0	26197.0
