#
# Generated On: 2012-02-09T16:42:47.121060
#           By: cwa.analyze.statistics
#      Version: 11.11.23
#       Author: Thomas A. de Ruiter <thomas@de-ruiter.cx>
#
#  Commandline: /home/af10028/bin/cwa analyze
#     Work Dir: /scratch/af10028/var/thesis-project/result/workload-analyses/workload-06h-11124l-1s
#

Value	PDF	CDF
0.0	0.148540507178	0.148545827968
2.0	0.0539634568111	0.202509284779
4.0	0.0386023347629	0.241111619542
6.0	0.0305360164306	0.271647635973
8.0	0.0260559108661	0.297703546839
10.0	0.0227091336689	0.320412680508
12.0	0.0200114929074	0.340424173415
14.0	0.0183726894467	0.358796862862
16.0	0.0166381117579	0.37543497462
18.0	0.0150631577827	0.390498132403
20.0	0.0137276393781	0.404225771781
22.0	0.0131210692661	0.417346841047
24.0	0.0123123091166	0.429659150163
26.0	0.0115620776623	0.441221227826
28.0	0.0109661491311	0.452187376957
30.0	0.0101946345149	0.462382011472
32.0	0.00980089602111	0.472182907493
34.0	0.00937523278458	0.481558140277
36.0	0.00914643879495	0.490704579072
38.0	0.0087473795107	0.499451958583
40.0	0.0078641282949	0.507316086878
42.0	0.0079013738281	0.515217460706
44.0	0.00767790062892	0.522895361335
46.0	0.00729480371604	0.530190165051
48.0	0.00692234838408	0.537112513435
50.0	0.00654989305211	0.543662406487
52.0	0.0066616296517	0.550324036139
54.0	0.00639559012887	0.556719626268
56.0	0.00592203977823	0.562641666046
58.0	0.00589543582595	0.568537101872
60.0	0.0057411329027	0.574278234775
62.0	0.00543784784668	0.579716082621
64.0	0.0053739983612	0.585090080982
66.0	0.00517180832384	0.590261889306
68.0	0.0050175054006	0.595279394707
70.0	0.00510795883837	0.600387353545
72.0	0.00474614508731	0.605133498633
74.0	0.00465037085909	0.609783869492
76.0	0.00456523821179	0.614349107703
78.0	0.00457055900225	0.618919666706
80.0	0.00430451947941	0.623224186185
82.0	0.00428855710804	0.627512743293
84.0	0.00419278287982	0.631705526173
86.0	0.00380436517649	0.635509891349
88.0	0.00376179885284	0.639271690202
90.0	0.00385757308106	0.643129263283
92.0	0.00367134541507	0.646800608698
94.0	0.0038522522906	0.650652860989
96.0	0.00384161070969	0.654494471699
98.0	0.00329356929265	0.657788040991
100.0	0.0036926285769	0.661480669568
102.0	0.00325632375946	0.664736993328
104.0	0.00329356929265	0.66803056262
106.0	0.00335209798768	0.671382660608
108.0	0.00322439901672	0.674607059625
110.0	0.00325632375946	0.677863383384
112.0	0.00319779506443	0.681061178449
114.0	0.00295835949389	0.684019537943
116.0	0.00281469815156	0.686834236094
118.0	0.00275084866608	0.68958508476
120.0	0.00282533973247	0.692410424493
122.0	0.00277745261836	0.695187877111
124.0	0.0028093773611	0.697997254472
126.0	0.00275084866608	0.700748103138
128.0	0.00272424471379	0.703472347852
130.0	0.00264443285695	0.706116780709
132.0	0.00246884677188	0.708585627481
134.0	0.00260718732375	0.711192814805
136.0	0.00259122495238	0.713784039757
138.0	0.00241031807685	0.716194357834
140.0	0.00237307254366	0.718567430377
142.0	0.00253801704781	0.721105447425
144.0	0.00237839333411	0.723483840759
146.0	0.00234114780092	0.72582498856
148.0	0.00226665673452	0.728091645295
150.0	0.00230922305818	0.730400868353
152.0	0.00216024092539	0.732561109278
154.0	0.00210703302083	0.734668142299
156.0	0.00216556171585	0.736833704015
158.0	0.00193144693576	0.738765150951
160.0	0.00201657958306	0.740781730534
162.0	0.00195273009758	0.742734460631
164.0	0.0019633716785	0.74469783231
166.0	0.00185163507891	0.746549467389
168.0	0.0019261261453	0.748475593534
170.0	0.00184099349799	0.750316587032
172.0	0.00186759745028	0.752184184482
174.0	0.00193144693576	0.754115631418
176.0	0.00171861531749	0.755834246736
178.0	0.00191548456439	0.7577497313
180.0	0.00180906875525	0.759558800055
182.0	0.00176118164114	0.761319981696
184.0	0.00195273009758	0.763272711794
186.0	0.00166008662247	0.764932798417
188.0	0.00184631428845	0.766779112705
190.0	0.00170265294612	0.768481765651
192.0	0.00163348267019	0.770115248321
194.0	0.00159623713699	0.771711485458
196.0	0.0016813697843	0.773392855243
198.0	0.00162284108927	0.775015696332
200.0	0.00148982132786	0.77650551766
202.0	0.00156963318471	0.778075150844
204.0	0.00151110448968	0.779586255334
206.0	0.00164944504156	0.781235700376
208.0	0.00164944504156	0.782885145417
210.0	0.00144193421375	0.784327079631
212.0	0.00149514211831	0.785822221749
214.0	0.00147917974694	0.787301401496
216.0	0.00136744314735	0.788668844644
218.0	0.00148982132786	0.790158665971
220.0	0.00153770844197	0.791696374413
222.0	0.00139936789009	0.793095742303
224.0	0.00133551840461	0.794431260708
226.0	0.00118653627183	0.79561779698
228.0	0.00131423524279	0.796932032223
230.0	0.00124506496685	0.79817709719
232.0	0.0014472550042	0.799624352194
234.0	0.00121846101457	0.800842813208
236.0	0.00138872630918	0.802231539518
238.0	0.00124506496685	0.803476604484
240.0	0.00134615998553	0.80482276447
242.0	0.00122910259548	0.806051867065
244.0	0.00126102733822	0.807312894404
246.0	0.00122910259548	0.808541996999
248.0	0.00121314022411	0.809755137223
250.0	0.00114396994818	0.810899107171
252.0	0.00108544125315	0.811984548425
254.0	0.00118121548137	0.813165763906
256.0	0.00108544125315	0.814251205159
258.0	0.00117589469092	0.81542709985
260.0	0.000984346234477	0.816411446084
262.0	0.00119717785274	0.817608623937
264.0	0.00103755413904	0.818646178076
266.0	0.0010428749295	0.819689053006
268.0	0.00112268678635	0.820811739792
270.0	0.0010428749295	0.821854614722
272.0	0.000957742282193	0.822812357004
274.0	0.0010428749295	0.823855231933
276.0	0.000925817539454	0.824781049473
278.0	0.000973704653563	0.825754754126
280.0	0.000957742282193	0.826712496408
282.0	0.000973704653563	0.827686201062
284.0	0.00106947888178	0.828755679944
286.0	0.00102159176767	0.829777271711
288.0	0.000872609634887	0.830649881346
290.0	0.00103755413904	0.831687435485
292.0	0.000957742282193	0.832645177768
294.0	0.00106947888178	0.833714656649
296.0	0.000856647263517	0.834571303913
298.0	0.000787476987581	0.8353587809
300.0	0.00091517595854	0.836273956859
302.0	0.00093113832991	0.837205095189
304.0	0.000909855168084	0.838114950357
306.0	0.000861968053974	0.838976918411
308.0	0.000861968053974	0.839838886465
310.0	0.000861968053974	0.840700854519
312.0	0.000877930425344	0.841578784944
314.0	0.000899213587171	0.842477998531
316.0	0.000909855168084	0.8433878537
318.0	0.000824722520778	0.84421257622
320.0	0.000808760149408	0.84502133637
322.0	0.000973704653563	0.845995041023
324.0	0.000888572006257	0.84688361303
326.0	0.000771514616211	0.847655127646
328.0	0.000899213587171	0.848554341233
330.0	0.000712985921188	0.849267327154
332.0	0.000819401730321	0.850086728884
334.0	0.000776835406668	0.850863564291
336.0	0.000707665130732	0.851571229422
338.0	0.000782156197125	0.852353385619
340.0	0.000712985921188	0.85306637154
342.0	0.000819401730321	0.85388577327
344.0	0.000814080939864	0.85469985421
346.0	0.000723627502102	0.855423481712
348.0	0.000712985921188	0.856136467634
350.0	0.000750231454385	0.856886699088
352.0	0.000670419597535	0.857557118686
354.0	0.000611890902512	0.858169009588
356.0	0.000654457226166	0.858823466814
358.0	0.000707665130732	0.859531131945
360.0	0.000712985921188	0.860244117866
362.0	0.000782156197125	0.861026274063
364.0	0.000766193825755	0.861792467889
366.0	0.000665098807079	0.862457566696
368.0	0.000734269083015	0.863191835779
370.0	0.000718306711645	0.863910142491
372.0	0.000622532483426	0.864532674974
374.0	0.000691702759362	0.865224377734
376.0	0.000617211692969	0.865841589427
378.0	0.000718306711645	0.866559896138
380.0	0.000744910663928	0.867304806802
382.0	0.000638494854796	0.867943301657
384.0	0.000654457226166	0.868597758883
386.0	0.000707665130732	0.869305424014
388.0	0.000675740387992	0.869981164402
390.0	0.000627853273882	0.870609017676
392.0	0.000585286950229	0.871194304626
394.0	0.000595928531143	0.871790233157
396.0	0.000659778016622	0.872450011174
398.0	0.000585286950229	0.873035298124
400.0	0.000723627502102	0.873758925626
402.0	0.000617211692969	0.874376137319
404.0	0.000617211692969	0.874993349012
406.0	0.00048951272201	0.875482861734
408.0	0.000574645369316	0.876057507103
410.0	0.000606570112056	0.876664077215
412.0	0.000510795883837	0.877174873099
414.0	0.000654457226166	0.877829330325
416.0	0.00045758797927	0.878286918305
418.0	0.000585286950229	0.878872205255
420.0	0.00047355035064	0.879345755605
422.0	0.000484191931553	0.879829947537
424.0	0.000622532483426	0.88045248002
426.0	0.00053739983612	0.880989879857
428.0	0.000548041417033	0.881537921274
430.0	0.00055336220749	0.882091283481
432.0	0.000484191931553	0.882575475413
434.0	0.000611890902512	0.883187366315
436.0	0.00050547509338	0.883692841409
438.0	0.000532079045663	0.884224920454
440.0	0.00052143746475	0.884746357919
442.0	0.000409700865161	0.885156058784
444.0	0.000585286950229	0.885741345734
446.0	0.000510795883837	0.886252141618
448.0	0.000420342446074	0.886672484064
450.0	0.000595928531143	0.887268412595
452.0	0.000415021655617	0.887683434251
454.0	0.000542720626576	0.888226154878
456.0	0.000532079045663	0.888758233923
458.0	0.00048951272201	0.889247746645
460.0	0.000526758255206	0.8897745049
462.0	0.000484191931553	0.890258696832
464.0	0.000569324578859	0.890828021411
466.0	0.000500154302923	0.891328175714
468.0	0.000372455331964	0.891700631046
470.0	0.00042566323653	0.892126294282
472.0	0.000500154302923	0.892626448585
474.0	0.00048951272201	0.893115961307
476.0	0.0004416256079	0.893557586915
478.0	0.00047355035064	0.894031137266
480.0	0.0004416256079	0.894472762874
482.0	0.000393738493791	0.894866501367
484.0	0.00052143746475	0.895387938832
486.0	0.000430984026987	0.895818922859
488.0	0.000452267188814	0.896271190048
490.0	0.0004416256079	0.896712815656
492.0	0.00047355035064	0.897186366007
494.0	0.00045758797927	0.897643953986
496.0	0.000388417703334	0.898032371689
498.0	0.000494833512467	0.898527205202
500.0	0.000335209798768	0.898862415
502.0	0.000399059284247	0.899261474285
504.0	0.000500154302923	0.899761628588
506.0	0.000415021655617	0.900176650243
508.0	0.000377776122421	0.900554426366
510.0	0.000345851379681	0.900900277745
512.0	0.000351172170138	0.901251449915
514.0	0.000388417703334	0.901639867619
516.0	0.00042566323653	0.902065530855
518.0	0.00042566323653	0.902491194092
520.0	0.000372455331964	0.902863649424
522.0	0.000308605846485	0.90317225527
524.0	0.000361813751051	0.903534069021
526.0	0.000383096912877	0.903917165934
528.0	0.000430984026987	0.904348149961
530.0	0.000420342446074	0.904768492407
532.0	0.000436304817444	0.905204797225
534.0	0.000367134541507	0.905571931766
536.0	0.000345851379681	0.905917783146
538.0	0.000372455331964	0.906290238478
540.0	0.000356492960594	0.906646731438
542.0	0.000372455331964	0.90701918677
544.0	0.000372455331964	0.907391642102
546.0	0.000372455331964	0.907764097434
548.0	0.000340530589224	0.908104628024
550.0	0.000340530589224	0.908445158613
552.0	0.000415021655617	0.908860180268
554.0	0.000367134541507	0.90922731481
556.0	0.00042566323653	0.909652978046
558.0	0.000340530589224	0.909993508636
560.0	0.000361813751051	0.910355322387
562.0	0.000340530589224	0.910695852976
564.0	0.000367134541507	0.911062987517
566.0	0.000340530589224	0.911403518107
568.0	0.000308605846485	0.911712123953
570.0	0.000345851379681	0.912057975333
572.0	0.000345851379681	0.912403826712
574.0	0.000372455331964	0.912776282044
576.0	0.000324568217854	0.913100850262
578.0	0.000313926636941	0.913414776899
580.0	0.000340530589224	0.913755307488
582.0	0.000452267188814	0.914207574677
584.0	0.000329889008311	0.914537463686
586.0	0.000292643475115	0.914830107161
588.0	0.000345851379681	0.91517595854
590.0	0.000361813751051	0.915537772291
592.0	0.000303285056028	0.915841057347
594.0	0.000282001894201	0.916123059242
596.0	0.000313926636941	0.916436985879
598.0	0.000329889008311	0.916766874887
600.0	0.000223473199178	0.916990348086
602.0	0.000367134541507	0.917357482628
604.0	0.000282001894201	0.917639484522
606.0	0.000292643475115	0.917932127997
608.0	0.000292643475115	0.918224771472
610.0	0.000266039522832	0.918490810995
612.0	0.000292643475115	0.91878345447
614.0	0.000351172170138	0.91913462664
616.0	0.000340530589224	0.919475157229
618.0	0.000234114780092	0.919709272009
620.0	0.000345851379681	0.920055123389
622.0	0.000228793989635	0.920283917379
624.0	0.000308605846485	0.920592523225
626.0	0.000297964265571	0.920890487491
628.0	0.000345851379681	0.921236338871
630.0	0.000282001894201	0.921518340765
632.0	0.000324568217854	0.921842908983
634.0	0.000228793989635	0.922071702972
636.0	0.000345851379681	0.922417554352
638.0	0.000260718732375	0.922678273084
640.0	0.000324568217854	0.923002841302
642.0	0.000313926636941	0.923316767939
644.0	0.000255397941918	0.923572165881
646.0	0.000212831618265	0.923784997499
648.0	0.000212831618265	0.923997829117
650.0	0.000297964265571	0.924295793383
652.0	0.000351172170138	0.924646965553
654.0	0.000255397941918	0.924902363495
656.0	0.000287322684658	0.92518968618
658.0	0.000292643475115	0.925482329655
660.0	0.000266039522832	0.925748369178
662.0	0.000303285056028	0.926051654234
664.0	0.000228793989635	0.926280448223
666.0	0.000228793989635	0.926509242213
668.0	0.000271360313288	0.926780602526
670.0	0.000297964265571	0.927078566792
672.0	0.000234114780092	0.927312681572
674.0	0.000260718732375	0.927573400304
676.0	0.000308605846485	0.927882006151
678.0	0.000244756361005	0.928126762512
680.0	0.000308605846485	0.928435368358
682.0	0.000308605846485	0.928743974205
684.0	0.000175586085069	0.92891956029
686.0	0.000228793989635	0.92914835428
688.0	0.000228793989635	0.929377148269
690.0	0.000218152408722	0.929595300678
692.0	0.000260718732375	0.92985601941
694.0	0.000335209798768	0.930191229209
696.0	0.000266039522832	0.930457268732
698.0	0.000303285056028	0.930760553788
700.0	0.000297964265571	0.931058518053
702.0	0.000228793989635	0.931287312043
704.0	0.000228793989635	0.931516106033
706.0	0.000244756361005	0.931760862394
708.0	0.000212831618265	0.931973694012
710.0	0.000282001894201	0.932255695906
712.0	0.000260718732375	0.932516414639
714.0	0.000212831618265	0.932729246257
716.0	0.000228793989635	0.932958040246
718.0	0.000239435570548	0.933197475817
720.0	0.000250077151462	0.933447552968
722.0	0.000303285056028	0.933750838024
724.0	0.000202190037352	0.933953028062
726.0	0.000271360313288	0.934224388375
728.0	0.000244756361005	0.934469144736
730.0	0.000196869246895	0.934666013983
732.0	0.000202190037352	0.93486820402
734.0	0.000255397941918	0.935123601962
736.0	0.000196869246895	0.935320471209
738.0	0.000159623713699	0.935480094923
740.0	0.000191548456439	0.935671643379
742.0	0.000180906875525	0.935852550255
744.0	0.000244756361005	0.936097306616
746.0	0.000212831618265	0.936310138234
748.0	0.000223473199178	0.936533611433
750.0	0.000228793989635	0.936762405423
752.0	0.000228793989635	0.936991199413
754.0	0.000228793989635	0.937219993402
756.0	0.000255397941918	0.937475391344
758.0	0.000276681103745	0.937752072448
760.0	0.000191548456439	0.937943620904
762.0	0.000234114780092	0.938177735684
764.0	0.000180906875525	0.93835864256
766.0	0.000191548456439	0.938550191016
768.0	0.000244756361005	0.938794947377
770.0	0.000202190037352	0.938997137415
772.0	0.000239435570548	0.939236572985
774.0	0.000250077151462	0.939486650137
776.0	0.000202190037352	0.939688840174
778.0	0.000207510827809	0.939896351002
780.0	0.000212831618265	0.94010918262
782.0	0.000148982132786	0.940258164753
784.0	0.000191548456439	0.940449713209
786.0	0.000202190037352	0.940651903247
788.0	0.000175586085069	0.940827489332
790.0	0.000191548456439	0.941019037788
792.0	0.000154302923242	0.941173340711
794.0	0.000223473199178	0.941396813911
796.0	0.000207510827809	0.941604324738
798.0	0.000191548456439	0.941795873195
800.0	0.000159623713699	0.941955496909
802.0	0.000175586085069	0.942131082994
804.0	0.000191548456439	0.94232263145
806.0	0.000202190037352	0.942524821487
808.0	0.000207510827809	0.942732332315
810.0	0.000154302923242	0.942886635239
812.0	0.000186227665982	0.943072862905
814.0	0.000191548456439	0.943264411361
816.0	0.000122378180502	0.943386789541
818.0	0.000180906875525	0.943567696417
820.0	0.000175586085069	0.943743282502
822.0	0.000207510827809	0.94395079333
824.0	0.000154302923242	0.944105096253
826.0	0.000218152408722	0.944323248662
828.0	0.000133019761416	0.944456268423
830.0	0.000175586085069	0.944631854508
832.0	0.000154302923242	0.944786157432
834.0	0.000191548456439	0.944977705888
836.0	0.000143661342329	0.94512136723
838.0	0.000223473199178	0.945344840429
840.0	0.000191548456439	0.945536388886
842.0	0.000207510827809	0.945743899714
844.0	0.000212831618265	0.945956731332
846.0	0.000164944504156	0.946121675836
848.0	0.000159623713699	0.94628129955
850.0	0.000207510827809	0.946488810378
852.0	0.000186227665982	0.946675038044
854.0	0.000133019761416	0.946808057805
856.0	0.000228793989635	0.947036851795
858.0	0.000138340551872	0.947175192347
860.0	0.000228793989635	0.947403986336
862.0	0.000191548456439	0.947595534793
864.0	0.000207510827809	0.94780304562
866.0	0.000191548456439	0.947994594077
868.0	0.000159623713699	0.948154217791
870.0	0.000180906875525	0.948335124666
872.0	0.000111736599589	0.948446861266
874.0	0.000154302923242	0.948601164189
876.0	0.000148982132786	0.948750146322
878.0	0.000196869246895	0.948947015569
880.0	0.000186227665982	0.949133243235
882.0	0.000101095018676	0.949234338253
884.0	0.000164944504156	0.949399282757
886.0	0.000170265294612	0.949569548052
888.0	0.000143661342329	0.949713209394
890.0	0.000148982132786	0.949862191527
892.0	0.000170265294612	0.950032456822
894.0	0.000164944504156	0.950197401326
896.0	0.000212831618265	0.950410232944
898.0	0.000101095018676	0.950511327963
900.0	0.000154302923242	0.950665630886
902.0	0.000180906875525	0.950846537762
904.0	0.000159623713699	0.951006161475
906.0	0.000175586085069	0.95118174756
908.0	0.000175586085069	0.951357333645
910.0	0.000122378180502	0.951479711826
912.0	0.000191548456439	0.951671260282
914.0	0.000154302923242	0.951825563206
916.0	0.000170265294612	0.9519958285
918.0	0.000138340551872	0.952134169052
920.0	0.000159623713699	0.952293792766
922.0	0.000101095018676	0.952394887785
924.0	0.000117057390046	0.952511945175
926.0	0.000127698970959	0.952639644146
928.0	0.000122378180502	0.952762022326
930.0	0.000117057390046	0.952879079716
932.0	0.000170265294612	0.953049345011
934.0	0.000133019761416	0.953182364772
936.0	0.000159623713699	0.953341988486
938.0	0.000111736599589	0.953453725085
940.0	0.000164944504156	0.95361866959
942.0	9.04534377627e-05	0.953709123027
944.0	0.000175586085069	0.953884709112
946.0	0.000164944504156	0.954049653617
948.0	0.000154302923242	0.95420395654
950.0	0.000127698970959	0.954331655511
952.0	0.000186227665982	0.954517883177
954.0	0.000154302923242	0.9546721861
956.0	0.000159623713699	0.954831809814
958.0	9.57742282193e-05	0.954927584042
960.0	0.000138340551872	0.955065924594
962.0	0.000175586085069	0.955241510679
964.0	0.000117057390046	0.955358568069
966.0	0.000106415809133	0.955464983878
968.0	0.000106415809133	0.955571399687
970.0	0.000164944504156	0.955736344191
972.0	0.000122378180502	0.955858722372
974.0	0.000180906875525	0.956039629247
976.0	0.000148982132786	0.95618861138
978.0	0.000127698970959	0.956316310351
980.0	0.000101095018676	0.95641740537
982.0	9.57742282193e-05	0.956513179598
984.0	0.000117057390046	0.956630236988
986.0	0.000122378180502	0.956752615169
988.0	0.000133019761416	0.95688563493
990.0	0.000138340551872	0.957023975482
992.0	0.000133019761416	0.957156995243
994.0	0.000117057390046	0.957274052633
996.0	0.000111736599589	0.957385789233
998.0	0.000186227665982	0.957572016899
1000.0	0.000133019761416	0.95770503666
1002.0	0.000138340551872	0.957843377212
1004.0	0.000154302923242	0.957997680135
1006.0	0.000101095018676	0.958098775154
1008.0	9.04534377627e-05	0.958189228592
1010.0	9.57742282193e-05	0.95828500282
1012.0	0.000111736599589	0.95839673942
1014.0	0.000148982132786	0.958545721552
1016.0	0.000122378180502	0.958668099733
1018.0	8.51326473061e-05	0.95875323238
1020.0	0.000127698970959	0.958880931351
1022.0	0.000111736599589	0.958992667951
1024.0	5.85286950229e-05	0.959051196646
1026.0	0.000117057390046	0.959168254036
1028.0	0.000175586085069	0.959343840121
1030.0	0.000106415809133	0.95945025593
1032.0	0.000138340551872	0.959588596482
1034.0	0.000101095018676	0.959689691501
1036.0	0.000101095018676	0.959790786519
1038.0	0.000148982132786	0.959939768652
1040.0	8.51326473061e-05	0.960024901299
1042.0	0.000127698970959	0.96015260027
1044.0	0.000106415809133	0.960259016079
1046.0	9.57742282193e-05	0.960354790308
1048.0	0.000122378180502	0.960477168488
1050.0	0.000133019761416	0.96061018825
1052.0	0.000122378180502	0.96073256643
1054.0	0.000148982132786	0.960881548563
1056.0	0.000133019761416	0.961014568324
1058.0	0.000106415809133	0.961120984133
1060.0	0.000127698970959	0.961248683104
1062.0	8.51326473061e-05	0.961333815752
1064.0	0.000164944504156	0.961498760256
1066.0	0.000138340551872	0.961637100808
1068.0	0.000111736599589	0.961748837407
1070.0	0.000117057390046	0.961865894797
1072.0	7.44910663928e-05	0.961940385864
1074.0	0.000101095018676	0.962041480882
1076.0	8.51326473061e-05	0.96212661353
1078.0	9.57742282193e-05	0.962222387758
1080.0	0.000101095018676	0.962323482777
1082.0	8.51326473061e-05	0.962408615424
1084.0	9.04534377627e-05	0.962499068862
1086.0	7.98118568495e-05	0.962578880719
1088.0	0.000117057390046	0.962695938109
1090.0	7.98118568495e-05	0.962775749965
1092.0	9.04534377627e-05	0.962866203403
1094.0	0.000127698970959	0.962993902374
1096.0	7.98118568495e-05	0.963073714231
1098.0	7.44910663928e-05	0.963148205297
1100.0	0.000111736599589	0.963259941897
1102.0	0.000138340551872	0.963398282449
1104.0	9.04534377627e-05	0.963488735887
1106.0	0.000122378180502	0.963611114067
1108.0	0.000101095018676	0.963712209086
1110.0	9.04534377627e-05	0.963802662524
1112.0	0.000175586085069	0.963978248609
1114.0	4.78871141097e-05	0.964026135723
1116.0	0.000101095018676	0.964127230741
1118.0	0.000154302923242	0.964281533665
1120.0	9.57742282193e-05	0.964377307893
1122.0	9.04534377627e-05	0.964467761331
1124.0	0.000122378180502	0.964590139511
1126.0	5.32079045663e-05	0.964643347416
1128.0	8.51326473061e-05	0.964728480063
1130.0	0.000117057390046	0.964845537453
1132.0	0.000122378180502	0.964967915634
1134.0	0.000111736599589	0.965079652233
1136.0	9.57742282193e-05	0.965175426461
1138.0	0.000111736599589	0.965287163061
1140.0	0.000101095018676	0.96538825808
1142.0	9.57742282193e-05	0.965484032308
1144.0	7.98118568495e-05	0.965563844165
1146.0	9.04534377627e-05	0.965654297602
1148.0	0.000101095018676	0.965755392621
1150.0	0.000138340551872	0.965893733173
1152.0	9.04534377627e-05	0.965984186611
1154.0	0.000127698970959	0.966111885582
1156.0	7.44910663928e-05	0.966186376648
1158.0	7.98118568495e-05	0.966266188505
1160.0	9.57742282193e-05	0.966361962733
1162.0	7.44910663928e-05	0.9664364538
1164.0	7.98118568495e-05	0.966516265656
1166.0	0.000106415809133	0.966622681466
1168.0	9.04534377627e-05	0.966713134903
1170.0	0.000143661342329	0.966856796246
1172.0	9.57742282193e-05	0.966952570474
1174.0	0.000106415809133	0.967058986283
1176.0	6.38494854796e-05	0.967122835768
1178.0	8.51326473061e-05	0.967207968416
1180.0	7.44910663928e-05	0.967282459482
1182.0	4.78871141097e-05	0.967330346596
1184.0	7.98118568495e-05	0.967410158453
1186.0	5.32079045663e-05	0.967463366358
1188.0	5.32079045663e-05	0.967516574262
1190.0	5.85286950229e-05	0.967575102957
1192.0	7.98118568495e-05	0.967654914814
1194.0	4.2566323653e-05	0.967697481138
1196.0	8.51326473061e-05	0.967782613785
1198.0	8.51326473061e-05	0.967867746432
1200.0	0.000127698970959	0.967995445403
1202.0	7.98118568495e-05	0.96807525726
1204.0	7.44910663928e-05	0.968149748327
1206.0	7.44910663928e-05	0.968224239393
1208.0	4.78871141097e-05	0.968272126507
1210.0	8.51326473061e-05	0.968357259154
1212.0	0.000127698970959	0.968484958125
1214.0	9.57742282193e-05	0.968580732354
1216.0	7.98118568495e-05	0.96866054421
1218.0	9.04534377627e-05	0.968750997648
1220.0	7.98118568495e-05	0.968830809505
1222.0	0.000106415809133	0.968937225314
1224.0	9.57742282193e-05	0.969032999542
1226.0	0.000101095018676	0.969134094561
1228.0	9.04534377627e-05	0.969224547999
1230.0	0.000117057390046	0.969341605389
1232.0	7.98118568495e-05	0.969421417246
1234.0	6.91702759362e-05	0.969490587522
1236.0	6.91702759362e-05	0.969559757798
1238.0	9.04534377627e-05	0.969650211235
1240.0	7.98118568495e-05	0.969730023092
1242.0	9.04534377627e-05	0.96982047653
1244.0	9.57742282193e-05	0.969916250758
1246.0	9.04534377627e-05	0.970006704196
1248.0	0.000101095018676	0.970107799215
1250.0	8.51326473061e-05	0.970192931862
1252.0	6.38494854796e-05	0.970256781347
1254.0	6.91702759362e-05	0.970325951623
1256.0	9.57742282193e-05	0.970421725852
1258.0	6.38494854796e-05	0.970485575337
1260.0	7.44910663928e-05	0.970560066403
1262.0	5.85286950229e-05	0.970618595098
1264.0	7.98118568495e-05	0.970698406955
1266.0	7.44910663928e-05	0.970772898022
1268.0	8.51326473061e-05	0.970858030669
1270.0	7.44910663928e-05	0.970932521735
1272.0	8.51326473061e-05	0.971017654383
1274.0	5.85286950229e-05	0.971076183078
1276.0	6.38494854796e-05	0.971140032563
1278.0	6.91702759362e-05	0.971209202839
1280.0	7.44910663928e-05	0.971283693906
1282.0	6.38494854796e-05	0.971347543391
1284.0	5.32079045663e-05	0.971400751296
1286.0	5.32079045663e-05	0.9714539592
1288.0	8.51326473061e-05	0.971539091847
1290.0	5.85286950229e-05	0.971597620543
1292.0	0.000111736599589	0.971709357142
1294.0	7.98118568495e-05	0.971789168999
1296.0	9.57742282193e-05	0.971884943227
1298.0	6.91702759362e-05	0.971954113503
1300.0	5.85286950229e-05	0.972012642198
1302.0	7.98118568495e-05	0.972092454055
1304.0	6.38494854796e-05	0.97215630354
1306.0	8.51326473061e-05	0.972241436188
1308.0	4.2566323653e-05	0.972284002511
1310.0	8.51326473061e-05	0.972369135159
1312.0	5.32079045663e-05	0.972422343063
1314.0	4.78871141097e-05	0.972470230177
1316.0	6.91702759362e-05	0.972539400453
1318.0	8.51326473061e-05	0.972624533101
1320.0	5.32079045663e-05	0.972677741005
1322.0	8.51326473061e-05	0.972762873653
1324.0	4.2566323653e-05	0.972805439976
1326.0	3.72455331964e-05	0.972842685509
1328.0	7.98118568495e-05	0.972922497366
1330.0	5.32079045663e-05	0.972975705271
1332.0	7.98118568495e-05	0.973055517128
1334.0	7.44910663928e-05	0.973130008194
1336.0	4.2566323653e-05	0.973172574518
1338.0	8.51326473061e-05	0.973257707165
1340.0	4.78871141097e-05	0.973305594279
1342.0	6.91702759362e-05	0.973374764555
1344.0	3.72455331964e-05	0.973412010088
1346.0	8.51326473061e-05	0.973497142736
1348.0	5.32079045663e-05	0.97355035064
1350.0	3.72455331964e-05	0.973587596173
1352.0	9.57742282193e-05	0.973683370402
1354.0	6.38494854796e-05	0.973747219887
1356.0	7.44910663928e-05	0.973821710953
1358.0	7.44910663928e-05	0.97389620202
1360.0	7.98118568495e-05	0.973976013877
1362.0	6.91702759362e-05	0.974045184153
1364.0	5.32079045663e-05	0.974098392057
1366.0	5.32079045663e-05	0.974151599962
1368.0	4.78871141097e-05	0.974199487076
1370.0	5.32079045663e-05	0.97425269498
1372.0	5.85286950229e-05	0.974311223675
1374.0	5.32079045663e-05	0.97436443158
1376.0	6.91702759362e-05	0.974433601856
1378.0	5.85286950229e-05	0.974492130551
1380.0	7.44910663928e-05	0.974566621617
1382.0	6.91702759362e-05	0.974635791893
1384.0	5.85286950229e-05	0.974694320588
1386.0	6.91702759362e-05	0.974763490864
1388.0	6.38494854796e-05	0.97482734035
1390.0	7.98118568495e-05	0.974907152207
1392.0	7.44910663928e-05	0.974981643273
1394.0	8.51326473061e-05	0.97506677592
1396.0	9.57742282193e-05	0.975162550148
1398.0	9.04534377627e-05	0.975253003586
1400.0	0.000122378180502	0.975375381767
1402.0	5.32079045663e-05	0.975428589671
1404.0	5.32079045663e-05	0.975481797576
1406.0	6.91702759362e-05	0.975550967852
1408.0	6.38494854796e-05	0.975614817337
1410.0	9.04534377627e-05	0.975705270775
1412.0	3.19247427398e-05	0.975737195518
1414.0	3.72455331964e-05	0.975774441051
1416.0	3.72455331964e-05	0.975811686584
1418.0	6.38494854796e-05	0.97587553607
1420.0	8.51326473061e-05	0.975960668717
1422.0	4.2566323653e-05	0.976003235041
1424.0	7.44910663928e-05	0.976077726107
1426.0	6.38494854796e-05	0.976141575592
1428.0	6.38494854796e-05	0.976205425078
1430.0	5.32079045663e-05	0.976258632983
1432.0	6.38494854796e-05	0.976322482468
1434.0	5.85286950229e-05	0.976381011163
1436.0	4.78871141097e-05	0.976428898277
1438.0	6.38494854796e-05	0.976492747763
1440.0	6.38494854796e-05	0.976556597248
1442.0	2.66039522832e-05	0.9765832012
1444.0	5.32079045663e-05	0.976636409105
1446.0	5.85286950229e-05	0.9766949378
1448.0	4.2566323653e-05	0.976737504124
1450.0	4.78871141097e-05	0.976785391238
1452.0	3.72455331964e-05	0.976822636771
1454.0	5.32079045663e-05	0.976875844675
1456.0	4.78871141097e-05	0.97692373179
1458.0	4.78871141097e-05	0.976971618904
1460.0	7.44910663928e-05	0.97704610997
1462.0	7.44910663928e-05	0.977120601036
1464.0	7.44910663928e-05	0.977195092103
1466.0	4.78871141097e-05	0.977242979217
1468.0	6.38494854796e-05	0.977306828702
1470.0	7.44910663928e-05	0.977381319769
1472.0	5.32079045663e-05	0.977434527673
1474.0	4.78871141097e-05	0.977482414788
1476.0	5.32079045663e-05	0.977535622692
1478.0	4.2566323653e-05	0.977578189016
1480.0	3.19247427398e-05	0.977610113758
1482.0	4.78871141097e-05	0.977658000873
1484.0	3.19247427398e-05	0.977689925615
1486.0	4.2566323653e-05	0.977732491939
1488.0	6.38494854796e-05	0.977796341424
1490.0	5.32079045663e-05	0.977849549329
1492.0	3.19247427398e-05	0.977881474072
1494.0	5.32079045663e-05	0.977934681976
1496.0	4.78871141097e-05	0.97798256909
1498.0	5.32079045663e-05	0.978035776995
1500.0	3.19247427398e-05	0.978067701738
1502.0	4.2566323653e-05	0.978110268061
1504.0	6.91702759362e-05	0.978179438337
1506.0	4.2566323653e-05	0.978222004661
1508.0	8.51326473061e-05	0.978307137308
1510.0	5.85286950229e-05	0.978365666003
1512.0	4.78871141097e-05	0.978413553117
1514.0	5.85286950229e-05	0.978472081812
1516.0	3.19247427398e-05	0.978504006555
1518.0	4.78871141097e-05	0.978551893669
1521.0	5.32079045663e-05	0.978605101574
1523.0	6.38494854796e-05	0.978668951059
1525.0	3.72455331964e-05	0.978706196593
1527.0	0.000111736599589	0.978817933192
1529.0	4.78871141097e-05	0.978865820306
1531.0	7.44910663928e-05	0.978940311373
1533.0	3.19247427398e-05	0.978972236115
1536.0	3.19247427398e-05	0.979004160858
1538.0	6.91702759362e-05	0.979073331134
1540.0	6.91702759362e-05	0.97914250141
1542.0	5.32079045663e-05	0.979195709315
1544.0	3.72455331964e-05	0.979232954848
1546.0	2.66039522832e-05	0.9792595588
1548.0	2.66039522832e-05	0.979286162752
1550.0	5.32079045663e-05	0.979339370657
1552.0	4.2566323653e-05	0.979381936981
1554.0	5.32079045663e-05	0.979435144885
1556.0	3.72455331964e-05	0.979472390418
1558.0	7.44910663928e-05	0.979546881485
1560.0	2.66039522832e-05	0.979573485437
1562.0	4.2566323653e-05	0.979616051761
1564.0	6.91702759362e-05	0.979685222037
1566.0	2.66039522832e-05	0.979711825989
1568.0	4.78871141097e-05	0.979759713103
1570.0	5.32079045663e-05	0.979812921008
1572.0	4.78871141097e-05	0.979860808122
1574.0	3.72455331964e-05	0.979898053655
1576.0	3.72455331964e-05	0.979935299188
1578.0	7.44910663928e-05	0.980009790254
1580.0	2.12831618265e-05	0.980031073416
1582.0	2.66039522832e-05	0.980057677369
1584.0	3.72455331964e-05	0.980094922902
1586.0	4.2566323653e-05	0.980137489225
1589.0	3.72455331964e-05	0.980174734759
1591.0	4.2566323653e-05	0.980217301082
1593.0	7.44910663928e-05	0.980291792149
1595.0	3.19247427398e-05	0.980323716891
1597.0	5.32079045663e-05	0.980376924796
1599.0	3.72455331964e-05	0.980414170329
1601.0	3.72455331964e-05	0.980451415862
1603.0	7.44910663928e-05	0.980525906929
1605.0	4.2566323653e-05	0.980568473252
1607.0	2.12831618265e-05	0.980589756414
1609.0	4.2566323653e-05	0.980632322738
1611.0	4.78871141097e-05	0.980680209852
1613.0	5.85286950229e-05	0.980738738547
1615.0	5.85286950229e-05	0.980797267242
1617.0	4.78871141097e-05	0.980845154356
1619.0	5.85286950229e-05	0.980903683051
1621.0	2.66039522832e-05	0.980930287003
1623.0	4.78871141097e-05	0.980978174118
1625.0	6.91702759362e-05	0.981047344393
1627.0	2.66039522832e-05	0.981073948346
1629.0	4.78871141097e-05	0.98112183546
1631.0	5.32079045663e-05	0.981175043364
1633.0	4.2566323653e-05	0.981217609688
1635.0	3.72455331964e-05	0.981254855221
1637.0	4.78871141097e-05	0.981302742335
1639.0	2.12831618265e-05	0.981324025497
1641.0	4.78871141097e-05	0.981371912611
1643.0	1.59623713699e-05	0.981387874983
1645.0	4.2566323653e-05	0.981430441306
1647.0	7.44910663928e-05	0.981504932373
1649.0	4.78871141097e-05	0.981552819487
1651.0	4.78871141097e-05	0.981600706601
1653.0	6.38494854796e-05	0.981664556086
1656.0	5.85286950229e-05	0.981723084781
1658.0	4.2566323653e-05	0.981765651105
1660.0	3.19247427398e-05	0.981797575848
1662.0	6.38494854796e-05	0.981861425333
1664.0	6.38494854796e-05	0.981925274819
1666.0	4.78871141097e-05	0.981973161933
1668.0	2.66039522832e-05	0.981999765885
1670.0	3.72455331964e-05	0.982037011418
1672.0	2.66039522832e-05	0.982063615371
1674.0	5.85286950229e-05	0.982122144066
1676.0	3.19247427398e-05	0.982154068808
1678.0	5.85286950229e-05	0.982212597503
1680.0	3.72455331964e-05	0.982249843037
1682.0	2.66039522832e-05	0.982276446989
1684.0	2.66039522832e-05	0.982303050941
1686.0	4.2566323653e-05	0.982345617265
1688.0	3.19247427398e-05	0.982377542008
1690.0	5.32079045663e-05	0.982430749912
1692.0	3.72455331964e-05	0.982467995445
1694.0	3.19247427398e-05	0.982499920188
1696.0	6.91702759362e-05	0.982569090464
1698.0	4.78871141097e-05	0.982616977578
1700.0	2.66039522832e-05	0.98264358153
1702.0	8.51326473061e-05	0.982728714178
1704.0	6.38494854796e-05	0.982792563663
1706.0	4.2566323653e-05	0.982835129987
1708.0	4.78871141097e-05	0.982883017101
1710.0	4.78871141097e-05	0.982930904215
1712.0	4.78871141097e-05	0.982978791329
1714.0	3.72455331964e-05	0.983016036862
1716.0	1.59623713699e-05	0.983031999234
1718.0	3.19247427398e-05	0.983063923977
1720.0	3.19247427398e-05	0.983095848719
1722.0	3.19247427398e-05	0.983127773462
1724.0	3.72455331964e-05	0.983165018995
1726.0	2.66039522832e-05	0.983191622948
1729.0	2.12831618265e-05	0.983212906109
1731.0	3.19247427398e-05	0.983244830852
1733.0	4.78871141097e-05	0.983292717966
1735.0	4.78871141097e-05	0.98334060508
1737.0	4.2566323653e-05	0.983383171404
1739.0	1.06415809133e-05	0.983393812985
1741.0	6.91702759362e-05	0.983462983261
1743.0	2.66039522832e-05	0.983489587213
1745.0	2.12831618265e-05	0.983510870375
1747.0	4.78871141097e-05	0.983558757489
1749.0	2.12831618265e-05	0.983580040651
1751.0	3.72455331964e-05	0.983617286184
1753.0	3.19247427398e-05	0.983649210927
1755.0	4.78871141097e-05	0.983697098041
1757.0	3.19247427398e-05	0.983729022784
1759.0	1.59623713699e-05	0.983744985155
1761.0	1.06415809133e-05	0.983755626736
1763.0	6.38494854796e-05	0.983819476221
1766.0	4.78871141097e-05	0.983867363335
1768.0	4.2566323653e-05	0.983909929659
1770.0	3.19247427398e-05	0.983941854402
1772.0	2.12831618265e-05	0.983963137564
1774.0	5.32079045663e-05	0.984016345468
1776.0	2.66039522832e-05	0.984042949421
1778.0	3.72455331964e-05	0.984080194954
1780.0	5.85286950229e-05	0.984138723649
1783.0	4.2566323653e-05	0.984181289972
1785.0	4.2566323653e-05	0.984223856296
1787.0	3.72455331964e-05	0.984261101829
1789.0	1.59623713699e-05	0.984277064201
1791.0	1.59623713699e-05	0.984293026572
1793.0	3.72455331964e-05	0.984330272105
1795.0	5.32079045663e-05	0.98438348001
1797.0	3.19247427398e-05	0.984415404753
1799.0	4.78871141097e-05	0.984463291867
1801.0	3.19247427398e-05	0.984495216609
1803.0	5.32079045663e-05	0.984548424514
1805.0	4.2566323653e-05	0.984590990838
1807.0	3.72455331964e-05	0.984628236371
1809.0	3.72455331964e-05	0.984665481904
1811.0	3.19247427398e-05	0.984697406647
1813.0	2.66039522832e-05	0.984724010599
1816.0	1.06415809133e-05	0.98473465218
1818.0	3.72455331964e-05	0.984771897713
1820.0	4.78871141097e-05	0.984819784827
1822.0	2.66039522832e-05	0.98484638878
1824.0	2.12831618265e-05	0.984867671941
1826.0	2.66039522832e-05	0.984894275894
1828.0	5.85286950229e-05	0.984952804589
1830.0	2.66039522832e-05	0.984979408541
1832.0	3.19247427398e-05	0.985011333284
1834.0	1.06415809133e-05	0.985021974865
1836.0	3.19247427398e-05	0.985053899607
1838.0	2.12831618265e-05	0.985075182769
1840.0	5.85286950229e-05	0.985133711464
1842.0	2.66039522832e-05	0.985160315416
1845.0	4.2566323653e-05	0.98520288174
1847.0	3.19247427398e-05	0.985234806483
1849.0	2.12831618265e-05	0.985256089645
1851.0	2.66039522832e-05	0.985282693597
1853.0	2.66039522832e-05	0.985309297549
1855.0	1.59623713699e-05	0.985325259921
1857.0	2.12831618265e-05	0.985346543082
1859.0	4.78871141097e-05	0.985394430197
1861.0	3.72455331964e-05	0.98543167573
1863.0	2.12831618265e-05	0.985452958892
1865.0	2.12831618265e-05	0.985474242053
1867.0	1.06415809133e-05	0.985484883634
1869.0	3.19247427398e-05	0.985516808377
1871.0	6.38494854796e-05	0.985580657863
1873.0	1.06415809133e-05	0.985591299443
1875.0	2.12831618265e-05	0.985612582605
1877.0	5.32079045663e-05	0.98566579051
1879.0	2.12831618265e-05	0.985687073672
1881.0	1.59623713699e-05	0.985703036043
1883.0	1.59623713699e-05	0.985718998414
1885.0	3.19247427398e-05	0.985750923157
1887.0	1.59623713699e-05	0.985766885529
1889.0	3.19247427398e-05	0.985798810271
1892.0	2.66039522832e-05	0.985825414224
1894.0	2.12831618265e-05	0.985846697385
1896.0	2.66039522832e-05	0.985873301338
1898.0	2.12831618265e-05	0.985894584499
1900.0	2.12831618265e-05	0.985915867661
1902.0	3.72455331964e-05	0.985953113194
1904.0	1.06415809133e-05	0.985963754775
1906.0	2.66039522832e-05	0.985990358728
1908.0	3.72455331964e-05	0.986027604261
1910.0	2.12831618265e-05	0.986048887423
1912.0	1.59623713699e-05	0.986064849794
1914.0	3.19247427398e-05	0.986096774537
1916.0	3.72455331964e-05	0.98613402007
1918.0	2.12831618265e-05	0.986155303232
1920.0	2.66039522832e-05	0.986181907184
1922.0	4.78871141097e-05	0.986229794298
1924.0	4.2566323653e-05	0.986272360622
1926.0	4.2566323653e-05	0.986314926946
1928.0	1.59623713699e-05	0.986330889317
1930.0	2.12831618265e-05	0.986352172479
1932.0	4.78871141097e-05	0.986400059593
1934.0	3.19247427398e-05	0.986431984336
1936.0	3.19247427398e-05	0.986463909078
1938.0	4.78871141097e-05	0.986511796192
1940.0	2.12831618265e-05	0.986533079354
1942.0	1.06415809133e-05	0.986543720935
1944.0	2.66039522832e-05	0.986570324887
1946.0	2.12831618265e-05	0.986591608049
1948.0	2.12831618265e-05	0.986612891211
1951.0	2.12831618265e-05	0.986634174373
1953.0	4.78871141097e-05	0.986682061487
1955.0	2.66039522832e-05	0.986708665439
1957.0	1.06415809133e-05	0.98671930702
1959.0	4.2566323653e-05	0.986761873344
1961.0	4.2566323653e-05	0.986804439668
1963.0	3.72455331964e-05	0.986841685201
1965.0	2.12831618265e-05	0.986862968363
1967.0	2.12831618265e-05	0.986884251524
1969.0	2.12831618265e-05	0.986905534686
1971.0	2.66039522832e-05	0.986932138639
1973.0	5.32079045663e-06	0.986937459429
1975.0	3.19247427398e-05	0.986969384172
1977.0	2.12831618265e-05	0.986990667334
1979.0	4.78871141097e-05	0.987038554448
1981.0	2.12831618265e-05	0.987059837609
1983.0	2.66039522832e-05	0.987086441562
1985.0	1.59623713699e-05	0.987102403933
1987.0	4.2566323653e-05	0.987144970257
1989.0	3.72455331964e-05	0.98718221579
1991.0	1.59623713699e-05	0.987198178161
1993.0	3.72455331964e-05	0.987235423695
1995.0	3.72455331964e-05	0.987272669228
1997.0	2.66039522832e-05	0.98729927318
1999.0	3.19247427398e-05	0.987331197923
2001.0	1.59623713699e-05	0.987347160294
2003.0	1.06415809133e-05	0.987357801875
2005.0	1.59623713699e-05	0.987373764246
2007.0	3.72455331964e-05	0.98741100978
2009.0	1.59623713699e-05	0.987426972151
2011.0	4.2566323653e-05	0.987469538475
2014.0	1.59623713699e-05	0.987485500846
2016.0	2.66039522832e-05	0.987512104798
2019.0	2.12831618265e-05	0.98753338796
2021.0	2.66039522832e-05	0.987559991912
2023.0	3.19247427398e-05	0.987591916655
2026.0	2.66039522832e-05	0.987618520607
2028.0	1.59623713699e-05	0.987634482979
2030.0	2.66039522832e-05	0.987661086931
2032.0	1.06415809133e-05	0.987671728512
2034.0	4.2566323653e-05	0.987714294836
2036.0	4.2566323653e-05	0.987756861159
2038.0	2.12831618265e-05	0.987778144321
2040.0	2.66039522832e-05	0.987804748273
2042.0	1.59623713699e-05	0.987820710645
2044.0	3.19247427398e-05	0.987852635388
2047.0	3.19247427398e-05	0.98788456013
2049.0	2.12831618265e-05	0.987905843292
2051.0	3.72455331964e-05	0.987943088825
2053.0	1.59623713699e-05	0.987959051197
2055.0	1.59623713699e-05	0.987975013568
2057.0	4.2566323653e-05	0.988017579892
2059.0	2.12831618265e-05	0.988038863053
2061.0	2.12831618265e-05	0.988060146215
2063.0	2.66039522832e-05	0.988086750168
2065.0	1.59623713699e-05	0.988102712539
2067.0	2.12831618265e-05	0.988123995701
2069.0	1.59623713699e-05	0.988139958072
2071.0	2.66039522832e-05	0.988166562024
2073.0	4.2566323653e-05	0.988209128348
2075.0	2.66039522832e-05	0.9882357323
2077.0	3.19247427398e-05	0.988267657043
2079.0	2.66039522832e-05	0.988294260995
2083.0	2.12831618265e-05	0.988315544157
2085.0	1.59623713699e-05	0.988331506529
2087.0	2.66039522832e-05	0.988358110481
2089.0	3.19247427398e-05	0.988390035224
2091.0	2.12831618265e-05	0.988411318385
2093.0	1.59623713699e-05	0.988427280757
2095.0	2.12831618265e-05	0.988448563919
2097.0	2.12831618265e-05	0.98846984708
2099.0	1.59623713699e-05	0.988485809452
2102.0	1.06415809133e-05	0.988496451033
2104.0	4.2566323653e-05	0.988539017356
2106.0	2.12831618265e-05	0.988560300518
2108.0	3.19247427398e-05	0.988592225261
2110.0	2.12831618265e-05	0.988613508423
2112.0	1.06415809133e-05	0.988624150004
2115.0	3.72455331964e-05	0.988661395537
2117.0	3.19247427398e-05	0.98869332028
2122.0	1.59623713699e-05	0.988709282651
2124.0	3.19247427398e-05	0.988741207394
2126.0	3.72455331964e-05	0.988778452927
2128.0	2.12831618265e-05	0.988799736089
2130.0	2.66039522832e-05	0.988826340041
2132.0	2.66039522832e-05	0.988852943993
2134.0	1.59623713699e-05	0.988868906365
2136.0	1.06415809133e-05	0.988879547946
2138.0	3.19247427398e-05	0.988911472688
2140.0	4.2566323653e-05	0.988954039012
2142.0	2.12831618265e-05	0.988975322174
2144.0	2.66039522832e-05	0.989001926126
2146.0	3.19247427398e-05	0.989033850869
2148.0	2.66039522832e-05	0.989060454821
2150.0	1.59623713699e-05	0.989076417193
2152.0	5.32079045663e-05	0.989129625097
2155.0	1.59623713699e-05	0.989145587468
2157.0	1.06415809133e-05	0.989156229049
2160.0	1.59623713699e-05	0.989172191421
2162.0	3.19247427398e-05	0.989204116163
2164.0	3.19247427398e-05	0.989236040906
2166.0	1.06415809133e-05	0.989246682487
2168.0	1.59623713699e-05	0.989262644859
2170.0	2.66039522832e-05	0.989289248811
2172.0	3.19247427398e-05	0.989321173554
2174.0	3.19247427398e-05	0.989353098296
2176.0	2.12831618265e-05	0.989374381458
2178.0	2.12831618265e-05	0.98939566462
2180.0	1.59623713699e-05	0.989411626991
2182.0	2.66039522832e-05	0.989438230944
2184.0	2.12831618265e-05	0.989459514105
2186.0	3.19247427398e-05	0.989491438848
2189.0	2.66039522832e-05	0.9895180428
2192.0	2.66039522832e-05	0.989544646753
2194.0	1.59623713699e-05	0.989560609124
2197.0	3.19247427398e-05	0.989592533867
2199.0	3.72455331964e-05	0.9896297794
2201.0	3.72455331964e-05	0.989667024933
2203.0	2.12831618265e-05	0.989688308095
2206.0	2.66039522832e-05	0.989714912047
2208.0	3.19247427398e-05	0.98974683679
2210.0	3.19247427398e-05	0.989778761533
2212.0	1.59623713699e-05	0.989794723904
2214.0	1.59623713699e-05	0.989810686276
2216.0	3.19247427398e-05	0.989842611018
2218.0	3.19247427398e-05	0.989874535761
2220.0	2.12831618265e-05	0.989895818923
2222.0	3.72455331964e-05	0.989933064456
2224.0	1.59623713699e-05	0.989949026827
2226.0	1.59623713699e-05	0.989964989199
2228.0	4.78871141097e-05	0.990012876313
2230.0	2.12831618265e-05	0.990034159475
2232.0	1.59623713699e-05	0.990050121846
2234.0	2.12831618265e-05	0.990071405008
2236.0	1.59623713699e-05	0.990087367379
2238.0	1.59623713699e-05	0.990103329751
2240.0	2.12831618265e-05	0.990124612912
2242.0	5.32079045663e-06	0.990129933703
2244.0	3.19247427398e-05	0.990161858446
2246.0	1.59623713699e-05	0.990177820817
2249.0	1.59623713699e-05	0.990193783188
2251.0	1.59623713699e-05	0.99020974556
2253.0	1.06415809133e-05	0.990220387141
2255.0	2.66039522832e-05	0.990246991093
2257.0	2.66039522832e-05	0.990273595045
2259.0	2.12831618265e-05	0.990294878207
2261.0	3.19247427398e-05	0.99032680295
2263.0	2.12831618265e-05	0.990348086112
2265.0	3.72455331964e-05	0.990385331645
2267.0	2.12831618265e-05	0.990406614807
2269.0	5.32079045663e-05	0.990459822711
2271.0	5.32079045663e-06	0.990465143502
2273.0	3.19247427398e-05	0.990497068244
2275.0	3.72455331964e-05	0.990534313778
2277.0	5.32079045663e-06	0.990539634568
2279.0	1.06415809133e-05	0.990550276149
2281.0	1.59623713699e-05	0.99056623852
2283.0	2.12831618265e-05	0.990587521682
2285.0	1.59623713699e-05	0.990603484054
2287.0	2.66039522832e-05	0.990630088006
2289.0	1.59623713699e-05	0.990646050377
2291.0	1.06415809133e-05	0.990656691958
2293.0	1.59623713699e-05	0.99067265433
2295.0	2.12831618265e-05	0.990693937491
2298.0	2.66039522832e-05	0.990720541444
2300.0	2.12831618265e-05	0.990741824605
2302.0	2.12831618265e-05	0.990763107767
2304.0	1.06415809133e-05	0.990773749348
2306.0	1.59623713699e-05	0.99078971172
2308.0	4.2566323653e-05	0.990832278043
2310.0	1.06415809133e-05	0.990842919624
2312.0	2.12831618265e-05	0.990864202786
2314.0	2.12831618265e-05	0.990885485948
2316.0	2.66039522832e-05	0.9909120899
2318.0	1.59623713699e-05	0.990928052271
2320.0	3.19247427398e-05	0.990959977014
2323.0	1.59623713699e-05	0.990975939386
2326.0	2.12831618265e-05	0.990997222547
2328.0	1.06415809133e-05	0.991007864128
2331.0	4.2566323653e-05	0.991050430452
2333.0	1.59623713699e-05	0.991066392823
2336.0	1.59623713699e-05	0.991082355195
2339.0	5.32079045663e-06	0.991087675985
2341.0	2.12831618265e-05	0.991108959147
2343.0	2.12831618265e-05	0.991130242309
2345.0	3.19247427398e-05	0.991162167052
2348.0	2.12831618265e-05	0.991183450213
2350.0	1.59623713699e-05	0.991199412585
2352.0	2.12831618265e-05	0.991220695747
2354.0	2.66039522832e-05	0.991247299699
2356.0	1.06415809133e-05	0.99125794128
2358.0	1.06415809133e-05	0.991268582861
2360.0	1.59623713699e-05	0.991284545232
2362.0	2.12831618265e-05	0.991305828394
2364.0	2.12831618265e-05	0.991327111556
2368.0	1.59623713699e-05	0.991343073927
2370.0	2.12831618265e-05	0.991364357089
2373.0	2.12831618265e-05	0.991385640251
2375.0	1.06415809133e-05	0.991396281832
2377.0	2.66039522832e-05	0.991422885784
2379.0	1.59623713699e-05	0.991438848155
2382.0	2.12831618265e-05	0.991460131317
2384.0	1.59623713699e-05	0.991476093688
2386.0	1.06415809133e-05	0.991486735269
2388.0	2.12831618265e-05	0.991508018431
2390.0	1.06415809133e-05	0.991518660012
2392.0	1.06415809133e-05	0.991529301593
2395.0	1.06415809133e-05	0.991539943174
2397.0	1.59623713699e-05	0.991555905545
2400.0	1.06415809133e-05	0.991566547126
2402.0	1.06415809133e-05	0.991577188707
2404.0	3.19247427398e-05	0.99160911345
2408.0	2.66039522832e-05	0.991635717402
2410.0	1.06415809133e-05	0.991646358983
2412.0	2.12831618265e-05	0.991667642145
2414.0	1.06415809133e-05	0.991678283726
2416.0	2.12831618265e-05	0.991699566888
2418.0	1.59623713699e-05	0.991715529259
2421.0	1.06415809133e-05	0.99172617084
2423.0	1.59623713699e-05	0.991742133211
2425.0	5.32079045663e-06	0.991747454002
2427.0	1.59623713699e-05	0.991763416373
2430.0	1.59623713699e-05	0.991779378745
2432.0	1.59623713699e-05	0.991795341116
2434.0	1.59623713699e-05	0.991811303487
2436.0	2.12831618265e-05	0.991832586649
2438.0	1.06415809133e-05	0.99184322823
2443.0	2.12831618265e-05	0.991864511392
2446.0	5.32079045663e-06	0.991869832182
2448.0	1.06415809133e-05	0.991880473763
2450.0	3.72455331964e-05	0.991917719296
2452.0	3.19247427398e-05	0.991949644039
2454.0	1.59623713699e-05	0.99196560641
2456.0	2.12831618265e-05	0.991986889572
2458.0	1.06415809133e-05	0.991997531153
2460.0	1.59623713699e-05	0.992013493525
2462.0	1.59623713699e-05	0.992029455896
2464.0	2.12831618265e-05	0.992050739058
2468.0	1.06415809133e-05	0.992061380639
2470.0	1.06415809133e-05	0.99207202222
2472.0	1.06415809133e-05	0.992082663801
2474.0	1.59623713699e-05	0.992098626172
2476.0	2.12831618265e-05	0.992119909334
2478.0	1.59623713699e-05	0.992135871705
2480.0	5.32079045663e-06	0.992141192496
2482.0	1.59623713699e-05	0.992157154867
2484.0	1.06415809133e-05	0.992167796448
2486.0	5.32079045663e-06	0.992173117238
2488.0	2.12831618265e-05	0.9921944004
2490.0	1.06415809133e-05	0.992205041981
2494.0	1.06415809133e-05	0.992215683562
2496.0	5.32079045663e-06	0.992221004352
2498.0	1.06415809133e-05	0.992231645933
2500.0	1.06415809133e-05	0.992242287514
2502.0	2.12831618265e-05	0.992263570676
2504.0	1.59623713699e-05	0.992279533047
2507.0	2.66039522832e-05	0.992306137
2509.0	2.12831618265e-05	0.992327420162
2512.0	1.59623713699e-05	0.992343382533
2514.0	1.59623713699e-05	0.992359344904
2516.0	3.72455331964e-05	0.992396590437
2518.0	5.32079045663e-06	0.992401911228
2520.0	1.06415809133e-05	0.992412552809
2522.0	1.59623713699e-05	0.99242851518
2524.0	1.59623713699e-05	0.992444477552
2526.0	5.32079045663e-06	0.992449798342
2528.0	5.32079045663e-06	0.992455119132
2530.0	1.59623713699e-05	0.992471081504
2532.0	1.06415809133e-05	0.992481723085
2534.0	1.06415809133e-05	0.992492364666
2536.0	3.19247427398e-05	0.992524289408
2538.0	1.59623713699e-05	0.99254025178
2540.0	3.19247427398e-05	0.992572176523
2542.0	5.32079045663e-06	0.992577497313
2544.0	2.12831618265e-05	0.992598780475
2547.0	5.32079045663e-06	0.992604101265
2549.0	2.66039522832e-05	0.992630705218
2551.0	2.66039522832e-05	0.99265730917
2553.0	5.32079045663e-06	0.99266262996
2555.0	5.32079045663e-06	0.992667950751
2557.0	1.59623713699e-05	0.992683913122
2559.0	5.32079045663e-06	0.992689233913
2561.0	1.06415809133e-05	0.992699875494
2564.0	1.59623713699e-05	0.992715837865
2567.0	1.06415809133e-05	0.992726479446
2571.0	1.59623713699e-05	0.992742441817
2573.0	4.2566323653e-05	0.992785008141
2575.0	1.06415809133e-05	0.992795649722
2577.0	1.06415809133e-05	0.992806291303
2583.0	2.66039522832e-05	0.992832895255
2585.0	1.06415809133e-05	0.992843536836
2587.0	2.12831618265e-05	0.992864819998
2589.0	5.32079045663e-06	0.992870140788
2591.0	1.59623713699e-05	0.992886103159
2593.0	1.59623713699e-05	0.992902065531
2595.0	1.59623713699e-05	0.992918027902
2597.0	5.32079045663e-06	0.992923348693
2599.0	1.59623713699e-05	0.992939311064
2601.0	1.59623713699e-05	0.992955273435
2603.0	2.12831618265e-05	0.992976556597
2607.0	2.12831618265e-05	0.992997839759
2609.0	2.66039522832e-05	0.993024443711
2612.0	1.06415809133e-05	0.993035085292
2614.0	1.59623713699e-05	0.993051047664
2616.0	2.66039522832e-05	0.993077651616
2619.0	2.66039522832e-05	0.993104255568
2622.0	1.59623713699e-05	0.99312021794
2624.0	5.32079045663e-06	0.99312553873
2626.0	1.59623713699e-05	0.993141501101
2628.0	5.32079045663e-06	0.993146821892
2631.0	5.32079045663e-06	0.993152142682
2633.0	1.59623713699e-05	0.993168105054
2635.0	1.06415809133e-05	0.993178746635
2637.0	3.72455331964e-05	0.993215992168
2640.0	1.59623713699e-05	0.993231954539
2642.0	1.59623713699e-05	0.993247916911
2644.0	1.06415809133e-05	0.993258558491
2646.0	1.59623713699e-05	0.993274520863
2650.0	1.59623713699e-05	0.993290483234
2652.0	1.59623713699e-05	0.993306445606
2654.0	2.12831618265e-05	0.993327728767
2658.0	1.06415809133e-05	0.993338370348
2660.0	3.19247427398e-05	0.993370295091
2662.0	2.66039522832e-05	0.993396899043
2664.0	1.59623713699e-05	0.993412861415
2666.0	5.32079045663e-06	0.993418182205
2668.0	1.59623713699e-05	0.993434144577
2670.0	1.59623713699e-05	0.993450106948
2673.0	1.59623713699e-05	0.993466069319
2675.0	1.06415809133e-05	0.9934767109
2678.0	1.06415809133e-05	0.993487352481
2680.0	2.66039522832e-05	0.993513956433
2682.0	2.66039522832e-05	0.993540560386
2684.0	1.06415809133e-05	0.993551201967
2686.0	5.32079045663e-06	0.993556522757
2688.0	1.59623713699e-05	0.993572485128
2690.0	1.06415809133e-05	0.993583126709
2692.0	1.59623713699e-05	0.993599089081
2698.0	2.12831618265e-05	0.993620372243
2701.0	2.66039522832e-05	0.993646976195
2705.0	1.59623713699e-05	0.993662938566
2709.0	1.06415809133e-05	0.993673580147
2712.0	2.12831618265e-05	0.993694863309
2714.0	5.32079045663e-06	0.993700184099
2717.0	5.32079045663e-06	0.99370550489
2719.0	1.59623713699e-05	0.993721467261
2721.0	5.32079045663e-06	0.993726788052
2724.0	1.59623713699e-05	0.993742750423
2726.0	1.06415809133e-05	0.993753392004
2728.0	2.66039522832e-05	0.993779995956
2730.0	1.59623713699e-05	0.993795958328
2732.0	1.59623713699e-05	0.993811920699
2734.0	1.59623713699e-05	0.99382788307
2738.0	2.66039522832e-05	0.993854487023
2742.0	1.59623713699e-05	0.993870449394
2745.0	1.06415809133e-05	0.993881090975
2747.0	1.06415809133e-05	0.993891732556
2749.0	1.06415809133e-05	0.993902374137
2751.0	1.59623713699e-05	0.993918336508
2754.0	1.59623713699e-05	0.993934298879
2757.0	5.32079045663e-06	0.99393961967
2759.0	2.12831618265e-05	0.993960902832
2761.0	5.32079045663e-06	0.993966223622
2764.0	2.66039522832e-05	0.993992827574
2766.0	1.06415809133e-05	0.994003469155
2768.0	1.06415809133e-05	0.994014110736
2772.0	2.12831618265e-05	0.994035393898
2775.0	2.12831618265e-05	0.99405667706
2777.0	1.06415809133e-05	0.994067318641
2779.0	1.59623713699e-05	0.994083281012
2782.0	2.12831618265e-05	0.994104564174
2784.0	1.59623713699e-05	0.994120526545
2787.0	1.06415809133e-05	0.994131168126
2789.0	5.32079045663e-06	0.994136488917
2791.0	1.59623713699e-05	0.994152451288
2793.0	1.06415809133e-05	0.994163092869
2795.0	2.12831618265e-05	0.994184376031
2797.0	2.66039522832e-05	0.994210979983
2799.0	5.32079045663e-06	0.994216300774
2801.0	5.32079045663e-06	0.994221621564
2806.0	2.12831618265e-05	0.994242904726
2809.0	5.32079045663e-06	0.994248225516
2811.0	2.66039522832e-05	0.994274829469
2813.0	1.06415809133e-05	0.99428547105
2815.0	1.59623713699e-05	0.994301433421
2818.0	2.12831618265e-05	0.994322716583
2820.0	1.06415809133e-05	0.994333358164
2822.0	1.59623713699e-05	0.994349320535
2824.0	1.59623713699e-05	0.994365282906
2826.0	1.06415809133e-05	0.994375924487
2828.0	2.12831618265e-05	0.994397207649
2830.0	1.59623713699e-05	0.994413170021
2836.0	1.06415809133e-05	0.994423811601
2841.0	5.32079045663e-06	0.994429132392
2843.0	1.06415809133e-05	0.994439773973
2845.0	1.59623713699e-05	0.994455736344
2847.0	2.12831618265e-05	0.994477019506
2849.0	1.06415809133e-05	0.994487661087
2851.0	1.59623713699e-05	0.994503623458
2853.0	2.12831618265e-05	0.99452490662
2855.0	2.12831618265e-05	0.994546189782
2858.0	2.66039522832e-05	0.994572793734
2860.0	5.32079045663e-06	0.994578114525
2863.0	1.59623713699e-05	0.994594076896
2865.0	2.12831618265e-05	0.994615360058
2867.0	1.06415809133e-05	0.994626001639
2869.0	5.32079045663e-06	0.994631322429
2871.0	1.59623713699e-05	0.994647284801
2873.0	5.32079045663e-06	0.994652605591
2875.0	5.32079045663e-06	0.994657926382
2877.0	1.59623713699e-05	0.994673888753
2879.0	1.06415809133e-05	0.994684530334
2881.0	1.06415809133e-05	0.994695171915
2884.0	5.32079045663e-06	0.994700492705
2886.0	5.32079045663e-06	0.994705813496
2888.0	1.59623713699e-05	0.994721775867
2893.0	1.06415809133e-05	0.994732417448
2897.0	5.32079045663e-06	0.994737738238
2900.0	1.06415809133e-05	0.994748379819
2902.0	5.32079045663e-06	0.99475370061
2904.0	5.32079045663e-06	0.9947590214
2906.0	1.59623713699e-05	0.994774983772
2910.0	5.32079045663e-06	0.994780304562
2912.0	1.06415809133e-05	0.994790946143
2914.0	1.06415809133e-05	0.994801587724
2916.0	2.12831618265e-05	0.994822870886
2918.0	1.59623713699e-05	0.994838833257
2922.0	1.06415809133e-05	0.994849474838
2924.0	2.12831618265e-05	0.994870758
2927.0	5.32079045663e-06	0.99487607879
2929.0	5.32079045663e-06	0.994881399581
2932.0	1.06415809133e-05	0.994892041162
2934.0	5.32079045663e-06	0.994897361952
2937.0	1.06415809133e-05	0.994908003533
2939.0	1.59623713699e-05	0.994923965904
2942.0	1.06415809133e-05	0.994934607485
2944.0	5.32079045663e-06	0.994939928276
2946.0	5.32079045663e-06	0.994945249066
2948.0	1.06415809133e-05	0.994955890647
2950.0	1.06415809133e-05	0.994966532228
2954.0	5.32079045663e-06	0.994971853018
2956.0	1.59623713699e-05	0.99498781539
2962.0	5.32079045663e-06	0.99499313618
2964.0	1.59623713699e-05	0.995009098552
2967.0	1.06415809133e-05	0.995019740133
2970.0	1.59623713699e-05	0.995035702504
2973.0	5.32079045663e-06	0.995041023294
2975.0	1.06415809133e-05	0.995051664875
2979.0	5.32079045663e-06	0.995056985666
2981.0	1.06415809133e-05	0.995067627247
2983.0	1.59623713699e-05	0.995083589618
2986.0	1.59623713699e-05	0.995099551989
2988.0	2.12831618265e-05	0.995120835151
2990.0	5.32079045663e-06	0.995126155942
2992.0	5.32079045663e-06	0.995131476732
2995.0	5.32079045663e-06	0.995136797523
2997.0	1.59623713699e-05	0.995152759894
2999.0	5.32079045663e-06	0.995158080684
3001.0	1.06415809133e-05	0.995168722265
3003.0	1.59623713699e-05	0.995184684637
3006.0	1.06415809133e-05	0.995195326218
3008.0	5.32079045663e-06	0.995200647008
3010.0	2.12831618265e-05	0.99522193017
3014.0	2.12831618265e-05	0.995243213332
3016.0	1.59623713699e-05	0.995259175703
3018.0	1.59623713699e-05	0.995275138075
3020.0	1.06415809133e-05	0.995285779655
3023.0	5.32079045663e-06	0.995291100446
3025.0	2.12831618265e-05	0.995312383608
3027.0	1.59623713699e-05	0.995328345979
3029.0	5.32079045663e-06	0.99533366677
3034.0	1.59623713699e-05	0.995349629141
3041.0	2.12831618265e-05	0.995370912303
3043.0	1.06415809133e-05	0.995381553884
3046.0	5.32079045663e-06	0.995386874674
3048.0	2.12831618265e-05	0.995408157836
3051.0	5.32079045663e-06	0.995413478626
3054.0	1.06415809133e-05	0.995424120207
3057.0	1.06415809133e-05	0.995434761788
3059.0	5.32079045663e-06	0.995440082579
3061.0	1.59623713699e-05	0.99545604495
3063.0	1.06415809133e-05	0.995466686531
3066.0	1.59623713699e-05	0.995482648902
3069.0	1.06415809133e-05	0.995493290483
3072.0	1.06415809133e-05	0.995503932064
3074.0	2.12831618265e-05	0.995525215226
3077.0	5.32079045663e-06	0.995530536016
3080.0	2.12831618265e-05	0.995551819178
3082.0	5.32079045663e-06	0.995557139969
3084.0	2.12831618265e-05	0.995578423131
3087.0	5.32079045663e-06	0.995583743921
3092.0	1.06415809133e-05	0.995594385502
3094.0	5.32079045663e-06	0.995599706292
3096.0	5.32079045663e-06	0.995605027083
3101.0	1.06415809133e-05	0.995615668664
3103.0	1.06415809133e-05	0.995626310245
3105.0	5.32079045663e-06	0.995631631035
3108.0	1.06415809133e-05	0.995642272616
3111.0	1.06415809133e-05	0.995652914197
3114.0	1.06415809133e-05	0.995663555778
3116.0	5.32079045663e-06	0.995668876568
3118.0	5.32079045663e-06	0.995674197359
3126.0	5.32079045663e-06	0.995679518149
3128.0	1.06415809133e-05	0.99569015973
3131.0	5.32079045663e-06	0.995695480521
3134.0	1.06415809133e-05	0.995706122101
3136.0	1.06415809133e-05	0.995716763682
3139.0	1.06415809133e-05	0.995727405263
3142.0	1.59623713699e-05	0.995743367635
3144.0	1.06415809133e-05	0.995754009216
3147.0	1.59623713699e-05	0.995769971587
3149.0	1.06415809133e-05	0.995780613168
3153.0	5.32079045663e-06	0.995785933958
3155.0	1.06415809133e-05	0.995796575539
3157.0	5.32079045663e-06	0.99580189633
3159.0	1.59623713699e-05	0.995817858701
3161.0	1.06415809133e-05	0.995828500282
3164.0	2.12831618265e-05	0.995849783444
3169.0	1.59623713699e-05	0.995865745815
3172.0	1.06415809133e-05	0.995876387396
3174.0	1.59623713699e-05	0.995892349767
3177.0	1.59623713699e-05	0.995908312139
3180.0	5.32079045663e-06	0.995913632929
3183.0	5.32079045663e-06	0.99591895372
3186.0	1.06415809133e-05	0.995929595301
3188.0	1.06415809133e-05	0.995940236882
3190.0	1.06415809133e-05	0.995950878463
3193.0	1.59623713699e-05	0.995966840834
3196.0	2.66039522832e-05	0.995993444786
3198.0	1.06415809133e-05	0.996004086367
3200.0	1.06415809133e-05	0.996014727948
3203.0	2.12831618265e-05	0.99603601111
3208.0	5.32079045663e-06	0.9960413319
3210.0	1.06415809133e-05	0.996051973481
3212.0	1.06415809133e-05	0.996062615062
3215.0	5.32079045663e-06	0.996067935853
3220.0	1.59623713699e-05	0.996083898224
3230.0	5.32079045663e-06	0.996089219014
3233.0	2.12831618265e-05	0.996110502176
3236.0	5.32079045663e-06	0.996115822967
3238.0	1.06415809133e-05	0.996126464548
3241.0	1.59623713699e-05	0.996142426919
3247.0	5.32079045663e-06	0.996147747709
3251.0	1.06415809133e-05	0.99615838929
3258.0	1.59623713699e-05	0.996174351662
3260.0	1.59623713699e-05	0.996190314033
3262.0	5.32079045663e-06	0.996195634824
3270.0	1.06415809133e-05	0.996206276404
3272.0	1.06415809133e-05	0.996216917985
3275.0	5.32079045663e-06	0.996222238776
3277.0	5.32079045663e-06	0.996227559566
3280.0	5.32079045663e-06	0.996232880357
3283.0	5.32079045663e-06	0.996238201147
3285.0	5.32079045663e-06	0.996243521938
3288.0	5.32079045663e-06	0.996248842728
3293.0	5.32079045663e-06	0.996254163519
3295.0	5.32079045663e-06	0.996259484309
3297.0	1.06415809133e-05	0.99627012589
3303.0	1.06415809133e-05	0.996280767471
3309.0	1.59623713699e-05	0.996296729842
3311.0	1.59623713699e-05	0.996312692214
3313.0	1.06415809133e-05	0.996323333794
3316.0	1.06415809133e-05	0.996333975375
3318.0	1.06415809133e-05	0.996344616956
3320.0	5.32079045663e-06	0.996349937747
3322.0	5.32079045663e-06	0.996355258537
3324.0	1.06415809133e-05	0.996365900118
3326.0	2.12831618265e-05	0.99638718328
3331.0	5.32079045663e-06	0.99639250407
3333.0	1.59623713699e-05	0.996408466442
3338.0	5.32079045663e-06	0.996413787232
3340.0	1.59623713699e-05	0.996429749604
3343.0	1.59623713699e-05	0.996445711975
3345.0	2.12831618265e-05	0.996466995137
3347.0	2.12831618265e-05	0.996488278299
3349.0	5.32079045663e-06	0.996493599089
3360.0	5.32079045663e-06	0.99649891988
3366.0	1.06415809133e-05	0.99650956146
3369.0	1.06415809133e-05	0.996520203041
3372.0	5.32079045663e-06	0.996525523832
3375.0	1.59623713699e-05	0.996541486203
3380.0	1.59623713699e-05	0.996557448575
3389.0	1.06415809133e-05	0.996568090155
3391.0	5.32079045663e-06	0.996573410946
3394.0	5.32079045663e-06	0.996578731736
3403.0	5.32079045663e-06	0.996584052527
3405.0	5.32079045663e-06	0.996589373317
3407.0	5.32079045663e-06	0.996594694108
3412.0	1.06415809133e-05	0.996605335689
3420.0	1.06415809133e-05	0.99661597727
3426.0	5.32079045663e-06	0.99662129806
3428.0	1.59623713699e-05	0.996637260431
3434.0	1.06415809133e-05	0.996647902012
3437.0	5.32079045663e-06	0.996653222803
3439.0	1.06415809133e-05	0.996663864384
3443.0	5.32079045663e-06	0.996669185174
3449.0	1.06415809133e-05	0.996679826755
3452.0	1.06415809133e-05	0.996690468336
3456.0	5.32079045663e-06	0.996695789126
3460.0	1.06415809133e-05	0.996706430707
3463.0	5.32079045663e-06	0.996711751498
3465.0	1.59623713699e-05	0.996727713869
3472.0	1.59623713699e-05	0.996743676241
3474.0	5.32079045663e-06	0.996748997031
3477.0	1.59623713699e-05	0.996764959402
3479.0	5.32079045663e-06	0.996770280193
3481.0	1.59623713699e-05	0.996786242564
3488.0	5.32079045663e-06	0.996791563355
3490.0	5.32079045663e-06	0.996796884145
3492.0	5.32079045663e-06	0.996802204936
3494.0	1.06415809133e-05	0.996812846516
3498.0	1.06415809133e-05	0.996823488097
3500.0	5.32079045663e-06	0.996828808888
3502.0	5.32079045663e-06	0.996834129678
3504.0	5.32079045663e-06	0.996839450469
3507.0	1.06415809133e-05	0.99685009205
3509.0	1.06415809133e-05	0.996860733631
3511.0	5.32079045663e-06	0.996866054421
3515.0	1.59623713699e-05	0.996882016792
3521.0	5.32079045663e-06	0.996887337583
3523.0	1.06415809133e-05	0.996897979164
3526.0	1.06415809133e-05	0.996908620745
3528.0	1.59623713699e-05	0.996924583116
3530.0	1.06415809133e-05	0.996935224697
3532.0	5.32079045663e-06	0.996940545487
3535.0	5.32079045663e-06	0.996945866278
3537.0	5.32079045663e-06	0.996951187068
3539.0	1.06415809133e-05	0.996961828649
3543.0	5.32079045663e-06	0.99696714944
3547.0	1.06415809133e-05	0.996977791021
3552.0	5.32079045663e-06	0.996983111811
3554.0	5.32079045663e-06	0.996988432602
3557.0	5.32079045663e-06	0.996993753392
3562.0	5.32079045663e-06	0.996999074182
3565.0	5.32079045663e-06	0.997004394973
3568.0	5.32079045663e-06	0.997009715763
3570.0	5.32079045663e-06	0.997015036554
3576.0	3.19247427398e-05	0.997046961297
3581.0	5.32079045663e-06	0.997052282087
3583.0	1.59623713699e-05	0.997068244458
3587.0	1.59623713699e-05	0.99708420683
3603.0	1.06415809133e-05	0.997094848411
3606.0	5.32079045663e-06	0.997100169201
3608.0	1.06415809133e-05	0.997110810782
3614.0	5.32079045663e-06	0.997116131573
3616.0	1.06415809133e-05	0.997126773153
3620.0	5.32079045663e-06	0.997132093944
3622.0	5.32079045663e-06	0.997137414734
3627.0	1.06415809133e-05	0.997148056315
3629.0	5.32079045663e-06	0.997153377106
3632.0	5.32079045663e-06	0.997158697896
3638.0	1.06415809133e-05	0.997169339477
3648.0	1.06415809133e-05	0.997179981058
3650.0	1.59623713699e-05	0.997195943429
3652.0	5.32079045663e-06	0.99720126422
3654.0	5.32079045663e-06	0.99720658501
3657.0	1.06415809133e-05	0.997217226591
3659.0	1.06415809133e-05	0.997227868172
3668.0	5.32079045663e-06	0.997233188963
3670.0	1.06415809133e-05	0.997243830543
3674.0	1.59623713699e-05	0.997259792915
3676.0	1.06415809133e-05	0.997270434496
3678.0	5.32079045663e-06	0.997275755286
3690.0	5.32079045663e-06	0.997281076077
3695.0	5.32079045663e-06	0.997286396867
3698.0	5.32079045663e-06	0.997291717658
3703.0	2.12831618265e-05	0.997313000819
3706.0	1.06415809133e-05	0.9973236424
3711.0	1.59623713699e-05	0.997339604772
3715.0	5.32079045663e-06	0.997344925562
3724.0	1.06415809133e-05	0.997355567143
3729.0	5.32079045663e-06	0.997360887934
3736.0	1.59623713699e-05	0.997376850305
3739.0	5.32079045663e-06	0.997382171095
3745.0	5.32079045663e-06	0.997387491886
3747.0	5.32079045663e-06	0.997392812676
3750.0	1.06415809133e-05	0.997403454257
3753.0	1.06415809133e-05	0.997414095838
3765.0	5.32079045663e-06	0.997419416629
3770.0	5.32079045663e-06	0.997424737419
3775.0	5.32079045663e-06	0.997430058209
3779.0	5.32079045663e-06	0.997435379
3781.0	1.06415809133e-05	0.997446020581
3789.0	5.32079045663e-06	0.997451341371
3795.0	2.66039522832e-05	0.997477945324
3797.0	5.32079045663e-06	0.997483266114
3800.0	1.06415809133e-05	0.997493907695
3805.0	5.32079045663e-06	0.997499228485
3807.0	1.06415809133e-05	0.997509870066
3812.0	5.32079045663e-06	0.997515190857
3819.0	5.32079045663e-06	0.997520511647
3822.0	1.06415809133e-05	0.997531153228
3825.0	5.32079045663e-06	0.997536474019
3828.0	5.32079045663e-06	0.997541794809
3832.0	1.06415809133e-05	0.99755243639
3834.0	1.06415809133e-05	0.997563077971
3837.0	5.32079045663e-06	0.997568398761
3841.0	5.32079045663e-06	0.997573719552
3843.0	5.32079045663e-06	0.997579040342
3846.0	1.59623713699e-05	0.997595002714
3853.0	1.06415809133e-05	0.997605644295
3859.0	5.32079045663e-06	0.997610965085
3862.0	1.59623713699e-05	0.997626927456
3866.0	2.12831618265e-05	0.997648210618
3869.0	5.32079045663e-06	0.997653531409
3871.0	5.32079045663e-06	0.997658852199
3874.0	5.32079045663e-06	0.99766417299
3876.0	1.59623713699e-05	0.997680135361
3880.0	1.06415809133e-05	0.997690776942
3884.0	5.32079045663e-06	0.997696097732
3886.0	5.32079045663e-06	0.997701418523
3888.0	1.06415809133e-05	0.997712060104
3890.0	5.32079045663e-06	0.997717380894
3893.0	5.32079045663e-06	0.997722701685
3899.0	5.32079045663e-06	0.997728022475
3906.0	1.06415809133e-05	0.997738664056
3919.0	5.32079045663e-06	0.997743984846
3924.0	5.32079045663e-06	0.997749305637
3931.0	5.32079045663e-06	0.997754626427
3937.0	1.59623713699e-05	0.997770588799
3943.0	5.32079045663e-06	0.997775909589
3949.0	5.32079045663e-06	0.99778123038
3953.0	5.32079045663e-06	0.99778655117
3956.0	5.32079045663e-06	0.99779187196
3966.0	5.32079045663e-06	0.997797192751
3968.0	5.32079045663e-06	0.997802513541
3971.0	5.32079045663e-06	0.997807834332
3974.0	5.32079045663e-06	0.997813155122
3976.0	1.06415809133e-05	0.997823796703
3979.0	1.06415809133e-05	0.997834438284
3988.0	5.32079045663e-06	0.997839759075
3991.0	5.32079045663e-06	0.997845079865
3993.0	1.06415809133e-05	0.997855721446
3995.0	1.59623713699e-05	0.997871683817
3998.0	5.32079045663e-06	0.997877004608
4001.0	1.06415809133e-05	0.997887646189
4005.0	5.32079045663e-06	0.997892966979
4012.0	5.32079045663e-06	0.99789828777
4015.0	5.32079045663e-06	0.99790360856
4028.0	5.32079045663e-06	0.997908929351
4042.0	5.32079045663e-06	0.997914250141
4048.0	5.32079045663e-06	0.997919570931
4050.0	5.32079045663e-06	0.997924891722
4053.0	5.32079045663e-06	0.997930212512
4065.0	5.32079045663e-06	0.997935533303
4079.0	5.32079045663e-06	0.997940854093
4081.0	5.32079045663e-06	0.997946174884
4093.0	5.32079045663e-06	0.997951495674
4098.0	5.32079045663e-06	0.997956816465
4105.0	5.32079045663e-06	0.997962137255
4109.0	1.06415809133e-05	0.997972778836
4121.0	5.32079045663e-06	0.997978099626
4125.0	5.32079045663e-06	0.997983420417
4128.0	1.59623713699e-05	0.997999382788
4133.0	1.59623713699e-05	0.99801534516
4137.0	5.32079045663e-06	0.99802066595
4145.0	1.59623713699e-05	0.998036628322
4154.0	1.06415809133e-05	0.998047269902
4163.0	1.06415809133e-05	0.998057911483
4169.0	5.32079045663e-06	0.998063232274
4173.0	5.32079045663e-06	0.998068553064
4176.0	1.06415809133e-05	0.998079194645
4179.0	5.32079045663e-06	0.998084515436
4183.0	5.32079045663e-06	0.998089836226
4185.0	5.32079045663e-06	0.998095157017
4188.0	5.32079045663e-06	0.998100477807
4192.0	5.32079045663e-06	0.998105798597
4199.0	2.12831618265e-05	0.998127081759
4217.0	5.32079045663e-06	0.99813240255
4225.0	5.32079045663e-06	0.99813772334
4228.0	1.06415809133e-05	0.998148364921
4236.0	1.06415809133e-05	0.998159006502
4247.0	5.32079045663e-06	0.998164327292
4254.0	5.32079045663e-06	0.998169648083
4262.0	2.12831618265e-05	0.998190931245
4265.0	1.06415809133e-05	0.998201572826
4270.0	5.32079045663e-06	0.998206893616
4276.0	1.06415809133e-05	0.998217535197
4288.0	5.32079045663e-06	0.998222855987
4292.0	5.32079045663e-06	0.998228176778
4297.0	1.06415809133e-05	0.998238818359
4299.0	5.32079045663e-06	0.998244139149
4301.0	5.32079045663e-06	0.99824945994
4306.0	5.32079045663e-06	0.99825478073
4316.0	1.06415809133e-05	0.998265422311
4325.0	1.06415809133e-05	0.998276063892
4327.0	5.32079045663e-06	0.998281384683
4332.0	5.32079045663e-06	0.998286705473
4335.0	5.32079045663e-06	0.998292026263
4339.0	1.06415809133e-05	0.998302667844
4344.0	5.32079045663e-06	0.998307988635
4349.0	5.32079045663e-06	0.998313309425
4352.0	5.32079045663e-06	0.998318630216
4354.0	5.32079045663e-06	0.998323951006
4367.0	5.32079045663e-06	0.998329271797
4377.0	1.06415809133e-05	0.998339913378
4386.0	1.59623713699e-05	0.998355875749
4388.0	5.32079045663e-06	0.998361196539
4392.0	1.06415809133e-05	0.99837183812
4404.0	5.32079045663e-06	0.998377158911
4407.0	5.32079045663e-06	0.998382479701
4412.0	5.32079045663e-06	0.998387800492
4416.0	5.32079045663e-06	0.998393121282
4418.0	5.32079045663e-06	0.998398442073
4420.0	5.32079045663e-06	0.998403762863
4422.0	5.32079045663e-06	0.998409083653
4426.0	1.06415809133e-05	0.998419725234
4429.0	5.32079045663e-06	0.998425046025
4446.0	1.06415809133e-05	0.998435687606
4448.0	5.32079045663e-06	0.998441008396
4461.0	5.32079045663e-06	0.998446329187
4464.0	1.06415809133e-05	0.998456970768
4469.0	5.32079045663e-06	0.998462291558
4481.0	1.06415809133e-05	0.998472933139
4484.0	1.59623713699e-05	0.99848889551
4496.0	5.32079045663e-06	0.998494216301
4500.0	5.32079045663e-06	0.998499537091
4512.0	5.32079045663e-06	0.998504857882
4515.0	5.32079045663e-06	0.998510178672
4521.0	5.32079045663e-06	0.998515499463
4523.0	5.32079045663e-06	0.998520820253
4525.0	1.06415809133e-05	0.998531461834
4532.0	5.32079045663e-06	0.998536782624
4537.0	5.32079045663e-06	0.998542103415
4541.0	5.32079045663e-06	0.998547424205
4546.0	5.32079045663e-06	0.998552744996
4548.0	5.32079045663e-06	0.998558065786
4560.0	5.32079045663e-06	0.998563386577
4562.0	1.06415809133e-05	0.998574028158
4566.0	5.32079045663e-06	0.998579348948
4577.0	5.32079045663e-06	0.998584669739
4587.0	5.32079045663e-06	0.998589990529
4591.0	5.32079045663e-06	0.998595311319
4596.0	5.32079045663e-06	0.99860063211
4600.0	5.32079045663e-06	0.9986059529
4602.0	1.06415809133e-05	0.998616594481
4604.0	5.32079045663e-06	0.998621915272
4607.0	5.32079045663e-06	0.998627236062
4614.0	5.32079045663e-06	0.998632556853
4616.0	1.06415809133e-05	0.998643198434
4618.0	1.06415809133e-05	0.998653840014
4644.0	1.06415809133e-05	0.998664481595
4648.0	2.12831618265e-05	0.998685764757
4657.0	5.32079045663e-06	0.998691085548
4664.0	5.32079045663e-06	0.998696406338
4682.0	1.06415809133e-05	0.998707047919
4684.0	5.32079045663e-06	0.998712368709
4688.0	5.32079045663e-06	0.9987176895
4695.0	5.32079045663e-06	0.99872301029
4697.0	1.06415809133e-05	0.998733651871
4713.0	5.32079045663e-06	0.998738972662
4720.0	1.06415809133e-05	0.998749614243
4724.0	5.32079045663e-06	0.998754935033
4726.0	5.32079045663e-06	0.998760255824
4729.0	1.06415809133e-05	0.998770897405
4744.0	5.32079045663e-06	0.998776218195
4749.0	5.32079045663e-06	0.998781538985
4775.0	5.32079045663e-06	0.998786859776
4782.0	5.32079045663e-06	0.998792180566
4787.0	5.32079045663e-06	0.998797501357
4811.0	5.32079045663e-06	0.998802822147
4821.0	5.32079045663e-06	0.998808142938
4824.0	5.32079045663e-06	0.998813463728
4837.0	5.32079045663e-06	0.998818784519
4840.0	5.32079045663e-06	0.998824105309
4843.0	5.32079045663e-06	0.9988294261
4848.0	5.32079045663e-06	0.99883474689
4850.0	5.32079045663e-06	0.99884006768
4853.0	5.32079045663e-06	0.998845388471
4859.0	5.32079045663e-06	0.998850709261
4862.0	5.32079045663e-06	0.998856030052
4870.0	1.06415809133e-05	0.998866671633
4893.0	5.32079045663e-06	0.998871992423
4895.0	5.32079045663e-06	0.998877313214
4902.0	5.32079045663e-06	0.998882634004
4907.0	1.06415809133e-05	0.998893275585
4910.0	5.32079045663e-06	0.998898596375
4917.0	5.32079045663e-06	0.998903917166
4919.0	5.32079045663e-06	0.998909237956
4921.0	1.06415809133e-05	0.998919879537
4933.0	5.32079045663e-06	0.998925200328
4935.0	5.32079045663e-06	0.998930521118
4937.0	5.32079045663e-06	0.998935841909
4946.0	5.32079045663e-06	0.998941162699
4962.0	1.06415809133e-05	0.99895180428
4977.0	5.32079045663e-06	0.998957125071
4983.0	5.32079045663e-06	0.998962445861
4990.0	5.32079045663e-06	0.998967766651
5007.0	5.32079045663e-06	0.998973087442
5010.0	5.32079045663e-06	0.998978408232
5019.0	1.06415809133e-05	0.998989049813
5025.0	5.32079045663e-06	0.998994370604
5031.0	5.32079045663e-06	0.998999691394
5034.0	5.32079045663e-06	0.999005012185
5046.0	5.32079045663e-06	0.999010332975
5061.0	5.32079045663e-06	0.999015653766
5081.0	5.32079045663e-06	0.999020974556
5084.0	5.32079045663e-06	0.999026295346
5087.0	5.32079045663e-06	0.999031616137
5089.0	5.32079045663e-06	0.999036936927
5095.0	5.32079045663e-06	0.999042257718
5104.0	5.32079045663e-06	0.999047578508
5113.0	5.32079045663e-06	0.999052899299
5154.0	5.32079045663e-06	0.999058220089
5157.0	5.32079045663e-06	0.99906354088
5160.0	1.06415809133e-05	0.999074182461
5163.0	5.32079045663e-06	0.999079503251
5165.0	5.32079045663e-06	0.999084824041
5184.0	5.32079045663e-06	0.999090144832
5189.0	5.32079045663e-06	0.999095465622
5200.0	5.32079045663e-06	0.999100786413
5208.0	5.32079045663e-06	0.999106107203
5216.0	1.06415809133e-05	0.999116748784
5219.0	5.32079045663e-06	0.999122069575
5233.0	5.32079045663e-06	0.999127390365
5251.0	5.32079045663e-06	0.999132711156
5268.0	5.32079045663e-06	0.999138031946
5270.0	5.32079045663e-06	0.999143352736
5284.0	1.06415809133e-05	0.999153994317
5288.0	5.32079045663e-06	0.999159315108
5304.0	5.32079045663e-06	0.999164635898
5312.0	5.32079045663e-06	0.999169956689
5317.0	1.06415809133e-05	0.99918059827
5328.0	5.32079045663e-06	0.99918591906
5336.0	5.32079045663e-06	0.999191239851
5371.0	5.32079045663e-06	0.999196560641
5384.0	5.32079045663e-06	0.999201881432
5417.0	5.32079045663e-06	0.999207202222
5420.0	5.32079045663e-06	0.999212523012
5429.0	5.32079045663e-06	0.999217843803
5494.0	5.32079045663e-06	0.999223164593
5499.0	5.32079045663e-06	0.999228485384
5506.0	5.32079045663e-06	0.999233806174
5510.0	1.06415809133e-05	0.999244447755
5512.0	1.06415809133e-05	0.999255089336
5524.0	5.32079045663e-06	0.999260410127
5531.0	5.32079045663e-06	0.999265730917
5545.0	5.32079045663e-06	0.999271051707
5562.0	5.32079045663e-06	0.999276372498
5564.0	1.06415809133e-05	0.999287014079
5567.0	5.32079045663e-06	0.999292334869
5572.0	1.06415809133e-05	0.99930297645
5612.0	5.32079045663e-06	0.999308297241
5625.0	5.32079045663e-06	0.999313618031
5635.0	5.32079045663e-06	0.999318938822
5650.0	5.32079045663e-06	0.999324259612
5671.0	5.32079045663e-06	0.999329580402
5677.0	5.32079045663e-06	0.999334901193
5692.0	5.32079045663e-06	0.999340221983
5695.0	5.32079045663e-06	0.999345542774
5707.0	5.32079045663e-06	0.999350863564
5746.0	1.06415809133e-05	0.999361505145
5773.0	5.32079045663e-06	0.999366825936
5786.0	5.32079045663e-06	0.999372146726
5792.0	5.32079045663e-06	0.999377467517
5811.0	5.32079045663e-06	0.999382788307
5814.0	5.32079045663e-06	0.999388109097
5816.0	5.32079045663e-06	0.999393429888
5841.0	5.32079045663e-06	0.999398750678
5867.0	5.32079045663e-06	0.999404071469
5878.0	5.32079045663e-06	0.999409392259
5893.0	5.32079045663e-06	0.99941471305
5902.0	5.32079045663e-06	0.99942003384
5908.0	5.32079045663e-06	0.999425354631
5956.0	5.32079045663e-06	0.999430675421
5964.0	5.32079045663e-06	0.999435996212
5972.0	5.32079045663e-06	0.999441317002
6007.0	1.06415809133e-05	0.999451958583
6067.0	5.32079045663e-06	0.999457279373
6093.0	5.32079045663e-06	0.999462600164
6102.0	5.32079045663e-06	0.999467920954
6127.0	5.32079045663e-06	0.999473241745
6156.0	5.32079045663e-06	0.999478562535
6163.0	5.32079045663e-06	0.999483883326
6166.0	5.32079045663e-06	0.999489204116
6182.0	5.32079045663e-06	0.999494524907
6196.0	5.32079045663e-06	0.999499845697
6252.0	5.32079045663e-06	0.999505166488
6294.0	1.06415809133e-05	0.999515808068
6407.0	5.32079045663e-06	0.999521128859
6410.0	5.32079045663e-06	0.999526449649
6423.0	5.32079045663e-06	0.99953177044
6432.0	5.32079045663e-06	0.99953709123
6488.0	5.32079045663e-06	0.999542412021
6491.0	5.32079045663e-06	0.999547732811
6497.0	5.32079045663e-06	0.999553053602
6509.0	5.32079045663e-06	0.999558374392
6540.0	1.06415809133e-05	0.999569015973
6547.0	5.32079045663e-06	0.999574336763
6550.0	5.32079045663e-06	0.999579657554
6564.0	5.32079045663e-06	0.999584978344
6622.0	5.32079045663e-06	0.999590299135
6634.0	5.32079045663e-06	0.999595619925
6639.0	5.32079045663e-06	0.999600940716
6688.0	5.32079045663e-06	0.999606261506
6692.0	5.32079045663e-06	0.999611582297
6699.0	5.32079045663e-06	0.999616903087
6733.0	5.32079045663e-06	0.999622223878
6768.0	5.32079045663e-06	0.999627544668
6800.0	5.32079045663e-06	0.999632865458
6959.0	5.32079045663e-06	0.999638186249
7047.0	5.32079045663e-06	0.999643507039
7059.0	5.32079045663e-06	0.99964882783
7066.0	5.32079045663e-06	0.99965414862
7088.0	5.32079045663e-06	0.999659469411
7106.0	5.32079045663e-06	0.999664790201
7125.0	5.32079045663e-06	0.999670110992
7162.0	5.32079045663e-06	0.999675431782
7180.0	5.32079045663e-06	0.999680752573
7223.0	5.32079045663e-06	0.999686073363
7229.0	5.32079045663e-06	0.999691394154
7317.0	5.32079045663e-06	0.999696714944
7323.0	5.32079045663e-06	0.999702035734
7354.0	5.32079045663e-06	0.999707356525
7385.0	5.32079045663e-06	0.999712677315
7397.0	5.32079045663e-06	0.999717998106
7424.0	5.32079045663e-06	0.999723318896
7664.0	5.32079045663e-06	0.999728639687
7674.0	5.32079045663e-06	0.999733960477
7684.0	5.32079045663e-06	0.999739281268
7705.0	5.32079045663e-06	0.999744602058
7728.0	5.32079045663e-06	0.999749922849
7812.0	5.32079045663e-06	0.999755243639
7828.0	5.32079045663e-06	0.999760564429
7836.0	5.32079045663e-06	0.99976588522
7864.0	5.32079045663e-06	0.99977120601
7935.0	5.32079045663e-06	0.999776526801
7994.0	5.32079045663e-06	0.999781847591
8006.0	5.32079045663e-06	0.999787168382
8057.0	5.32079045663e-06	0.999792489172
8091.0	5.32079045663e-06	0.999797809963
8155.0	5.32079045663e-06	0.999803130753
8160.0	5.32079045663e-06	0.999808451544
8173.0	5.32079045663e-06	0.999813772334
8181.0	5.32079045663e-06	0.999819093124
8189.0	5.32079045663e-06	0.999824413915
8210.0	5.32079045663e-06	0.999829734705
8269.0	5.32079045663e-06	0.999835055496
8317.0	5.32079045663e-06	0.999840376286
8334.0	5.32079045663e-06	0.999845697077
8418.0	5.32079045663e-06	0.999851017867
8421.0	5.32079045663e-06	0.999856338658
8444.0	5.32079045663e-06	0.999861659448
8559.0	5.32079045663e-06	0.999866980239
8603.0	1.59623713699e-05	0.99988294261
8677.0	5.32079045663e-06	0.9998882634
8713.0	5.32079045663e-06	0.999893584191
8770.0	5.32079045663e-06	0.999898904981
9133.0	5.32079045663e-06	0.999904225772
9323.0	5.32079045663e-06	0.999909546562
9325.0	5.32079045663e-06	0.999914867353
9352.0	5.32079045663e-06	0.999920188143
9394.0	5.32079045663e-06	0.999925508934
9487.0	5.32079045663e-06	0.999930829724
9588.0	5.32079045663e-06	0.999936150515
9774.0	5.32079045663e-06	0.999941471305
10055.0	5.32079045663e-06	0.999946792095
10170.0	5.32079045663e-06	0.999952112886
10523.0	5.32079045663e-06	0.999957433676
10617.0	5.32079045663e-06	0.999962754467
10657.0	5.32079045663e-06	0.999968075257
11291.0	5.32079045663e-06	0.999973396048
12015.0	5.32079045663e-06	0.999978716838
12598.0	5.32079045663e-06	0.999984037629
13165.0	5.32079045663e-06	0.999989358419
13781.0	5.32079045663e-06	0.99999467921
16983.0	5.32079045663e-06	1.0
17500.0	5.32079045663e-06	1.0
