#
# Generated On: 2012-02-05T18:41:56.468197
#           By: cwa.analyze.statistics
#      Version: 11.11.23
#       Author: Thomas A. de Ruiter <thomas@de-ruiter.cx>
#
#  Commandline: /home/af10028/bin/cwa analyze
#     Work Dir: /scratch/af10028/var/thesis-project/result/analyses/workload-06h-06180l-3s-fair
#

Time	Sum	Avg	StdDev	CoV	0.000000-Pct	0.010000-Pct	0.100000-Pct	1.000000-Pct	2.000000-Pct	5.000000-Pct	25.000000-Pct	50.000000-Pct	75.000000-Pct	95.000000-Pct	98.000000-Pct	99.000000-Pct	99.900000-Pct	99.990000-Pct	100.000000-Pct
1327074000	1534306.0	1004.78454486	1839.08772368	1.83033042565	2.0	2.0	2.0	3.0	3.0	3.0	12.0	296.0	971.0	5034.0	6781.0	8504.0	15030.0	18621.0	18621.0
1327077600	1592053.0	964.296184131	1777.57966265	1.84339593157	2.0	2.0	2.0	3.0	3.0	3.0	9.0	308.0	943.0	4639.0	6518.0	8389.0	16374.0	17104.0	17104.0
1327081200	1647157.0	1061.99677627	1912.13356785	1.80050788342	2.0	2.0	2.0	3.0	3.0	3.0	9.0	309.0	1071.0	5276.0	7507.0	9141.0	13970.0	15869.0	15869.0
1327084800	1697400.0	970.497427101	1811.84614707	1.86692524522	2.0	2.0	2.0	2.0	3.0	3.0	9.0	321.0	937.0	4609.0	7273.0	9091.0	15088.0	16243.0	16243.0
1327088400	1385585.0	933.682614555	1720.13702694	1.8423145083	2.0	2.0	2.0	3.0	3.0	3.0	9.0	243.0	968.0	4579.0	6608.0	7905.0	14226.0	15098.0	15098.0
1327092000	1490904.0	919.176325524	1704.99616191	1.85491740221	2.0	2.0	2.0	2.0	3.0	3.0	9.0	253.0	920.0	4395.0	6329.0	7986.0	14992.0	15597.0	15597.0
1327095600	40949.0	974.976190476	1784.6535701	1.8304586179	3.0	3.0	3.0	3.0	3.0	3.0	4.0	204.0	1212.0	3950.0	8765.0	8765.0	8765.0	8765.0	8765.0
