#
# Generated On: 2012-02-05T16:58:54.846521
#           By: cwa.analyze.statistics
#      Version: 11.11.23
#       Author: Thomas A. de Ruiter <thomas@de-ruiter.cx>
#
#  Commandline: /home/af10028/bin/cwa analyze
#     Work Dir: /scratch/af10028/var/thesis-project/result/analyses/workload-01h-07416l-4s-default
#

Time	Sum	Avg	StdDev	CoV	0.000000-Pct	0.010000-Pct	0.100000-Pct	1.000000-Pct	2.000000-Pct	5.000000-Pct	25.000000-Pct	50.000000-Pct	75.000000-Pct	95.000000-Pct	98.000000-Pct	99.000000-Pct	99.900000-Pct	99.990000-Pct	100.000000-Pct
1326907800	8050.0	287.5	438.269619366	1.52441606736	2.0	2.0	2.0	2.0	2.0	3.0	3.0	97.0	434.0	1356.0	1634.0	1634.0	1634.0	1634.0	1634.0
1326908400	51548.0	365.588652482	544.625809563	1.48972296012	2.0	2.0	2.0	2.0	2.0	2.0	5.0	147.0	552.0	1278.0	2124.0	2555.0	4060.0	4060.0	4060.0
1326909000	89425.0	366.495901639	502.560951797	1.3712594044	2.0	2.0	2.0	2.0	2.0	3.0	8.0	170.5	597.0	1265.0	1554.0	2164.0	4561.0	4561.0	4561.0
1326909600	179185.0	849.218009479	669.04748202	0.787839488274	2.0	2.0	2.0	2.0	2.0	3.0	3.0	937.0	1576.0	1769.0	1791.0	1794.0	2820.0	2820.0	2820.0
1326910200	391127.0	1769.80542986	1184.75333189	0.669425752627	2.0	2.0	2.0	2.0	2.0	3.0	4.0	2490.0	2597.0	2939.0	2945.0	2946.0	2947.0	2947.0	2947.0
1326910800	382792.0	2162.66666667	1356.99906908	0.627465660795	2.0	2.0	2.0	2.0	2.0	3.0	63.0	2978.0	3053.0	3104.0	3118.0	3734.0	4177.0	4177.0	4177.0
1326911400	597375.0	2563.84120172	1536.84719688	0.599431507636	2.0	2.0	2.0	2.0	2.0	3.0	225.0	3425.0	3485.0	3803.0	3810.0	3811.0	3814.0	3814.0	3814.0
