#
# Generated On: 2012-02-05T16:58:54.835544
#           By: cwa.analyze.statistics
#      Version: 11.11.23
#       Author: Thomas A. de Ruiter <thomas@de-ruiter.cx>
#
#  Commandline: /home/af10028/bin/cwa analyze
#     Work Dir: /scratch/af10028/var/thesis-project/result/analyses/workload-01h-07416l-4s-default
#

Value	PDF	CDF
2.0	0.0970017636684	0.0987654320988
4.0	0.00529100529101	0.10405643739
8.0	0.010582010582	0.114638447972
10.0	0.00176366843034	0.116402116402
13.0	0.00176366843034	0.118165784832
15.0	0.00176366843034	0.119929453263
17.0	0.00352733686067	0.123456790123
20.0	0.00176366843034	0.125220458554
24.0	0.00176366843034	0.126984126984
31.0	0.00176366843034	0.128747795414
39.0	0.00176366843034	0.130511463845
44.0	0.00176366843034	0.132275132275
47.0	0.00176366843034	0.134038800705
54.0	0.00529100529101	0.139329805996
58.0	0.00176366843034	0.141093474427
64.0	0.00352733686067	0.144620811287
66.0	0.00176366843034	0.146384479718
77.0	0.00176366843034	0.148148148148
87.0	0.00176366843034	0.149911816578
93.0	0.00176366843034	0.151675485009
117.0	0.00176366843034	0.153439153439
124.0	0.00176366843034	0.155202821869
179.0	0.00176366843034	0.1569664903
188.0	0.00176366843034	0.15873015873
213.0	0.00176366843034	0.16049382716
219.0	0.00176366843034	0.162257495591
228.0	0.00176366843034	0.164021164021
255.0	0.00176366843034	0.165784832451
269.0	0.00176366843034	0.167548500882
287.0	0.00176366843034	0.169312169312
317.0	0.00176366843034	0.171075837743
382.0	0.00352733686067	0.174603174603
426.0	0.00176366843034	0.176366843034
476.0	0.00176366843034	0.178130511464
493.0	0.00176366843034	0.179894179894
590.0	0.00176366843034	0.181657848325
607.0	0.00176366843034	0.183421516755
610.0	0.00176366843034	0.185185185185
630.0	0.00176366843034	0.186948853616
632.0	0.00176366843034	0.188712522046
647.0	0.00176366843034	0.190476190476
651.0	0.00176366843034	0.192239858907
704.0	0.00176366843034	0.194003527337
710.0	0.00176366843034	0.195767195767
720.0	0.00176366843034	0.197530864198
729.0	0.00176366843034	0.199294532628
738.0	0.00176366843034	0.201058201058
746.0	0.00176366843034	0.202821869489
757.0	0.00176366843034	0.204585537919
781.0	0.00176366843034	0.206349206349
794.0	0.00176366843034	0.20811287478
809.0	0.00176366843034	0.20987654321
816.0	0.00176366843034	0.21164021164
838.0	0.00176366843034	0.213403880071
881.0	0.00176366843034	0.215167548501
902.0	0.00176366843034	0.216931216931
911.0	0.00176366843034	0.218694885362
936.0	0.00176366843034	0.220458553792
938.0	0.00176366843034	0.222222222222
949.0	0.00176366843034	0.223985890653
962.0	0.00176366843034	0.225749559083
967.0	0.00176366843034	0.227513227513
974.0	0.00176366843034	0.229276895944
984.0	0.00176366843034	0.231040564374
1011.0	0.00176366843034	0.232804232804
1058.0	0.00352733686067	0.236331569665
1063.0	0.00176366843034	0.238095238095
1085.0	0.00176366843034	0.239858906526
1088.0	0.00176366843034	0.241622574956
1106.0	0.00352733686067	0.245149911817
1118.0	0.00176366843034	0.246913580247
1136.0	0.00176366843034	0.248677248677
1185.0	0.00176366843034	0.250440917108
1192.0	0.00176366843034	0.252204585538
1205.0	0.00176366843034	0.253968253968
1208.0	0.00176366843034	0.255731922399
1232.0	0.00176366843034	0.257495590829
1262.0	0.00176366843034	0.259259259259
1292.0	0.00176366843034	0.26102292769
1298.0	0.00176366843034	0.26278659612
1323.0	0.00176366843034	0.26455026455
1371.0	0.00176366843034	0.266313932981
1380.0	0.00176366843034	0.268077601411
1400.0	0.00176366843034	0.269841269841
1403.0	0.00176366843034	0.271604938272
1433.0	0.00176366843034	0.273368606702
1436.0	0.00176366843034	0.275132275132
1470.0	0.00176366843034	0.276895943563
1481.0	0.00176366843034	0.278659611993
1487.0	0.00176366843034	0.280423280423
1490.0	0.00176366843034	0.282186948854
1541.0	0.00176366843034	0.283950617284
1556.0	0.00176366843034	0.285714285714
1576.0	0.00176366843034	0.287477954145
1601.0	0.00176366843034	0.289241622575
1603.0	0.00352733686067	0.292768959436
1605.0	0.00176366843034	0.294532627866
1608.0	0.00176366843034	0.296296296296
1611.0	0.00176366843034	0.298059964727
1674.0	0.00176366843034	0.299823633157
1683.0	0.00176366843034	0.301587301587
1685.0	0.00352733686067	0.305114638448
1703.0	0.00176366843034	0.306878306878
1724.0	0.00176366843034	0.308641975309
1741.0	0.00176366843034	0.310405643739
1743.0	0.00176366843034	0.312169312169
1749.0	0.00352733686067	0.31569664903
1752.0	0.00176366843034	0.31746031746
1760.0	0.00176366843034	0.319223985891
1766.0	0.00176366843034	0.320987654321
1771.0	0.00176366843034	0.322751322751
1782.0	0.00176366843034	0.324514991182
1790.0	0.00176366843034	0.326278659612
1793.0	0.00176366843034	0.328042328042
1797.0	0.00529100529101	0.333333333333
1799.0	0.00176366843034	0.335097001764
1815.0	0.00352733686067	0.338624338624
1847.0	0.00176366843034	0.340388007055
1858.0	0.00352733686067	0.343915343915
1862.0	0.00176366843034	0.345679012346
1883.0	0.00176366843034	0.347442680776
1885.0	0.00176366843034	0.349206349206
1906.0	0.00176366843034	0.350970017637
1954.0	0.00176366843034	0.352733686067
1962.0	0.00176366843034	0.354497354497
1970.0	0.00176366843034	0.356261022928
2017.0	0.00176366843034	0.358024691358
2060.0	0.00176366843034	0.359788359788
2075.0	0.00352733686067	0.363315696649
2108.0	0.00176366843034	0.365079365079
2114.0	0.00176366843034	0.36684303351
2140.0	0.00176366843034	0.36860670194
2151.0	0.00352733686067	0.372134038801
2153.0	0.00176366843034	0.373897707231
2159.0	0.00176366843034	0.375661375661
2177.0	0.00176366843034	0.377425044092
2192.0	0.00176366843034	0.379188712522
2204.0	0.00176366843034	0.380952380952
2209.0	0.00176366843034	0.382716049383
2225.0	0.00176366843034	0.384479717813
2243.0	0.00176366843034	0.386243386243
2268.0	0.00176366843034	0.388007054674
2277.0	0.00176366843034	0.389770723104
2345.0	0.00176366843034	0.391534391534
2348.0	0.00176366843034	0.393298059965
2369.0	0.00352733686067	0.396825396825
2384.0	0.00176366843034	0.398589065256
2415.0	0.00176366843034	0.400352733686
2417.0	0.00176366843034	0.402116402116
2433.0	0.00176366843034	0.403880070547
2438.0	0.00529100529101	0.409171075838
2444.0	0.00176366843034	0.410934744268
2462.0	0.00176366843034	0.412698412698
2474.0	0.00529100529101	0.417989417989
2486.0	0.00176366843034	0.41975308642
2489.0	0.00352733686067	0.42328042328
2493.0	0.00176366843034	0.425044091711
2520.0	0.00176366843034	0.426807760141
2539.0	0.00352733686067	0.430335097002
2546.0	0.00176366843034	0.432098765432
2555.0	0.00176366843034	0.433862433862
2560.0	0.00176366843034	0.435626102293
2563.0	0.00529100529101	0.440917107584
2568.0	0.00176366843034	0.442680776014
2603.0	0.00352733686067	0.446208112875
2606.0	0.00176366843034	0.447971781305
2618.0	0.00352733686067	0.451499118166
2635.0	0.00176366843034	0.453262786596
2639.0	0.00176366843034	0.455026455026
2649.0	0.00176366843034	0.456790123457
2651.0	0.00705467372134	0.463844797178
2657.0	0.00176366843034	0.465608465608
2661.0	0.00176366843034	0.467372134039
2663.0	0.00176366843034	0.469135802469
2669.0	0.00176366843034	0.470899470899
2686.0	0.00176366843034	0.47266313933
2692.0	0.00176366843034	0.47442680776
2705.0	0.00176366843034	0.47619047619
2712.0	0.00176366843034	0.477954144621
2715.0	0.00176366843034	0.479717813051
2720.0	0.00176366843034	0.481481481481
2732.0	0.00176366843034	0.483245149912
2759.0	0.00176366843034	0.485008818342
2764.0	0.00176366843034	0.486772486772
2772.0	0.00176366843034	0.488536155203
2775.0	0.00176366843034	0.490299823633
2835.0	0.00176366843034	0.492063492063
2837.0	0.00176366843034	0.493827160494
2845.0	0.00176366843034	0.495590828924
2847.0	0.00352733686067	0.499118165785
2849.0	0.00176366843034	0.500881834215
2853.0	0.00176366843034	0.502645502646
2857.0	0.00529100529101	0.507936507937
2859.0	0.00176366843034	0.509700176367
2863.0	0.00705467372134	0.516754850088
2870.0	0.00176366843034	0.518518518519
2873.0	0.00176366843034	0.520282186949
2883.0	0.00881834215168	0.529100529101
2888.0	0.00176366843034	0.530864197531
2895.0	0.00352733686067	0.534391534392
2911.0	0.00176366843034	0.536155202822
2924.0	0.00529100529101	0.541446208113
2936.0	0.00529100529101	0.546737213404
2938.0	0.00352733686067	0.550264550265
2947.0	0.00352733686067	0.553791887125
2951.0	0.00176366843034	0.555555555556
2954.0	0.00176366843034	0.557319223986
2961.0	0.00176366843034	0.559082892416
2967.0	0.00352733686067	0.562610229277
2969.0	0.00176366843034	0.564373897707
2973.0	0.00176366843034	0.566137566138
2976.0	0.00529100529101	0.571428571429
2978.0	0.00352733686067	0.574955908289
2980.0	0.00352733686067	0.57848324515
2982.0	0.00529100529101	0.583774250441
3013.0	0.00176366843034	0.585537918871
3018.0	0.00352733686067	0.589065255732
3020.0	0.00176366843034	0.590828924162
3024.0	0.00176366843034	0.592592592593
3026.0	0.00176366843034	0.594356261023
3034.0	0.00176366843034	0.596119929453
3039.0	0.00176366843034	0.597883597884
3071.0	0.00352733686067	0.601410934744
3075.0	0.00352733686067	0.604938271605
3078.0	0.00176366843034	0.606701940035
3082.0	0.00176366843034	0.608465608466
3085.0	0.00176366843034	0.610229276896
3100.0	0.00352733686067	0.613756613757
3109.0	0.00176366843034	0.615520282187
3116.0	0.00176366843034	0.617283950617
3143.0	0.00176366843034	0.619047619048
3209.0	0.00176366843034	0.620811287478
3239.0	0.00176366843034	0.622574955908
3248.0	0.00176366843034	0.624338624339
3272.0	0.00176366843034	0.626102292769
3302.0	0.00176366843034	0.627865961199
3326.0	0.00176366843034	0.62962962963
3335.0	0.00176366843034	0.63139329806
3341.0	0.00529100529101	0.636684303351
3346.0	0.00176366843034	0.638447971781
3351.0	0.00352733686067	0.641975308642
3355.0	0.00352733686067	0.645502645503
3357.0	0.00705467372134	0.652557319224
3359.0	0.00529100529101	0.657848324515
3365.0	0.00176366843034	0.659611992945
3367.0	0.00352733686067	0.663139329806
3373.0	0.00352733686067	0.666666666667
3377.0	0.00176366843034	0.668430335097
3383.0	0.00176366843034	0.670194003527
3385.0	0.00176366843034	0.671957671958
3392.0	0.00176366843034	0.673721340388
3397.0	0.00352733686067	0.677248677249
3417.0	0.00352733686067	0.680776014109
3419.0	0.00529100529101	0.6860670194
3421.0	0.00176366843034	0.687830687831
3432.0	0.00176366843034	0.689594356261
3436.0	0.00176366843034	0.691358024691
3448.0	0.00176366843034	0.693121693122
3466.0	0.00352733686067	0.696649029982
3485.0	0.00176366843034	0.698412698413
3487.0	0.00176366843034	0.700176366843
3494.0	0.00176366843034	0.701940035273
3497.0	0.00176366843034	0.703703703704
3499.0	0.00352733686067	0.707231040564
3503.0	0.00176366843034	0.708994708995
3505.0	0.00529100529101	0.714285714286
3507.0	0.00176366843034	0.716049382716
3509.0	0.00176366843034	0.717813051146
3534.0	0.00176366843034	0.719576719577
3538.0	0.00176366843034	0.721340388007
3545.0	0.00176366843034	0.723104056437
3547.0	0.00352733686067	0.726631393298
3552.0	0.00176366843034	0.728395061728
3584.0	0.00176366843034	0.730158730159
3610.0	0.00176366843034	0.731922398589
3616.0	0.00176366843034	0.733686067019
3624.0	0.00176366843034	0.73544973545
3626.0	0.00176366843034	0.73721340388
3629.0	0.00176366843034	0.73897707231
3635.0	0.00176366843034	0.740740740741
3642.0	0.00176366843034	0.742504409171
3664.0	0.00176366843034	0.744268077601
3669.0	0.00881834215168	0.753086419753
3683.0	0.00176366843034	0.754850088183
3702.0	0.00176366843034	0.756613756614
3706.0	0.00176366843034	0.758377425044
3736.0	0.00176366843034	0.760141093474
3750.0	0.00176366843034	0.761904761905
3768.0	0.00176366843034	0.763668430335
3779.0	0.00176366843034	0.765432098765
3785.0	0.00176366843034	0.767195767196
3790.0	0.00176366843034	0.768959435626
3802.0	0.00176366843034	0.770723104056
3814.0	0.00176366843034	0.772486772487
3823.0	0.00176366843034	0.774250440917
3834.0	0.00176366843034	0.776014109347
3848.0	0.00176366843034	0.777777777778
3885.0	0.00176366843034	0.779541446208
3921.0	0.00176366843034	0.781305114638
3940.0	0.00352733686067	0.784832451499
3953.0	0.00176366843034	0.786596119929
3962.0	0.00176366843034	0.78835978836
3968.0	0.00176366843034	0.79012345679
4001.0	0.00352733686067	0.793650793651
4004.0	0.00176366843034	0.795414462081
4008.0	0.00176366843034	0.797178130511
4013.0	0.00176366843034	0.798941798942
4050.0	0.00176366843034	0.800705467372
4054.0	0.00176366843034	0.802469135802
4076.0	0.00176366843034	0.804232804233
4087.0	0.00176366843034	0.805996472663
4089.0	0.00176366843034	0.807760141093
4099.0	0.00176366843034	0.809523809524
4105.0	0.00176366843034	0.811287477954
4107.0	0.00176366843034	0.813051146384
4167.0	0.00176366843034	0.814814814815
4169.0	0.00176366843034	0.816578483245
4244.0	0.00176366843034	0.818342151675
4248.0	0.00176366843034	0.820105820106
4252.0	0.00176366843034	0.821869488536
4254.0	0.00176366843034	0.823633156966
4286.0	0.00176366843034	0.825396825397
4300.0	0.00176366843034	0.827160493827
4373.0	0.00176366843034	0.828924162257
4391.0	0.00176366843034	0.830687830688
4398.0	0.00176366843034	0.832451499118
4421.0	0.00176366843034	0.834215167549
4462.0	0.00176366843034	0.835978835979
4481.0	0.00176366843034	0.837742504409
4484.0	0.00176366843034	0.83950617284
4517.0	0.00176366843034	0.84126984127
4550.0	0.00176366843034	0.8430335097
4600.0	0.00176366843034	0.844797178131
4649.0	0.00176366843034	0.846560846561
4666.0	0.00176366843034	0.848324514991
4683.0	0.00176366843034	0.850088183422
4710.0	0.00176366843034	0.851851851852
4755.0	0.00352733686067	0.855379188713
4768.0	0.00176366843034	0.857142857143
4794.0	0.00176366843034	0.858906525573
4832.0	0.00176366843034	0.860670194004
4843.0	0.00176366843034	0.862433862434
4852.0	0.00176366843034	0.864197530864
4856.0	0.00176366843034	0.865961199295
4922.0	0.00352733686067	0.869488536155
4942.0	0.00176366843034	0.871252204586
4969.0	0.00176366843034	0.873015873016
4987.0	0.00176366843034	0.874779541446
4992.0	0.00176366843034	0.876543209877
5006.0	0.00176366843034	0.878306878307
5017.0	0.00176366843034	0.880070546737
5042.0	0.00176366843034	0.881834215168
5046.0	0.00176366843034	0.883597883598
5052.0	0.00176366843034	0.885361552028
5116.0	0.00176366843034	0.887125220459
5171.0	0.00176366843034	0.888888888889
5191.0	0.00176366843034	0.890652557319
5215.0	0.00176366843034	0.89241622575
5258.0	0.00176366843034	0.89417989418
5287.0	0.00176366843034	0.89594356261
5293.0	0.00176366843034	0.897707231041
5312.0	0.00176366843034	0.899470899471
5332.0	0.00176366843034	0.901234567901
5350.0	0.00176366843034	0.902998236332
5417.0	0.00176366843034	0.904761904762
5455.0	0.00176366843034	0.906525573192
5503.0	0.00176366843034	0.908289241623
5606.0	0.00176366843034	0.910052910053
5683.0	0.00176366843034	0.911816578483
5716.0	0.00176366843034	0.913580246914
5791.0	0.00176366843034	0.915343915344
5826.0	0.00176366843034	0.917107583774
5864.0	0.00176366843034	0.918871252205
5871.0	0.00176366843034	0.920634920635
5881.0	0.00176366843034	0.922398589065
5980.0	0.00176366843034	0.924162257496
5993.0	0.00176366843034	0.925925925926
6009.0	0.00176366843034	0.927689594356
6088.0	0.00176366843034	0.929453262787
6223.0	0.00176366843034	0.931216931217
6255.0	0.00176366843034	0.932980599647
6370.0	0.00176366843034	0.934744268078
6407.0	0.00176366843034	0.936507936508
6586.0	0.00176366843034	0.938271604938
6636.0	0.00176366843034	0.940035273369
6645.0	0.00176366843034	0.941798941799
6698.0	0.00176366843034	0.943562610229
6824.0	0.00176366843034	0.94532627866
6883.0	0.00176366843034	0.94708994709
6892.0	0.00176366843034	0.94885361552
6958.0	0.00176366843034	0.950617283951
7079.0	0.00176366843034	0.952380952381
7085.0	0.00176366843034	0.954144620811
7259.0	0.00176366843034	0.955908289242
7339.0	0.00176366843034	0.957671957672
7379.0	0.00176366843034	0.959435626102
7416.0	0.00176366843034	0.961199294533
7453.0	0.00176366843034	0.962962962963
7514.0	0.00176366843034	0.964726631393
7552.0	0.00176366843034	0.966490299824
7776.0	0.00176366843034	0.968253968254
7855.0	0.00176366843034	0.970017636684
8223.0	0.00176366843034	0.971781305115
8369.0	0.00176366843034	0.973544973545
8496.0	0.00176366843034	0.975308641975
8610.0	0.00176366843034	0.977072310406
9171.0	0.00176366843034	0.978835978836
9181.0	0.00176366843034	0.980599647266
9349.0	0.00176366843034	0.982363315697
9454.0	0.00176366843034	0.984126984127
9495.0	0.00176366843034	0.985890652557
9497.0	0.00176366843034	0.987654320988
9525.0	0.00176366843034	0.989417989418
9994.0	0.00176366843034	0.991181657848
10065.0	0.00176366843034	0.992945326279
11230.0	0.00176366843034	0.994708994709
11266.0	0.00176366843034	0.996472663139
11571.0	0.00176366843034	0.99823633157
12431.0	0.00176366843034	1.0
14582.0	0.00176366843034	1.0
