#
# Generated On: 2012-02-05T16:43:22.552362
#           By: cwa.analyze.statistics
#      Version: 11.11.23
#       Author: Thomas A. de Ruiter <thomas@de-ruiter.cx>
#
#  Commandline: /home/af10028/bin/cwa analyze
#     Work Dir: /scratch/af10028/var/thesis-project/result/analyses/workload-01h-00123l-4s-fair
#

Time	Sum	Avg	StdDev	CoV	0.000000-Pct	0.010000-Pct	0.100000-Pct	1.000000-Pct	2.000000-Pct	5.000000-Pct	25.000000-Pct	50.000000-Pct	75.000000-Pct	95.000000-Pct	98.000000-Pct	99.000000-Pct	99.900000-Pct	99.990000-Pct	100.000000-Pct
1326931200	19930.0	2491.25	1955.43541004	0.784921388879	32.0	32.0	32.0	32.0	32.0	32.0	902.0	2716.0	4125.0	5097.0	5097.0	5097.0	5097.0	5097.0	5097.0
1326934800	0	0	0	0															
