#
# Generated On: 2012-02-05T16:43:22.549274
#           By: cwa.analyze.statistics
#      Version: 11.11.23
#       Author: Thomas A. de Ruiter <thomas@de-ruiter.cx>
#
#  Commandline: /home/af10028/bin/cwa analyze
#     Work Dir: /scratch/af10028/var/thesis-project/result/analyses/workload-01h-00123l-4s-fair
#

Value	PDF	CDF
32.0	0.125	0.25
334.0	0.125	0.375
902.0	0.125	0.5
1800.0	0.125	0.625
3632.0	0.125	0.75
4008.0	0.125	0.875
4125.0	0.125	1.0
5097.0	0.125	1.0
