#
# Generated On: 2012-02-09T14:12:56.152517
#           By: cwa.analyze.statistics
#      Version: 11.11.23
#       Author: Thomas A. de Ruiter <thomas@de-ruiter.cx>
#
#  Commandline: /home/af10028/bin/cwa analyze
#     Work Dir: /scratch/af10028/var/thesis-project/result/workload-analyses/workload-06h-04944l-1s
#

Time	Sum	Avg	StdDev	CoV	0.000000-Pct	0.010000-Pct	0.100000-Pct	1.000000-Pct	2.000000-Pct	5.000000-Pct	25.000000-Pct	50.000000-Pct	75.000000-Pct	95.000000-Pct	98.000000-Pct	99.000000-Pct	99.900000-Pct	99.990000-Pct	100.000000-Pct
1326887400	7595730.0	133.965854777	376.495864682	2.81038676093	0.0	0.0	0.0	0.0	0.0	0.0	4.0	24.0	105.0	598.0	1166.0	1754.0	4298.0	8883.0	13775.0
1326891000	13008031.0	163.829105793	424.387538795	2.59042821933	0.0	0.0	0.0	0.0	0.0	0.0	5.0	31.0	135.0	761.0	1385.0	1984.0	4871.0	8751.0	16220.0
1326894600	14226201.0	164.479963465	426.848512462	2.59513987887	0.0	0.0	0.0	0.0	0.0	0.0	5.0	31.0	135.0	759.0	1390.0	2045.0	4864.0	8507.0	12419.0
1326898200	16001378.0	169.44868265	441.015258935	2.60264790518	0.0	0.0	0.0	0.0	0.0	0.0	5.0	32.0	139.0	786.0	1444.0	2048.0	4983.0	9583.0	14795.0
1326901800	16096850.0	172.180921616	430.69564118	2.50141326425	0.0	0.0	0.0	0.0	0.0	0.0	5.0	33.0	145.0	804.0	1430.0	2040.0	4843.0	8047.0	10666.0
1326905400	14039113.0	164.32892442	421.734995026	2.56640756649	0.0	0.0	0.0	0.0	0.0	0.0	5.0	31.0	137.0	765.0	1376.0	1984.0	4762.0	7877.0	19922.0
1326909000	7138907.0	218.964727172	492.212547767	2.24790793533	0.0	0.0	0.0	0.0	0.0	0.0	8.0	50.0	205.0	1008.0	1689.0	2372.0	5111.0	9527.0	12920.0
1326912600	3074592.0	241.012150192	545.776191665	2.26451733338	0.0	0.0	0.0	0.0	0.0	0.0	9.0	58.0	229.0	1064.0	1823.0	2538.0	5995.0	11195.0	14298.0
1326916200	2046998.0	236.182992962	529.878217328	2.24350708187	0.0	0.0	0.0	0.0	0.0	0.0	9.0	56.0	222.0	1074.0	1959.0	2462.0	5441.0	10574.0	10574.0
1326919800	1344887.0	259.380327869	564.200599052	2.17518654436	0.0	0.0	0.0	0.0	0.0	0.0	10.0	58.0	239.0	1187.0	2082.0	2872.0	5192.0	6695.0	6695.0
1326923400	614265.0	236.164936563	552.953897175	2.34138862958	0.0	0.0	0.0	0.0	0.0	0.0	9.0	57.0	230.0	978.0	1768.0	2582.0	6712.0	10207.0	10207.0
1326927000	413762.0	232.189674523	525.101623217	2.26152013131	0.0	0.0	0.0	0.0	0.0	0.0	10.0	53.0	215.0	1011.0	1915.0	2754.0	6433.0	7018.0	7018.0
1326930600	356418.0	235.259405941	506.658409997	2.15361595415	0.0	0.0	0.0	0.0	0.0	0.0	10.0	56.0	231.0	1031.0	1654.0	2497.0	5397.0	8025.0	8025.0
1326934200	315424.0	239.501898254	486.263077543	2.03030991023	0.0	0.0	0.0	0.0	0.0	0.0	9.0	54.0	245.0	1180.0	1914.0	2654.0	4087.0	4895.0	4895.0
1326937800	207529.0	223.87162891	488.010145908	2.17986597178	0.0	0.0	0.0	0.0	0.0	0.0	7.0	46.0	216.0	1059.0	1756.0	2068.0	6025.0	6025.0	6025.0
1326941400	154894.0	228.794682422	677.120762722	2.95951267552	0.0	0.0	0.0	0.0	0.0	0.0	8.0	47.0	181.0	912.0	1920.0	3032.0	11635.0	11635.0	11635.0
1326945000	179854.0	251.19273743	486.194037932	1.93554177922	0.0	0.0	0.0	0.0	0.0	0.0	11.0	64.0	272.0	1070.0	2021.0	2575.0	3860.0	3860.0	3860.0
1326948600	165021.0	251.556402439	539.692069275	2.14541178059	0.0	0.0	0.0	0.0	0.0	0.0	11.0	65.0	253.0	1135.0	1891.0	2836.0	4944.0	4944.0	4944.0
1326952200	11293.0	146.662337662	263.836602663	1.79893902462	0.0	0.0	0.0	0.0	0.0	0.0	12.0	39.0	164.0	691.0	1286.0	1501.0	1501.0	1501.0	1501.0
1326955800	0	0	0	0															
1326959400	0	0	0	0															
