#
# Generated On: 2012-02-09T14:11:26.418643
#           By: cwa.analyze.statistics
#      Version: 11.11.23
#       Author: Thomas A. de Ruiter <thomas@de-ruiter.cx>
#
#  Commandline: /home/af10028/bin/cwa analyze
#     Work Dir: /scratch/af10028/var/thesis-project/result/workload-analyses/workload-06h-04944l-1s
#

Value	PDF	CDF
0.0	0.00926237790502	0.00943078477602
2.0	0.014819804648	0.024250589424
4.0	0.016167059616	0.0404176490401
6.0	0.014988211519	0.0554058605591
8.0	0.014482990906	0.0698888514651
10.0	0.012967329067	0.0828561805322
12.0	0.01010441226	0.0929605927922
14.0	0.011451667228	0.10441226002
16.0	0.00976759851802	0.114179858538
18.0	0.00943078477602	0.123610643314
20.0	0.00909397103402	0.132704614348
22.0	0.00757830919502	0.140282923543
24.0	0.01010441226	0.150387335803
26.0	0.00976759851802	0.160154934321
28.0	0.00808352980802	0.168238464129
30.0	0.00572583361401	0.173964297743
32.0	0.00707308858201	0.181037386325
34.0	0.00623105422701	0.187268440552
36.0	0.00623105422701	0.193499494779
38.0	0.00673627484001	0.200235769619
40.0	0.00639946109801	0.206635230717
42.0	0.00505220613001	0.211687436847
44.0	0.00538901987201	0.217076456719
46.0	0.00623105422701	0.223307510946
48.0	0.00555742674301	0.228864937689
50.0	0.00522061300101	0.23408555069
52.0	0.00303132367801	0.237116874368
54.0	0.00454698551701	0.241663859885
56.0	0.00437857864601	0.246042438531
58.0	0.00370495116201	0.249747389693
60.0	0.00421017177501	0.253957561469
62.0	0.00353654429101	0.25749410576
64.0	0.00303132367801	0.260525429438
66.0	0.00303132367801	0.263556753116
68.0	0.00336813742001	0.266924890536
70.0	0.00286291680701	0.269787807343
72.0	0.00319973054901	0.272987537892
74.0	0.00555742674301	0.278544964635
76.0	0.00421017177501	0.28275513641
78.0	0.00370495116201	0.286460087572
80.0	0.00387335803301	0.290333445605
82.0	0.00471539238801	0.295048837993
84.0	0.00336813742001	0.298416975413
86.0	0.00387335803301	0.302290333446
88.0	0.00404176490401	0.30633209835
90.0	0.00353654429101	0.309868642641
92.0	0.00252610306501	0.312394745706
94.0	0.00286291680701	0.315257662513
96.0	0.00303132367801	0.318288986191
98.0	0.00370495116201	0.321993937353
100.0	0.002357696194	0.324351633547
102.0	0.00303132367801	0.327382957225
104.0	0.002357696194	0.329740653419
106.0	0.00336813742001	0.333108790839
108.0	0.00269450993601	0.335803300775
110.0	0.00303132367801	0.338834624453
112.0	0.00252610306501	0.341360727518
114.0	0.002020882452	0.34338160997
116.0	0.002020882452	0.345402492422
118.0	0.002357696194	0.347760188616
120.0	0.001852475581	0.349612664197
122.0	0.00269450993601	0.352307174133
124.0	0.00269450993601	0.355001684069
126.0	0.002020882452	0.357022566521
128.0	0.002189289323	0.359211855844
130.0	0.002357696194	0.361569552038
132.0	0.00269450993601	0.364264061974
134.0	0.001852475581	0.366116537555
136.0	0.00404176490401	0.370158302459
138.0	0.00286291680701	0.373021219266
140.0	0.00336813742001	0.376389356686
142.0	0.00269450993601	0.379083866622
144.0	0.002357696194	0.381441562816
146.0	0.00168406871	0.383125631526
148.0	0.002357696194	0.38548332772
150.0	0.00269450993601	0.388177837656
152.0	0.001515661839	0.389693499495
154.0	0.00252610306501	0.39221960256
156.0	0.002189289323	0.394408891883
158.0	0.00252610306501	0.396934994948
160.0	0.00269450993601	0.399629504884
162.0	0.001347254968	0.400976759852
164.0	0.002357696194	0.403334456046
166.0	0.00269450993601	0.406028965982
168.0	0.002020882452	0.408049848434
170.0	0.00286291680701	0.410912765241
172.0	0.001852475581	0.412765240822
174.0	0.001852475581	0.414617716403
176.0	0.00252610306501	0.417143819468
178.0	0.00336813742001	0.420511956888
180.0	0.00286291680701	0.423374873695
182.0	0.001852475581	0.425227349276
184.0	0.002020882452	0.427248231728
186.0	0.00286291680701	0.430111148535
188.0	0.001852475581	0.431963624116
190.0	0.00168406871	0.433647692826
192.0	0.00168406871	0.435331761536
194.0	0.002357696194	0.43768945773
196.0	0.00168406871	0.43937352644
198.0	0.002357696194	0.441731222634
200.0	0.00168406871	0.443415291344
202.0	0.000842034355002	0.444257325699
204.0	0.001515661839	0.445772987538
206.0	0.00286291680701	0.448635904345
208.0	0.00168406871	0.450319973055
210.0	0.002189289323	0.452509262378
212.0	0.002357696194	0.454866958572
214.0	0.002020882452	0.456887841024
216.0	0.00168406871	0.458571909734
218.0	0.001852475581	0.460424385315
220.0	0.00336813742001	0.463792522735
222.0	0.001852475581	0.465644998316
224.0	0.000842034355002	0.466487032671
226.0	0.00168406871	0.468171101381
228.0	0.00286291680701	0.471034018188
230.0	0.001852475581	0.472886493769
232.0	0.001852475581	0.47473896935
234.0	0.001178848097	0.475917817447
236.0	0.002020882452	0.477938699899
238.0	0.00168406871	0.479622768609
240.0	0.002357696194	0.481980464803
242.0	0.001852475581	0.483832940384
244.0	0.001347254968	0.485180195352
246.0	0.001515661839	0.486695857191
248.0	0.00286291680701	0.489558773998
250.0	0.002020882452	0.49157965645
252.0	0.001852475581	0.493432132031
254.0	0.002020882452	0.495453014483
256.0	0.001852475581	0.497305490064
258.0	0.00168406871	0.498989558774
260.0	0.002189289323	0.501178848097
262.0	0.001010441226	0.502189289323
264.0	0.002357696194	0.504546985517
266.0	0.000673627484001	0.505220613001
268.0	0.00252610306501	0.507746716066
270.0	0.001178848097	0.508925564163
272.0	0.002020882452	0.510946446615
274.0	0.001515661839	0.512462108454
276.0	0.00252610306501	0.514988211519
278.0	0.00168406871	0.516672280229
280.0	0.001852475581	0.51852475581
282.0	0.001515661839	0.520040417649
284.0	0.001010441226	0.521050858875
286.0	0.002020882452	0.523071741327
288.0	0.00168406871	0.524755810037
290.0	0.002020882452	0.526776692489
292.0	0.001852475581	0.52862916807
294.0	0.002189289323	0.530818457393
296.0	0.001515661839	0.532334119232
298.0	0.00286291680701	0.535197036039
300.0	0.001852475581	0.53704951162
302.0	0.002020882452	0.539070394072
304.0	0.00168406871	0.540754462782
306.0	0.002357696194	0.543112158976
308.0	0.001515661839	0.544627820815
310.0	0.001178848097	0.545806668912
312.0	0.002020882452	0.547827551364
314.0	0.001515661839	0.549343213203
316.0	0.001347254968	0.550690468171
318.0	0.00252610306501	0.553216571236
320.0	0.00252610306501	0.555742674301
322.0	0.002189289323	0.557931963624
324.0	0.001347254968	0.559279218592
326.0	0.00269450993601	0.561973728528
328.0	0.002020882452	0.56399461098
330.0	0.002020882452	0.566015493432
332.0	0.001852475581	0.567867969013
334.0	0.001852475581	0.569720444594
336.0	0.001852475581	0.571572920175
338.0	0.001852475581	0.573425395756
340.0	0.001010441226	0.574435836982
342.0	0.002020882452	0.576456719434
344.0	0.002020882452	0.578477601886
346.0	0.001515661839	0.579993263725
348.0	0.001515661839	0.581508925564
350.0	0.001347254968	0.582856180532
352.0	0.001178848097	0.584035028629
354.0	0.001852475581	0.58588750421
356.0	0.001178848097	0.587066352307
358.0	0.002020882452	0.589087234759
360.0	0.002189289323	0.591276524082
362.0	0.000673627484001	0.591950151566
364.0	0.001010441226	0.592960592792
366.0	0.00168406871	0.594644661502
368.0	0.002189289323	0.596833950825
370.0	0.000842034355002	0.59767598518
372.0	0.001010441226	0.598686426406
374.0	0.00168406871	0.600370495116
376.0	0.001178848097	0.601549343213
378.0	0.001852475581	0.603401818794
380.0	0.001347254968	0.604749073762
382.0	0.00168406871	0.606433142472
384.0	0.002357696194	0.608790838666
386.0	0.001347254968	0.610138093634
388.0	0.001178848097	0.611316941731
390.0	0.002357696194	0.613674637925
392.0	0.001178848097	0.614853486022
395.0	0.001010441226	0.615863927248
397.0	0.001178848097	0.617042775345
399.0	0.002020882452	0.619063657797
401.0	0.001178848097	0.620242505894
403.0	0.001178848097	0.621421353991
405.0	0.001515661839	0.62293701583
407.0	0.002020882452	0.624957898282
409.0	0.00168406871	0.626641966992
411.0	0.001515661839	0.628157628831
413.0	0.001347254968	0.629504883799
415.0	0.00168406871	0.631188952509
417.0	0.00168406871	0.632873021219
419.0	0.001010441226	0.633883462445
421.0	0.001515661839	0.635399124284
423.0	0.001347254968	0.636746379252
425.0	0.001010441226	0.637756820478
427.0	0.001347254968	0.639104075446
429.0	0.000673627484001	0.63977770293
431.0	0.000673627484001	0.640451330414
433.0	0.001515661839	0.641966992253
435.0	0.001347254968	0.643314247221
437.0	0.001178848097	0.644493095318
439.0	0.001178848097	0.645671943415
441.0	0.00168406871	0.647356012125
443.0	0.001347254968	0.648703267093
445.0	0.00269450993601	0.651397777029
447.0	0.001515661839	0.652913438868
449.0	0.001852475581	0.654765914449
451.0	0.001010441226	0.655776355675
453.0	0.001178848097	0.656955203772
455.0	0.000842034355002	0.657797238127
457.0	0.000842034355002	0.658639272482
459.0	0.000673627484001	0.659312899966
461.0	0.00168406871	0.660996968676
463.0	0.000673627484001	0.66167059616
465.0	0.00168406871	0.66335466487
467.0	0.001515661839	0.664870326709
469.0	0.001178848097	0.666049174806
471.0	0.001010441226	0.667059616032
473.0	0.001178848097	0.668238464129
475.0	0.00168406871	0.669922532839
477.0	0.00168406871	0.671606601549
479.0	0.001852475581	0.67345907713
481.0	0.001010441226	0.674469518356
483.0	0.001178848097	0.675648366453
485.0	0.001347254968	0.676995621421
487.0	0.001178848097	0.678174469518
489.0	0.000842034355002	0.679016503873
491.0	0.000505220613001	0.679521724486
493.0	0.000842034355002	0.680363758841
495.0	0.001010441226	0.681374200067
497.0	0.001010441226	0.682384641293
499.0	0.001010441226	0.683395082519
501.0	0.001010441226	0.684405523745
504.0	0.001010441226	0.685415964971
506.0	0.000842034355002	0.686257999326
508.0	0.001010441226	0.687268440552
510.0	0.001515661839	0.688784102391
512.0	0.001178848097	0.689962950488
514.0	0.000842034355002	0.690804984843
516.0	0.001347254968	0.692152239811
518.0	0.001515661839	0.69366790165
520.0	0.000673627484001	0.694341529134
522.0	0.001347254968	0.695688784102
524.0	0.001010441226	0.696699225328
526.0	0.001178848097	0.697878073425
528.0	0.001010441226	0.698888514651
530.0	0.001010441226	0.699898955877
532.0	0.001515661839	0.701414617716
534.0	0.001515661839	0.702930279555
536.0	0.002020882452	0.704951162007
538.0	0.001010441226	0.705961603233
540.0	0.001515661839	0.707477265072
542.0	0.001010441226	0.708487706298
544.0	0.001347254968	0.709834961266
546.0	0.000842034355002	0.710676995621
548.0	0.000336813742001	0.711013809363
551.0	0.001178848097	0.71219265746
554.0	0.001515661839	0.713708319299
556.0	0.000673627484001	0.714381946783
558.0	0.000842034355002	0.715223981138
560.0	0.000505220613001	0.715729201751
562.0	0.002189289323	0.717918491074
564.0	0.000673627484001	0.718592118558
566.0	0.001010441226	0.719602559784
568.0	0.001178848097	0.720781407881
570.0	0.001178848097	0.721960255978
572.0	0.001515661839	0.723475917817
574.0	0.000842034355002	0.724317952172
576.0	0.001515661839	0.725833614011
578.0	0.00168406871	0.727517682721
580.0	0.000673627484001	0.728191310205
582.0	0.001515661839	0.729706972044
584.0	0.001515661839	0.731222633883
586.0	0.001515661839	0.732738295722
588.0	0.001010441226	0.733748736948
590.0	0.001515661839	0.735264398787
592.0	0.001515661839	0.736780060626
594.0	0.001178848097	0.737958908723
596.0	0.000673627484001	0.738632536207
598.0	0.001010441226	0.739642977433
600.0	0.000842034355002	0.740485011788
602.0	0.001178848097	0.741663859885
604.0	0.001515661839	0.743179521724
606.0	0.000505220613001	0.743684742337
608.0	0.001010441226	0.744695183563
610.0	0.000673627484001	0.745368811047
612.0	0.001515661839	0.746884472886
615.0	0.000673627484001	0.74755810037
617.0	0.001347254968	0.748905355338
619.0	0.001010441226	0.749915796564
621.0	0.001178848097	0.751094644662
623.0	0.000673627484001	0.751768272146
625.0	0.001347254968	0.753115527114
628.0	0.001178848097	0.754294375211
630.0	0.001178848097	0.755473223308
632.0	0.002020882452	0.75749410576
634.0	0.000842034355002	0.758336140115
636.0	0.001515661839	0.759851801954
638.0	0.000842034355002	0.760693836309
640.0	0.000842034355002	0.761535870664
642.0	0.000842034355002	0.762377905019
644.0	0.000336813742001	0.762714718761
646.0	0.000336813742001	0.763051532503
648.0	0.000505220613001	0.763556753116
650.0	0.000505220613001	0.764061973729
652.0	0.001178848097	0.765240821826
654.0	0.001010441226	0.766251263052
656.0	0.000842034355002	0.767093297407
658.0	0.001010441226	0.768103738633
660.0	0.000505220613001	0.768608959246
662.0	0.000505220613001	0.769114179859
665.0	0.000673627484001	0.769787807343
667.0	0.000336813742001	0.770124621085
669.0	0.000673627484001	0.770798248569
671.0	0.000673627484001	0.771471876053
673.0	0.000336813742001	0.771808689795
675.0	0.001347254968	0.773155944763
677.0	0.001010441226	0.774166385989
679.0	0.000336813742001	0.774503199731
681.0	0.000842034355002	0.775345234086
683.0	0.000336813742001	0.775682047828
685.0	0.001178848097	0.776860895925
687.0	0.000505220613001	0.777366116538
689.0	0.000842034355002	0.778208150893
691.0	0.002020882452	0.780229033345
693.0	0.000505220613001	0.780734253958
695.0	0.000673627484001	0.781407881442
697.0	0.000842034355002	0.782249915797
699.0	0.000673627484001	0.782923543281
701.0	0.001010441226	0.783933984507
703.0	0.000505220613001	0.78443920512
705.0	0.001178848097	0.785618053217
707.0	0.001515661839	0.787133715056
710.0	0.000842034355002	0.787975749411
712.0	0.000505220613001	0.788480970024
714.0	0.000336813742001	0.788817783766
716.0	0.001178848097	0.789996631863
719.0	0.000336813742001	0.790333445605
721.0	0.000673627484001	0.791007073089
723.0	0.001178848097	0.792185921186
725.0	0.000673627484001	0.79285954867
727.0	0.000336813742001	0.793196362412
729.0	0.000505220613001	0.793701583025
732.0	0.000505220613001	0.794206803638
734.0	0.001010441226	0.795217244864
737.0	0.001178848097	0.796396092961
739.0	0.000842034355002	0.797238127316
741.0	0.000505220613001	0.797743347929
743.0	0.000842034355002	0.798585382284
745.0	0.000842034355002	0.799427416639
747.0	0.000505220613001	0.799932637252
749.0	0.000673627484001	0.800606264736
751.0	0.001010441226	0.801616705962
753.0	0.000168406871	0.801785112833
755.0	0.000673627484001	0.802458740317
757.0	0.001010441226	0.803469181543
759.0	0.000673627484001	0.804142809027
761.0	0.000505220613001	0.80464802964
763.0	0.000673627484001	0.805321657124
765.0	0.001010441226	0.80633209835
767.0	0.000336813742001	0.806668912092
769.0	0.001010441226	0.807679353318
771.0	0.001178848097	0.808858201415
774.0	0.000505220613001	0.809363422028
776.0	0.000505220613001	0.809868642641
778.0	0.000505220613001	0.810373863254
780.0	0.000673627484001	0.811047490738
782.0	0.000505220613001	0.811552711351
784.0	0.000505220613001	0.812057931964
786.0	0.000505220613001	0.812563152577
788.0	0.000505220613001	0.81306837319
790.0	0.000673627484001	0.813742000674
792.0	0.000336813742001	0.814078814416
794.0	0.000505220613001	0.814584035029
796.0	0.001010441226	0.815594476255
798.0	0.000673627484001	0.816268103739
802.0	0.000505220613001	0.816773324352
804.0	0.000673627484001	0.817446951836
806.0	0.000336813742001	0.817783765578
809.0	0.000842034355002	0.818625799933
812.0	0.000505220613001	0.819131020546
814.0	0.001347254968	0.820478275514
816.0	0.000673627484001	0.821151902998
818.0	0.000673627484001	0.821825530482
820.0	0.001010441226	0.822835971708
822.0	0.000673627484001	0.823509599192
824.0	0.001178848097	0.824688447289
826.0	0.000842034355002	0.825530481644
828.0	0.000505220613001	0.826035702257
830.0	0.000505220613001	0.82654092287
833.0	0.000336813742001	0.826877736612
835.0	0.000842034355002	0.827719770967
837.0	0.000168406871	0.827888177838
839.0	0.000505220613001	0.828393398451
841.0	0.000842034355002	0.829235432806
843.0	0.000842034355002	0.830077467161
845.0	0.000336813742001	0.830414280903
847.0	0.001010441226	0.831424722129
849.0	0.000673627484001	0.832098349613
851.0	0.000673627484001	0.832771977097
854.0	0.000505220613001	0.83327719771
856.0	0.000336813742001	0.833614011452
858.0	0.000673627484001	0.834287638936
860.0	0.000842034355002	0.835129673291
862.0	0.000842034355002	0.835971707646
865.0	0.000842034355002	0.836813742001
867.0	0.000168406871	0.836982148872
869.0	0.000336813742001	0.837318962614
871.0	0.000505220613001	0.837824183227
873.0	0.000505220613001	0.83832940384
875.0	0.000673627484001	0.839003031324
878.0	0.000673627484001	0.839676658808
880.0	0.000505220613001	0.840181879421
882.0	0.000842034355002	0.841023913776
884.0	0.000842034355002	0.841865948131
886.0	0.000168406871	0.842034355002
888.0	0.000336813742001	0.842371168744
890.0	0.001010441226	0.84338160997
892.0	0.001347254968	0.844728864938
894.0	0.001010441226	0.845739306164
896.0	0.000673627484001	0.846412933648
899.0	0.000673627484001	0.847086561132
901.0	0.000336813742001	0.847423374874
903.0	0.000673627484001	0.848097002358
905.0	0.000505220613001	0.848602222971
907.0	0.000505220613001	0.849107443584
909.0	0.000505220613001	0.849612664197
911.0	0.000673627484001	0.850286291681
913.0	0.000505220613001	0.850791512294
915.0	0.000336813742001	0.851128326036
917.0	0.000505220613001	0.851633546649
919.0	0.000842034355002	0.852475581004
921.0	0.000505220613001	0.852980801617
923.0	0.000673627484001	0.853654429101
925.0	0.000505220613001	0.854159649714
927.0	0.000336813742001	0.854496463456
929.0	0.000505220613001	0.855001684069
932.0	0.000842034355002	0.855843718424
934.0	0.000336813742001	0.856180532166
936.0	0.000336813742001	0.856517345908
938.0	0.000505220613001	0.857022566521
940.0	0.000842034355002	0.857864600876
942.0	0.000168406871	0.858033007747
944.0	0.000505220613001	0.85853822836
946.0	0.000673627484001	0.859211855844
949.0	0.001178848097	0.860390703941
951.0	0.000673627484001	0.861064331425
953.0	0.000505220613001	0.861569552038
955.0	0.000168406871	0.861737958909
957.0	0.000673627484001	0.862411586393
960.0	0.001010441226	0.863422027619
962.0	0.000505220613001	0.863927248232
964.0	0.000505220613001	0.864432468845
967.0	0.001010441226	0.865442910071
969.0	0.000336813742001	0.865779723813
971.0	0.000673627484001	0.866453351297
973.0	0.000673627484001	0.867126978781
975.0	0.000673627484001	0.867800606265
977.0	0.000505220613001	0.868305826878
979.0	0.000673627484001	0.868979454362
981.0	0.000505220613001	0.869484674975
984.0	0.000842034355002	0.87032670933
986.0	0.000505220613001	0.870831929943
988.0	0.000505220613001	0.871337150556
990.0	0.000842034355002	0.872179184911
992.0	0.000505220613001	0.872684405524
994.0	0.000842034355002	0.873526439879
997.0	0.001178848097	0.874705287976
999.0	0.000336813742001	0.875042101718
1001.0	0.000505220613001	0.875547322331
1005.0	0.001178848097	0.876726170428
1007.0	0.000673627484001	0.877399797912
1009.0	0.000336813742001	0.877736611654
1011.0	0.000336813742001	0.878073425396
1013.0	0.001010441226	0.879083866622
1015.0	0.000673627484001	0.879757494106
1017.0	0.000336813742001	0.880094307848
1019.0	0.000336813742001	0.88043112159
1021.0	0.000505220613001	0.880936342203
1024.0	0.000168406871	0.881104749074
1026.0	0.000505220613001	0.881609969687
1028.0	0.000505220613001	0.8821151903
1031.0	0.000673627484001	0.882788817784
1033.0	0.000336813742001	0.883125631526
1035.0	0.000842034355002	0.883967665881
1037.0	0.000505220613001	0.884472886494
1040.0	0.000842034355002	0.885314920849
1042.0	0.000505220613001	0.885820141462
1046.0	0.000673627484001	0.886493768946
1048.0	0.000673627484001	0.88716739643
1050.0	0.000336813742001	0.887504210172
1052.0	0.000673627484001	0.888177837656
1054.0	0.000673627484001	0.88885146514
1056.0	0.000505220613001	0.889356685753
1058.0	0.000505220613001	0.889861906366
1060.0	0.000336813742001	0.890198720108
1062.0	0.000336813742001	0.89053553385
1064.0	0.000673627484001	0.891209161334
1067.0	0.000673627484001	0.891882788818
1069.0	0.001010441226	0.892893230044
1071.0	0.000336813742001	0.893230043786
1073.0	0.000673627484001	0.89390367127
1075.0	0.000168406871	0.894072078141
1077.0	0.000673627484001	0.894745705625
1079.0	0.000505220613001	0.895250926238
1081.0	0.001347254968	0.896598181206
1083.0	0.000168406871	0.896766588077
1085.0	0.000336813742001	0.897103401819
1090.0	0.001347254968	0.898450656787
1093.0	0.000168406871	0.898619063658
1096.0	0.000505220613001	0.899124284271
1098.0	0.000336813742001	0.899461098013
1100.0	0.000505220613001	0.899966318626
1102.0	0.000673627484001	0.90063994611
1104.0	0.000336813742001	0.900976759852
1106.0	0.000505220613001	0.901481980465
1108.0	0.000673627484001	0.902155607949
1110.0	0.000505220613001	0.902660828562
1112.0	0.000505220613001	0.903166049175
1117.0	0.000168406871	0.903334456046
1119.0	0.000168406871	0.903502862917
1121.0	0.000336813742001	0.903839676659
1124.0	0.000673627484001	0.904513304143
1126.0	0.000336813742001	0.904850117885
1130.0	0.000842034355002	0.90569215224
1132.0	0.000673627484001	0.906365779724
1136.0	0.000673627484001	0.907039407208
1138.0	0.000168406871	0.907207814079
1140.0	0.000673627484001	0.907881441563
1143.0	0.000842034355002	0.908723475918
1149.0	0.000336813742001	0.90906028966
1151.0	0.000336813742001	0.909397103402
1154.0	0.000673627484001	0.910070730886
1156.0	0.000168406871	0.910239137757
1158.0	0.000842034355002	0.911081172112
1160.0	0.000168406871	0.911249578983
1162.0	0.000168406871	0.911417985854
1164.0	0.000505220613001	0.911923206467
1166.0	0.000168406871	0.912091613338
1168.0	0.000505220613001	0.912596833951
1170.0	0.000505220613001	0.913102054564
1174.0	0.000505220613001	0.913607275177
1176.0	0.000505220613001	0.91411249579
1178.0	0.000505220613001	0.914617716403
1180.0	0.000168406871	0.914786123274
1182.0	0.000336813742001	0.915122937016
1185.0	0.000505220613001	0.915628157629
1187.0	0.000673627484001	0.916301785113
1189.0	0.000168406871	0.916470191984
1192.0	0.000336813742001	0.916807005726
1196.0	0.000336813742001	0.917143819468
1199.0	0.000336813742001	0.91748063321
1201.0	0.000673627484001	0.918154260694
1203.0	0.000336813742001	0.918491074436
1205.0	0.000505220613001	0.918996295049
1207.0	0.000168406871	0.91916470192
1209.0	0.000168406871	0.919333108791
1212.0	0.000336813742001	0.919669922533
1214.0	0.000168406871	0.919838329404
1217.0	0.000168406871	0.920006736275
1220.0	0.000168406871	0.920175143146
1222.0	0.000168406871	0.920343550017
1224.0	0.000168406871	0.920511956888
1227.0	0.000168406871	0.920680363759
1229.0	0.000336813742001	0.921017177501
1231.0	0.000505220613001	0.921522398114
1234.0	0.000336813742001	0.921859211856
1239.0	0.000336813742001	0.922196025598
1242.0	0.000505220613001	0.922701246211
1244.0	0.000336813742001	0.923038059953
1249.0	0.000673627484001	0.923711687437
1251.0	0.000505220613001	0.92421690805
1253.0	0.000168406871	0.924385314921
1256.0	0.000336813742001	0.924722128663
1258.0	0.000168406871	0.924890535534
1260.0	0.000336813742001	0.925227349276
1264.0	0.000168406871	0.925395756147
1266.0	0.000505220613001	0.92590097676
1269.0	0.000673627484001	0.926574604244
1271.0	0.000168406871	0.926743011115
1273.0	0.000168406871	0.926911417986
1275.0	0.000168406871	0.927079824857
1277.0	0.000336813742001	0.927416638599
1279.0	0.000336813742001	0.927753452341
1283.0	0.000168406871	0.927921859212
1286.0	0.000842034355002	0.928763893567
1290.0	0.000168406871	0.928932300438
1293.0	0.000336813742001	0.92926911418
1295.0	0.000336813742001	0.929605927922
1297.0	0.000168406871	0.929774334793
1300.0	0.000336813742001	0.930111148535
1306.0	0.000336813742001	0.930447962277
1308.0	0.000168406871	0.930616369148
1311.0	0.000168406871	0.930784776019
1315.0	0.000505220613001	0.931289996632
1320.0	0.000505220613001	0.931795217245
1323.0	0.000168406871	0.931963624116
1326.0	0.000168406871	0.932132030987
1328.0	0.000336813742001	0.932468844729
1330.0	0.000505220613001	0.932974065342
1332.0	0.000168406871	0.933142472213
1335.0	0.000505220613001	0.933647692826
1337.0	0.000168406871	0.933816099697
1339.0	0.000336813742001	0.934152913439
1342.0	0.000336813742001	0.934489727181
1345.0	0.000505220613001	0.934994947794
1347.0	0.000168406871	0.935163354665
1350.0	0.000505220613001	0.935668575278
1354.0	0.000505220613001	0.936173795891
1359.0	0.000505220613001	0.936679016504
1361.0	0.000168406871	0.936847423375
1363.0	0.000168406871	0.937015830246
1365.0	0.000168406871	0.937184237117
1371.0	0.000336813742001	0.937521050859
1375.0	0.000336813742001	0.937857864601
1377.0	0.000336813742001	0.938194678343
1381.0	0.000336813742001	0.938531492085
1384.0	0.000168406871	0.938699898956
1387.0	0.000168406871	0.938868305827
1389.0	0.000168406871	0.939036712698
1392.0	0.000336813742001	0.93937352644
1395.0	0.000168406871	0.939541933311
1399.0	0.000168406871	0.939710340182
1402.0	0.000336813742001	0.940047153924
1405.0	0.000336813742001	0.940383967666
1407.0	0.000673627484001	0.94105759515
1412.0	0.000168406871	0.941226002021
1414.0	0.000336813742001	0.941562815763
1417.0	0.000336813742001	0.941899629505
1419.0	0.000336813742001	0.942236443247
1421.0	0.000336813742001	0.942573256989
1423.0	0.000168406871	0.94274166386
1432.0	0.000168406871	0.942910070731
1435.0	0.000168406871	0.943078477602
1437.0	0.000168406871	0.943246884473
1439.0	0.000168406871	0.943415291344
1441.0	0.000168406871	0.943583698215
1443.0	0.000168406871	0.943752105086
1447.0	0.000336813742001	0.944088918828
1449.0	0.000336813742001	0.94442573257
1451.0	0.000168406871	0.944594139441
1453.0	0.000336813742001	0.944930953183
1455.0	0.000336813742001	0.945267766925
1460.0	0.000168406871	0.945436173796
1462.0	0.000168406871	0.945604580667
1466.0	0.000168406871	0.945772987538
1468.0	0.000336813742001	0.94610980128
1473.0	0.000336813742001	0.946446615022
1480.0	0.000168406871	0.946615021893
1482.0	0.000336813742001	0.946951835635
1484.0	0.000505220613001	0.947457056248
1487.0	0.000168406871	0.947625463119
1490.0	0.000336813742001	0.947962276861
1493.0	0.000168406871	0.948130683732
1495.0	0.000336813742001	0.948467497474
1497.0	0.000336813742001	0.948804311216
1504.0	0.000168406871	0.948972718087
1507.0	0.000336813742001	0.949309531829
1510.0	0.000336813742001	0.949646345571
1512.0	0.000336813742001	0.949983159313
1514.0	0.000505220613001	0.950488379926
1516.0	0.000168406871	0.950656786797
1519.0	0.000505220613001	0.95116200741
1521.0	0.000505220613001	0.951667228023
1523.0	0.000336813742001	0.952004041765
1525.0	0.000505220613001	0.952509262378
1529.0	0.000168406871	0.952677669249
1534.0	0.000336813742001	0.953014482991
1536.0	0.000168406871	0.953182889862
1538.0	0.000168406871	0.953351296733
1540.0	0.000336813742001	0.953688110475
1543.0	0.000336813742001	0.954024924217
1547.0	0.000168406871	0.954193331088
1550.0	0.000168406871	0.954361737959
1552.0	0.000168406871	0.95453014483
1566.0	0.000168406871	0.954698551701
1569.0	0.000168406871	0.954866958572
1572.0	0.000336813742001	0.955203772314
1574.0	0.000168406871	0.955372179185
1576.0	0.000168406871	0.955540586056
1581.0	0.000336813742001	0.955877399798
1583.0	0.000168406871	0.956045806669
1586.0	0.000673627484001	0.956719434153
1588.0	0.000336813742001	0.957056247895
1599.0	0.000168406871	0.957224654766
1601.0	0.000168406871	0.957393061637
1603.0	0.000505220613001	0.95789828225
1606.0	0.000336813742001	0.958235095992
1609.0	0.000336813742001	0.958571909734
1611.0	0.000336813742001	0.958908723476
1615.0	0.000673627484001	0.95958235096
1617.0	0.000168406871	0.959750757831
1619.0	0.000168406871	0.959919164702
1623.0	0.000168406871	0.960087571573
1626.0	0.000336813742001	0.960424385315
1630.0	0.000168406871	0.960592792186
1632.0	0.000168406871	0.960761199057
1635.0	0.000168406871	0.960929605928
1638.0	0.000168406871	0.961098012799
1641.0	0.000336813742001	0.961434826541
1645.0	0.000168406871	0.961603233412
1649.0	0.000168406871	0.961771640283
1652.0	0.000505220613001	0.962276860896
1655.0	0.000336813742001	0.962613674638
1657.0	0.000168406871	0.962782081509
1661.0	0.000168406871	0.96295048838
1667.0	0.000168406871	0.963118895251
1669.0	0.000336813742001	0.963455708993
1671.0	0.000336813742001	0.963792522735
1676.0	0.000336813742001	0.964129336477
1679.0	0.000336813742001	0.964466150219
1685.0	0.000168406871	0.96463455709
1687.0	0.000168406871	0.964802963961
1691.0	0.000336813742001	0.965139777703
1693.0	0.000336813742001	0.965476591445
1695.0	0.000168406871	0.965644998316
1698.0	0.000336813742001	0.965981812058
1700.0	0.000168406871	0.966150218929
1704.0	0.000673627484001	0.966823846413
1708.0	0.000336813742001	0.967160660155
1710.0	0.000168406871	0.967329067026
1713.0	0.000168406871	0.967497473897
1715.0	0.000336813742001	0.967834287639
1717.0	0.000168406871	0.96800269451
1727.0	0.000168406871	0.968171101381
1731.0	0.000336813742001	0.968507915123
1736.0	0.000168406871	0.968676321994
1738.0	0.000168406871	0.968844728865
1741.0	0.000168406871	0.969013135736
1744.0	0.000168406871	0.969181542607
1748.0	0.000336813742001	0.969518356349
1755.0	0.000168406871	0.96968676322
1769.0	0.000336813742001	0.970023576962
1771.0	0.000168406871	0.970191983833
1773.0	0.000505220613001	0.970697204446
1776.0	0.000336813742001	0.971034018188
1780.0	0.000336813742001	0.97137083193
1785.0	0.000168406871	0.971539238801
1788.0	0.000168406871	0.971707645672
1792.0	0.000336813742001	0.972044459414
1806.0	0.000336813742001	0.972381273156
1828.0	0.000168406871	0.972549680027
1841.0	0.000168406871	0.972718086898
1847.0	0.000168406871	0.972886493769
1851.0	0.000168406871	0.97305490064
1864.0	0.000168406871	0.973223307511
1868.0	0.000168406871	0.973391714382
1880.0	0.000336813742001	0.973728528124
1882.0	0.000336813742001	0.974065341866
1886.0	0.000505220613001	0.974570562479
1897.0	0.000168406871	0.97473896935
1901.0	0.000336813742001	0.975075783092
1908.0	0.000168406871	0.975244189963
1914.0	0.000336813742001	0.975581003705
1916.0	0.000168406871	0.975749410576
1919.0	0.000168406871	0.975917817447
1921.0	0.000168406871	0.976086224318
1926.0	0.000168406871	0.976254631189
1932.0	0.000336813742001	0.976591444931
1936.0	0.000505220613001	0.977096665544
1940.0	0.000168406871	0.977265072415
1948.0	0.000168406871	0.977433479286
1953.0	0.000168406871	0.977601886157
1958.0	0.000168406871	0.977770293028
1960.0	0.000168406871	0.977938699899
1968.0	0.000168406871	0.97810710677
1971.0	0.000168406871	0.978275513641
1976.0	0.000336813742001	0.978612327383
1979.0	0.000168406871	0.978780734254
1994.0	0.000168406871	0.978949141125
2000.0	0.000168406871	0.979117547996
2002.0	0.000168406871	0.979285954867
2006.0	0.000168406871	0.979454361738
2010.0	0.000168406871	0.979622768609
2012.0	0.000168406871	0.97979117548
2020.0	0.000168406871	0.979959582351
2024.0	0.000336813742001	0.980296396093
2026.0	0.000168406871	0.980464802964
2034.0	0.000168406871	0.980633209835
2044.0	0.000168406871	0.980801616706
2049.0	0.000168406871	0.980970023577
2051.0	0.000168406871	0.981138430448
2087.0	0.000168406871	0.981306837319
2090.0	0.000168406871	0.98147524419
2094.0	0.000168406871	0.981643651061
2099.0	0.000168406871	0.981812057932
2101.0	0.000168406871	0.981980464803
2106.0	0.000168406871	0.982148871674
2112.0	0.000168406871	0.982317278545
2116.0	0.000336813742001	0.982654092287
2121.0	0.000336813742001	0.982990906029
2125.0	0.000168406871	0.9831593129
2127.0	0.000168406871	0.983327719771
2136.0	0.000168406871	0.983496126642
2144.0	0.000168406871	0.983664533513
2156.0	0.000168406871	0.983832940384
2159.0	0.000168406871	0.984001347255
2176.0	0.000168406871	0.984169754126
2178.0	0.000336813742001	0.984506567868
2181.0	0.000336813742001	0.98484338161
2185.0	0.000168406871	0.985011788481
2194.0	0.000168406871	0.985180195352
2202.0	0.000168406871	0.985348602223
2208.0	0.000168406871	0.985517009094
2214.0	0.000168406871	0.985685415965
2216.0	0.000168406871	0.985853822836
2220.0	0.000168406871	0.986022229707
2225.0	0.000168406871	0.986190636578
2234.0	0.000168406871	0.986359043449
2245.0	0.000168406871	0.98652745032
2250.0	0.000505220613001	0.987032670933
2255.0	0.000168406871	0.987201077804
2281.0	0.000168406871	0.987369484675
2286.0	0.000168406871	0.987537891546
2290.0	0.000336813742001	0.987874705288
2298.0	0.000168406871	0.988043112159
2300.0	0.000168406871	0.98821151903
2309.0	0.000168406871	0.988379925901
2322.0	0.000168406871	0.988548332772
2340.0	0.000168406871	0.988716739643
2353.0	0.000336813742001	0.989053553385
2377.0	0.000168406871	0.989221960256
2399.0	0.000168406871	0.989390367127
2418.0	0.000336813742001	0.989727180869
2422.0	0.000168406871	0.98989558774
2438.0	0.000168406871	0.990063994611
2453.0	0.000168406871	0.990232401482
2459.0	0.000168406871	0.990400808353
2482.0	0.000168406871	0.990569215224
2486.0	0.000168406871	0.990737622095
2496.0	0.000168406871	0.990906028966
2504.0	0.000168406871	0.991074435837
2555.0	0.000168406871	0.991242842708
2563.0	0.000168406871	0.991411249579
2581.0	0.000168406871	0.99157965645
2588.0	0.000168406871	0.991748063321
2595.0	0.000168406871	0.991916470192
2597.0	0.000168406871	0.992084877063
2607.0	0.000168406871	0.992253283934
2609.0	0.000336813742001	0.992590097676
2616.0	0.000168406871	0.992758504547
2637.0	0.000168406871	0.992926911418
2647.0	0.000168406871	0.993095318289
2654.0	0.000168406871	0.99326372516
2693.0	0.000168406871	0.993432132031
2725.0	0.000336813742001	0.993768945773
2729.0	0.000168406871	0.993937352644
2737.0	0.000336813742001	0.994274166386
2796.0	0.000168406871	0.994442573257
2808.0	0.000168406871	0.994610980128
2875.0	0.000168406871	0.994779386999
2959.0	0.000168406871	0.99494779387
2961.0	0.000168406871	0.995116200741
2964.0	0.000168406871	0.995284607612
3046.0	0.000336813742001	0.995621421354
3071.0	0.000168406871	0.995789828225
3142.0	0.000168406871	0.995958235096
3173.0	0.000168406871	0.996126641967
3232.0	0.000168406871	0.996295048838
3239.0	0.000168406871	0.996463455709
3242.0	0.000168406871	0.99663186258
3247.0	0.000168406871	0.996800269451
3288.0	0.000168406871	0.996968676322
3338.0	0.000168406871	0.997137083193
3344.0	0.000168406871	0.997305490064
3419.0	0.000168406871	0.997473896935
3546.0	0.000168406871	0.997642303806
3628.0	0.000168406871	0.997810710677
3686.0	0.000168406871	0.997979117548
3746.0	0.000168406871	0.998147524419
3890.0	0.000168406871	0.99831593129
3915.0	0.000168406871	0.998484338161
3922.0	0.000168406871	0.998652745032
3979.0	0.000168406871	0.998821151903
4153.0	0.000168406871	0.998989558774
4403.0	0.000168406871	0.999157965645
4444.0	0.000168406871	0.999326372516
4559.0	0.000168406871	0.999494779387
5132.0	0.000168406871	0.999663186258
5514.0	0.000168406871	0.999831593129
5541.0	0.000168406871	1.0
6285.0	0.000168406871	1.0
