#
# Generated On: 2012-02-05T17:00:52.949876
#           By: cwa.analyze.statistics
#      Version: 11.11.23
#       Author: Thomas A. de Ruiter <thomas@de-ruiter.cx>
#
#  Commandline: /home/af10028/bin/cwa analyze
#     Work Dir: /scratch/af10028/var/thesis-project/result/analyses/workload-01h-07416l-5s-fair
#

Time	Sum	Avg	StdDev	CoV	0.000000-Pct	0.010000-Pct	0.100000-Pct	1.000000-Pct	2.000000-Pct	5.000000-Pct	25.000000-Pct	50.000000-Pct	75.000000-Pct	95.000000-Pct	98.000000-Pct	99.000000-Pct	99.900000-Pct	99.990000-Pct	100.000000-Pct
1326930000	36675073.0	3244.43320948	3095.98936441	0.954246601643	5.0	5.0	5.0	5.0	5.0	6.0	620.0	1650.5	6042.0	8673.0	9057.0	11066.0	11414.0	11420.0	12031.0
1326933600	15669305.0	1524.39974706	1804.04880761	1.18344864009	5.0	5.0	5.0	5.0	5.0	5.0	6.0	821.0	2611.0	5050.0	6310.0	7512.0	10214.0	11389.0	11479.0
1326937200	5722438.0	1792.74373434	1515.98605657	0.845623402573	5.0	5.0	5.0	5.0	5.0	6.0	941.0	1400.0	2204.0	4876.0	7350.0	7847.0	8364.0	8388.0	8388.0
