#
# Generated On: 2012-02-05T17:02:45.341436
#           By: cwa.analyze.statistics
#      Version: 11.11.23
#       Author: Thomas A. de Ruiter <thomas@de-ruiter.cx>
#
#  Commandline: /home/af10028/bin/cwa analyze
#     Work Dir: /scratch/af10028/var/thesis-project/result/analyses/workload-01h-08652l-2s-default
#

Time	Sum	Avg	StdDev	CoV	0.000000-Pct	0.010000-Pct	0.100000-Pct	1.000000-Pct	2.000000-Pct	5.000000-Pct	25.000000-Pct	50.000000-Pct	75.000000-Pct	95.000000-Pct	98.000000-Pct	99.000000-Pct	99.900000-Pct	99.990000-Pct	100.000000-Pct
1326951600	3206713.0	1952.93118149	1822.43302147	0.933178311017	2.0	2.0	2.0	2.0	3.0	3.0	231.0	884.0	3632.0	4483.0	4830.0	4872.0	4889.0	4889.0	4889.0
