#
# Generated On: 2012-01-25T15:45:58.399032
#           By: cwa.analyze.statistics
#      Version: 11.11.23
#       Author: Thomas A. de Ruiter <thomas@de-ruiter.cx>
#
#  Commandline: /home/af10028/bin/cwa analyze
#     Work Dir: /scratch/af10028/var/thesis-project/result/analyses/workload-01h-03708l-0s-fair
#

Time	Sum	Avg	StdDev	CoV	0.000000-Pct	0.010000-Pct	0.100000-Pct	1.000000-Pct	2.000000-Pct	5.000000-Pct	25.000000-Pct	50.000000-Pct	75.000000-Pct	95.000000-Pct	98.000000-Pct	99.000000-Pct	99.900000-Pct	99.990000-Pct	100.000000-Pct
1326953400	45410214.0	647.3302067	1587.98095605	2.45312352122	2.0	2.0	2.0	2.0	2.0	2.0	8.0	50.0	296.0	5079.0	6672.0	7209.0	9896.0	10241.0	11006.0
