#
# Generated On: 2012-01-20T17:01:37.165069
#           By: cwa.analyze.statistics
#      Version: 11.11.23
#       Author: Thomas A. de Ruiter <thomas@de-ruiter.cx>
#
#  Commandline: /home/af10028/bin/cwa analyze
#     Work Dir: /media/Thomas_EXT4/result/analyses/workload-01h-03708l-0s-fair
#

Value	PDF	CDF
2.0	0.153846153846	0.155107187894
4.0	0.0580075662043	0.213114754098
6.0	0.00504413619168	0.21815889029
9.0	0.0378310214376	0.255989911728
11.0	0.0138713745271	0.269861286255
13.0	0.0100882723834	0.279949558638
16.0	0.00504413619168	0.28499369483
18.0	0.00504413619168	0.290037831021
20.0	0.00504413619168	0.295081967213
22.0	0.00378310214376	0.298865069357
24.0	0.0063051702396	0.305170239596
27.0	0.0063051702396	0.311475409836
30.0	0.00252206809584	0.313997477932
32.0	0.00126103404792	0.31525851198
34.0	0.00252206809584	0.317780580076
37.0	0.00126103404792	0.319041614124
39.0	0.00126103404792	0.320302648172
42.0	0.00252206809584	0.322824716267
45.0	0.00252206809584	0.325346784363
47.0	0.00504413619168	0.330390920555
49.0	0.00126103404792	0.331651954603
57.0	0.00126103404792	0.332912988651
61.0	0.00126103404792	0.334174022699
63.0	0.00252206809584	0.336696090794
65.0	0.00252206809584	0.33921815889
67.0	0.00378310214376	0.343001261034
72.0	0.00126103404792	0.344262295082
76.0	0.00252206809584	0.346784363178
78.0	0.00126103404792	0.348045397226
82.0	0.00504413619168	0.353089533417
84.0	0.00252206809584	0.355611601513
86.0	0.00252206809584	0.358133669609
88.0	0.00126103404792	0.359394703657
90.0	0.00378310214376	0.363177805801
92.0	0.00252206809584	0.365699873897
95.0	0.00252206809584	0.368221941992
99.0	0.00378310214376	0.372005044136
102.0	0.00378310214376	0.37578814628
105.0	0.00126103404792	0.377049180328
107.0	0.00252206809584	0.379571248424
110.0	0.0063051702396	0.385876418663
115.0	0.00126103404792	0.387137452711
118.0	0.00252206809584	0.389659520807
120.0	0.00252206809584	0.392181588903
123.0	0.00126103404792	0.393442622951
126.0	0.00126103404792	0.394703656999
134.0	0.00126103404792	0.395964691047
137.0	0.00504413619168	0.401008827238
141.0	0.00126103404792	0.402269861286
145.0	0.00126103404792	0.403530895334
147.0	0.00126103404792	0.404791929382
150.0	0.00126103404792	0.40605296343
153.0	0.00126103404792	0.407313997478
156.0	0.00126103404792	0.408575031526
163.0	0.00378310214376	0.41235813367
168.0	0.00126103404792	0.413619167718
170.0	0.00252206809584	0.416141235813
174.0	0.00126103404792	0.417402269861
180.0	0.00126103404792	0.418663303909
182.0	0.00252206809584	0.421185372005
184.0	0.00252206809584	0.423707440101
187.0	0.00252206809584	0.426229508197
192.0	0.00252206809584	0.428751576293
195.0	0.00378310214376	0.432534678436
197.0	0.00252206809584	0.435056746532
200.0	0.00252206809584	0.437578814628
210.0	0.00504413619168	0.44262295082
212.0	0.00126103404792	0.443883984868
216.0	0.00126103404792	0.445145018916
219.0	0.00126103404792	0.446406052963
224.0	0.00252206809584	0.448928121059
226.0	0.00126103404792	0.450189155107
231.0	0.00126103404792	0.451450189155
236.0	0.00252206809584	0.453972257251
238.0	0.00126103404792	0.455233291299
243.0	0.00126103404792	0.456494325347
247.0	0.00378310214376	0.460277427491
252.0	0.00126103404792	0.461538461538
254.0	0.00126103404792	0.462799495586
260.0	0.00126103404792	0.464060529634
266.0	0.00378310214376	0.467843631778
268.0	0.00126103404792	0.469104665826
270.0	0.00126103404792	0.470365699874
273.0	0.00252206809584	0.47288776797
279.0	0.00126103404792	0.474148802018
282.0	0.00252206809584	0.476670870113
288.0	0.00252206809584	0.479192938209
290.0	0.00126103404792	0.480453972257
296.0	0.00252206809584	0.482976040353
301.0	0.00126103404792	0.484237074401
303.0	0.00252206809584	0.486759142497
306.0	0.00252206809584	0.489281210593
308.0	0.00252206809584	0.491803278689
317.0	0.00126103404792	0.493064312736
325.0	0.00126103404792	0.494325346784
330.0	0.00252206809584	0.49684741488
332.0	0.00252206809584	0.499369482976
335.0	0.00378310214376	0.50315258512
340.0	0.00126103404792	0.504413619168
342.0	0.00126103404792	0.505674653216
345.0	0.00252206809584	0.508196721311
348.0	0.00504413619168	0.513240857503
351.0	0.00126103404792	0.514501891551
357.0	0.00126103404792	0.515762925599
366.0	0.00252206809584	0.518284993695
370.0	0.00126103404792	0.519546027743
374.0	0.00252206809584	0.522068095839
378.0	0.00252206809584	0.524590163934
381.0	0.00378310214376	0.528373266078
383.0	0.00252206809584	0.530895334174
385.0	0.00378310214376	0.534678436318
388.0	0.00252206809584	0.537200504414
394.0	0.00126103404792	0.538461538462
404.0	0.00252206809584	0.540983606557
406.0	0.00126103404792	0.542244640605
408.0	0.00252206809584	0.544766708701
410.0	0.00378310214376	0.548549810845
414.0	0.00126103404792	0.549810844893
418.0	0.00126103404792	0.551071878941
420.0	0.00378310214376	0.554854981084
423.0	0.00252206809584	0.55737704918
431.0	0.00126103404792	0.558638083228
433.0	0.00126103404792	0.559899117276
438.0	0.00126103404792	0.561160151324
451.0	0.00126103404792	0.562421185372
454.0	0.00126103404792	0.56368221942
457.0	0.00252206809584	0.566204287516
459.0	0.00126103404792	0.567465321564
479.0	0.00378310214376	0.571248423707
482.0	0.00252206809584	0.573770491803
485.0	0.00252206809584	0.576292559899
489.0	0.00378310214376	0.580075662043
491.0	0.00378310214376	0.583858764187
494.0	0.00126103404792	0.585119798235
496.0	0.00378310214376	0.588902900378
498.0	0.00126103404792	0.590163934426
503.0	0.00126103404792	0.591424968474
506.0	0.00252206809584	0.59394703657
508.0	0.00252206809584	0.596469104666
510.0	0.00126103404792	0.597730138714
512.0	0.00126103404792	0.598991172762
514.0	0.00126103404792	0.60025220681
516.0	0.00252206809584	0.602774274905
521.0	0.00252206809584	0.605296343001
525.0	0.00126103404792	0.606557377049
527.0	0.00378310214376	0.610340479193
532.0	0.00126103404792	0.611601513241
538.0	0.00252206809584	0.614123581337
540.0	0.00126103404792	0.615384615385
543.0	0.00252206809584	0.61790668348
547.0	0.00126103404792	0.619167717528
551.0	0.00252206809584	0.621689785624
556.0	0.00126103404792	0.622950819672
563.0	0.00126103404792	0.62421185372
570.0	0.00126103404792	0.625472887768
573.0	0.00252206809584	0.627994955864
577.0	0.00126103404792	0.629255989912
591.0	0.00126103404792	0.63051702396
604.0	0.00126103404792	0.631778058008
611.0	0.00378310214376	0.635561160151
613.0	0.00126103404792	0.636822194199
618.0	0.00126103404792	0.638083228247
622.0	0.00126103404792	0.639344262295
630.0	0.00126103404792	0.640605296343
637.0	0.00126103404792	0.641866330391
646.0	0.00126103404792	0.643127364439
648.0	0.00126103404792	0.644388398487
653.0	0.00126103404792	0.645649432535
659.0	0.00126103404792	0.646910466583
664.0	0.00126103404792	0.648171500631
667.0	0.00126103404792	0.649432534678
676.0	0.00252206809584	0.651954602774
682.0	0.00252206809584	0.65447667087
684.0	0.00126103404792	0.655737704918
696.0	0.00126103404792	0.656998738966
700.0	0.00126103404792	0.658259773014
704.0	0.00126103404792	0.659520807062
715.0	0.00126103404792	0.66078184111
719.0	0.00126103404792	0.662042875158
728.0	0.00252206809584	0.664564943253
734.0	0.00252206809584	0.667087011349
737.0	0.00378310214376	0.670870113493
740.0	0.00126103404792	0.672131147541
753.0	0.00252206809584	0.674653215637
756.0	0.00252206809584	0.677175283733
760.0	0.00252206809584	0.679697351828
763.0	0.00126103404792	0.680958385876
771.0	0.00126103404792	0.682219419924
774.0	0.00126103404792	0.683480453972
777.0	0.00126103404792	0.68474148802
787.0	0.00126103404792	0.686002522068
798.0	0.00126103404792	0.687263556116
800.0	0.00126103404792	0.688524590164
802.0	0.00252206809584	0.69104665826
804.0	0.00126103404792	0.692307692308
809.0	0.00126103404792	0.693568726356
814.0	0.00126103404792	0.694829760404
822.0	0.00252206809584	0.697351828499
824.0	0.00126103404792	0.698612862547
826.0	0.00126103404792	0.699873896595
834.0	0.00252206809584	0.702395964691
838.0	0.00126103404792	0.703656998739
841.0	0.00126103404792	0.704918032787
846.0	0.00126103404792	0.706179066835
853.0	0.00126103404792	0.707440100883
859.0	0.00252206809584	0.709962168979
861.0	0.00126103404792	0.711223203026
880.0	0.00126103404792	0.712484237074
889.0	0.00126103404792	0.713745271122
916.0	0.00252206809584	0.716267339218
920.0	0.00252206809584	0.718789407314
923.0	0.00126103404792	0.720050441362
932.0	0.00126103404792	0.72131147541
944.0	0.00126103404792	0.722572509458
947.0	0.00126103404792	0.723833543506
956.0	0.00252206809584	0.726355611602
971.0	0.00126103404792	0.727616645649
975.0	0.00252206809584	0.730138713745
981.0	0.00126103404792	0.731399747793
989.0	0.00126103404792	0.732660781841
991.0	0.00126103404792	0.733921815889
993.0	0.00126103404792	0.735182849937
1014.0	0.00252206809584	0.737704918033
1020.0	0.00378310214376	0.741488020177
1026.0	0.00126103404792	0.742749054224
1029.0	0.00252206809584	0.74527112232
1036.0	0.00378310214376	0.749054224464
1051.0	0.00126103404792	0.750315258512
1057.0	0.00126103404792	0.75157629256
1067.0	0.00126103404792	0.752837326608
1071.0	0.00126103404792	0.754098360656
1073.0	0.00126103404792	0.755359394704
1080.0	0.00126103404792	0.756620428752
1088.0	0.00126103404792	0.757881462799
1090.0	0.00126103404792	0.759142496847
1107.0	0.00126103404792	0.760403530895
1116.0	0.00126103404792	0.761664564943
1123.0	0.00126103404792	0.762925598991
1140.0	0.00252206809584	0.765447667087
1166.0	0.00126103404792	0.766708701135
1171.0	0.00126103404792	0.767969735183
1173.0	0.00126103404792	0.769230769231
1175.0	0.00126103404792	0.770491803279
1201.0	0.00126103404792	0.771752837327
1218.0	0.00126103404792	0.773013871375
1224.0	0.00126103404792	0.774274905422
1227.0	0.00126103404792	0.77553593947
1230.0	0.00126103404792	0.776796973518
1237.0	0.00126103404792	0.778058007566
1241.0	0.00252206809584	0.780580075662
1256.0	0.00126103404792	0.78184110971
1271.0	0.00252206809584	0.784363177806
1274.0	0.00126103404792	0.785624211854
1278.0	0.00126103404792	0.786885245902
1285.0	0.00252206809584	0.789407313997
1287.0	0.00252206809584	0.791929382093
1301.0	0.00126103404792	0.793190416141
1312.0	0.00126103404792	0.794451450189
1318.0	0.00252206809584	0.796973518285
1344.0	0.00126103404792	0.798234552333
1356.0	0.00126103404792	0.799495586381
1387.0	0.00126103404792	0.800756620429
1398.0	0.00126103404792	0.802017654477
1415.0	0.00378310214376	0.80580075662
1430.0	0.00126103404792	0.807061790668
1448.0	0.00126103404792	0.808322824716
1465.0	0.00126103404792	0.809583858764
1490.0	0.00126103404792	0.810844892812
1504.0	0.00126103404792	0.81210592686
1510.0	0.00126103404792	0.813366960908
1532.0	0.00126103404792	0.814627994956
1545.0	0.00126103404792	0.815889029004
1557.0	0.00126103404792	0.817150063052
1571.0	0.00126103404792	0.8184110971
1594.0	0.00126103404792	0.819672131148
1643.0	0.00126103404792	0.820933165195
1662.0	0.00126103404792	0.822194199243
1683.0	0.00126103404792	0.823455233291
1697.0	0.00126103404792	0.824716267339
1713.0	0.00126103404792	0.825977301387
1752.0	0.00126103404792	0.827238335435
1757.0	0.00126103404792	0.828499369483
1782.0	0.00126103404792	0.829760403531
1803.0	0.00126103404792	0.831021437579
1806.0	0.00126103404792	0.832282471627
1814.0	0.00126103404792	0.833543505675
1835.0	0.00126103404792	0.834804539723
1848.0	0.00126103404792	0.83606557377
1868.0	0.00126103404792	0.837326607818
1872.0	0.00126103404792	0.838587641866
1880.0	0.00126103404792	0.839848675914
1882.0	0.00126103404792	0.841109709962
1891.0	0.00126103404792	0.84237074401
1901.0	0.00126103404792	0.843631778058
1956.0	0.00126103404792	0.844892812106
1978.0	0.00126103404792	0.846153846154
2036.0	0.00126103404792	0.847414880202
2052.0	0.00126103404792	0.84867591425
2122.0	0.00126103404792	0.849936948298
2134.0	0.00126103404792	0.851197982346
2157.0	0.00126103404792	0.852459016393
2173.0	0.00126103404792	0.853720050441
2179.0	0.00126103404792	0.854981084489
2199.0	0.00252206809584	0.857503152585
2220.0	0.00126103404792	0.858764186633
2225.0	0.00126103404792	0.860025220681
2239.0	0.00126103404792	0.861286254729
2244.0	0.00126103404792	0.862547288777
2285.0	0.00126103404792	0.863808322825
2291.0	0.00126103404792	0.865069356873
2293.0	0.00126103404792	0.866330390921
2304.0	0.00126103404792	0.867591424968
2310.0	0.00126103404792	0.868852459016
2331.0	0.00126103404792	0.870113493064
2339.0	0.00126103404792	0.871374527112
2352.0	0.00126103404792	0.87263556116
2377.0	0.00126103404792	0.873896595208
2402.0	0.00126103404792	0.875157629256
2411.0	0.00126103404792	0.876418663304
2450.0	0.00252206809584	0.8789407314
2500.0	0.00126103404792	0.880201765448
2567.0	0.00126103404792	0.881462799496
2666.0	0.00126103404792	0.882723833544
2677.0	0.00126103404792	0.883984867591
2695.0	0.00126103404792	0.885245901639
2709.0	0.00126103404792	0.886506935687
2711.0	0.00126103404792	0.887767969735
2736.0	0.00126103404792	0.889029003783
2768.0	0.00126103404792	0.890290037831
2781.0	0.00126103404792	0.891551071879
2783.0	0.00126103404792	0.892812105927
2823.0	0.00126103404792	0.894073139975
2826.0	0.00126103404792	0.895334174023
2867.0	0.00126103404792	0.896595208071
2884.0	0.00126103404792	0.897856242119
2929.0	0.00126103404792	0.899117276166
2940.0	0.00126103404792	0.900378310214
3031.0	0.00126103404792	0.901639344262
3050.0	0.00126103404792	0.90290037831
3096.0	0.00126103404792	0.904161412358
3121.0	0.00126103404792	0.905422446406
3170.0	0.00126103404792	0.906683480454
3242.0	0.00126103404792	0.907944514502
3244.0	0.00126103404792	0.90920554855
3261.0	0.00126103404792	0.910466582598
3273.0	0.00126103404792	0.911727616646
3335.0	0.00126103404792	0.912988650694
3358.0	0.00126103404792	0.914249684741
3389.0	0.00126103404792	0.915510718789
3416.0	0.00126103404792	0.916771752837
3443.0	0.00126103404792	0.918032786885
3485.0	0.00126103404792	0.919293820933
3576.0	0.00126103404792	0.920554854981
3587.0	0.00126103404792	0.921815889029
3597.0	0.00126103404792	0.923076923077
3649.0	0.00126103404792	0.924337957125
3652.0	0.00126103404792	0.925598991173
3753.0	0.00126103404792	0.926860025221
3769.0	0.00126103404792	0.928121059269
3771.0	0.00126103404792	0.929382093317
3774.0	0.00126103404792	0.930643127364
3779.0	0.00126103404792	0.931904161412
3797.0	0.00126103404792	0.93316519546
3814.0	0.00126103404792	0.934426229508
3862.0	0.00126103404792	0.935687263556
3882.0	0.00126103404792	0.936948297604
4057.0	0.00126103404792	0.938209331652
4127.0	0.00126103404792	0.9394703657
4241.0	0.00126103404792	0.940731399748
4281.0	0.00126103404792	0.941992433796
4454.0	0.00126103404792	0.943253467844
4485.0	0.00126103404792	0.944514501892
4526.0	0.00126103404792	0.945775535939
4583.0	0.00126103404792	0.947036569987
4643.0	0.00126103404792	0.948297604035
4719.0	0.00126103404792	0.949558638083
4744.0	0.00126103404792	0.950819672131
4823.0	0.00126103404792	0.952080706179
4850.0	0.00126103404792	0.953341740227
4908.0	0.00126103404792	0.954602774275
5087.0	0.00126103404792	0.955863808323
5105.0	0.00126103404792	0.957124842371
5108.0	0.00126103404792	0.958385876419
5166.0	0.00126103404792	0.959646910467
5375.0	0.00126103404792	0.960907944515
5507.0	0.00126103404792	0.962168978562
5677.0	0.00126103404792	0.96343001261
5713.0	0.00126103404792	0.964691046658
5721.0	0.00126103404792	0.965952080706
5734.0	0.00126103404792	0.967213114754
5761.0	0.00126103404792	0.968474148802
5845.0	0.00126103404792	0.96973518285
5864.0	0.00126103404792	0.970996216898
5906.0	0.00126103404792	0.972257250946
5957.0	0.00126103404792	0.973518284994
5976.0	0.00126103404792	0.974779319042
6004.0	0.00126103404792	0.97604035309
6160.0	0.00126103404792	0.977301387137
6305.0	0.00126103404792	0.978562421185
6328.0	0.00126103404792	0.979823455233
6344.0	0.00126103404792	0.981084489281
6429.0	0.00126103404792	0.982345523329
6684.0	0.00126103404792	0.983606557377
6812.0	0.00126103404792	0.984867591425
7037.0	0.00126103404792	0.986128625473
7220.0	0.00126103404792	0.987389659521
7246.0	0.00126103404792	0.988650693569
7345.0	0.00126103404792	0.989911727617
7350.0	0.00126103404792	0.991172761665
7785.0	0.00126103404792	0.992433795712
7824.0	0.00126103404792	0.99369482976
8157.0	0.00126103404792	0.994955863808
8218.0	0.00126103404792	0.996216897856
8832.0	0.00126103404792	0.997477931904
9164.0	0.00126103404792	0.998738965952
10245.0	0.00126103404792	1.0
11029.0	0.00126103404792	1.0
