#
# Generated On: 2012-01-20T17:01:37.169800
#           By: cwa.analyze.statistics
#      Version: 11.11.23
#       Author: Thomas A. de Ruiter <thomas@de-ruiter.cx>
#
#  Commandline: /home/af10028/bin/cwa analyze
#     Work Dir: /media/Thomas_EXT4/result/analyses/workload-01h-03708l-0s-fair
#

Value	PDF	CDF
1.0	1.0	1.0
