#
# Generated On: 2012-02-05T16:45:21.094700
#           By: cwa.analyze.statistics
#      Version: 11.11.23
#       Author: Thomas A. de Ruiter <thomas@de-ruiter.cx>
#
#  Commandline: /home/af10028/bin/cwa analyze
#     Work Dir: /scratch/af10028/var/thesis-project/result/analyses/workload-01h-03708l-4s-default
#

Value	PDF	CDF
2.0	0.247727272727	0.25
4.0	0.0227272727273	0.272727272727
8.0	0.0340909090909	0.306818181818
10.0	0.00227272727273	0.309090909091
17.0	0.00227272727273	0.311363636364
20.0	0.00227272727273	0.313636363636
38.0	0.00227272727273	0.315909090909
44.0	0.00454545454545	0.320454545455
54.0	0.00681818181818	0.327272727273
57.0	0.00454545454545	0.331818181818
71.0	0.00227272727273	0.334090909091
84.0	0.00227272727273	0.336363636364
86.0	0.00227272727273	0.338636363636
98.0	0.00227272727273	0.340909090909
104.0	0.00227272727273	0.343181818182
107.0	0.00227272727273	0.345454545455
111.0	0.00227272727273	0.347727272727
114.0	0.00454545454545	0.352272727273
120.0	0.00454545454545	0.356818181818
129.0	0.00227272727273	0.359090909091
134.0	0.00227272727273	0.361363636364
136.0	0.00681818181818	0.368181818182
141.0	0.00227272727273	0.370454545455
143.0	0.00454545454545	0.375
146.0	0.00227272727273	0.377272727273
149.0	0.00227272727273	0.379545454545
152.0	0.00227272727273	0.381818181818
155.0	0.00227272727273	0.384090909091
162.0	0.00227272727273	0.386363636364
170.0	0.00227272727273	0.388636363636
179.0	0.00227272727273	0.390909090909
188.0	0.00227272727273	0.393181818182
206.0	0.00454545454545	0.397727272727
210.0	0.00227272727273	0.4
214.0	0.00227272727273	0.402272727273
221.0	0.00454545454545	0.406818181818
224.0	0.00681818181818	0.413636363636
227.0	0.00227272727273	0.415909090909
231.0	0.00681818181818	0.422727272727
233.0	0.00227272727273	0.425
249.0	0.00227272727273	0.427272727273
260.0	0.00227272727273	0.429545454545
266.0	0.00227272727273	0.431818181818
276.0	0.00227272727273	0.434090909091
291.0	0.00227272727273	0.436363636364
293.0	0.00227272727273	0.438636363636
297.0	0.00227272727273	0.440909090909
302.0	0.00227272727273	0.443181818182
320.0	0.00227272727273	0.445454545455
326.0	0.00227272727273	0.447727272727
350.0	0.00227272727273	0.45
353.0	0.00227272727273	0.452272727273
363.0	0.00227272727273	0.454545454545
377.0	0.00454545454545	0.459090909091
390.0	0.00227272727273	0.461363636364
396.0	0.00227272727273	0.463636363636
404.0	0.00227272727273	0.465909090909
407.0	0.00227272727273	0.468181818182
416.0	0.00227272727273	0.470454545455
428.0	0.00227272727273	0.472727272727
434.0	0.00227272727273	0.475
438.0	0.00227272727273	0.477272727273
440.0	0.00227272727273	0.479545454545
443.0	0.00227272727273	0.481818181818
446.0	0.00227272727273	0.484090909091
450.0	0.00227272727273	0.486363636364
452.0	0.00227272727273	0.488636363636
455.0	0.00681818181818	0.495454545455
461.0	0.00227272727273	0.497727272727
464.0	0.00454545454545	0.502272727273
466.0	0.00454545454545	0.506818181818
475.0	0.00227272727273	0.509090909091
480.0	0.00227272727273	0.511363636364
483.0	0.00227272727273	0.513636363636
485.0	0.00227272727273	0.515909090909
489.0	0.00227272727273	0.518181818182
497.0	0.00227272727273	0.520454545455
500.0	0.00227272727273	0.522727272727
502.0	0.00227272727273	0.525
508.0	0.00454545454545	0.529545454545
511.0	0.00227272727273	0.531818181818
514.0	0.00227272727273	0.534090909091
518.0	0.00227272727273	0.536363636364
522.0	0.00227272727273	0.538636363636
530.0	0.00227272727273	0.540909090909
539.0	0.00227272727273	0.543181818182
542.0	0.00454545454545	0.547727272727
545.0	0.00227272727273	0.55
551.0	0.00454545454545	0.554545454545
563.0	0.00227272727273	0.556818181818
566.0	0.00454545454545	0.561363636364
576.0	0.00454545454545	0.565909090909
581.0	0.00227272727273	0.568181818182
592.0	0.00227272727273	0.570454545455
595.0	0.00227272727273	0.572727272727
606.0	0.00227272727273	0.575
608.0	0.00227272727273	0.577272727273
611.0	0.00227272727273	0.579545454545
625.0	0.00454545454545	0.584090909091
635.0	0.00454545454545	0.588636363636
653.0	0.00227272727273	0.590909090909
674.0	0.00454545454545	0.595454545455
684.0	0.00227272727273	0.597727272727
728.0	0.00454545454545	0.602272727273
758.0	0.00227272727273	0.604545454545
780.0	0.00227272727273	0.606818181818
792.0	0.00227272727273	0.609090909091
797.0	0.00227272727273	0.611363636364
809.0	0.00227272727273	0.613636363636
812.0	0.00681818181818	0.620454545455
827.0	0.00454545454545	0.625
831.0	0.00227272727273	0.627272727273
836.0	0.00454545454545	0.631818181818
844.0	0.00227272727273	0.634090909091
855.0	0.00227272727273	0.636363636364
857.0	0.00227272727273	0.638636363636
863.0	0.00227272727273	0.640909090909
868.0	0.00227272727273	0.643181818182
880.0	0.00681818181818	0.65
884.0	0.00227272727273	0.652272727273
886.0	0.00227272727273	0.654545454545
889.0	0.00227272727273	0.656818181818
898.0	0.00227272727273	0.659090909091
903.0	0.00227272727273	0.661363636364
906.0	0.00681818181818	0.668181818182
908.0	0.00227272727273	0.670454545455
910.0	0.00454545454545	0.675
916.0	0.00454545454545	0.679545454545
923.0	0.00227272727273	0.681818181818
935.0	0.00227272727273	0.684090909091
1001.0	0.00227272727273	0.686363636364
1010.0	0.00227272727273	0.688636363636
1014.0	0.00227272727273	0.690909090909
1020.0	0.00227272727273	0.693181818182
1039.0	0.00227272727273	0.695454545455
1091.0	0.00227272727273	0.697727272727
1097.0	0.00227272727273	0.7
1110.0	0.00454545454545	0.704545454545
1120.0	0.00227272727273	0.706818181818
1127.0	0.00454545454545	0.711363636364
1136.0	0.00227272727273	0.713636363636
1202.0	0.00227272727273	0.715909090909
1218.0	0.00227272727273	0.718181818182
1228.0	0.00227272727273	0.720454545455
1241.0	0.00227272727273	0.722727272727
1303.0	0.00227272727273	0.725
1328.0	0.00227272727273	0.727272727273
1347.0	0.00227272727273	0.729545454545
1355.0	0.00454545454545	0.734090909091
1419.0	0.00227272727273	0.736363636364
1431.0	0.00227272727273	0.738636363636
1436.0	0.00227272727273	0.740909090909
1474.0	0.00454545454545	0.745454545455
1476.0	0.00227272727273	0.747727272727
1480.0	0.00227272727273	0.75
1483.0	0.00454545454545	0.754545454545
1490.0	0.00227272727273	0.756818181818
1495.0	0.00454545454545	0.761363636364
1500.0	0.00227272727273	0.763636363636
1513.0	0.00227272727273	0.765909090909
1528.0	0.00909090909091	0.775
1533.0	0.00454545454545	0.779545454545
1539.0	0.00454545454545	0.784090909091
1543.0	0.00909090909091	0.793181818182
1546.0	0.00227272727273	0.795454545455
1561.0	0.00227272727273	0.797727272727
1586.0	0.00227272727273	0.8
1592.0	0.00227272727273	0.802272727273
1598.0	0.00227272727273	0.804545454545
1601.0	0.00454545454545	0.809090909091
1611.0	0.00681818181818	0.815909090909
1615.0	0.00454545454545	0.820454545455
1620.0	0.00681818181818	0.827272727273
1622.0	0.00227272727273	0.829545454545
1627.0	0.00681818181818	0.836363636364
1629.0	0.00909090909091	0.845454545455
1632.0	0.00454545454545	0.85
1634.0	0.00227272727273	0.852272727273
1639.0	0.00681818181818	0.859090909091
1643.0	0.00454545454545	0.863636363636
1664.0	0.00227272727273	0.865909090909
1669.0	0.00227272727273	0.868181818182
1674.0	0.00454545454545	0.872727272727
1678.0	0.00227272727273	0.875
1680.0	0.00227272727273	0.877272727273
1718.0	0.00227272727273	0.879545454545
1725.0	0.00227272727273	0.881818181818
1737.0	0.00227272727273	0.884090909091
1758.0	0.00227272727273	0.886363636364
1800.0	0.00227272727273	0.888636363636
1803.0	0.00227272727273	0.890909090909
1871.0	0.00454545454545	0.895454545455
1873.0	0.00227272727273	0.897727272727
1875.0	0.00227272727273	0.9
1886.0	0.00227272727273	0.902272727273
1888.0	0.00227272727273	0.904545454545
1891.0	0.00454545454545	0.909090909091
1912.0	0.00227272727273	0.911363636364
1959.0	0.00227272727273	0.913636363636
1978.0	0.00227272727273	0.915909090909
1981.0	0.00227272727273	0.918181818182
2057.0	0.00227272727273	0.920454545455
2059.0	0.00454545454545	0.925
2123.0	0.00227272727273	0.927272727273
2165.0	0.00227272727273	0.929545454545
2169.0	0.00454545454545	0.934090909091
2205.0	0.00227272727273	0.936363636364
2268.0	0.00454545454545	0.940909090909
2275.0	0.00454545454545	0.945454545455
2279.0	0.00227272727273	0.947727272727
2281.0	0.00454545454545	0.952272727273
2285.0	0.00227272727273	0.954545454545
2344.0	0.00454545454545	0.959090909091
2356.0	0.00227272727273	0.961363636364
2360.0	0.00454545454545	0.965909090909
2363.0	0.00681818181818	0.972727272727
2365.0	0.00227272727273	0.975
2368.0	0.00454545454545	0.979545454545
2371.0	0.00227272727273	0.981818181818
2384.0	0.00227272727273	0.984090909091
2387.0	0.00227272727273	0.986363636364
2389.0	0.00227272727273	0.988636363636
2399.0	0.00681818181818	0.995454545455
2402.0	0.00227272727273	0.997727272727
2471.0	0.00227272727273	1.0
4061.0	0.00227272727273	1.0
