#
# Generated On: 2012-02-05T17:01:58.003453
#           By: cwa.analyze.jobs_per_executableid
#      Version: 11.3.16
#       Author: Thomas A. de Ruiter <thomas@de-ruiter.cx>
#
#  Commandline: /home/af10028/bin/cwa analyze
#     Work Dir: /scratch/af10028/var/thesis-project/result/analyses/workload-01h-08652l-1s-fair
#

Time	ID_-1
0	440
600	644
1200	732
1800	870
2400	932
3000	984
3600	635
4200	348
4800	281
5400	222
6000	188
6600	150
7200	126
7800	105
8400	84
9000	64
9600	56
10200	46
10800	38
11400	31
12000	20
12600	16
13200	15
13800	12
14400	8
15000	5
15600	4
16200	4
16800	3
17400	3
18000	1
