#
# Generated On: 2012-02-05T18:05:12.705352
#           By: cwa.analyze.statistics
#      Version: 11.11.23
#       Author: Thomas A. de Ruiter <thomas@de-ruiter.cx>
#
#  Commandline: /home/af10028/bin/cwa analyze
#     Work Dir: /scratch/af10028/var/thesis-project/result/analyses/workload-06h-04944l-3s-default
#

Time	Sum	Avg	StdDev	CoV	0.000000-Pct	0.010000-Pct	0.100000-Pct	1.000000-Pct	2.000000-Pct	5.000000-Pct	25.000000-Pct	50.000000-Pct	75.000000-Pct	95.000000-Pct	98.000000-Pct	99.000000-Pct	99.900000-Pct	99.990000-Pct	100.000000-Pct
1327059600	1045072.0	174.761204013	458.486091833	2.62350041831	2.0	2.0	2.0	2.0	2.0	2.0	6.0	32.0	144.0	791.0	1478.0	2165.0	5664.0	8555.0	8555.0
1327060200	2534667.0	183.951447855	444.804766217	2.41805526079	2.0	2.0	2.0	2.0	2.0	2.0	6.0	38.0	161.0	839.0	1478.0	2114.0	5167.0	7587.0	8772.0
1327060800	3196780.0	186.433778504	478.166780585	2.56480764603	2.0	2.0	2.0	2.0	2.0	2.0	6.0	38.0	155.0	869.0	1511.0	2177.0	5628.0	11177.0	15021.0
1327061400	1473230.0	146.139271898	391.325380241	2.67775646586	2.0	2.0	2.0	2.0	2.0	2.0	5.0	27.0	116.0	677.0	1223.0	1799.0	4303.0	9914.0	10802.0
1327062000	2659342.0	169.051045706	416.087817612	2.46131466312	2.0	2.0	2.0	2.0	2.0	2.0	6.0	32.0	140.0	797.0	1478.0	1988.0	4711.0	8268.0	8703.0
1327062600	2594043.0	183.987729626	435.22475355	2.36550966977	2.0	2.0	2.0	2.0	2.0	2.0	6.0	38.0	162.0	842.0	1457.0	2078.0	4591.0	6882.0	8097.0
1327063200	1648835.0	143.202622894	396.307557382	2.76746018595	2.0	2.0	2.0	2.0	2.0	2.0	5.0	26.0	110.0	644.0	1220.0	1742.0	4633.0	7151.0	11954.0
1327063800	1890812.0	157.502040816	428.465681807	2.72038177783	2.0	2.0	2.0	2.0	2.0	2.0	5.0	29.0	122.0	713.0	1355.0	1970.0	5356.0	7662.0	13066.0
1327064400	2746525.0	165.622927094	432.666774785	2.61236039223	2.0	2.0	2.0	2.0	2.0	2.0	6.0	32.0	137.0	746.0	1373.0	2042.0	4750.0	8412.0	16707.0
1327065000	3178104.0	181.088547009	432.671658615	2.3892822918	2.0	2.0	2.0	2.0	2.0	2.0	6.0	35.0	158.0	854.0	1496.0	2117.0	4984.0	7404.0	7508.0
1327065600	3839083.0	193.180848387	466.002962515	2.41226273932	2.0	2.0	2.0	2.0	2.0	2.0	6.0	38.0	164.0	896.0	1607.0	2234.0	5260.0	8724.0	9242.0
1327066200	3634518.0	192.496054234	460.328375444	2.39136525304	2.0	2.0	2.0	2.0	2.0	2.0	6.0	38.0	170.0	908.0	1541.0	2225.0	5050.0	10011.0	10790.0
1327066800	3004747.0	197.239529999	476.689531461	2.41680524925	2.0	2.0	2.0	2.0	2.0	2.0	6.0	38.0	170.0	917.0	1670.0	2285.0	5095.0	7707.0	7879.0
1327067400	3268506.0	166.61599633	439.590876588	2.63834737523	2.0	2.0	2.0	2.0	2.0	2.0	5.0	30.0	140.0	761.0	1367.0	2003.0	4708.0	8715.0	20188.0
1327068000	2395962.0	171.741237187	450.359369994	2.62231353034	2.0	2.0	2.0	2.0	2.0	2.0	6.0	32.0	137.0	788.0	1460.0	2171.0	5206.0	8423.0	13126.0
1327068600	2708945.0	202.265735832	503.092098815	2.48728286452	2.0	2.0	2.0	2.0	2.0	2.0	8.0	41.0	173.0	917.0	1628.0	2471.0	5754.0	9966.0	10121.0
1327069200	2000761.0	167.03631658	451.033804862	2.70021402588	2.0	2.0	2.0	2.0	2.0	2.0	6.0	30.0	134.0	764.0	1370.0	2066.0	5637.0	10223.0	11236.0
1327069800	1196822.0	166.874233129	468.146091974	2.80538273163	2.0	2.0	2.0	2.0	2.0	2.0	6.0	31.0	129.0	758.0	1394.0	2117.0	6624.0	10160.0	10160.0
1327070400	2923870.0	174.528144213	459.838952162	2.6347552954	2.0	2.0	2.0	2.0	2.0	2.0	6.0	35.0	146.0	803.0	1433.0	2060.0	4828.0	9317.0	23353.0
1327071000	2172688.0	157.578183928	389.422216781	2.47129524579	2.0	2.0	2.0	2.0	2.0	2.0	6.0	30.0	128.0	743.0	1343.0	2003.0	4078.0	5991.0	7887.0
1327071600	2177709.0	167.104742173	443.274292144	2.6526733256	2.0	2.0	2.0	2.0	2.0	2.0	5.0	31.0	134.0	755.0	1409.0	2072.0	4768.0	11734.0	13037.0
1327072200	1063980.0	120.142276423	315.417352825	2.62536521045	2.0	2.0	2.0	2.0	2.0	2.0	5.0	23.0	99.0	527.0	1043.0	1592.0	3928.0	6385.0	6385.0
1327072800	1538533.0	144.517471351	426.669713766	2.95237461449	2.0	2.0	2.0	2.0	2.0	2.0	5.0	26.0	110.0	650.0	1247.0	1838.0	4762.0	10886.0	18105.0
1327073400	1116315.0	141.037902716	372.501471882	2.64114443499	2.0	2.0	2.0	2.0	2.0	2.0	5.0	26.0	111.0	644.0	1196.0	1808.0	4288.0	6367.0	6367.0
1327074000	1347507.0	140.937872607	377.956083087	2.68172121584	2.0	2.0	2.0	2.0	2.0	2.0	5.0	26.0	113.0	629.0	1127.0	1811.0	4360.0	9755.0	9755.0
1327074600	3530482.0	183.116286307	490.506464055	2.67866105166	2.0	2.0	2.0	2.0	2.0	2.0	6.0	35.0	152.0	824.0	1544.0	2147.0	5470.0	13780.0	16104.0
1327075200	3871642.0	195.379592249	470.818276561	2.40976179314	2.0	2.0	2.0	2.0	2.0	2.0	8.0	41.0	179.0	875.0	1514.0	2168.0	5365.0	8574.0	14347.0
1327075800	1814680.0	163.146633103	434.000004541	2.66018364148	2.0	2.0	2.0	2.0	2.0	2.0	6.0	32.0	134.0	758.0	1343.0	1922.0	4711.0	8145.0	17373.0
1327076400	2199463.0	189.11977644	486.721098247	2.57361291034	2.0	2.0	2.0	2.0	2.0	2.0	6.0	38.0	158.0	854.0	1562.0	2191.0	4810.0	7773.0	21007.0
1327077000	3024163.0	176.058857775	432.01160825	2.45379081581	2.0	2.0	2.0	2.0	2.0	2.0	6.0	35.0	155.0	815.0	1403.0	2015.0	4627.0	8510.0	12977.0
1327077600	4155080.0	203.291746172	493.114134187	2.4256475901	2.0	2.0	2.0	2.0	2.0	2.0	8.0	42.0	182.0	938.0	1613.0	2258.0	5038.0	9635.0	18318.0
1327078200	1437728.0	148.771523179	420.592476646	2.82710338416	2.0	2.0	2.0	2.0	2.0	2.0	5.0	26.0	116.0	662.0	1289.0	1874.0	5704.0	10106.0	10106.0
1327078800	2297960.0	179.206114014	433.062398735	2.41656040095	2.0	2.0	2.0	2.0	2.0	2.0	6.0	36.0	158.0	836.0	1415.0	2006.0	4873.0	8646.0	10820.0
1327079400	2687723.0	202.434510808	481.269340013	2.37740757785	2.0	2.0	2.0	2.0	2.0	2.0	8.0	44.0	185.0	911.0	1589.0	2282.0	5440.0	7908.0	14592.0
1327080000	1176596.0	154.754175983	389.954255231	2.51983025824	2.0	2.0	2.0	2.0	2.0	2.0	5.0	27.0	125.0	731.0	1355.0	1943.0	4090.0	7746.0	7746.0
1327080600	1093681.0	143.133228635	409.021827714	2.85763013672	2.0	2.0	2.0	2.0	2.0	2.0	5.0	23.0	110.0	659.0	1193.0	1781.0	5572.0	9704.0	9704.0
1327081200	1343577.0	178.714684757	450.877774709	2.52289158735	2.0	2.0	2.0	2.0	2.0	2.0	6.0	33.0	149.0	830.0	1475.0	2066.0	5413.0	9093.0	9093.0
1327081800	0	0	0	0															
1327082400	0	0	0	0															
1327083000	0	0	0	0															
1327083600	0	0	0	0															
1327084200	0	0	0	0															
1327084800	0	0	0	0															
