#
# Generated On: 2012-02-05T16:46:10.584368
#           By: cwa.analyze.statistics
#      Version: 11.11.23
#       Author: Thomas A. de Ruiter <thomas@de-ruiter.cx>
#
#  Commandline: /home/af10028/bin/cwa analyze
#     Work Dir: /scratch/af10028/var/thesis-project/result/analyses/workload-01h-03708l-5s-fair
#

Value	PDF	CDF
2.0	0.1546692607	0.155642023346
4.0	0.056420233463	0.212062256809
6.0	0.00389105058366	0.215953307393
9.0	0.0165369649805	0.232490272374
11.0	0.0165369649805	0.249027237354
13.0	0.00875486381323	0.257782101167
15.0	0.000972762645914	0.258754863813
17.0	0.00194552529183	0.260700389105
20.0	0.00291828793774	0.263618677043
22.0	0.00486381322957	0.268482490272
24.0	0.00389105058366	0.272373540856
27.0	0.000972762645914	0.273346303502
29.0	0.00389105058366	0.277237354086
31.0	0.00194552529183	0.279182879377
33.0	0.00194552529183	0.281128404669
36.0	0.00194552529183	0.283073929961
38.0	0.000972762645914	0.284046692607
40.0	0.00194552529183	0.285992217899
42.0	0.00389105058366	0.289883268482
44.0	0.00194552529183	0.291828793774
47.0	0.00291828793774	0.294747081712
49.0	0.000972762645914	0.295719844358
51.0	0.00389105058366	0.299610894942
53.0	0.000972762645914	0.300583657588
55.0	0.00291828793774	0.303501945525
57.0	0.00194552529183	0.305447470817
59.0	0.00389105058366	0.309338521401
61.0	0.00291828793774	0.312256809339
63.0	0.000972762645914	0.313229571984
65.0	0.00291828793774	0.316147859922
68.0	0.00194552529183	0.318093385214
70.0	0.00194552529183	0.320038910506
73.0	0.00194552529183	0.321984435798
75.0	0.00194552529183	0.323929961089
77.0	0.00194552529183	0.325875486381
81.0	0.00291828793774	0.328793774319
84.0	0.00291828793774	0.331712062257
86.0	0.000972762645914	0.332684824903
89.0	0.00486381322957	0.337548638132
91.0	0.00194552529183	0.339494163424
94.0	0.00194552529183	0.341439688716
97.0	0.00291828793774	0.344357976654
99.0	0.00194552529183	0.346303501946
102.0	0.00291828793774	0.349221789883
105.0	0.00194552529183	0.351167315175
108.0	0.000972762645914	0.352140077821
111.0	0.00194552529183	0.354085603113
118.0	0.00291828793774	0.357003891051
120.0	0.00486381322957	0.36186770428
124.0	0.00194552529183	0.363813229572
126.0	0.00291828793774	0.36673151751
134.0	0.000972762645914	0.367704280156
139.0	0.000972762645914	0.368677042802
142.0	0.000972762645914	0.369649805447
145.0	0.00194552529183	0.371595330739
147.0	0.00194552529183	0.373540856031
150.0	0.000972762645914	0.374513618677
152.0	0.00194552529183	0.376459143969
158.0	0.000972762645914	0.377431906615
161.0	0.00291828793774	0.380350194553
163.0	0.00291828793774	0.38326848249
166.0	0.000972762645914	0.384241245136
168.0	0.00194552529183	0.386186770428
171.0	0.00291828793774	0.389105058366
176.0	0.000972762645914	0.390077821012
178.0	0.000972762645914	0.391050583658
181.0	0.00194552529183	0.392996108949
185.0	0.00194552529183	0.394941634241
189.0	0.00486381322957	0.399805447471
191.0	0.000972762645914	0.400778210117
193.0	0.000972762645914	0.401750972763
197.0	0.000972762645914	0.402723735409
202.0	0.00194552529183	0.4046692607
205.0	0.00194552529183	0.406614785992
207.0	0.00194552529183	0.408560311284
209.0	0.00291828793774	0.411478599222
212.0	0.00291828793774	0.41439688716
214.0	0.00194552529183	0.416342412451
216.0	0.000972762645914	0.417315175097
219.0	0.00194552529183	0.419260700389
221.0	0.00389105058366	0.423151750973
223.0	0.00389105058366	0.427042801556
225.0	0.00194552529183	0.428988326848
228.0	0.000972762645914	0.429961089494
232.0	0.000972762645914	0.43093385214
234.0	0.00194552529183	0.432879377432
240.0	0.000972762645914	0.433852140078
244.0	0.000972762645914	0.434824902724
248.0	0.000972762645914	0.43579766537
250.0	0.000972762645914	0.436770428016
255.0	0.00291828793774	0.439688715953
259.0	0.000972762645914	0.440661478599
263.0	0.000972762645914	0.441634241245
265.0	0.00194552529183	0.443579766537
267.0	0.00389105058366	0.447470817121
271.0	0.000972762645914	0.448443579767
280.0	0.000972762645914	0.449416342412
282.0	0.00194552529183	0.451361867704
284.0	0.00291828793774	0.454280155642
286.0	0.00194552529183	0.456225680934
288.0	0.000972762645914	0.45719844358
291.0	0.00291828793774	0.460116731518
294.0	0.00194552529183	0.462062256809
296.0	0.000972762645914	0.463035019455
299.0	0.00291828793774	0.465953307393
301.0	0.000972762645914	0.466926070039
303.0	0.00194552529183	0.468871595331
305.0	0.00291828793774	0.471789883268
307.0	0.00194552529183	0.47373540856
310.0	0.000972762645914	0.474708171206
315.0	0.00291828793774	0.477626459144
317.0	0.00291828793774	0.480544747082
321.0	0.00389105058366	0.484435797665
323.0	0.00291828793774	0.487354085603
326.0	0.00194552529183	0.489299610895
328.0	0.00194552529183	0.491245136187
330.0	0.00194552529183	0.493190661479
345.0	0.00194552529183	0.49513618677
347.0	0.000972762645914	0.496108949416
352.0	0.000972762645914	0.497081712062
354.0	0.00194552529183	0.499027237354
358.0	0.000972762645914	0.5
363.0	0.000972762645914	0.500972762646
365.0	0.00194552529183	0.502918287938
367.0	0.000972762645914	0.503891050584
371.0	0.00194552529183	0.505836575875
374.0	0.00194552529183	0.507782101167
376.0	0.00291828793774	0.510700389105
380.0	0.00194552529183	0.512645914397
384.0	0.00194552529183	0.514591439689
387.0	0.000972762645914	0.515564202335
389.0	0.000972762645914	0.516536964981
391.0	0.000972762645914	0.517509727626
396.0	0.00194552529183	0.519455252918
404.0	0.00194552529183	0.52140077821
406.0	0.000972762645914	0.522373540856
408.0	0.00194552529183	0.524319066148
411.0	0.00389105058366	0.528210116732
414.0	0.00291828793774	0.531128404669
416.0	0.00194552529183	0.533073929961
419.0	0.000972762645914	0.534046692607
424.0	0.000972762645914	0.535019455253
430.0	0.00194552529183	0.536964980545
434.0	0.00194552529183	0.538910505837
438.0	0.000972762645914	0.539883268482
446.0	0.00389105058366	0.543774319066
448.0	0.00194552529183	0.545719844358
450.0	0.00194552529183	0.54766536965
452.0	0.00194552529183	0.549610894942
455.0	0.000972762645914	0.550583657588
457.0	0.000972762645914	0.551556420233
459.0	0.00194552529183	0.553501945525
461.0	0.00194552529183	0.555447470817
465.0	0.00194552529183	0.557392996109
467.0	0.00291828793774	0.560311284047
477.0	0.000972762645914	0.561284046693
482.0	0.000972762645914	0.562256809339
491.0	0.000972762645914	0.563229571984
498.0	0.000972762645914	0.56420233463
503.0	0.000972762645914	0.565175097276
507.0	0.00194552529183	0.567120622568
515.0	0.00194552529183	0.56906614786
522.0	0.000972762645914	0.570038910506
527.0	0.00291828793774	0.572957198444
533.0	0.00194552529183	0.574902723735
540.0	0.00194552529183	0.576848249027
544.0	0.000972762645914	0.577821011673
549.0	0.000972762645914	0.578793774319
553.0	0.00194552529183	0.580739299611
555.0	0.00194552529183	0.582684824903
558.0	0.00194552529183	0.584630350195
561.0	0.00194552529183	0.586575875486
563.0	0.00291828793774	0.589494163424
566.0	0.00194552529183	0.591439688716
571.0	0.00389105058366	0.5953307393
575.0	0.00194552529183	0.597276264591
577.0	0.000972762645914	0.598249027237
586.0	0.000972762645914	0.599221789883
594.0	0.00291828793774	0.602140077821
612.0	0.000972762645914	0.603112840467
617.0	0.00486381322957	0.607976653696
623.0	0.000972762645914	0.608949416342
627.0	0.00194552529183	0.610894941634
630.0	0.000972762645914	0.61186770428
640.0	0.000972762645914	0.612840466926
642.0	0.000972762645914	0.613813229572
645.0	0.000972762645914	0.614785992218
650.0	0.00194552529183	0.61673151751
657.0	0.000972762645914	0.617704280156
663.0	0.00194552529183	0.619649805447
665.0	0.000972762645914	0.620622568093
671.0	0.000972762645914	0.621595330739
674.0	0.000972762645914	0.622568093385
678.0	0.00194552529183	0.624513618677
692.0	0.000972762645914	0.625486381323
698.0	0.000972762645914	0.626459143969
710.0	0.00194552529183	0.628404669261
712.0	0.00194552529183	0.630350194553
715.0	0.000972762645914	0.631322957198
719.0	0.000972762645914	0.632295719844
723.0	0.00291828793774	0.635214007782
726.0	0.000972762645914	0.636186770428
729.0	0.000972762645914	0.637159533074
731.0	0.00291828793774	0.640077821012
741.0	0.000972762645914	0.641050583658
746.0	0.00194552529183	0.642996108949
748.0	0.00194552529183	0.644941634241
754.0	0.000972762645914	0.645914396887
763.0	0.000972762645914	0.646887159533
769.0	0.000972762645914	0.647859922179
773.0	0.000972762645914	0.648832684825
775.0	0.000972762645914	0.649805447471
779.0	0.000972762645914	0.650778210117
783.0	0.000972762645914	0.651750972763
786.0	0.00389105058366	0.655642023346
788.0	0.000972762645914	0.656614785992
792.0	0.000972762645914	0.657587548638
795.0	0.000972762645914	0.658560311284
798.0	0.00194552529183	0.660505836576
804.0	0.000972762645914	0.661478599222
808.0	0.00194552529183	0.663424124514
811.0	0.00194552529183	0.665369649805
816.0	0.000972762645914	0.666342412451
821.0	0.000972762645914	0.667315175097
826.0	0.00194552529183	0.669260700389
828.0	0.000972762645914	0.670233463035
832.0	0.000972762645914	0.671206225681
834.0	0.000972762645914	0.672178988327
837.0	0.00194552529183	0.674124513619
839.0	0.00389105058366	0.678015564202
841.0	0.000972762645914	0.678988326848
845.0	0.00291828793774	0.681906614786
855.0	0.000972762645914	0.682879377432
857.0	0.000972762645914	0.683852140078
859.0	0.000972762645914	0.684824902724
861.0	0.000972762645914	0.68579766537
866.0	0.000972762645914	0.686770428016
869.0	0.00194552529183	0.688715953307
873.0	0.000972762645914	0.689688715953
884.0	0.000972762645914	0.690661478599
886.0	0.000972762645914	0.691634241245
891.0	0.00291828793774	0.694552529183
906.0	0.000972762645914	0.695525291829
908.0	0.000972762645914	0.696498054475
912.0	0.00194552529183	0.698443579767
925.0	0.000972762645914	0.699416342412
929.0	0.000972762645914	0.700389105058
935.0	0.000972762645914	0.701361867704
939.0	0.00194552529183	0.703307392996
949.0	0.00194552529183	0.705252918288
951.0	0.000972762645914	0.706225680934
955.0	0.000972762645914	0.70719844358
957.0	0.000972762645914	0.708171206226
963.0	0.000972762645914	0.709143968872
972.0	0.000972762645914	0.710116731518
977.0	0.000972762645914	0.711089494163
983.0	0.00291828793774	0.714007782101
994.0	0.000972762645914	0.714980544747
1001.0	0.00194552529183	0.716926070039
1003.0	0.000972762645914	0.717898832685
1005.0	0.00194552529183	0.719844357977
1017.0	0.000972762645914	0.720817120623
1022.0	0.000972762645914	0.721789883268
1025.0	0.00194552529183	0.72373540856
1032.0	0.000972762645914	0.724708171206
1038.0	0.000972762645914	0.725680933852
1042.0	0.000972762645914	0.726653696498
1046.0	0.000972762645914	0.727626459144
1048.0	0.000972762645914	0.72859922179
1053.0	0.000972762645914	0.729571984436
1062.0	0.000972762645914	0.730544747082
1064.0	0.000972762645914	0.731517509728
1074.0	0.000972762645914	0.732490272374
1079.0	0.00194552529183	0.734435797665
1082.0	0.000972762645914	0.735408560311
1106.0	0.000972762645914	0.736381322957
1108.0	0.00194552529183	0.738326848249
1129.0	0.00194552529183	0.740272373541
1139.0	0.000972762645914	0.741245136187
1146.0	0.000972762645914	0.742217898833
1162.0	0.000972762645914	0.743190661479
1174.0	0.000972762645914	0.744163424125
1178.0	0.000972762645914	0.74513618677
1185.0	0.000972762645914	0.746108949416
1191.0	0.00194552529183	0.748054474708
1215.0	0.00194552529183	0.75
1217.0	0.000972762645914	0.750972762646
1238.0	0.00194552529183	0.752918287938
1247.0	0.000972762645914	0.753891050584
1251.0	0.00194552529183	0.755836575875
1254.0	0.000972762645914	0.756809338521
1263.0	0.000972762645914	0.757782101167
1299.0	0.000972762645914	0.758754863813
1302.0	0.000972762645914	0.759727626459
1304.0	0.000972762645914	0.760700389105
1307.0	0.000972762645914	0.761673151751
1310.0	0.000972762645914	0.762645914397
1326.0	0.000972762645914	0.763618677043
1368.0	0.000972762645914	0.764591439689
1371.0	0.00194552529183	0.766536964981
1374.0	0.000972762645914	0.767509727626
1408.0	0.00194552529183	0.769455252918
1427.0	0.000972762645914	0.770428015564
1432.0	0.000972762645914	0.77140077821
1448.0	0.000972762645914	0.772373540856
1452.0	0.000972762645914	0.773346303502
1463.0	0.000972762645914	0.774319066148
1465.0	0.00194552529183	0.77626459144
1469.0	0.000972762645914	0.777237354086
1476.0	0.00194552529183	0.779182879377
1484.0	0.00194552529183	0.781128404669
1488.0	0.00194552529183	0.783073929961
1495.0	0.000972762645914	0.784046692607
1502.0	0.000972762645914	0.785019455253
1508.0	0.000972762645914	0.785992217899
1530.0	0.00194552529183	0.787937743191
1550.0	0.000972762645914	0.788910505837
1552.0	0.000972762645914	0.789883268482
1556.0	0.000972762645914	0.790856031128
1571.0	0.00194552529183	0.79280155642
1576.0	0.000972762645914	0.793774319066
1578.0	0.000972762645914	0.794747081712
1583.0	0.000972762645914	0.795719844358
1587.0	0.000972762645914	0.796692607004
1611.0	0.000972762645914	0.79766536965
1620.0	0.000972762645914	0.798638132296
1623.0	0.000972762645914	0.799610894942
1634.0	0.000972762645914	0.800583657588
1637.0	0.000972762645914	0.801556420233
1660.0	0.00194552529183	0.803501945525
1665.0	0.000972762645914	0.804474708171
1694.0	0.00194552529183	0.806420233463
1700.0	0.000972762645914	0.807392996109
1722.0	0.000972762645914	0.808365758755
1729.0	0.000972762645914	0.809338521401
1776.0	0.000972762645914	0.810311284047
1791.0	0.000972762645914	0.811284046693
1794.0	0.000972762645914	0.812256809339
1810.0	0.000972762645914	0.813229571984
1816.0	0.000972762645914	0.81420233463
1820.0	0.000972762645914	0.815175097276
1846.0	0.000972762645914	0.816147859922
1851.0	0.000972762645914	0.817120622568
1865.0	0.000972762645914	0.818093385214
1920.0	0.000972762645914	0.81906614786
1948.0	0.000972762645914	0.820038910506
1952.0	0.000972762645914	0.821011673152
1958.0	0.000972762645914	0.821984435798
1963.0	0.000972762645914	0.822957198444
2000.0	0.00194552529183	0.824902723735
2019.0	0.000972762645914	0.825875486381
2091.0	0.000972762645914	0.826848249027
2101.0	0.000972762645914	0.827821011673
2113.0	0.000972762645914	0.828793774319
2126.0	0.000972762645914	0.829766536965
2141.0	0.000972762645914	0.830739299611
2163.0	0.000972762645914	0.831712062257
2190.0	0.000972762645914	0.832684824903
2199.0	0.000972762645914	0.833657587549
2217.0	0.00194552529183	0.83560311284
2222.0	0.000972762645914	0.836575875486
2232.0	0.000972762645914	0.837548638132
2238.0	0.000972762645914	0.838521400778
2284.0	0.000972762645914	0.839494163424
2294.0	0.000972762645914	0.84046692607
2297.0	0.000972762645914	0.841439688716
2299.0	0.000972762645914	0.842412451362
2304.0	0.000972762645914	0.843385214008
2311.0	0.000972762645914	0.844357976654
2338.0	0.000972762645914	0.8453307393
2358.0	0.000972762645914	0.846303501946
2361.0	0.000972762645914	0.847276264591
2368.0	0.000972762645914	0.848249027237
2370.0	0.000972762645914	0.849221789883
2372.0	0.000972762645914	0.850194552529
2375.0	0.000972762645914	0.851167315175
2405.0	0.000972762645914	0.852140077821
2407.0	0.000972762645914	0.853112840467
2437.0	0.000972762645914	0.854085603113
2445.0	0.00194552529183	0.856031128405
2507.0	0.000972762645914	0.857003891051
2526.0	0.000972762645914	0.857976653696
2549.0	0.000972762645914	0.858949416342
2566.0	0.000972762645914	0.859922178988
2571.0	0.000972762645914	0.860894941634
2579.0	0.000972762645914	0.86186770428
2635.0	0.000972762645914	0.862840466926
2656.0	0.000972762645914	0.863813229572
2666.0	0.000972762645914	0.864785992218
2720.0	0.000972762645914	0.865758754864
2740.0	0.000972762645914	0.86673151751
2752.0	0.000972762645914	0.867704280156
2788.0	0.000972762645914	0.868677042802
2815.0	0.000972762645914	0.869649805447
2818.0	0.00194552529183	0.871595330739
2824.0	0.000972762645914	0.872568093385
2854.0	0.000972762645914	0.873540856031
2867.0	0.000972762645914	0.874513618677
2875.0	0.000972762645914	0.875486381323
2880.0	0.000972762645914	0.876459143969
2893.0	0.000972762645914	0.877431906615
2903.0	0.000972762645914	0.878404669261
2916.0	0.000972762645914	0.879377431907
2928.0	0.000972762645914	0.880350194553
2948.0	0.000972762645914	0.881322957198
2959.0	0.000972762645914	0.882295719844
3053.0	0.000972762645914	0.88326848249
3076.0	0.00194552529183	0.885214007782
3095.0	0.00194552529183	0.887159533074
3109.0	0.000972762645914	0.88813229572
3144.0	0.000972762645914	0.889105058366
3150.0	0.000972762645914	0.890077821012
3173.0	0.000972762645914	0.891050583658
3190.0	0.000972762645914	0.892023346304
3206.0	0.000972762645914	0.892996108949
3231.0	0.000972762645914	0.893968871595
3253.0	0.000972762645914	0.894941634241
3263.0	0.000972762645914	0.895914396887
3313.0	0.000972762645914	0.896887159533
3333.0	0.000972762645914	0.897859922179
3343.0	0.000972762645914	0.898832684825
3358.0	0.000972762645914	0.899805447471
3368.0	0.000972762645914	0.900778210117
3392.0	0.000972762645914	0.901750972763
3500.0	0.000972762645914	0.902723735409
3505.0	0.000972762645914	0.903696498054
3603.0	0.000972762645914	0.9046692607
3608.0	0.000972762645914	0.905642023346
3636.0	0.000972762645914	0.906614785992
3653.0	0.000972762645914	0.907587548638
3681.0	0.000972762645914	0.908560311284
3739.0	0.000972762645914	0.90953307393
3801.0	0.000972762645914	0.910505836576
3850.0	0.000972762645914	0.911478599222
3895.0	0.000972762645914	0.912451361868
3899.0	0.000972762645914	0.913424124514
3901.0	0.000972762645914	0.91439688716
3945.0	0.000972762645914	0.915369649805
3964.0	0.000972762645914	0.916342412451
3985.0	0.000972762645914	0.917315175097
4009.0	0.000972762645914	0.918287937743
4057.0	0.000972762645914	0.919260700389
4061.0	0.000972762645914	0.920233463035
4118.0	0.00194552529183	0.922178988327
4124.0	0.000972762645914	0.923151750973
4135.0	0.000972762645914	0.924124513619
4143.0	0.000972762645914	0.925097276265
4164.0	0.000972762645914	0.926070038911
4170.0	0.000972762645914	0.927042801556
4173.0	0.000972762645914	0.928015564202
4183.0	0.000972762645914	0.928988326848
4203.0	0.000972762645914	0.929961089494
4217.0	0.000972762645914	0.93093385214
4264.0	0.000972762645914	0.931906614786
4321.0	0.000972762645914	0.932879377432
4402.0	0.000972762645914	0.933852140078
4457.0	0.000972762645914	0.934824902724
4492.0	0.000972762645914	0.93579766537
4541.0	0.000972762645914	0.936770428016
4648.0	0.000972762645914	0.937743190661
4672.0	0.000972762645914	0.938715953307
4762.0	0.00194552529183	0.940661478599
4782.0	0.000972762645914	0.941634241245
4798.0	0.000972762645914	0.942607003891
4852.0	0.000972762645914	0.943579766537
4854.0	0.00194552529183	0.945525291829
4970.0	0.000972762645914	0.946498054475
5009.0	0.000972762645914	0.947470817121
5087.0	0.000972762645914	0.948443579767
5092.0	0.000972762645914	0.949416342412
5120.0	0.000972762645914	0.950389105058
5259.0	0.000972762645914	0.951361867704
5276.0	0.000972762645914	0.95233463035
5296.0	0.000972762645914	0.953307392996
5311.0	0.000972762645914	0.954280155642
5328.0	0.000972762645914	0.955252918288
5372.0	0.000972762645914	0.956225680934
5405.0	0.000972762645914	0.95719844358
5453.0	0.000972762645914	0.958171206226
5472.0	0.000972762645914	0.959143968872
5477.0	0.000972762645914	0.960116731518
5516.0	0.000972762645914	0.961089494163
5565.0	0.000972762645914	0.962062256809
5626.0	0.000972762645914	0.963035019455
5741.0	0.000972762645914	0.964007782101
5787.0	0.000972762645914	0.964980544747
5827.0	0.000972762645914	0.965953307393
5838.0	0.000972762645914	0.966926070039
5842.0	0.000972762645914	0.967898832685
5912.0	0.000972762645914	0.968871595331
5955.0	0.00194552529183	0.970817120623
6007.0	0.000972762645914	0.971789883268
6037.0	0.000972762645914	0.972762645914
6070.0	0.000972762645914	0.97373540856
6157.0	0.000972762645914	0.974708171206
6244.0	0.000972762645914	0.975680933852
6607.0	0.000972762645914	0.976653696498
6672.0	0.000972762645914	0.977626459144
6701.0	0.000972762645914	0.97859922179
6815.0	0.000972762645914	0.979571984436
6851.0	0.000972762645914	0.980544747082
6972.0	0.000972762645914	0.981517509728
7166.0	0.000972762645914	0.982490272374
7222.0	0.000972762645914	0.983463035019
7228.0	0.000972762645914	0.984435797665
7255.0	0.000972762645914	0.985408560311
7282.0	0.000972762645914	0.986381322957
7366.0	0.000972762645914	0.987354085603
7720.0	0.000972762645914	0.988326848249
7801.0	0.000972762645914	0.989299610895
8050.0	0.000972762645914	0.990272373541
8233.0	0.000972762645914	0.991245136187
8757.0	0.000972762645914	0.992217898833
8946.0	0.000972762645914	0.993190661479
9396.0	0.000972762645914	0.994163424125
9409.0	0.000972762645914	0.99513618677
9587.0	0.000972762645914	0.996108949416
9612.0	0.000972762645914	0.997081712062
10046.0	0.000972762645914	0.998054474708
11369.0	0.000972762645914	0.999027237354
13895.0	0.000972762645914	1.0
14237.0	0.000972762645914	1.0
