#
# Generated On: 2012-02-05T16:46:22.882054
#           By: cwa.analyze.statistics
#      Version: 11.11.23
#       Author: Thomas A. de Ruiter <thomas@de-ruiter.cx>
#
#  Commandline: /home/af10028/bin/cwa analyze
#     Work Dir: /scratch/af10028/var/thesis-project/result/analyses/workload-01h-03708l-5s-fair
#

Time	Sum	Avg	StdDev	CoV	0.000000-Pct	0.010000-Pct	0.100000-Pct	1.000000-Pct	2.000000-Pct	5.000000-Pct	25.000000-Pct	50.000000-Pct	75.000000-Pct	95.000000-Pct	98.000000-Pct	99.000000-Pct	99.900000-Pct	99.990000-Pct	100.000000-Pct
1326927600	994327.0	3107.271875	3790.92996975	1.22001875673	5.0	5.0	5.0	20.0	26.0	116.0	614.0	1103.0	5812.0	11363.0	11364.0	11365.0	11365.0	11365.0	11365.0
1326928200	8397820.0	3651.22608696	2332.67202257	0.638873618618	5.0	5.0	6.0	89.0	152.0	425.0	1370.0	3895.0	4846.0	8751.0	8939.0	8940.0	8940.0	8940.0	8940.0
1326928800	8759373.0	3413.62938426	2067.35203789	0.605617014964	5.0	5.0	6.0	113.0	197.0	380.0	2290.0	3067.0	4255.0	7161.0	8226.0	8226.0	8226.0	8226.0	8226.0
1326929400	12781258.0	6674.28616188	5108.84849401	0.765452419945	5.0	5.0	5.0	62.0	158.0	314.0	1841.0	6844.0	10041.0	13888.0	13888.0	13888.0	13889.0	13889.0	13889.0
1326930000	2108651.0	2537.48616125	2333.1944867	0.919490526619	5.0	5.0	5.0	5.0	33.0	197.0	713.0	1442.0	4174.0	7710.0	7710.0	7713.0	9560.0	9560.0	9560.0
1326930600	968054.0	1282.19072848	1499.00882395	1.1690997218	5.0	5.0	5.0	5.0	6.0	74.0	557.0	932.0	1430.0	4372.0	5731.0	9132.0	14062.0	14062.0	14062.0
1326931200	2449738.0	2930.30861244	2400.14495131	0.819075827412	5.0	5.0	5.0	56.0	113.0	317.0	872.0	2704.5	4051.0	7227.0	8424.0	13072.0	13352.0	13352.0	13352.0
1326931800	7062298.0	4498.27898089	2558.60475639	0.568796370181	485.0	485.0	485.0	1370.0	1601.0	1718.0	2651.0	3686.5	5701.0	12455.0	12565.0	12694.0	12970.0	13019.0	13019.0
1326932400	3306886.0	5377.0504065	3159.48580719	0.587587165516	1724.0	1724.0	1724.0	1808.0	1826.0	1844.0	2854.0	4156.0	7131.0	12187.0	12385.0	12388.0	12431.0	12431.0	12431.0
1326933000	962018.0	8513.43362832	2648.49572829	0.311096068158	5868.0	5868.0	5868.0	5868.0	5868.0	5868.0	5869.0	7059.0	11828.0	11830.0	11830.0	11830.0	11831.0	11831.0	11831.0
