#
# Generated On: 2012-02-05T19:37:01.895216
#           By: cwa.analyze.jobs_per_executableid
#      Version: 11.3.16
#       Author: Thomas A. de Ruiter <thomas@de-ruiter.cx>
#
#  Commandline: /home/af10028/bin/cwa analyze
#     Work Dir: /scratch/af10028/var/thesis-project/result/analyses/workload-06h-07416l-5s-fair
#

Time	ID_-1
0	28229
600	33187
1200	31352
1800	32687
2400	29382
3000	28569
3600	32790
4200	31840
4800	30544
5400	30840
6000	29066
6600	32111
7200	31158
7800	33900
8400	33728
9000	32760
9600	29954
10200	28830
10800	31098
11400	32933
12000	32503
12600	31816
13200	32875
13800	32769
14400	31619
15000	34176
15600	32852
16200	32086
16800	32813
17400	32050
18000	32255
18600	34922
19200	31327
19800	33679
20400	34585
21000	35104
21600	28648
22200	27526
22800	17716
23400	9248
24000	8732
24600	8914
25200	8414
25800	7547
26400	6727
27000	7106
27600	7120
28200	6456
28800	6548
29400	4991
30000	3725
30600	3399
31200	2537
31800	2027
32400	906
33000	354
33600	259
34200	259
34800	259
35400	137
