#
# Generated On: 2012-02-05T16:55:58.831434
#           By: cwa.analyze.statistics
#      Version: 11.11.23
#       Author: Thomas A. de Ruiter <thomas@de-ruiter.cx>
#
#  Commandline: /home/af10028/bin/cwa analyze
#     Work Dir: /scratch/af10028/var/thesis-project/result/analyses/workload-01h-07416l-1s-default
#

Time	Sum	Avg	StdDev	CoV	0.000000-Pct	0.010000-Pct	0.100000-Pct	1.000000-Pct	2.000000-Pct	5.000000-Pct	25.000000-Pct	50.000000-Pct	75.000000-Pct	95.000000-Pct	98.000000-Pct	99.000000-Pct	99.900000-Pct	99.990000-Pct	100.000000-Pct
1326943800	1393208.0	165.405200047	371.873944174	2.24826029694	2.0	2.0	2.0	2.0	2.0	2.0	3.0	20.0	104.0	1160.0	1379.0	1502.0	3970.0	3973.0	3973.0
1326944400	1154597.0	138.723657335	307.73858715	2.21835693393	2.0	2.0	2.0	2.0	2.0	2.0	3.0	20.0	96.0	788.0	1214.0	1817.0	1880.0	1931.0	1931.0
1326945000	918181.0	72.4231740022	153.41715701	2.11834346013	2.0	2.0	2.0	2.0	2.0	2.0	3.0	15.0	65.0	356.0	638.0	734.0	1235.0	1859.0	2564.0
1326945600	879214.0	64.867492991	147.374018427	2.27192406599	2.0	2.0	2.0	2.0	2.0	2.0	3.0	14.0	59.0	284.0	518.0	758.0	1763.0	2054.0	2198.0
1326946200	509131.0	56.8099754519	127.556279938	2.24531482233	2.0	2.0	2.0	2.0	2.0	2.0	3.0	11.0	51.0	260.0	440.0	614.0	1445.0	2003.0	2003.0
1326946800	496145.0	61.3281829419	134.468447385	2.19260445907	2.0	2.0	2.0	2.0	2.0	2.0	3.0	14.0	57.0	272.0	464.0	641.0	1391.0	2324.0	2324.0
1326947400	136244.0	54.0865422787	126.580827031	2.34033868128	2.0	2.0	2.0	2.0	2.0	2.0	3.0	12.0	50.0	248.0	422.0	578.0	1247.0	2420.0	2420.0
1326948000	379630.0	56.2248222749	141.033440893	2.50838393412	2.0	2.0	2.0	2.0	2.0	2.0	3.0	11.0	50.0	251.0	437.0	620.0	1772.0	3391.0	3391.0
1326948600	24450.0	17.2913719943	76.4801199242	4.42302206842	2.0	2.0	2.0	2.0	2.0	2.0	5.0	5.0	6.0	53.0	159.0	284.0	851.0	2012.0	2012.0
1326949200	3198.0	5.46666666667	0.499314598718	0.0913380363509	5.0	5.0	5.0	5.0	5.0	5.0	5.0	5.0	6.0	6.0	6.0	6.0	6.0	6.0	6.0
1326949800	572.0	5.39622641509	0.491436093467	0.0910703250131	5.0	5.0	5.0	5.0	5.0	5.0	5.0	5.0	6.0	6.0	6.0	6.0	6.0	6.0	6.0
1326950400	2885.0	5.43314500942	0.495977494609	0.091287365559	5.0	5.0	5.0	5.0	5.0	5.0	5.0	5.0	6.0	6.0	6.0	6.0	6.0	6.0	6.0
1326951000	5461.0	5.44466600199	0.497176622462	0.0913144391741	5.0	5.0	5.0	5.0	5.0	5.0	5.0	5.0	6.0	6.0	6.0	6.0	6.0	6.0	6.0
1326951600	673.0	5.42741935484	0.496710923386	0.0915188031202	5.0	5.0	5.0	5.0	5.0	5.0	5.0	5.0	6.0	6.0	6.0	6.0	6.0	6.0	6.0
1326952200	4106.0	5.44562334218	0.497364310817	0.0913328520108	5.0	5.0	5.0	5.0	5.0	5.0	5.0	5.0	6.0	6.0	6.0	6.0	6.0	6.0	6.0
