#
# Generated On: 2012-02-05T16:55:30.991216
#           By: cwa.analyze.statistics
#      Version: 11.11.23
#       Author: Thomas A. de Ruiter <thomas@de-ruiter.cx>
#
#  Commandline: /home/af10028/bin/cwa analyze
#     Work Dir: /scratch/af10028/var/thesis-project/result/analyses/workload-01h-07416l-1s-default
#

Time	Sum	Avg	StdDev	CoV	0.000000-Pct	0.010000-Pct	0.100000-Pct	1.000000-Pct	2.000000-Pct	5.000000-Pct	25.000000-Pct	50.000000-Pct	75.000000-Pct	95.000000-Pct	98.000000-Pct	99.000000-Pct	99.900000-Pct	99.990000-Pct	100.000000-Pct
1326943800	2751746.0	1763.93974359	1719.64220967	0.97488716149	2.0	2.0	2.0	2.0	2.0	3.0	159.0	1012.0	3210.0	4390.0	4509.0	4526.0	4802.0	4802.0	4802.0
1326947400	644938.0	3643.71751412	1805.33522428	0.495465199286	693.0	693.0	693.0	708.0	710.0	823.0	946.0	4802.0	4822.0	4870.0	4895.0	4895.0	4906.0	4906.0	4906.0
