#
# Generated On: 2012-02-05T16:46:50.411267
#           By: cwa.analyze.statistics
#      Version: 11.11.23
#       Author: Thomas A. de Ruiter <thomas@de-ruiter.cx>
#
#  Commandline: /home/af10028/bin/cwa analyze
#     Work Dir: /scratch/af10028/var/thesis-project/result/analyses/workload-01h-04944l-1s-default
#

Time	Sum	Avg	StdDev	CoV	0.000000-Pct	0.010000-Pct	0.100000-Pct	1.000000-Pct	2.000000-Pct	5.000000-Pct	25.000000-Pct	50.000000-Pct	75.000000-Pct	95.000000-Pct	98.000000-Pct	99.000000-Pct	99.900000-Pct	99.990000-Pct	100.000000-Pct
1326942000	41589944.0	4315.20481428	3449.3006929	0.799336495337	5.0	5.0	5.0	5.0	5.0	113.0	1160.0	3430.5	7119.0	8889.0	16218.0	16218.0	16221.0	16221.0	16221.0
1326945600	12389290.0	2344.68016654	2557.92135701	1.09094681378	5.0	5.0	5.0	5.0	5.0	5.0	6.0	2135.0	4207.0	7126.0	7375.0	11063.0	11063.0	11065.0	11065.0
1326949200	8084312.0	2036.86369363	2478.94607555	1.21704072948	5.0	5.0	5.0	5.0	5.0	5.0	6.0	770.0	4270.0	7176.0	7177.0	7194.0	7248.0	7248.0	7248.0
