#
# Generated On: 2012-02-09T14:47:31.168569
#           By: cwa.analyze.statistics
#      Version: 11.11.23
#       Author: Thomas A. de Ruiter <thomas@de-ruiter.cx>
#
#  Commandline: /home/af10028/bin/cwa analyze
#     Work Dir: /scratch/af10028/var/thesis-project/result/workload-analyses/workload-06h-06180l-4s
#

Time	Sum	Avg	StdDev	CoV	0.000000-Pct	0.010000-Pct	0.100000-Pct	1.000000-Pct	2.000000-Pct	5.000000-Pct	25.000000-Pct	50.000000-Pct	75.000000-Pct	95.000000-Pct	98.000000-Pct	99.000000-Pct	99.900000-Pct	99.990000-Pct	100.000000-Pct
1326888600	34099.0	52.948757764	118.827889633	2.244205429	0.0	0.0	0.0	0.0	0.0	0.0	2.0	13.5	58.0	221.0	372.0	535.0	1626.0	1626.0	1626.0
1326889200	276807.0	59.8113656007	132.473739357	2.21485896579	0.0	0.0	0.0	0.0	0.0	0.0	2.0	16.0	62.0	262.0	426.0	557.0	1233.0	4054.0	4054.0
1326889800	487116.0	60.4437275096	138.058753123	2.28408734555	0.0	0.0	0.0	0.0	0.0	0.0	2.0	14.0	58.0	274.0	474.0	656.0	1346.0	4554.0	4554.0
1326890400	514032.0	61.0344336262	132.069913983	2.16385908964	0.0	0.0	0.0	0.0	0.0	0.0	2.0	15.0	60.0	273.0	467.0	642.0	1471.0	2335.0	2335.0
1326891000	527828.0	58.5954706927	139.889981948	2.38738558279	0.0	0.0	0.0	0.0	0.0	0.0	2.0	14.0	57.0	258.0	429.0	594.0	1587.0	3748.0	3748.0
1326891600	453206.0	58.2078088877	126.960324726	2.18115622547	0.0	0.0	0.0	0.0	0.0	0.0	2.0	14.0	58.0	262.0	448.0	595.0	1236.0	2326.0	2326.0
1326892200	375417.0	59.6468064824	133.505713735	2.23827094205	0.0	0.0	0.0	0.0	0.0	0.0	2.0	14.0	56.0	266.0	464.0	660.0	1406.0	2494.0	2494.0
1326892800	287776.0	57.9142684645	126.806053709	2.18954770683	0.0	0.0	0.0	0.0	0.0	0.0	2.0	13.0	53.0	271.0	447.0	625.0	1201.0	2314.0	2314.0
1326893400	356914.0	59.5949240274	140.346284978	2.35500400862	0.0	0.0	0.0	0.0	0.0	0.0	2.0	14.0	54.0	270.0	468.0	688.0	1720.0	2338.0	2338.0
1326894000	395344.0	59.9915022762	137.576816399	2.29327173314	0.0	0.0	0.0	0.0	0.0	0.0	2.0	14.0	57.0	266.0	480.0	676.0	1589.0	2144.0	2144.0
1326894600	484128.0	60.1849825957	137.011942469	2.276513784	0.0	0.0	0.0	0.0	0.0	0.0	2.0	14.0	58.0	276.0	454.0	659.0	1518.0	2493.0	2493.0
1326895200	508545.0	60.526660319	131.911243587	2.17939074934	0.0	0.0	0.0	0.0	0.0	0.0	2.0	14.0	60.0	278.0	455.0	627.0	1511.0	2649.0	2649.0
1326895800	393836.0	59.9445966514	138.332981155	2.30768057311	0.0	0.0	0.0	0.0	0.0	0.0	2.0	13.0	55.0	276.0	492.0	650.0	1408.0	2860.0	2860.0
1326896400	493005.0	59.5776435045	137.174496545	2.30244918187	0.0	0.0	0.0	0.0	0.0	0.0	2.0	13.0	57.0	276.0	470.0	619.0	1472.0	3463.0	3463.0
1326897000	433557.0	59.2695830485	133.693210521	2.25567995665	0.0	0.0	0.0	0.0	0.0	0.0	2.0	14.0	57.0	270.0	460.0	651.0	1415.0	2142.0	2142.0
1326897600	466681.0	62.3488309953	144.468262473	2.31709657048	0.0	0.0	0.0	0.0	0.0	0.0	2.0	14.0	57.0	283.0	508.0	698.0	1605.0	2909.0	2909.0
1326898200	465071.0	61.664147441	138.454927367	2.24530676435	0.0	0.0	0.0	0.0	0.0	0.0	2.0	14.0	59.0	283.0	493.0	627.0	1492.0	2476.0	2476.0
1326898800	309057.0	56.8642134315	126.485328884	2.2243397253	0.0	0.0	0.0	0.0	0.0	0.0	2.0	13.0	53.0	266.0	458.0	651.0	1211.0	2323.0	2323.0
1326899400	445879.0	60.705105514	134.303787184	2.21239689886	0.0	0.0	0.0	0.0	0.0	0.0	2.0	15.0	58.0	270.0	470.0	646.0	1413.0	2320.0	2320.0
1326900000	389819.0	57.8023428233	126.946150613	2.19621116398	0.0	0.0	0.0	0.0	0.0	0.0	2.0	13.0	56.0	265.0	475.0	601.0	1185.0	2962.0	2962.0
1326900600	259638.0	62.5031295137	147.720861885	2.36341544871	0.0	0.0	0.0	0.0	0.0	0.0	2.0	13.0	57.0	292.0	537.0	744.0	1612.0	2462.0	2462.0
1326901200	403891.0	58.1305411629	131.195260699	2.25690760958	0.0	0.0	0.0	0.0	0.0	0.0	2.0	14.0	54.0	278.0	453.0	590.0	1535.0	2442.0	2442.0
1326901800	459996.0	59.8329864724	137.037496117	2.2903335467	0.0	0.0	0.0	0.0	0.0	0.0	2.0	14.0	58.0	268.0	451.0	665.0	1458.0	3674.0	3674.0
1326902400	481120.0	60.541084686	159.517349256	2.63486110438	0.0	0.0	0.0	0.0	0.0	0.0	2.0	13.0	55.0	276.0	471.0	647.0	1873.0	6754.0	6754.0
1326903000	399298.0	57.9785102367	125.598230878	2.166289378	0.0	0.0	0.0	0.0	0.0	0.0	2.0	13.0	57.0	261.0	444.0	642.0	1403.0	1978.0	1978.0
1326903600	381135.0	58.0555978675	124.878909482	2.15102271045	0.0	0.0	0.0	0.0	0.0	0.0	2.0	14.0	56.0	261.0	448.0	633.0	1286.0	1979.0	1979.0
1326904200	370667.0	63.0278864139	147.616091422	2.3420758623	0.0	0.0	0.0	0.0	0.0	0.0	2.0	15.0	59.0	285.0	479.0	647.0	2319.0	2992.0	2992.0
1326904800	394878.0	57.411747601	128.388915128	2.23628299944	0.0	0.0	0.0	0.0	0.0	0.0	2.0	14.0	57.0	259.0	425.0	582.0	1370.0	2569.0	2569.0
1326905400	545113.0	59.1742292662	132.551849347	2.24002662968	0.0	0.0	0.0	0.0	0.0	0.0	2.0	13.0	57.0	263.0	461.0	661.0	1393.0	2428.0	2428.0
1326906000	429366.0	60.3211576285	143.631203772	2.38110821175	0.0	0.0	0.0	0.0	0.0	0.0	2.0	14.0	60.0	265.0	453.0	618.0	1440.0	4702.0	4702.0
1326906600	395947.0	57.6761835397	134.606507576	2.33383173633	0.0	0.0	0.0	0.0	0.0	0.0	2.0	13.0	56.0	269.0	418.0	600.0	1307.0	4837.0	4837.0
1326907200	392895.0	58.0347119645	128.80627588	2.21946954709	0.0	0.0	0.0	0.0	0.0	0.0	2.0	13.0	54.0	271.0	464.0	649.0	1300.0	1906.0	1906.0
1326907800	415898.0	62.5410526316	142.970061397	2.28601942853	0.0	0.0	0.0	0.0	0.0	0.0	2.0	15.0	59.0	284.0	482.0	655.0	1642.0	3267.0	3267.0
1326908400	512762.0	59.5265846297	137.734764558	2.31383616941	0.0	0.0	0.0	0.0	0.0	0.0	2.0	14.0	55.0	266.0	455.0	626.0	1496.0	2703.0	2703.0
1326909000	487752.0	59.3877998295	124.684243108	2.09949254672	0.0	0.0	0.0	0.0	0.0	0.0	2.0	14.0	59.0	272.0	458.0	603.0	1226.0	1972.0	1972.0
1326909600	493298.0	58.1445073079	129.898706824	2.23406668726	0.0	0.0	0.0	0.0	0.0	0.0	2.0	13.0	55.0	265.0	447.0	619.0	1375.0	2323.0	2323.0
1326910200	533479.0	60.1781161873	155.327489627	2.58112914574	0.0	0.0	0.0	0.0	0.0	0.0	2.0	15.0	57.0	263.0	462.0	647.0	1618.0	7708.0	7708.0
1326910800	118891.0	59.0322740814	135.324989958	2.29238991829	0.0	0.0	0.0	0.0	0.0	0.0	2.0	13.0	57.0	267.0	473.0	602.0	1555.0	2260.0	2260.0
1326911400	29803.0	64.6485900217	136.994851312	2.11906943781	0.0	0.0	0.0	0.0	0.0	0.0	2.0	14.0	63.0	297.0	447.0	813.0	1296.0	1296.0	1296.0
1326912000	6207.0	48.874015748	103.598660294	2.11970837076	0.0	0.0	0.0	0.0	0.0	0.0	2.0	10.0	50.0	203.0	457.0	581.0	709.0	709.0	709.0
1326912600	0	0	0	0															
1326913200	0	0	0	0															
1326913800	0	0	0	0															
1326914400	0	0	0	0															
1326915000	0	0	0	0															
1326915600	0	0	0	0															
1326916200	0	0	0	0															
1326916800	0	0	0	0															
1326917400	0	0	0	0															
1326918000	0	0	0	0															
1326918600	0	0	0	0															
1326919200	0	0	0	0															
1326919800	0	0	0	0															
1326920400	0	0	0	0															
1326921000	0	0	0	0															
1326921600	0	0	0	0															
1326922200	0	0	0	0															
1326922800	0	0	0	0															
1326923400	0	0	0	0															
1326924000	0	0	0	0															
1326924600	0	0	0	0															
1326925200	0	0	0	0															
1326925800	0	0	0	0															
1326926400	0	0	0	0															
1326927000	0	0	0	0															
1326927600	0	0	0	0															
1326928200	0	0	0	0															
1326928800	0	0	0	0															
1326929400	0	0	0	0															
1326930000	0	0	0	0															
1326930600	0	0	0	0															
1326931200	0	0	0	0															
1326931800	0	0	0	0															
1326932400	0	0	0	0															
1326933000	0	0	0	0															
1326933600	0	0	0	0															
1326934200	0	0	0	0															
1326934800	0	0	0	0															
1326935400	0	0	0	0															
1326936000	0	0	0	0															
1326936600	0	0	0	0															
1326937200	0	0	0	0															
1326937800	0	0	0	0															
1326938400	0	0	0	0															
1326939000	0	0	0	0															
1326939600	0	0	0	0															
1326940200	0	0	0	0															
1326940800	0	0	0	0															
1326941400	0	0	0	0															
1326942000	0	0	0	0															
1326942600	0	0	0	0															
1326943200	0	0	0	0															
1326943800	0	0	0	0															
1326944400	0	0	0	0															
1326945000	0	0	0	0															
1326945600	0	0	0	0															
1326946200	0	0	0	0															
1326946800	0	0	0	0															
1326947400	0	0	0	0															
1326948000	0	0	0	0															
1326948600	0	0	0	0															
1326949200	0	0	0	0															
1326949800	0	0	0	0															
1326950400	0	0	0	0															
1326951000	0	0	0	0															
1326951600	0	0	0	0															
1326952200	0	0	0	0															
1326952800	0	0	0	0															
1326953400	0	0	0	0															
1326954000	0	0	0	0															
1326954600	0	0	0	0															
1326955200	0	0	0	0															
1326955800	0	0	0	0															
1326956400	0	0	0	0															
1326957000	0	0	0	0															
1326957600	0	0	0	0															
1326958200	0	0	0	0															
1326958800	0	0	0	0															
1326959400	0	0	0	0															
1326960000	0	0	0	0															
1326960600	0	0	0	0															
1326961200	0	0	0	0															
1326961800	0	0	0	0															
1326962400	0	0	0	0															
1326963000	0	0	0	0															
1326963600	0	0	0	0															
1326964200	0	0	0	0															
1326964800	0	0	0	0															
1326965400	0	0	0	0															
1326966000	0	0	0	0															
1326966600	0	0	0	0															
1326967200	0	0	0	0															
1326967800	0	0	0	0															
1326968400	0	0	0	0															
1326969000	0	0	0	0															
1326969600	0	0	0	0															
1326970200	0	0	0	0															
1326970800	0	0	0	0															
1326971400	0	0	0	0															
1326972000	0	0	0	0															
1326972600	0	0	0	0															
1326973200	0	0	0	0															
1326973800	0	0	0	0															
