#
# Generated On: 2012-02-09T14:45:46.453203
#           By: cwa.analyze.jobs_per_executableid
#      Version: 11.3.16
#       Author: Thomas A. de Ruiter <thomas@de-ruiter.cx>
#
#  Commandline: /home/af10028/bin/cwa analyze
#     Work Dir: /scratch/af10028/var/thesis-project/result/workload-analyses/workload-06h-06180l-4s
#

Time	ID_-1
0	206
600	356
1200	417
1800	482
2400	550
3000	599
3600	520
4200	599
4800	613
5400	623
6000	657
6600	601
7200	677
7800	633
8400	672
9000	661
9600	651
10200	666
10800	613
11400	612
12000	663
12600	692
13200	735
13800	700
14400	717
15000	740
15600	665
16200	762
16800	772
17400	670
18000	707
18600	713
19200	718
19800	764
20400	738
21000	802
21600	541
22200	417
22800	351
23400	297
24000	267
24600	244
25200	217
25800	189
26400	171
27000	159
27600	148
28200	138
28800	125
29400	114
30000	102
30600	86
31200	78
31800	75
32400	64
33000	58
33600	54
34200	48
34800	42
35400	38
36000	37
36600	34
37200	33
37800	32
38400	29
39000	29
39600	28
40200	26
40800	24
41400	22
42000	22
42600	18
43200	17
43800	17
44400	17
45000	17
45600	15
46200	15
46800	15
47400	14
48000	14
48600	14
49200	13
49800	13
50400	12
51000	12
51600	10
52200	10
52800	9
53400	9
54000	9
54600	9
55200	9
55800	9
56400	9
57000	8
57600	7
58200	6
58800	6
59400	6
60000	6
60600	6
61200	6
61800	6
62400	5
63000	5
63600	5
64200	5
64800	5
65400	4
66000	4
66600	4
67200	4
67800	3
68400	3
69000	3
69600	2
70200	2
70800	2
71400	1
72000	1
72600	1
73200	1
73800	1
74400	1
75000	1
75600	1
76200	1
76800	1
77400	1
78000	1
78600	1
79200	1
79800	1
80400	1
81000	1
81600	1
82200	1
82800	1
83400	1
84000	1
84600	1
85200	1
85800	1
86400	1
87000	1
87600	1
