#
# Generated On: 2012-02-05T19:30:20.463350
#           By: cwa.analyze.statistics
#      Version: 11.11.23
#       Author: Thomas A. de Ruiter <thomas@de-ruiter.cx>
#
#  Commandline: /home/af10028/bin/cwa analyze
#     Work Dir: /scratch/af10028/var/thesis-project/result/analyses/workload-06h-07416l-4s-fair
#

Time	Sum	Avg	StdDev	CoV	0.000000-Pct	0.010000-Pct	0.100000-Pct	1.000000-Pct	2.000000-Pct	5.000000-Pct	25.000000-Pct	50.000000-Pct	75.000000-Pct	95.000000-Pct	98.000000-Pct	99.000000-Pct	99.900000-Pct	99.990000-Pct	100.000000-Pct
1327090800	6774064.0	146.888652774	338.806264885	2.30655165314	2.0	2.0	2.0	2.0	2.0	2.0	3.0	20.0	95.0	926.0	1340.0	1559.0	2726.0	4555.0	4558.0
1327094400	8035261.0	147.747742944	339.85544261	2.30024118026	2.0	2.0	2.0	2.0	2.0	2.0	3.0	20.0	95.0	881.0	1364.0	1775.0	2942.0	3670.0	3682.0
1327098000	6994510.0	149.797828368	353.136803001	2.35742271332	2.0	2.0	2.0	2.0	2.0	2.0	3.0	20.0	98.0	818.0	1253.0	1667.0	3086.0	3670.0	3682.0
1327101600	8742284.0	160.567975609	443.873578671	2.7643966799	2.0	2.0	2.0	2.0	2.0	2.0	3.0	20.0	95.0	923.0	1463.0	1841.0	6759.0	6762.0	6763.0
1327105200	8342998.0	156.646601577	353.241501938	2.2550218031	2.0	2.0	2.0	2.0	2.0	2.0	3.0	20.0	98.0	959.0	1394.0	1739.0	2917.0	3038.0	3038.0
1327108800	6422157.0	147.547603731	336.297666308	2.27924858015	2.0	2.0	2.0	2.0	2.0	2.0	3.0	20.0	98.0	890.0	1328.0	1700.0	2657.0	3803.0	3805.0
1327112400	788994.0	139.398233216	293.454725006	2.10515383328	2.0	2.0	2.0	2.0	2.0	2.0	3.0	18.0	92.0	908.0	1298.0	1319.0	1466.0	1466.0	1466.0
1327116000	0	0	0	0															
1327119600	0	0	0	0															
