#
# Generated On: 2012-02-05T17:26:35.460752
#           By: cwa.analyze.statistics
#      Version: 11.11.23
#       Author: Thomas A. de Ruiter <thomas@de-ruiter.cx>
#
#  Commandline: /home/af10028/bin/cwa analyze
#     Work Dir: /scratch/af10028/var/thesis-project/result/analyses/workload-06h-00123l-5s-default
#

Time	Sum	Avg	StdDev	CoV	0.000000-Pct	0.010000-Pct	0.100000-Pct	1.000000-Pct	2.000000-Pct	5.000000-Pct	25.000000-Pct	50.000000-Pct	75.000000-Pct	95.000000-Pct	98.000000-Pct	99.000000-Pct	99.900000-Pct	99.990000-Pct	100.000000-Pct
1326973200	7514975.0	3193.78453039	2105.69073287	0.659308952383	5.0	5.0	5.0	63.0	143.0	377.0	1031.0	3658.0	4933.0	6315.0	7362.0	7365.0	7365.0	7365.0	7365.0
