#
# Generated On: 2012-02-05T18:27:46.376916
#           By: cwa.analyze.statistics
#      Version: 11.11.23
#       Author: Thomas A. de Ruiter <thomas@de-ruiter.cx>
#
#  Commandline: /home/af10028/bin/cwa analyze
#     Work Dir: /scratch/af10028/var/thesis-project/result/analyses/workload-06h-06180l-1s-default
#

Time	Sum	Avg	StdDev	CoV	0.000000-Pct	0.010000-Pct	0.100000-Pct	1.000000-Pct	2.000000-Pct	5.000000-Pct	25.000000-Pct	50.000000-Pct	75.000000-Pct	95.000000-Pct	98.000000-Pct	99.000000-Pct	99.900000-Pct	99.990000-Pct	100.000000-Pct
1327074000	55822093.0	770.831740727	1930.39354828	2.50429950699	2.0	2.0	2.0	2.0	2.0	2.0	14.0	77.0	371.0	5743.0	7686.0	8888.0	16221.0	16224.0	16224.0
1327077600	24916194.0	443.719730023	1096.30998138	2.47072624272	2.0	2.0	2.0	2.0	2.0	2.0	11.0	68.0	321.0	2294.0	4594.0	6627.0	7884.0	10460.0	16998.0
1327081200	42770774.0	499.11631055	1214.21894783	2.43273746452	2.0	2.0	2.0	2.0	2.0	2.0	11.0	71.0	332.0	2882.0	4381.0	6876.0	13381.0	13540.0	25026.0
1327084800	36785448.0	485.680591497	1354.88266727	2.78965783477	2.0	2.0	2.0	2.0	2.0	2.0	9.0	66.0	341.0	2420.0	4468.0	5904.0	18029.0	21191.0	21192.0
1327088400	40307718.0	481.544925632	1173.03828357	2.43598929431	2.0	2.0	2.0	2.0	2.0	2.0	8.0	63.0	311.0	2668.0	4630.0	5464.0	10235.0	13288.0	15027.0
1327092000	44470370.0	539.407469403	1462.14484256	2.71064997335	2.0	2.0	2.0	2.0	2.0	2.0	9.0	62.0	312.0	3499.0	6210.0	8172.0	10562.0	14142.0	15012.0
1327095600	15509974.0	1155.99418648	1893.96767748	1.63838858329	2.0	2.0	2.0	2.0	5.0	5.0	5.0	53.0	1571.0	6148.0	6808.0	7704.0	9147.0	9185.0	9185.0
1327099200	7168847.0	1135.02960735	1958.0809783	1.72513647717	5.0	5.0	5.0	5.0	5.0	5.0	5.0	6.0	1439.0	5415.0	7266.0	7267.0	9954.0	9956.0	9956.0
