#
# Generated On: 2012-02-05T21:55:19.433103
#           By: cwa.analyze.statistics
#      Version: 11.11.23
#       Author: Thomas A. de Ruiter <thomas@de-ruiter.cx>
#
#  Commandline: /home/af10028/bin/cwa analyze
#     Work Dir: /scratch/af10028/var/thesis-project/result/analyses/workload-06h-11124l-4s-default
#

Time	Sum	Avg	StdDev	CoV	0.000000-Pct	0.010000-Pct	0.100000-Pct	1.000000-Pct	2.000000-Pct	5.000000-Pct	25.000000-Pct	50.000000-Pct	75.000000-Pct	95.000000-Pct	98.000000-Pct	99.000000-Pct	99.900000-Pct	99.990000-Pct	100.000000-Pct
1327147200	155054962.0	9986.15070522	4658.92136697	0.466538259284	2.0	2.0	3.0	111.0	501.0	1503.0	6810.0	10629.0	13679.0	16445.0	16690.0	16818.0	23008.0	29065.0	34681.0
