#
# Generated On: 2012-02-09T16:49:54.869032
#           By: cwa.analyze.jobs_per_executableid
#      Version: 11.3.16
#       Author: Thomas A. de Ruiter <thomas@de-ruiter.cx>
#
#  Commandline: /home/af10028/bin/cwa analyze
#     Work Dir: /scratch/af10028/var/thesis-project/result/workload-analyses/workload-06h-11124l-2s
#

Time	ID_-1
0	97874
3600	151482
7200	176369
10800	186689
14400	194823
18000	202683
21600	87550
25200	40862
28800	22975
32400	14210
36000	9629
39600	5289
43200	2926
46800	1928
50400	1579
54000	1675
57600	1392
61200	1343
64800	1238
68400	1310
72000	1439
75600	1119
79200	869
82800	660
86400	595
90000	656
93600	469
97200	334
100800	367
104400	250
108000	338
111600	369
115200	306
118800	344
122400	346
126000	334
129600	1
