#
# Generated On: 2012-02-09T16:48:24.969008
#           By: cwa.analyze.statistics
#      Version: 11.11.23
#       Author: Thomas A. de Ruiter <thomas@de-ruiter.cx>
#
#  Commandline: /home/af10028/bin/cwa analyze
#     Work Dir: /scratch/af10028/var/thesis-project/result/workload-analyses/workload-06h-11124l-2s
#

Time	Sum	Avg	StdDev	CoV	0.000000-Pct	0.010000-Pct	0.100000-Pct	1.000000-Pct	2.000000-Pct	5.000000-Pct	25.000000-Pct	50.000000-Pct	75.000000-Pct	95.000000-Pct	98.000000-Pct	99.000000-Pct	99.900000-Pct	99.990000-Pct	100.000000-Pct
1326893400	4838153.0	440.272363272	522.708459801	1.18723886259	0.0	0.0	0.0	2.0	3.0	7.0	61.0	259.0	637.0	1494.0	1983.0	2396.0	3513.0	4813.0	5471.0
