#
# Generated On: 2012-01-25T15:49:27.649809
#           By: cwa.analyze.statistics
#      Version: 11.11.23
#       Author: Thomas A. de Ruiter <thomas@de-ruiter.cx>
#
#  Commandline: /home/af10028/bin/cwa analyze
#     Work Dir: /scratch/af10028/var/thesis-project/result/analyses/workload-01h-09888l-0s-fair
#

Time	Sum	Avg	StdDev	CoV	0.000000-Pct	0.010000-Pct	0.100000-Pct	1.000000-Pct	2.000000-Pct	5.000000-Pct	25.000000-Pct	50.000000-Pct	75.000000-Pct	95.000000-Pct	98.000000-Pct	99.000000-Pct	99.900000-Pct	99.990000-Pct	100.000000-Pct
1326939600	58692.0	294.934673367	441.188867633	1.49588674196	3.0	3.0	3.0	3.0	3.0	3.0	8.0	109.0	408.0	1140.0	1749.0	2352.0	3122.0	3122.0	3122.0
1326940200	132892.0	358.199460916	514.285737278	1.43575240443	3.0	3.0	3.0	3.0	3.0	3.0	4.0	149.0	541.0	1257.0	1835.0	1941.0	4743.0	4743.0	4743.0
1326940800	95766.0	343.247311828	446.529833107	1.30089826699	2.0	2.0	2.0	3.0	3.0	3.0	5.0	191.0	554.0	1207.0	1613.0	2314.0	2568.0	2568.0	2568.0
1326941400	100751.0	310.003076923	397.61784105	1.28262546616	3.0	3.0	3.0	3.0	3.0	3.0	4.0	140.0	474.0	1170.0	1416.0	1747.0	2146.0	2146.0	2146.0
1326942000	127536.0	326.179028133	410.552028209	1.25867083043	3.0	3.0	3.0	3.0	3.0	3.0	4.0	174.0	508.0	1153.0	1441.0	1486.0	2633.0	2633.0	2633.0
1326942600	128200.0	377.058823529	498.158955166	1.32117039592	2.0	2.0	2.0	3.0	3.0	3.0	5.0	189.0	598.0	1398.0	1895.0	2314.0	3092.0	3092.0	3092.0
1326943200	23414.0	441.773584906	619.557461218	1.4024321109	3.0	3.0	3.0	3.0	3.0	3.0	5.0	223.0	625.0	1439.0	2375.0	3166.0	3166.0	3166.0	3166.0
