#
# Generated On: 2012-02-09T13:54:22.375367
#           By: cwa.analyze.jobs_per_executableid
#      Version: 11.3.16
#       Author: Thomas A. de Ruiter <thomas@de-ruiter.cx>
#
#  Commandline: /home/af10028/bin/cwa analyze
#     Work Dir: /scratch/af10028/var/thesis-project/result/workload-analyses/workload-06h-00123l-3s
#

Time	ID_-1
0	1580
3600	2401
7200	1473
10800	2012
14400	2646
18000	2951
21600	988
25200	105
28800	1
32400	1
