#
# Generated On: 2012-02-09T13:54:21.303832
#           By: cwa.analyze.jobs_per_executableid
#      Version: 11.3.16
#       Author: Thomas A. de Ruiter <thomas@de-ruiter.cx>
#
#  Commandline: /home/af10028/bin/cwa analyze
#     Work Dir: /scratch/af10028/var/thesis-project/result/workload-analyses/workload-06h-00123l-3s
#

Time	ID_-1
0	41
3600	55
7200	16
10800	27
14400	45
18000	48
21600	6
25200	2
28800	1
