#
# Generated On: 2012-02-09T13:09:48.218074
#           By: cwa.analyze.jobs_per_executableid
#      Version: 11.3.16
#       Author: Thomas A. de Ruiter <thomas@de-ruiter.cx>
#
#  Commandline: /home/af10028/bin/cwa analyze
#     Work Dir: /scratch/af10028/var/thesis-project/result/workload-analyses/workload-06h-00123l-0s
#

Time	ID_-1
0	1
600	233
1200	266
1800	128
2400	55
3000	120
3600	79
4200	18
4800	196
5400	63
6000	3
6600	25
7200	302
7800	387
8400	326
9000	271
9600	266
10200	260
10800	520
11400	356
12000	231
12600	222
13200	323
13800	411
14400	248
15000	366
15600	425
16200	450
16800	590
17400	636
18000	386
18600	378
19200	405
19800	301
20400	362
21000	425
21600	432
22200	376
22800	295
23400	339
24000	363
24600	246
25200	190
25800	260
26400	209
27000	218
27600	225
28200	173
28800	101
29400	112
30000	137
30600	109
31200	124
31800	71
32400	19
33000	12
33600	5
34200	2
34800	1
