drwxr-xr-x deruiter/deruiter 0 2012-01-19 05:44 local/deruiter/workload-01h-00123l-2s-default-109566j/
drwxr-xr-x deruiter/deruiter 0 2012-01-19 05:42 local/deruiter/workload-01h-00123l-2s-default-109566j/conf-hadoop/
-rw-r--r-- deruiter/deruiter 3426 2012-01-19 05:42 local/deruiter/workload-01h-00123l-2s-default-109566j/conf-hadoop/capacity-scheduler.xml
-rw-r--r-- deruiter/deruiter 1335 2012-01-19 05:42 local/deruiter/workload-01h-00123l-2s-default-109566j/conf-hadoop/configuration.xsl
-rw-r--r-- deruiter/deruiter  178 2012-01-19 05:42 local/deruiter/workload-01h-00123l-2s-default-109566j/conf-hadoop/core-site.xml
-rw-r--r-- deruiter/deruiter  321 2012-01-19 05:42 local/deruiter/workload-01h-00123l-2s-default-109566j/conf-hadoop/fair-scheduler.xml
-rw-r--r-- deruiter/deruiter 2430 2012-01-19 05:42 local/deruiter/workload-01h-00123l-2s-default-109566j/conf-hadoop/hadoop-env.sh
-rw-r--r-- deruiter/deruiter 2301 2012-01-19 05:42 local/deruiter/workload-01h-00123l-2s-default-109566j/conf-hadoop/hadoop-metrics.properties
-rw-r--r-- deruiter/deruiter 4644 2012-01-19 05:42 local/deruiter/workload-01h-00123l-2s-default-109566j/conf-hadoop/hadoop-policy.xml
-rw-r--r-- deruiter/deruiter  178 2012-01-19 05:42 local/deruiter/workload-01h-00123l-2s-default-109566j/conf-hadoop/hdfs-site.xml
-rw-r--r-- deruiter/deruiter 5096 2012-01-19 05:42 local/deruiter/workload-01h-00123l-2s-default-109566j/conf-hadoop/log4j.properties
-rw-r--r-- deruiter/deruiter 4113 2012-01-19 05:42 local/deruiter/workload-01h-00123l-2s-default-109566j/conf-hadoop/mapred-queues.xml
-rw-r--r-- deruiter/deruiter 1532 2012-01-19 05:42 local/deruiter/workload-01h-00123l-2s-default-109566j/conf-hadoop/mapred-site.xml
-rw-r--r-- deruiter/deruiter   10 2012-01-19 05:42 local/deruiter/workload-01h-00123l-2s-default-109566j/conf-hadoop/masters
-rw-r--r-- deruiter/deruiter   10 2012-01-19 05:42 local/deruiter/workload-01h-00123l-2s-default-109566j/conf-hadoop/slaves
-rw-r--r-- deruiter/deruiter 1243 2012-01-19 05:42 local/deruiter/workload-01h-00123l-2s-default-109566j/conf-hadoop/ssl-client.xml.example
-rw-r--r-- deruiter/deruiter 1195 2012-01-19 05:42 local/deruiter/workload-01h-00123l-2s-default-109566j/conf-hadoop/ssl-server.xml.example
-rw-r--r-- deruiter/deruiter  250 2012-01-19 05:42 local/deruiter/workload-01h-00123l-2s-default-109566j/conf-hadoop/taskcontroller.cfg
drwxr-xr-x deruiter/deruiter    0 2012-01-19 05:42 local/deruiter/workload-01h-00123l-2s-default-109566j/conf-mumak/
-rw-r--r-- deruiter/deruiter 3429 2012-01-19 05:42 local/deruiter/workload-01h-00123l-2s-default-109566j/conf-mumak/log4j.properties
-rw-r--r-- deruiter/deruiter 1532 2012-01-19 05:42 local/deruiter/workload-01h-00123l-2s-default-109566j/conf-mumak/mumak.xml
-rw-r--r-- deruiter/deruiter  178 2012-01-19 05:42 local/deruiter/workload-01h-00123l-2s-default-109566j/conf-mumak/capacity-scheduler.xml
-rw-r--r-- deruiter/deruiter  461 2012-01-19 05:42 local/deruiter/workload-01h-00123l-2s-default-109566j/conf-mumak/fair-scheduler.xml
-rw-r--r-- deruiter/deruiter 6764 2012-01-19 05:42 local/deruiter/workload-01h-00123l-2s-default-109566j/conf-mumak/mapred-queues.xml
drwxr-xr-x deruiter/deruiter    0 2012-01-19 05:42 local/deruiter/workload-01h-00123l-2s-default-109566j/log/
drwxr-xr-x deruiter/deruiter    0 2012-01-19 05:42 local/deruiter/workload-01h-00123l-2s-default-109566j/log/mumak/
-rw-r--r-- deruiter/deruiter 82141 2012-01-19 05:44 local/deruiter/workload-01h-00123l-2s-default-109566j/log/mumak/mumak.log
-rw-r--r-- deruiter/deruiter 23353 2012-01-19 05:44 local/deruiter/workload-01h-00123l-2s-default-109566j/log/mumak/mumak-jobs-summary.log
drwxr-xr-x deruiter/deruiter     0 2012-01-19 05:42 local/deruiter/workload-01h-00123l-2s-default-109566j/log/mumak/jobtracker/
drwxr-x--- deruiter/deruiter     0 2012-01-19 05:44 local/deruiter/workload-01h-00123l-2s-default-109566j/log/mumak/jobtracker/jobsInfo/
-rwxr-xr-x deruiter/deruiter   783 2012-01-19 05:42 local/deruiter/workload-01h-00123l-2s-default-109566j/log/mumak/jobtracker/jobsInfo/job_201201181232_8138.info
-rw-r--r-- deruiter/deruiter    16 2012-01-19 05:42 local/deruiter/workload-01h-00123l-2s-default-109566j/log/mumak/jobtracker/jobsInfo/.job_201201181232_8138.info.crc
-rwxr-xr-x deruiter/deruiter   782 2012-01-19 05:42 local/deruiter/workload-01h-00123l-2s-default-109566j/log/mumak/jobtracker/jobsInfo/job_201201181235_8142.info
-rw-r--r-- deruiter/deruiter    16 2012-01-19 05:42 local/deruiter/workload-01h-00123l-2s-default-109566j/log/mumak/jobtracker/jobsInfo/.job_201201181235_8142.info.crc
-rwxr-xr-x deruiter/deruiter  1250 2012-01-19 05:42 local/deruiter/workload-01h-00123l-2s-default-109566j/log/mumak/jobtracker/jobsInfo/job_201201181233_8140.info
-rw-r--r-- deruiter/deruiter    20 2012-01-19 05:42 local/deruiter/workload-01h-00123l-2s-default-109566j/log/mumak/jobtracker/jobsInfo/.job_201201181233_8140.info.crc
-rwxr-xr-x deruiter/deruiter  4830 2012-01-19 05:42 local/deruiter/workload-01h-00123l-2s-default-109566j/log/mumak/jobtracker/jobsInfo/job_201201181235_8141.info
-rw-r--r-- deruiter/deruiter    48 2012-01-19 05:42 local/deruiter/workload-01h-00123l-2s-default-109566j/log/mumak/jobtracker/jobsInfo/.job_201201181235_8141.info.crc
-rwxr-xr-x deruiter/deruiter  1658 2012-01-19 05:42 local/deruiter/workload-01h-00123l-2s-default-109566j/log/mumak/jobtracker/jobsInfo/job_201201181242_8147.info
-rw-r--r-- deruiter/deruiter    24 2012-01-19 05:42 local/deruiter/workload-01h-00123l-2s-default-109566j/log/mumak/jobtracker/jobsInfo/.job_201201181242_8147.info.crc
-rwxr-xr-x deruiter/deruiter   782 2012-01-19 05:42 local/deruiter/workload-01h-00123l-2s-default-109566j/log/mumak/jobtracker/jobsInfo/job_201201181243_8148.info
-rw-r--r-- deruiter/deruiter    16 2012-01-19 05:42 local/deruiter/workload-01h-00123l-2s-default-109566j/log/mumak/jobtracker/jobsInfo/.job_201201181243_8148.info.crc
-rwxr-xr-x deruiter/deruiter   916 2012-01-19 05:42 local/deruiter/workload-01h-00123l-2s-default-109566j/log/mumak/jobtracker/jobsInfo/job_201201181243_8151.info
-rw-r--r-- deruiter/deruiter    16 2012-01-19 05:42 local/deruiter/workload-01h-00123l-2s-default-109566j/log/mumak/jobtracker/jobsInfo/.job_201201181243_8151.info.crc
-rwxr-xr-x deruiter/deruiter  5986 2012-01-19 05:42 local/deruiter/workload-01h-00123l-2s-default-109566j/log/mumak/jobtracker/jobsInfo/job_201201181231_8136.info
-rw-r--r-- deruiter/deruiter    56 2012-01-19 05:42 local/deruiter/workload-01h-00123l-2s-default-109566j/log/mumak/jobtracker/jobsInfo/.job_201201181231_8136.info.crc
-rwxr-xr-x deruiter/deruiter  1005 2012-01-19 05:42 local/deruiter/workload-01h-00123l-2s-default-109566j/log/mumak/jobtracker/jobsInfo/job_201201181242_8146.info
-rw-r--r-- deruiter/deruiter    16 2012-01-19 05:42 local/deruiter/workload-01h-00123l-2s-default-109566j/log/mumak/jobtracker/jobsInfo/.job_201201181242_8146.info.crc
-rwxr-xr-x deruiter/deruiter   782 2012-01-19 05:42 local/deruiter/workload-01h-00123l-2s-default-109566j/log/mumak/jobtracker/jobsInfo/job_201201181247_8154.info
-rw-r--r-- deruiter/deruiter    16 2012-01-19 05:42 local/deruiter/workload-01h-00123l-2s-default-109566j/log/mumak/jobtracker/jobsInfo/.job_201201181247_8154.info.crc
-rwxr-xr-x deruiter/deruiter  1082 2012-01-19 05:42 local/deruiter/workload-01h-00123l-2s-default-109566j/log/mumak/jobtracker/jobsInfo/job_201201181246_8152.info
-rw-r--r-- deruiter/deruiter    20 2012-01-19 05:42 local/deruiter/workload-01h-00123l-2s-default-109566j/log/mumak/jobtracker/jobsInfo/.job_201201181246_8152.info.crc
-rwxr-xr-x deruiter/deruiter  3076 2012-01-19 05:42 local/deruiter/workload-01h-00123l-2s-default-109566j/log/mumak/jobtracker/jobsInfo/job_201201181232_8137.info
-rw-r--r-- deruiter/deruiter    36 2012-01-19 05:42 local/deruiter/workload-01h-00123l-2s-default-109566j/log/mumak/jobtracker/jobsInfo/.job_201201181232_8137.info.crc
-rwxr-xr-x deruiter/deruiter   783 2012-01-19 05:42 local/deruiter/workload-01h-00123l-2s-default-109566j/log/mumak/jobtracker/jobsInfo/job_201201181250_8165.info
-rw-r--r-- deruiter/deruiter    16 2012-01-19 05:42 local/deruiter/workload-01h-00123l-2s-default-109566j/log/mumak/jobtracker/jobsInfo/.job_201201181250_8165.info.crc
-rwxr-xr-x deruiter/deruiter   950 2012-01-19 05:43 local/deruiter/workload-01h-00123l-2s-default-109566j/log/mumak/jobtracker/jobsInfo/job_201201181248_8156.info
-rw-r--r-- deruiter/deruiter    16 2012-01-19 05:43 local/deruiter/workload-01h-00123l-2s-default-109566j/log/mumak/jobtracker/jobsInfo/.job_201201181248_8156.info.crc
-rwxr-xr-x deruiter/deruiter  2666 2012-01-19 05:43 local/deruiter/workload-01h-00123l-2s-default-109566j/log/mumak/jobtracker/jobsInfo/job_201201181236_8143.info
-rw-r--r-- deruiter/deruiter    32 2012-01-19 05:43 local/deruiter/workload-01h-00123l-2s-default-109566j/log/mumak/jobtracker/jobsInfo/.job_201201181236_8143.info.crc
-rwxr-xr-x deruiter/deruiter 15016 2012-01-19 05:43 local/deruiter/workload-01h-00123l-2s-default-109566j/log/mumak/jobtracker/jobsInfo/job_201201181233_8139.info
-rw-r--r-- deruiter/deruiter   128 2012-01-19 05:43 local/deruiter/workload-01h-00123l-2s-default-109566j/log/mumak/jobtracker/jobsInfo/.job_201201181233_8139.info.crc
-rwxr-xr-x deruiter/deruiter  1171 2012-01-19 05:43 local/deruiter/workload-01h-00123l-2s-default-109566j/log/mumak/jobtracker/jobsInfo/job_201201181242_8145.info
-rw-r--r-- deruiter/deruiter    20 2012-01-19 05:43 local/deruiter/workload-01h-00123l-2s-default-109566j/log/mumak/jobtracker/jobsInfo/.job_201201181242_8145.info.crc
-rwxr-xr-x deruiter/deruiter 61246 2012-01-19 05:43 local/deruiter/workload-01h-00123l-2s-default-109566j/log/mumak/jobtracker/jobsInfo/job_201201181238_8144.info
-rw-r--r-- deruiter/deruiter   488 2012-01-19 05:43 local/deruiter/workload-01h-00123l-2s-default-109566j/log/mumak/jobtracker/jobsInfo/.job_201201181238_8144.info.crc
-rwxr-xr-x deruiter/deruiter   782 2012-01-19 05:43 local/deruiter/workload-01h-00123l-2s-default-109566j/log/mumak/jobtracker/jobsInfo/job_201201181254_8170.info
-rw-r--r-- deruiter/deruiter    16 2012-01-19 05:43 local/deruiter/workload-01h-00123l-2s-default-109566j/log/mumak/jobtracker/jobsInfo/.job_201201181254_8170.info.crc
-rwxr-xr-x deruiter/deruiter  9368 2012-01-19 05:43 local/deruiter/workload-01h-00123l-2s-default-109566j/log/mumak/jobtracker/jobsInfo/job_201201181243_8150.info
-rw-r--r-- deruiter/deruiter    84 2012-01-19 05:43 local/deruiter/workload-01h-00123l-2s-default-109566j/log/mumak/jobtracker/jobsInfo/.job_201201181243_8150.info.crc
-rwxr-xr-x deruiter/deruiter  6146 2012-01-19 05:43 local/deruiter/workload-01h-00123l-2s-default-109566j/log/mumak/jobtracker/jobsInfo/job_201201181247_8155.info
-rw-r--r-- deruiter/deruiter    60 2012-01-19 05:43 local/deruiter/workload-01h-00123l-2s-default-109566j/log/mumak/jobtracker/jobsInfo/.job_201201181247_8155.info.crc
-rwxr-xr-x deruiter/deruiter 19082 2012-01-19 05:43 local/deruiter/workload-01h-00123l-2s-default-109566j/log/mumak/jobtracker/jobsInfo/job_201201181249_8163.info
-rw-r--r-- deruiter/deruiter   160 2012-01-19 05:43 local/deruiter/workload-01h-00123l-2s-default-109566j/log/mumak/jobtracker/jobsInfo/.job_201201181249_8163.info.crc
-rwxr-xr-x deruiter/deruiter  1170 2012-01-19 05:43 local/deruiter/workload-01h-00123l-2s-default-109566j/log/mumak/jobtracker/jobsInfo/job_201201181250_8164.info
-rw-r--r-- deruiter/deruiter    20 2012-01-19 05:43 local/deruiter/workload-01h-00123l-2s-default-109566j/log/mumak/jobtracker/jobsInfo/.job_201201181250_8164.info.crc
-rwxr-xr-x deruiter/deruiter  6469 2012-01-19 05:43 local/deruiter/workload-01h-00123l-2s-default-109566j/log/mumak/jobtracker/jobsInfo/job_201201181248_8159.info
-rw-r--r-- deruiter/deruiter    60 2012-01-19 05:43 local/deruiter/workload-01h-00123l-2s-default-109566j/log/mumak/jobtracker/jobsInfo/.job_201201181248_8159.info.crc
-rwxr-xr-x deruiter/deruiter 11128 2012-01-19 05:43 local/deruiter/workload-01h-00123l-2s-default-109566j/log/mumak/jobtracker/jobsInfo/job_201201181248_8158.info
-rw-r--r-- deruiter/deruiter    96 2012-01-19 05:43 local/deruiter/workload-01h-00123l-2s-default-109566j/log/mumak/jobtracker/jobsInfo/.job_201201181248_8158.info.crc
-rwxr-xr-x deruiter/deruiter 13188 2012-01-19 05:43 local/deruiter/workload-01h-00123l-2s-default-109566j/log/mumak/jobtracker/jobsInfo/job_201201181248_8160.info
-rw-r--r-- deruiter/deruiter   112 2012-01-19 05:43 local/deruiter/workload-01h-00123l-2s-default-109566j/log/mumak/jobtracker/jobsInfo/.job_201201181248_8160.info.crc
-rwxr-xr-x deruiter/deruiter  2836 2012-01-19 05:43 local/deruiter/workload-01h-00123l-2s-default-109566j/log/mumak/jobtracker/jobsInfo/job_201201181249_8162.info
-rw-r--r-- deruiter/deruiter    32 2012-01-19 05:43 local/deruiter/workload-01h-00123l-2s-default-109566j/log/mumak/jobtracker/jobsInfo/.job_201201181249_8162.info.crc
-rwxr-xr-x deruiter/deruiter  5080 2012-01-19 05:43 local/deruiter/workload-01h-00123l-2s-default-109566j/log/mumak/jobtracker/jobsInfo/job_201201181250_8167.info
-rw-r--r-- deruiter/deruiter    48 2012-01-19 05:43 local/deruiter/workload-01h-00123l-2s-default-109566j/log/mumak/jobtracker/jobsInfo/.job_201201181250_8167.info.crc
-rwxr-xr-x deruiter/deruiter  3089 2012-01-19 05:43 local/deruiter/workload-01h-00123l-2s-default-109566j/log/mumak/jobtracker/jobsInfo/job_201201181249_8161.info
-rw-r--r-- deruiter/deruiter    36 2012-01-19 05:43 local/deruiter/workload-01h-00123l-2s-default-109566j/log/mumak/jobtracker/jobsInfo/.job_201201181249_8161.info.crc
-rwxr-xr-x deruiter/deruiter  5158 2012-01-19 05:43 local/deruiter/workload-01h-00123l-2s-default-109566j/log/mumak/jobtracker/jobsInfo/job_201201181248_8157.info
-rw-r--r-- deruiter/deruiter    52 2012-01-19 05:43 local/deruiter/workload-01h-00123l-2s-default-109566j/log/mumak/jobtracker/jobsInfo/.job_201201181248_8157.info.crc
-rwxr-xr-x deruiter/deruiter   783 2012-01-19 05:43 local/deruiter/workload-01h-00123l-2s-default-109566j/log/mumak/jobtracker/jobsInfo/job_201201181313_8174.info
-rw-r--r-- deruiter/deruiter    16 2012-01-19 05:43 local/deruiter/workload-01h-00123l-2s-default-109566j/log/mumak/jobtracker/jobsInfo/.job_201201181313_8174.info.crc
-rwxr-xr-x deruiter/deruiter  5413 2012-01-19 05:43 local/deruiter/workload-01h-00123l-2s-default-109566j/log/mumak/jobtracker/jobsInfo/job_201201181257_8171.info
-rw-r--r-- deruiter/deruiter    52 2012-01-19 05:43 local/deruiter/workload-01h-00123l-2s-default-109566j/log/mumak/jobtracker/jobsInfo/.job_201201181257_8171.info.crc
-rwxr-xr-x deruiter/deruiter  1663 2012-01-19 05:43 local/deruiter/workload-01h-00123l-2s-default-109566j/log/mumak/jobtracker/jobsInfo/job_201201181313_8172.info
-rw-r--r-- deruiter/deruiter    24 2012-01-19 05:43 local/deruiter/workload-01h-00123l-2s-default-109566j/log/mumak/jobtracker/jobsInfo/.job_201201181313_8172.info.crc
-rwxr-xr-x deruiter/deruiter   782 2012-01-19 05:43 local/deruiter/workload-01h-00123l-2s-default-109566j/log/mumak/jobtracker/jobsInfo/job_201201181315_8177.info
-rw-r--r-- deruiter/deruiter    16 2012-01-19 05:43 local/deruiter/workload-01h-00123l-2s-default-109566j/log/mumak/jobtracker/jobsInfo/.job_201201181315_8177.info.crc
-rwxr-xr-x deruiter/deruiter  4490 2012-01-19 05:43 local/deruiter/workload-01h-00123l-2s-default-109566j/log/mumak/jobtracker/jobsInfo/job_201201181247_8153.info
-rw-r--r-- deruiter/deruiter    44 2012-01-19 05:43 local/deruiter/workload-01h-00123l-2s-default-109566j/log/mumak/jobtracker/jobsInfo/.job_201201181247_8153.info.crc
-rwxr-xr-x deruiter/deruiter  2251 2012-01-19 05:43 local/deruiter/workload-01h-00123l-2s-default-109566j/log/mumak/jobtracker/jobsInfo/job_201201181317_8178.info
-rw-r--r-- deruiter/deruiter    28 2012-01-19 05:43 local/deruiter/workload-01h-00123l-2s-default-109566j/log/mumak/jobtracker/jobsInfo/.job_201201181317_8178.info.crc
-rwxr-xr-x deruiter/deruiter  1257 2012-01-19 05:43 local/deruiter/workload-01h-00123l-2s-default-109566j/log/mumak/jobtracker/jobsInfo/job_201201181313_8173.info
-rw-r--r-- deruiter/deruiter    20 2012-01-19 05:43 local/deruiter/workload-01h-00123l-2s-default-109566j/log/mumak/jobtracker/jobsInfo/.job_201201181313_8173.info.crc
-rwxr-xr-x deruiter/deruiter  1504 2012-01-19 05:43 local/deruiter/workload-01h-00123l-2s-default-109566j/log/mumak/jobtracker/jobsInfo/job_201201181315_8176.info
-rw-r--r-- deruiter/deruiter    20 2012-01-19 05:43 local/deruiter/workload-01h-00123l-2s-default-109566j/log/mumak/jobtracker/jobsInfo/.job_201201181315_8176.info.crc
-rwxr-xr-x deruiter/deruiter 12169 2012-01-19 05:43 local/deruiter/workload-01h-00123l-2s-default-109566j/log/mumak/jobtracker/jobsInfo/job_201201181314_8175.info
-rw-r--r-- deruiter/deruiter   104 2012-01-19 05:43 local/deruiter/workload-01h-00123l-2s-default-109566j/log/mumak/jobtracker/jobsInfo/.job_201201181314_8175.info.crc
-rwxr-xr-x deruiter/deruiter   782 2012-01-19 05:43 local/deruiter/workload-01h-00123l-2s-default-109566j/log/mumak/jobtracker/jobsInfo/job_201201181324_8182.info
-rw-r--r-- deruiter/deruiter    16 2012-01-19 05:43 local/deruiter/workload-01h-00123l-2s-default-109566j/log/mumak/jobtracker/jobsInfo/.job_201201181324_8182.info.crc
-rwxr-xr-x deruiter/deruiter  1578 2012-01-19 05:43 local/deruiter/workload-01h-00123l-2s-default-109566j/log/mumak/jobtracker/jobsInfo/job_201201181322_8181.info
-rw-r--r-- deruiter/deruiter    24 2012-01-19 05:43 local/deruiter/workload-01h-00123l-2s-default-109566j/log/mumak/jobtracker/jobsInfo/.job_201201181322_8181.info.crc
-rwxr-xr-x deruiter/deruiter   782 2012-01-19 05:43 local/deruiter/workload-01h-00123l-2s-default-109566j/log/mumak/jobtracker/jobsInfo/job_201201181325_8185.info
-rw-r--r-- deruiter/deruiter    16 2012-01-19 05:43 local/deruiter/workload-01h-00123l-2s-default-109566j/log/mumak/jobtracker/jobsInfo/.job_201201181325_8185.info.crc
-rwxr-xr-x deruiter/deruiter   918 2012-01-19 05:43 local/deruiter/workload-01h-00123l-2s-default-109566j/log/mumak/jobtracker/jobsInfo/job_201201181325_8184.info
-rw-r--r-- deruiter/deruiter    16 2012-01-19 05:43 local/deruiter/workload-01h-00123l-2s-default-109566j/log/mumak/jobtracker/jobsInfo/.job_201201181325_8184.info.crc
-rwxr-xr-x deruiter/deruiter  2747 2012-01-19 05:43 local/deruiter/workload-01h-00123l-2s-default-109566j/log/mumak/jobtracker/jobsInfo/job_201201181318_8179.info
-rw-r--r-- deruiter/deruiter    32 2012-01-19 05:43 local/deruiter/workload-01h-00123l-2s-default-109566j/log/mumak/jobtracker/jobsInfo/.job_201201181318_8179.info.crc
-rwxr-xr-x deruiter/deruiter  1169 2012-01-19 05:43 local/deruiter/workload-01h-00123l-2s-default-109566j/log/mumak/jobtracker/jobsInfo/job_201201181324_8183.info
-rw-r--r-- deruiter/deruiter    20 2012-01-19 05:43 local/deruiter/workload-01h-00123l-2s-default-109566j/log/mumak/jobtracker/jobsInfo/.job_201201181324_8183.info.crc
-rwxr-xr-x deruiter/deruiter  4739 2012-01-19 05:43 local/deruiter/workload-01h-00123l-2s-default-109566j/log/mumak/jobtracker/jobsInfo/job_201201181318_8180.info
-rw-r--r-- deruiter/deruiter    48 2012-01-19 05:43 local/deruiter/workload-01h-00123l-2s-default-109566j/log/mumak/jobtracker/jobsInfo/.job_201201181318_8180.info.crc
-rwxr-xr-x deruiter/deruiter  8803 2012-01-19 05:43 local/deruiter/workload-01h-00123l-2s-default-109566j/log/mumak/jobtracker/jobsInfo/job_201201181243_8149.info
-rw-r--r-- deruiter/deruiter    80 2012-01-19 05:43 local/deruiter/workload-01h-00123l-2s-default-109566j/log/mumak/jobtracker/jobsInfo/.job_201201181243_8149.info.crc
-rwxr-xr-x deruiter/deruiter  4496 2012-01-19 05:43 local/deruiter/workload-01h-00123l-2s-default-109566j/log/mumak/jobtracker/jobsInfo/job_201201181250_8168.info
-rw-r--r-- deruiter/deruiter    44 2012-01-19 05:43 local/deruiter/workload-01h-00123l-2s-default-109566j/log/mumak/jobtracker/jobsInfo/.job_201201181250_8168.info.crc
-rwxr-xr-x deruiter/deruiter 44434 2012-01-19 05:43 local/deruiter/workload-01h-00123l-2s-default-109566j/log/mumak/jobtracker/jobsInfo/job_201201181254_8169.info
-rw-r--r-- deruiter/deruiter   356 2012-01-19 05:43 local/deruiter/workload-01h-00123l-2s-default-109566j/log/mumak/jobtracker/jobsInfo/.job_201201181254_8169.info.crc
-rwxr-xr-x deruiter/deruiter 87680 2012-01-19 05:43 local/deruiter/workload-01h-00123l-2s-default-109566j/log/mumak/jobtracker/jobsInfo/job_201201181250_8166.info
-rw-r--r-- deruiter/deruiter   696 2012-01-19 05:43 local/deruiter/workload-01h-00123l-2s-default-109566j/log/mumak/jobtracker/jobsInfo/.job_201201181250_8166.info.crc
-rwxr-xr-x deruiter/deruiter 19478 2012-01-19 05:44 local/deruiter/workload-01h-00123l-2s-default-109566j/log/mumak/jobtracker/jobsInfo/job_201201181330_8187.info
-rw-r--r-- deruiter/deruiter   164 2012-01-19 05:44 local/deruiter/workload-01h-00123l-2s-default-109566j/log/mumak/jobtracker/jobsInfo/.job_201201181330_8187.info.crc
-rwxr-xr-x deruiter/deruiter 37708 2012-01-19 05:44 local/deruiter/workload-01h-00123l-2s-default-109566j/log/mumak/jobtracker/jobsInfo/job_201201181327_8186.info
-rw-r--r-- deruiter/deruiter   304 2012-01-19 05:44 local/deruiter/workload-01h-00123l-2s-default-109566j/log/mumak/jobtracker/jobsInfo/.job_201201181327_8186.info.crc
-rwxr-xr-x deruiter/deruiter  8151 2012-01-19 05:44 local/deruiter/workload-01h-00123l-2s-default-109566j/log/mumak/jobtracker/jobsInfo/job_201201181331_8189.info
-rw-r--r-- deruiter/deruiter    72 2012-01-19 05:44 local/deruiter/workload-01h-00123l-2s-default-109566j/log/mumak/jobtracker/jobsInfo/.job_201201181331_8189.info.crc
-rwxr-xr-x deruiter/deruiter 92119 2012-01-19 05:44 local/deruiter/workload-01h-00123l-2s-default-109566j/log/mumak/jobtracker/jobsInfo/job_201201181330_8188.info
-rw-r--r-- deruiter/deruiter   728 2012-01-19 05:44 local/deruiter/workload-01h-00123l-2s-default-109566j/log/mumak/jobtracker/jobsInfo/.job_201201181330_8188.info.crc
drwxr-xr-x deruiter/deruiter     0 2012-01-19 05:44 local/deruiter/workload-01h-00123l-2s-default-109566j/log/hadoop/
drwxr-x--- deruiter/deruiter     0 2012-01-19 05:44 local/deruiter/workload-01h-00123l-2s-default-109566j/log/hadoop/history/
drwxr-x--- deruiter/deruiter     0 2012-01-19 05:44 local/deruiter/workload-01h-00123l-2s-default-109566j/log/hadoop/history/done/
-rwxr----- deruiter/deruiter  8000 2012-01-19 05:42 local/deruiter/workload-01h-00123l-2s-default-109566j/log/hadoop/history/done/job_201201181232_8138_application_1
-rw-r--r-- deruiter/deruiter    72 2012-01-19 05:42 local/deruiter/workload-01h-00123l-2s-default-109566j/log/hadoop/history/done/.job_201201181232_8138_application_1.crc
-rwxr----- deruiter/deruiter 25100 2012-01-19 05:42 local/deruiter/workload-01h-00123l-2s-default-109566j/log/hadoop/history/done/job_201201181232_8138_conf.xml
-rw-r--r-- deruiter/deruiter   208 2012-01-19 05:42 local/deruiter/workload-01h-00123l-2s-default-109566j/log/hadoop/history/done/.job_201201181232_8138_conf.xml.crc
-rwxr----- deruiter/deruiter  8000 2012-01-19 05:42 local/deruiter/workload-01h-00123l-2s-default-109566j/log/hadoop/history/done/job_201201181235_8142_application_1
-rw-r--r-- deruiter/deruiter    72 2012-01-19 05:42 local/deruiter/workload-01h-00123l-2s-default-109566j/log/hadoop/history/done/.job_201201181235_8142_application_1.crc
-rwxr----- deruiter/deruiter 25100 2012-01-19 05:42 local/deruiter/workload-01h-00123l-2s-default-109566j/log/hadoop/history/done/job_201201181235_8142_conf.xml
-rw-r--r-- deruiter/deruiter   208 2012-01-19 05:42 local/deruiter/workload-01h-00123l-2s-default-109566j/log/hadoop/history/done/.job_201201181235_8142_conf.xml.crc
-rwxr----- deruiter/deruiter 14058 2012-01-19 05:42 local/deruiter/workload-01h-00123l-2s-default-109566j/log/hadoop/history/done/job_201201181233_8140_application_1
-rw-r--r-- deruiter/deruiter   120 2012-01-19 05:42 local/deruiter/workload-01h-00123l-2s-default-109566j/log/hadoop/history/done/.job_201201181233_8140_application_1.crc
-rwxr----- deruiter/deruiter 25100 2012-01-19 05:42 local/deruiter/workload-01h-00123l-2s-default-109566j/log/hadoop/history/done/job_201201181233_8140_conf.xml
-rw-r--r-- deruiter/deruiter   208 2012-01-19 05:42 local/deruiter/workload-01h-00123l-2s-default-109566j/log/hadoop/history/done/.job_201201181233_8140_conf.xml.crc
-rwxr----- deruiter/deruiter 65298 2012-01-19 05:42 local/deruiter/workload-01h-00123l-2s-default-109566j/log/hadoop/history/done/job_201201181235_8141_application_1
-rw-r--r-- deruiter/deruiter   520 2012-01-19 05:42 local/deruiter/workload-01h-00123l-2s-default-109566j/log/hadoop/history/done/.job_201201181235_8141_application_1.crc
-rwxr----- deruiter/deruiter 25101 2012-01-19 05:42 local/deruiter/workload-01h-00123l-2s-default-109566j/log/hadoop/history/done/job_201201181235_8141_conf.xml
-rw-r--r-- deruiter/deruiter   208 2012-01-19 05:42 local/deruiter/workload-01h-00123l-2s-default-109566j/log/hadoop/history/done/.job_201201181235_8141_conf.xml.crc
-rwxr----- deruiter/deruiter 19969 2012-01-19 05:42 local/deruiter/workload-01h-00123l-2s-default-109566j/log/hadoop/history/done/job_201201181242_8147_application_1
-rw-r--r-- deruiter/deruiter   168 2012-01-19 05:42 local/deruiter/workload-01h-00123l-2s-default-109566j/log/hadoop/history/done/.job_201201181242_8147_application_1.crc
-rwxr----- deruiter/deruiter 25101 2012-01-19 05:42 local/deruiter/workload-01h-00123l-2s-default-109566j/log/hadoop/history/done/job_201201181242_8147_conf.xml
-rw-r--r-- deruiter/deruiter   208 2012-01-19 05:42 local/deruiter/workload-01h-00123l-2s-default-109566j/log/hadoop/history/done/.job_201201181242_8147_conf.xml.crc
-rwxr----- deruiter/deruiter  8000 2012-01-19 05:42 local/deruiter/workload-01h-00123l-2s-default-109566j/log/hadoop/history/done/job_201201181243_8148_application_1
-rw-r--r-- deruiter/deruiter    72 2012-01-19 05:42 local/deruiter/workload-01h-00123l-2s-default-109566j/log/hadoop/history/done/.job_201201181243_8148_application_1.crc
-rwxr----- deruiter/deruiter 25100 2012-01-19 05:42 local/deruiter/workload-01h-00123l-2s-default-109566j/log/hadoop/history/done/job_201201181243_8148_conf.xml
-rw-r--r-- deruiter/deruiter   208 2012-01-19 05:42 local/deruiter/workload-01h-00123l-2s-default-109566j/log/hadoop/history/done/.job_201201181243_8148_conf.xml.crc
-rwxr----- deruiter/deruiter  9324 2012-01-19 05:42 local/deruiter/workload-01h-00123l-2s-default-109566j/log/hadoop/history/done/job_201201181243_8151_application_1
-rw-r--r-- deruiter/deruiter    84 2012-01-19 05:42 local/deruiter/workload-01h-00123l-2s-default-109566j/log/hadoop/history/done/.job_201201181243_8151_application_1.crc
-rwxr----- deruiter/deruiter 25100 2012-01-19 05:42 local/deruiter/workload-01h-00123l-2s-default-109566j/log/hadoop/history/done/job_201201181243_8151_conf.xml
-rw-r--r-- deruiter/deruiter   208 2012-01-19 05:42 local/deruiter/workload-01h-00123l-2s-default-109566j/log/hadoop/history/done/.job_201201181243_8151_conf.xml.crc
-rwxr----- deruiter/deruiter 81917 2012-01-19 05:42 local/deruiter/workload-01h-00123l-2s-default-109566j/log/hadoop/history/done/job_201201181231_8136_application_1
-rw-r--r-- deruiter/deruiter   648 2012-01-19 05:42 local/deruiter/workload-01h-00123l-2s-default-109566j/log/hadoop/history/done/.job_201201181231_8136_application_1.crc
-rwxr----- deruiter/deruiter 25101 2012-01-19 05:42 local/deruiter/workload-01h-00123l-2s-default-109566j/log/hadoop/history/done/job_201201181231_8136_conf.xml
-rw-r--r-- deruiter/deruiter   208 2012-01-19 05:42 local/deruiter/workload-01h-00123l-2s-default-109566j/log/hadoop/history/done/.job_201201181231_8136_conf.xml.crc
-rwxr----- deruiter/deruiter 10511 2012-01-19 05:42 local/deruiter/workload-01h-00123l-2s-default-109566j/log/hadoop/history/done/job_201201181242_8146_application_1
-rw-r--r-- deruiter/deruiter    92 2012-01-19 05:42 local/deruiter/workload-01h-00123l-2s-default-109566j/log/hadoop/history/done/.job_201201181242_8146_application_1.crc
-rwxr----- deruiter/deruiter 25100 2012-01-19 05:42 local/deruiter/workload-01h-00123l-2s-default-109566j/log/hadoop/history/done/job_201201181242_8146_conf.xml
-rw-r--r-- deruiter/deruiter   208 2012-01-19 05:42 local/deruiter/workload-01h-00123l-2s-default-109566j/log/hadoop/history/done/.job_201201181242_8146_conf.xml.crc
-rwxr----- deruiter/deruiter  7999 2012-01-19 05:42 local/deruiter/workload-01h-00123l-2s-default-109566j/log/hadoop/history/done/job_201201181247_8154_application_1
-rw-r--r-- deruiter/deruiter    72 2012-01-19 05:42 local/deruiter/workload-01h-00123l-2s-default-109566j/log/hadoop/history/done/.job_201201181247_8154_application_1.crc
-rwxr----- deruiter/deruiter 25100 2012-01-19 05:42 local/deruiter/workload-01h-00123l-2s-default-109566j/log/hadoop/history/done/job_201201181247_8154_conf.xml
-rw-r--r-- deruiter/deruiter   208 2012-01-19 05:42 local/deruiter/workload-01h-00123l-2s-default-109566j/log/hadoop/history/done/.job_201201181247_8154_conf.xml.crc
-rwxr----- deruiter/deruiter 11690 2012-01-19 05:42 local/deruiter/workload-01h-00123l-2s-default-109566j/log/hadoop/history/done/job_201201181246_8152_application_1
-rw-r--r-- deruiter/deruiter   100 2012-01-19 05:42 local/deruiter/workload-01h-00123l-2s-default-109566j/log/hadoop/history/done/.job_201201181246_8152_application_1.crc
-rwxr----- deruiter/deruiter 25100 2012-01-19 05:42 local/deruiter/workload-01h-00123l-2s-default-109566j/log/hadoop/history/done/job_201201181246_8152_conf.xml
-rw-r--r-- deruiter/deruiter   208 2012-01-19 05:42 local/deruiter/workload-01h-00123l-2s-default-109566j/log/hadoop/history/done/.job_201201181246_8152_conf.xml.crc
-rwxr----- deruiter/deruiter 40180 2012-01-19 05:42 local/deruiter/workload-01h-00123l-2s-default-109566j/log/hadoop/history/done/job_201201181232_8137_application_1
-rw-r--r-- deruiter/deruiter   324 2012-01-19 05:42 local/deruiter/workload-01h-00123l-2s-default-109566j/log/hadoop/history/done/.job_201201181232_8137_application_1.crc
-rwxr----- deruiter/deruiter 25101 2012-01-19 05:42 local/deruiter/workload-01h-00123l-2s-default-109566j/log/hadoop/history/done/job_201201181232_8137_conf.xml
-rw-r--r-- deruiter/deruiter   208 2012-01-19 05:42 local/deruiter/workload-01h-00123l-2s-default-109566j/log/hadoop/history/done/.job_201201181232_8137_conf.xml.crc
-rwxr----- deruiter/deruiter  8001 2012-01-19 05:42 local/deruiter/workload-01h-00123l-2s-default-109566j/log/hadoop/history/done/job_201201181250_8165_application_0
-rw-r--r-- deruiter/deruiter    72 2012-01-19 05:42 local/deruiter/workload-01h-00123l-2s-default-109566j/log/hadoop/history/done/.job_201201181250_8165_application_0.crc
-rwxr----- deruiter/deruiter 25100 2012-01-19 05:42 local/deruiter/workload-01h-00123l-2s-default-109566j/log/hadoop/history/done/job_201201181250_8165_conf.xml
-rw-r--r-- deruiter/deruiter   208 2012-01-19 05:42 local/deruiter/workload-01h-00123l-2s-default-109566j/log/hadoop/history/done/.job_201201181250_8165_conf.xml.crc
-rwxr----- deruiter/deruiter 10365 2012-01-19 05:43 local/deruiter/workload-01h-00123l-2s-default-109566j/log/hadoop/history/done/job_201201181248_8156_application_1
-rw-r--r-- deruiter/deruiter    92 2012-01-19 05:43 local/deruiter/workload-01h-00123l-2s-default-109566j/log/hadoop/history/done/.job_201201181248_8156_application_1.crc
-rwxr----- deruiter/deruiter 25100 2012-01-19 05:43 local/deruiter/workload-01h-00123l-2s-default-109566j/log/hadoop/history/done/job_201201181248_8156_conf.xml
-rw-r--r-- deruiter/deruiter   208 2012-01-19 05:43 local/deruiter/workload-01h-00123l-2s-default-109566j/log/hadoop/history/done/.job_201201181248_8156_conf.xml.crc
-rwxr----- deruiter/deruiter 34330 2012-01-19 05:43 local/deruiter/workload-01h-00123l-2s-default-109566j/log/hadoop/history/done/job_201201181236_8143_application_0
-rw-r--r-- deruiter/deruiter   280 2012-01-19 05:43 local/deruiter/workload-01h-00123l-2s-default-109566j/log/hadoop/history/done/.job_201201181236_8143_application_0.crc
-rwxr----- deruiter/deruiter 25101 2012-01-19 05:43 local/deruiter/workload-01h-00123l-2s-default-109566j/log/hadoop/history/done/job_201201181236_8143_conf.xml
-rw-r--r-- deruiter/deruiter   208 2012-01-19 05:43 local/deruiter/workload-01h-00123l-2s-default-109566j/log/hadoop/history/done/.job_201201181236_8143_conf.xml.crc
-rwxr----- deruiter/deruiter 210696 2012-01-19 05:43 local/deruiter/workload-01h-00123l-2s-default-109566j/log/hadoop/history/done/job_201201181233_8139_application_1
-rw-r--r-- deruiter/deruiter   1656 2012-01-19 05:43 local/deruiter/workload-01h-00123l-2s-default-109566j/log/hadoop/history/done/.job_201201181233_8139_application_1.crc
-rwxr----- deruiter/deruiter  25103 2012-01-19 05:43 local/deruiter/workload-01h-00123l-2s-default-109566j/log/hadoop/history/done/job_201201181233_8139_conf.xml
-rw-r--r-- deruiter/deruiter    208 2012-01-19 05:43 local/deruiter/workload-01h-00123l-2s-default-109566j/log/hadoop/history/done/.job_201201181233_8139_conf.xml.crc
-rwxr----- deruiter/deruiter  12877 2012-01-19 05:43 local/deruiter/workload-01h-00123l-2s-default-109566j/log/hadoop/history/done/job_201201181242_8145_application_1
-rw-r--r-- deruiter/deruiter    112 2012-01-19 05:43 local/deruiter/workload-01h-00123l-2s-default-109566j/log/hadoop/history/done/.job_201201181242_8145_application_1.crc
-rwxr----- deruiter/deruiter  25100 2012-01-19 05:43 local/deruiter/workload-01h-00123l-2s-default-109566j/log/hadoop/history/done/job_201201181242_8145_conf.xml
-rw-r--r-- deruiter/deruiter    208 2012-01-19 05:43 local/deruiter/workload-01h-00123l-2s-default-109566j/log/hadoop/history/done/.job_201201181242_8145_conf.xml.crc
-rwxr----- deruiter/deruiter 846993 2012-01-19 05:43 local/deruiter/workload-01h-00123l-2s-default-109566j/log/hadoop/history/done/job_201201181238_8144_application_1
-rw-r--r-- deruiter/deruiter   6628 2012-01-19 05:43 local/deruiter/workload-01h-00123l-2s-default-109566j/log/hadoop/history/done/.job_201201181238_8144_application_1.crc
-rwxr----- deruiter/deruiter  25103 2012-01-19 05:43 local/deruiter/workload-01h-00123l-2s-default-109566j/log/hadoop/history/done/job_201201181238_8144_conf.xml
-rw-r--r-- deruiter/deruiter    208 2012-01-19 05:43 local/deruiter/workload-01h-00123l-2s-default-109566j/log/hadoop/history/done/.job_201201181238_8144_conf.xml.crc
-rwxr----- deruiter/deruiter   8000 2012-01-19 05:43 local/deruiter/workload-01h-00123l-2s-default-109566j/log/hadoop/history/done/job_201201181254_8170_application_0
-rw-r--r-- deruiter/deruiter     72 2012-01-19 05:43 local/deruiter/workload-01h-00123l-2s-default-109566j/log/hadoop/history/done/.job_201201181254_8170_application_0.crc
-rwxr----- deruiter/deruiter  25100 2012-01-19 05:43 local/deruiter/workload-01h-00123l-2s-default-109566j/log/hadoop/history/done/job_201201181254_8170_conf.xml
-rw-r--r-- deruiter/deruiter    208 2012-01-19 05:43 local/deruiter/workload-01h-00123l-2s-default-109566j/log/hadoop/history/done/.job_201201181254_8170_conf.xml.crc
-rwxr----- deruiter/deruiter 130395 2012-01-19 05:43 local/deruiter/workload-01h-00123l-2s-default-109566j/log/hadoop/history/done/job_201201181243_8150_application_1
-rw-r--r-- deruiter/deruiter   1028 2012-01-19 05:43 local/deruiter/workload-01h-00123l-2s-default-109566j/log/hadoop/history/done/.job_201201181243_8150_application_1.crc
-rwxr----- deruiter/deruiter  25101 2012-01-19 05:43 local/deruiter/workload-01h-00123l-2s-default-109566j/log/hadoop/history/done/job_201201181243_8150_conf.xml
-rw-r--r-- deruiter/deruiter    208 2012-01-19 05:43 local/deruiter/workload-01h-00123l-2s-default-109566j/log/hadoop/history/done/.job_201201181243_8150_conf.xml.crc
-rwxr----- deruiter/deruiter  84276 2012-01-19 05:43 local/deruiter/workload-01h-00123l-2s-default-109566j/log/hadoop/history/done/job_201201181247_8155_application_1
-rw-r--r-- deruiter/deruiter    668 2012-01-19 05:43 local/deruiter/workload-01h-00123l-2s-default-109566j/log/hadoop/history/done/.job_201201181247_8155_application_1.crc
-rwxr----- deruiter/deruiter  25101 2012-01-19 05:43 local/deruiter/workload-01h-00123l-2s-default-109566j/log/hadoop/history/done/job_201201181247_8155_conf.xml
-rw-r--r-- deruiter/deruiter    208 2012-01-19 05:43 local/deruiter/workload-01h-00123l-2s-default-109566j/log/hadoop/history/done/.job_201201181247_8155_conf.xml.crc
-rwxr----- deruiter/deruiter 267742 2012-01-19 05:43 local/deruiter/workload-01h-00123l-2s-default-109566j/log/hadoop/history/done/job_201201181249_8163_application_1
-rw-r--r-- deruiter/deruiter   2100 2012-01-19 05:43 local/deruiter/workload-01h-00123l-2s-default-109566j/log/hadoop/history/done/.job_201201181249_8163_application_1.crc
-rwxr----- deruiter/deruiter  25103 2012-01-19 05:43 local/deruiter/workload-01h-00123l-2s-default-109566j/log/hadoop/history/done/job_201201181249_8163_conf.xml
-rw-r--r-- deruiter/deruiter    208 2012-01-19 05:43 local/deruiter/workload-01h-00123l-2s-default-109566j/log/hadoop/history/done/.job_201201181249_8163_conf.xml.crc
-rwxr----- deruiter/deruiter  12872 2012-01-19 05:43 local/deruiter/workload-01h-00123l-2s-default-109566j/log/hadoop/history/done/job_201201181250_8164_application_0
-rw-r--r-- deruiter/deruiter    112 2012-01-19 05:43 local/deruiter/workload-01h-00123l-2s-default-109566j/log/hadoop/history/done/.job_201201181250_8164_application_0.crc
-rwxr----- deruiter/deruiter  25100 2012-01-19 05:43 local/deruiter/workload-01h-00123l-2s-default-109566j/log/hadoop/history/done/job_201201181250_8164_conf.xml
-rw-r--r-- deruiter/deruiter    208 2012-01-19 05:43 local/deruiter/workload-01h-00123l-2s-default-109566j/log/hadoop/history/done/.job_201201181250_8164_conf.xml.crc
-rwxr----- deruiter/deruiter  88891 2012-01-19 05:43 local/deruiter/workload-01h-00123l-2s-default-109566j/log/hadoop/history/done/job_201201181248_8159_application_1
-rw-r--r-- deruiter/deruiter    704 2012-01-19 05:43 local/deruiter/workload-01h-00123l-2s-default-109566j/log/hadoop/history/done/.job_201201181248_8159_application_1.crc
-rwxr----- deruiter/deruiter  25101 2012-01-19 05:43 local/deruiter/workload-01h-00123l-2s-default-109566j/log/hadoop/history/done/job_201201181248_8159_conf.xml
-rw-r--r-- deruiter/deruiter    208 2012-01-19 05:43 local/deruiter/workload-01h-00123l-2s-default-109566j/log/hadoop/history/done/.job_201201181248_8159_conf.xml.crc
-rwxr----- deruiter/deruiter 155783 2012-01-19 05:43 local/deruiter/workload-01h-00123l-2s-default-109566j/log/hadoop/history/done/job_201201181248_8158_application_1
-rw-r--r-- deruiter/deruiter   1228 2012-01-19 05:43 local/deruiter/workload-01h-00123l-2s-default-109566j/log/hadoop/history/done/.job_201201181248_8158_application_1.crc
-rwxr----- deruiter/deruiter  25103 2012-01-19 05:43 local/deruiter/workload-01h-00123l-2s-default-109566j/log/hadoop/history/done/job_201201181248_8158_conf.xml
-rw-r--r-- deruiter/deruiter    208 2012-01-19 05:43 local/deruiter/workload-01h-00123l-2s-default-109566j/log/hadoop/history/done/.job_201201181248_8158_conf.xml.crc
-rwxr----- deruiter/deruiter 184764 2012-01-19 05:43 local/deruiter/workload-01h-00123l-2s-default-109566j/log/hadoop/history/done/job_201201181248_8160_application_1
-rw-r--r-- deruiter/deruiter   1452 2012-01-19 05:43 local/deruiter/workload-01h-00123l-2s-default-109566j/log/hadoop/history/done/.job_201201181248_8160_application_1.crc
-rwxr----- deruiter/deruiter  25102 2012-01-19 05:43 local/deruiter/workload-01h-00123l-2s-default-109566j/log/hadoop/history/done/job_201201181248_8160_conf.xml
-rw-r--r-- deruiter/deruiter    208 2012-01-19 05:43 local/deruiter/workload-01h-00123l-2s-default-109566j/log/hadoop/history/done/.job_201201181248_8160_conf.xml.crc
-rwxr----- deruiter/deruiter  36752 2012-01-19 05:43 local/deruiter/workload-01h-00123l-2s-default-109566j/log/hadoop/history/done/job_201201181249_8162_application_0
-rw-r--r-- deruiter/deruiter    296 2012-01-19 05:43 local/deruiter/workload-01h-00123l-2s-default-109566j/log/hadoop/history/done/.job_201201181249_8162_application_0.crc
-rwxr----- deruiter/deruiter  25101 2012-01-19 05:43 local/deruiter/workload-01h-00123l-2s-default-109566j/log/hadoop/history/done/job_201201181249_8162_conf.xml
-rw-r--r-- deruiter/deruiter    208 2012-01-19 05:43 local/deruiter/workload-01h-00123l-2s-default-109566j/log/hadoop/history/done/.job_201201181249_8162_conf.xml.crc
-rwxr----- deruiter/deruiter  68853 2012-01-19 05:43 local/deruiter/workload-01h-00123l-2s-default-109566j/log/hadoop/history/done/job_201201181250_8167_application_0
-rw-r--r-- deruiter/deruiter    548 2012-01-19 05:43 local/deruiter/workload-01h-00123l-2s-default-109566j/log/hadoop/history/done/.job_201201181250_8167_application_0.crc
-rwxr----- deruiter/deruiter  25101 2012-01-19 05:43 local/deruiter/workload-01h-00123l-2s-default-109566j/log/hadoop/history/done/job_201201181250_8167_conf.xml
-rw-r--r-- deruiter/deruiter    208 2012-01-19 05:43 local/deruiter/workload-01h-00123l-2s-default-109566j/log/hadoop/history/done/.job_201201181250_8167_conf.xml.crc
-rwxr----- deruiter/deruiter  40341 2012-01-19 05:43 local/deruiter/workload-01h-00123l-2s-default-109566j/log/hadoop/history/done/job_201201181249_8161_application_0
-rw-r--r-- deruiter/deruiter    324 2012-01-19 05:43 local/deruiter/workload-01h-00123l-2s-default-109566j/log/hadoop/history/done/.job_201201181249_8161_application_0.crc
-rwxr----- deruiter/deruiter  25101 2012-01-19 05:43 local/deruiter/workload-01h-00123l-2s-default-109566j/log/hadoop/history/done/job_201201181249_8161_conf.xml
-rw-r--r-- deruiter/deruiter    208 2012-01-19 05:43 local/deruiter/workload-01h-00123l-2s-default-109566j/log/hadoop/history/done/.job_201201181249_8161_conf.xml.crc
-rwxr----- deruiter/deruiter  70039 2012-01-19 05:43 local/deruiter/workload-01h-00123l-2s-default-109566j/log/hadoop/history/done/job_201201181248_8157_application_1
-rw-r--r-- deruiter/deruiter    556 2012-01-19 05:43 local/deruiter/workload-01h-00123l-2s-default-109566j/log/hadoop/history/done/.job_201201181248_8157_application_1.crc
-rwxr----- deruiter/deruiter  25101 2012-01-19 05:43 local/deruiter/workload-01h-00123l-2s-default-109566j/log/hadoop/history/done/job_201201181248_8157_conf.xml
-rw-r--r-- deruiter/deruiter    208 2012-01-19 05:43 local/deruiter/workload-01h-00123l-2s-default-109566j/log/hadoop/history/done/.job_201201181248_8157_conf.xml.crc
-rwxr----- deruiter/deruiter   8001 2012-01-19 05:43 local/deruiter/workload-01h-00123l-2s-default-109566j/log/hadoop/history/done/job_201201181313_8174_application_1
-rw-r--r-- deruiter/deruiter     72 2012-01-19 05:43 local/deruiter/workload-01h-00123l-2s-default-109566j/log/hadoop/history/done/.job_201201181313_8174_application_1.crc
-rwxr----- deruiter/deruiter  25100 2012-01-19 05:43 local/deruiter/workload-01h-00123l-2s-default-109566j/log/hadoop/history/done/job_201201181313_8174_conf.xml
-rw-r--r-- deruiter/deruiter    208 2012-01-19 05:43 local/deruiter/workload-01h-00123l-2s-default-109566j/log/hadoop/history/done/.job_201201181313_8174_conf.xml.crc
-rwxr----- deruiter/deruiter  73639 2012-01-19 05:43 local/deruiter/workload-01h-00123l-2s-default-109566j/log/hadoop/history/done/job_201201181257_8171_application_0
-rw-r--r-- deruiter/deruiter    584 2012-01-19 05:43 local/deruiter/workload-01h-00123l-2s-default-109566j/log/hadoop/history/done/.job_201201181257_8171_application_0.crc
-rwxr----- deruiter/deruiter  25101 2012-01-19 05:43 local/deruiter/workload-01h-00123l-2s-default-109566j/log/hadoop/history/done/job_201201181257_8171_conf.xml
-rw-r--r-- deruiter/deruiter    208 2012-01-19 05:43 local/deruiter/workload-01h-00123l-2s-default-109566j/log/hadoop/history/done/.job_201201181257_8171_conf.xml.crc
-rwxr----- deruiter/deruiter  19965 2012-01-19 05:43 local/deruiter/workload-01h-00123l-2s-default-109566j/log/hadoop/history/done/job_201201181313_8172_application_1
-rw-r--r-- deruiter/deruiter    164 2012-01-19 05:43 local/deruiter/workload-01h-00123l-2s-default-109566j/log/hadoop/history/done/.job_201201181313_8172_application_1.crc
-rwxr----- deruiter/deruiter  25101 2012-01-19 05:43 local/deruiter/workload-01h-00123l-2s-default-109566j/log/hadoop/history/done/job_201201181313_8172_conf.xml
-rw-r--r-- deruiter/deruiter    208 2012-01-19 05:43 local/deruiter/workload-01h-00123l-2s-default-109566j/log/hadoop/history/done/.job_201201181313_8172_conf.xml.crc
-rwxr----- deruiter/deruiter   8000 2012-01-19 05:43 local/deruiter/workload-01h-00123l-2s-default-109566j/log/hadoop/history/done/job_201201181315_8177_application_1
-rw-r--r-- deruiter/deruiter     72 2012-01-19 05:43 local/deruiter/workload-01h-00123l-2s-default-109566j/log/hadoop/history/done/.job_201201181315_8177_application_1.crc
-rwxr----- deruiter/deruiter  25100 2012-01-19 05:43 local/deruiter/workload-01h-00123l-2s-default-109566j/log/hadoop/history/done/job_201201181315_8177_conf.xml
-rw-r--r-- deruiter/deruiter    208 2012-01-19 05:43 local/deruiter/workload-01h-00123l-2s-default-109566j/log/hadoop/history/done/.job_201201181315_8177_conf.xml.crc
-rwxr----- deruiter/deruiter  60392 2012-01-19 05:43 local/deruiter/workload-01h-00123l-2s-default-109566j/log/hadoop/history/done/job_201201181247_8153_application_0
-rw-r--r-- deruiter/deruiter    480 2012-01-19 05:43 local/deruiter/workload-01h-00123l-2s-default-109566j/log/hadoop/history/done/.job_201201181247_8153_application_0.crc
-rwxr----- deruiter/deruiter  25101 2012-01-19 05:43 local/deruiter/workload-01h-00123l-2s-default-109566j/log/hadoop/history/done/job_201201181247_8153_conf.xml
-rw-r--r-- deruiter/deruiter    208 2012-01-19 05:43 local/deruiter/workload-01h-00123l-2s-default-109566j/log/hadoop/history/done/.job_201201181247_8153_conf.xml.crc
-rwxr----- deruiter/deruiter  28413 2012-01-19 05:43 local/deruiter/workload-01h-00123l-2s-default-109566j/log/hadoop/history/done/job_201201181317_8178_application_1
-rw-r--r-- deruiter/deruiter    232 2012-01-19 05:43 local/deruiter/workload-01h-00123l-2s-default-109566j/log/hadoop/history/done/.job_201201181317_8178_application_1.crc
-rwxr----- deruiter/deruiter  25101 2012-01-19 05:43 local/deruiter/workload-01h-00123l-2s-default-109566j/log/hadoop/history/done/job_201201181317_8178_conf.xml
-rw-r--r-- deruiter/deruiter    208 2012-01-19 05:43 local/deruiter/workload-01h-00123l-2s-default-109566j/log/hadoop/history/done/.job_201201181317_8178_conf.xml.crc
-rwxr----- deruiter/deruiter  14119 2012-01-19 05:43 local/deruiter/workload-01h-00123l-2s-default-109566j/log/hadoop/history/done/job_201201181313_8173_application_1
-rw-r--r-- deruiter/deruiter    120 2012-01-19 05:43 local/deruiter/workload-01h-00123l-2s-default-109566j/log/hadoop/history/done/.job_201201181313_8173_application_1.crc
-rwxr----- deruiter/deruiter  25100 2012-01-19 05:43 local/deruiter/workload-01h-00123l-2s-default-109566j/log/hadoop/history/done/job_201201181313_8173_conf.xml
-rw-r--r-- deruiter/deruiter    208 2012-01-19 05:43 local/deruiter/workload-01h-00123l-2s-default-109566j/log/hadoop/history/done/.job_201201181313_8173_conf.xml.crc
-rwxr----- deruiter/deruiter  17660 2012-01-19 05:43 local/deruiter/workload-01h-00123l-2s-default-109566j/log/hadoop/history/done/job_201201181315_8176_application_1
-rw-r--r-- deruiter/deruiter    148 2012-01-19 05:43 local/deruiter/workload-01h-00123l-2s-default-109566j/log/hadoop/history/done/.job_201201181315_8176_application_1.crc
-rwxr----- deruiter/deruiter  25100 2012-01-19 05:43 local/deruiter/workload-01h-00123l-2s-default-109566j/log/hadoop/history/done/job_201201181315_8176_conf.xml
-rw-r--r-- deruiter/deruiter    208 2012-01-19 05:43 local/deruiter/workload-01h-00123l-2s-default-109566j/log/hadoop/history/done/.job_201201181315_8176_conf.xml.crc
-rwxr----- deruiter/deruiter 170723 2012-01-19 05:43 local/deruiter/workload-01h-00123l-2s-default-109566j/log/hadoop/history/done/job_201201181314_8175_application_1
-rw-r--r-- deruiter/deruiter   1344 2012-01-19 05:43 local/deruiter/workload-01h-00123l-2s-default-109566j/log/hadoop/history/done/.job_201201181314_8175_application_1.crc
-rwxr----- deruiter/deruiter  25103 2012-01-19 05:43 local/deruiter/workload-01h-00123l-2s-default-109566j/log/hadoop/history/done/job_201201181314_8175_conf.xml
-rw-r--r-- deruiter/deruiter    208 2012-01-19 05:43 local/deruiter/workload-01h-00123l-2s-default-109566j/log/hadoop/history/done/.job_201201181314_8175_conf.xml.crc
-rwxr----- deruiter/deruiter   7999 2012-01-19 05:43 local/deruiter/workload-01h-00123l-2s-default-109566j/log/hadoop/history/done/job_201201181324_8182_application_0
-rw-r--r-- deruiter/deruiter     72 2012-01-19 05:43 local/deruiter/workload-01h-00123l-2s-default-109566j/log/hadoop/history/done/.job_201201181324_8182_application_0.crc
-rwxr----- deruiter/deruiter  25100 2012-01-19 05:43 local/deruiter/workload-01h-00123l-2s-default-109566j/log/hadoop/history/done/job_201201181324_8182_conf.xml
-rw-r--r-- deruiter/deruiter    208 2012-01-19 05:43 local/deruiter/workload-01h-00123l-2s-default-109566j/log/hadoop/history/done/.job_201201181324_8182_conf.xml.crc
-rwxr----- deruiter/deruiter  18781 2012-01-19 05:43 local/deruiter/workload-01h-00123l-2s-default-109566j/log/hadoop/history/done/job_201201181322_8181_application_1
-rw-r--r-- deruiter/deruiter    156 2012-01-19 05:43 local/deruiter/workload-01h-00123l-2s-default-109566j/log/hadoop/history/done/.job_201201181322_8181_application_1.crc
-rwxr----- deruiter/deruiter  25100 2012-01-19 05:43 local/deruiter/workload-01h-00123l-2s-default-109566j/log/hadoop/history/done/job_201201181322_8181_conf.xml
-rw-r--r-- deruiter/deruiter    208 2012-01-19 05:43 local/deruiter/workload-01h-00123l-2s-default-109566j/log/hadoop/history/done/.job_201201181322_8181_conf.xml.crc
-rwxr----- deruiter/deruiter   7997 2012-01-19 05:43 local/deruiter/workload-01h-00123l-2s-default-109566j/log/hadoop/history/done/job_201201181325_8185_application_1
-rw-r--r-- deruiter/deruiter     72 2012-01-19 05:43 local/deruiter/workload-01h-00123l-2s-default-109566j/log/hadoop/history/done/.job_201201181325_8185_application_1.crc
-rwxr----- deruiter/deruiter  25100 2012-01-19 05:43 local/deruiter/workload-01h-00123l-2s-default-109566j/log/hadoop/history/done/job_201201181325_8185_conf.xml
-rw-r--r-- deruiter/deruiter    208 2012-01-19 05:43 local/deruiter/workload-01h-00123l-2s-default-109566j/log/hadoop/history/done/.job_201201181325_8185_conf.xml.crc
-rwxr----- deruiter/deruiter   9326 2012-01-19 05:43 local/deruiter/workload-01h-00123l-2s-default-109566j/log/hadoop/history/done/job_201201181325_8184_application_1
-rw-r--r-- deruiter/deruiter     84 2012-01-19 05:43 local/deruiter/workload-01h-00123l-2s-default-109566j/log/hadoop/history/done/.job_201201181325_8184_application_1.crc
-rwxr----- deruiter/deruiter  25100 2012-01-19 05:43 local/deruiter/workload-01h-00123l-2s-default-109566j/log/hadoop/history/done/job_201201181325_8184_conf.xml
-rw-r--r-- deruiter/deruiter    208 2012-01-19 05:43 local/deruiter/workload-01h-00123l-2s-default-109566j/log/hadoop/history/done/.job_201201181325_8184_conf.xml.crc
-rwxr----- deruiter/deruiter  35461 2012-01-19 05:43 local/deruiter/workload-01h-00123l-2s-default-109566j/log/hadoop/history/done/job_201201181318_8179_application_1
-rw-r--r-- deruiter/deruiter    288 2012-01-19 05:43 local/deruiter/workload-01h-00123l-2s-default-109566j/log/hadoop/history/done/.job_201201181318_8179_application_1.crc
-rwxr----- deruiter/deruiter  25101 2012-01-19 05:43 local/deruiter/workload-01h-00123l-2s-default-109566j/log/hadoop/history/done/job_201201181318_8179_conf.xml
-rw-r--r-- deruiter/deruiter    208 2012-01-19 05:43 local/deruiter/workload-01h-00123l-2s-default-109566j/log/hadoop/history/done/.job_201201181318_8179_conf.xml.crc
-rwxr----- deruiter/deruiter  12877 2012-01-19 05:43 local/deruiter/workload-01h-00123l-2s-default-109566j/log/hadoop/history/done/job_201201181324_8183_application_1
-rw-r--r-- deruiter/deruiter    112 2012-01-19 05:43 local/deruiter/workload-01h-00123l-2s-default-109566j/log/hadoop/history/done/.job_201201181324_8183_application_1.crc
-rwxr----- deruiter/deruiter  25100 2012-01-19 05:43 local/deruiter/workload-01h-00123l-2s-default-109566j/log/hadoop/history/done/job_201201181324_8183_conf.xml
-rw-r--r-- deruiter/deruiter    208 2012-01-19 05:43 local/deruiter/workload-01h-00123l-2s-default-109566j/log/hadoop/history/done/.job_201201181324_8183_conf.xml.crc
-rwxr----- deruiter/deruiter  64053 2012-01-19 05:43 local/deruiter/workload-01h-00123l-2s-default-109566j/log/hadoop/history/done/job_201201181318_8180_application_1
-rw-r--r-- deruiter/deruiter    512 2012-01-19 05:43 local/deruiter/workload-01h-00123l-2s-default-109566j/log/hadoop/history/done/.job_201201181318_8180_application_1.crc
-rwxr----- deruiter/deruiter  25101 2012-01-19 05:43 local/deruiter/workload-01h-00123l-2s-default-109566j/log/hadoop/history/done/job_201201181318_8180_conf.xml
-rw-r--r-- deruiter/deruiter    208 2012-01-19 05:43 local/deruiter/workload-01h-00123l-2s-default-109566j/log/hadoop/history/done/.job_201201181318_8180_conf.xml.crc
-rwxr----- deruiter/deruiter 121927 2012-01-19 05:43 local/deruiter/workload-01h-00123l-2s-default-109566j/log/hadoop/history/done/job_201201181243_8149_application_0
-rw-r--r-- deruiter/deruiter    964 2012-01-19 05:43 local/deruiter/workload-01h-00123l-2s-default-109566j/log/hadoop/history/done/.job_201201181243_8149_application_0.crc
-rwxr----- deruiter/deruiter  25101 2012-01-19 05:43 local/deruiter/workload-01h-00123l-2s-default-109566j/log/hadoop/history/done/job_201201181243_8149_conf.xml
-rw-r--r-- deruiter/deruiter    208 2012-01-19 05:43 local/deruiter/workload-01h-00123l-2s-default-109566j/log/hadoop/history/done/.job_201201181243_8149_conf.xml.crc
-rwxr----- deruiter/deruiter  60507 2012-01-19 05:43 local/deruiter/workload-01h-00123l-2s-default-109566j/log/hadoop/history/done/job_201201181250_8168_application_0
-rw-r--r-- deruiter/deruiter    484 2012-01-19 05:43 local/deruiter/workload-01h-00123l-2s-default-109566j/log/hadoop/history/done/.job_201201181250_8168_application_0.crc
-rwxr----- deruiter/deruiter  25101 2012-01-19 05:43 local/deruiter/workload-01h-00123l-2s-default-109566j/log/hadoop/history/done/job_201201181250_8168_conf.xml
-rw-r--r-- deruiter/deruiter    208 2012-01-19 05:43 local/deruiter/workload-01h-00123l-2s-default-109566j/log/hadoop/history/done/.job_201201181250_8168_conf.xml.crc
-rwxr----- deruiter/deruiter 615114 2012-01-19 05:43 local/deruiter/workload-01h-00123l-2s-default-109566j/log/hadoop/history/done/job_201201181254_8169_application_0
-rw-r--r-- deruiter/deruiter   4816 2012-01-19 05:43 local/deruiter/workload-01h-00123l-2s-default-109566j/log/hadoop/history/done/.job_201201181254_8169_application_0.crc
-rwxr----- deruiter/deruiter  25103 2012-01-19 05:43 local/deruiter/workload-01h-00123l-2s-default-109566j/log/hadoop/history/done/job_201201181254_8169_conf.xml
-rw-r--r-- deruiter/deruiter    208 2012-01-19 05:43 local/deruiter/workload-01h-00123l-2s-default-109566j/log/hadoop/history/done/.job_201201181254_8169_conf.xml.crc
-rwxr----- deruiter/deruiter 1206306 2012-01-19 05:43 local/deruiter/workload-01h-00123l-2s-default-109566j/log/hadoop/history/done/job_201201181250_8166_application_0
-rw-r--r-- deruiter/deruiter    9436 2012-01-19 05:43 local/deruiter/workload-01h-00123l-2s-default-109566j/log/hadoop/history/done/.job_201201181250_8166_application_0.crc
-rwxr----- deruiter/deruiter   25104 2012-01-19 05:43 local/deruiter/workload-01h-00123l-2s-default-109566j/log/hadoop/history/done/job_201201181250_8166_conf.xml
-rw-r--r-- deruiter/deruiter     208 2012-01-19 05:43 local/deruiter/workload-01h-00123l-2s-default-109566j/log/hadoop/history/done/.job_201201181250_8166_conf.xml.crc
-rwxr----- deruiter/deruiter  272069 2012-01-19 05:44 local/deruiter/workload-01h-00123l-2s-default-109566j/log/hadoop/history/done/job_201201181330_8187_application_0
-rw-r--r-- deruiter/deruiter    2136 2012-01-19 05:44 local/deruiter/workload-01h-00123l-2s-default-109566j/log/hadoop/history/done/.job_201201181330_8187_application_0.crc
-rwxr----- deruiter/deruiter   25103 2012-01-19 05:44 local/deruiter/workload-01h-00123l-2s-default-109566j/log/hadoop/history/done/job_201201181330_8187_conf.xml
-rw-r--r-- deruiter/deruiter     208 2012-01-19 05:44 local/deruiter/workload-01h-00123l-2s-default-109566j/log/hadoop/history/done/.job_201201181330_8187_conf.xml.crc
-rwxr----- deruiter/deruiter  522816 2012-01-19 05:44 local/deruiter/workload-01h-00123l-2s-default-109566j/log/hadoop/history/done/job_201201181327_8186_application_0
-rw-r--r-- deruiter/deruiter    4096 2012-01-19 05:44 local/deruiter/workload-01h-00123l-2s-default-109566j/log/hadoop/history/done/.job_201201181327_8186_application_0.crc
-rwxr----- deruiter/deruiter   25103 2012-01-19 05:44 local/deruiter/workload-01h-00123l-2s-default-109566j/log/hadoop/history/done/job_201201181327_8186_conf.xml
-rw-r--r-- deruiter/deruiter     208 2012-01-19 05:44 local/deruiter/workload-01h-00123l-2s-default-109566j/log/hadoop/history/done/.job_201201181327_8186_conf.xml.crc
-rwxr----- deruiter/deruiter  112596 2012-01-19 05:44 local/deruiter/workload-01h-00123l-2s-default-109566j/log/hadoop/history/done/job_201201181331_8189_application_0
-rw-r--r-- deruiter/deruiter     888 2012-01-19 05:44 local/deruiter/workload-01h-00123l-2s-default-109566j/log/hadoop/history/done/.job_201201181331_8189_application_0.crc
-rwxr----- deruiter/deruiter   25101 2012-01-19 05:44 local/deruiter/workload-01h-00123l-2s-default-109566j/log/hadoop/history/done/job_201201181331_8189_conf.xml
-rw-r--r-- deruiter/deruiter     208 2012-01-19 05:44 local/deruiter/workload-01h-00123l-2s-default-109566j/log/hadoop/history/done/.job_201201181331_8189_conf.xml.crc
-rwxr-xr-x deruiter/deruiter       0 2012-01-19 05:44 local/deruiter/workload-01h-00123l-2s-default-109566j/log/hadoop/history/done/job_201201181330_8188_application_0
-rw-r--r-- deruiter/deruiter       0 2012-01-19 05:44 local/deruiter/workload-01h-00123l-2s-default-109566j/log/hadoop/history/done/.job_201201181330_8188_application_0.crc
-rwxr----- deruiter/deruiter 1270449 2012-01-19 05:44 local/deruiter/workload-01h-00123l-2s-default-109566j/log/hadoop/history/job_201201181330_8188_application_0
-rwxr----- deruiter/deruiter   25104 2012-01-19 05:43 local/deruiter/workload-01h-00123l-2s-default-109566j/log/hadoop/history/job_201201181330_8188_conf.xml
-rw-r--r-- deruiter/deruiter    9936 2012-01-19 05:44 local/deruiter/workload-01h-00123l-2s-default-109566j/log/hadoop/history/.job_201201181330_8188_application_0.crc
-rw-r--r-- deruiter/deruiter     208 2012-01-19 05:43 local/deruiter/workload-01h-00123l-2s-default-109566j/log/hadoop/history/.job_201201181330_8188_conf.xml.crc
-rw-r--r-- deruiter/deruiter   25104 2012-01-19 05:43 local/deruiter/workload-01h-00123l-2s-default-109566j/log/hadoop/job_201201181330_8188_conf.xml
drwxr-xr-x deruiter/deruiter       0 2012-01-19 05:42 local/deruiter/workload-01h-00123l-2s-default-109566j/tmp/
-rw-r--r-- deruiter/deruiter     147 2012-01-19 05:44 local/deruiter/workload-01h-00123l-2s-default-109566j/mumak-time.txt
-rw-r--r-- deruiter/deruiter    1690 2012-01-19 05:44 local/deruiter/workload-01h-00123l-2s-default-109566j/workload-01h-00123l-2s-default-109566j-report.txt
-rw-r--r-- deruiter/deruiter     854 2012-01-19 05:44 local/deruiter/workload-01h-00123l-2s-default-109566j/model.json
-rw-r--r-- deruiter/deruiter    5323 2012-01-19 05:44 local/deruiter/workload-01h-00123l-2s-default-109566j/19-jobs.topology.json.gz
