START TIME:          Thu Jan 26 00:51:24 CET 2012
WORKLOAD GENERATED:  
END TIME:            Thu Jan 26 04:49:32 CET 2012

MUMAK TIME:
12689.80user 3475.86system 3:58:08elapsed 113%CPU (0avgtext+0avgdata 24165664maxresident)k
55042inputs+9089528outputs (0major+101485929minor)pagefaults 0swaps

WORKLOAD_MODEL:      /home/deruiter/work/mumak-on-sge/etc/model.json
WORKLOAD_SEED:       None
WORKLOAD_LOAD:       100
WORKLOAD_START:      600
WORKLOAD_RUNTIME:    1
TOPOLOGY_FILE:       /home/deruiter/work/mumak-on-sge/etc/19-jobs.topology.json.gz
MUMAK_WORKLOAD_FILE: /var/scratch/deruiter/workloads/workload-06h-08652l-0s.json.gz
MUMAK_TOPOLOGY_FILE: /home/deruiter/work/mumak-on-sge/etc/19-jobs.topology.json.gz

Mumak Workload MD5:
3e04084523a69850ae8863b55f0f53dd  /var/scratch/deruiter/workloads/workload-06h-08652l-0s.json.gz

Workload Model:
{
  "application_0": {
    "interarrivaltime": [
      "weibull",
      50,
      0.5
    ],
    "attempt_interarrivaltime": [
      "weibull",
      5,
      0.5
    ],
    "waittime": [
      "weibull",
      2,
      0.5
    ],
    "numtasks": [
      "weibull",
      200,
      0.5
    ],
    "mapreduceratio": [
      "normal",
      0.85,
      0.05
    ],
    "runtime": [
      "weibull",
      60,
      0.5
    ]
  },
  "application_1": {
    "interarrivaltime": [
      "weibull",
      20,
      0.5
    ],
    "attempt_interarrivaltime": [
      "weibull",
      1,
      0.5
    ],
    "waittime": [
      "weibull",
      2,
      0.5
    ],
    "numtasks": [
      "weibull",
      20,
      0.5
    ],
    "mapreduceratio": [
      "normal",
      0.9,
      0.05
    ],
    "runtime": [
      "weibull",
      6,
      0.5
    ]
  }
}
