START TIME:          Thu Jan 19 12:47:16 CET 2012
WORKLOAD GENERATED:  
END TIME:            Thu Jan 19 12:54:49 CET 2012

MUMAK TIME:
466.71user 16.06system 7:31.17elapsed 107%CPU (0avgtext+0avgdata 3726448maxresident)k
32136inputs+140968outputs (53major+1345999minor)pagefaults 0swaps

WORKLOAD_MODEL:      /home/deruiter/work/mumak-on-sge/etc/model.json
WORKLOAD_SEED:       None
WORKLOAD_LOAD:       100
WORKLOAD_START:      600
WORKLOAD_RUNTIME:    1
TOPOLOGY_FILE:       /home/deruiter/work/mumak-on-sge/etc/19-jobs.topology.json.gz
MUMAK_WORKLOAD_FILE: /var/scratch/deruiter/workloads/workload-06h-00123l-5s.json.gz
MUMAK_TOPOLOGY_FILE: /home/deruiter/work/mumak-on-sge/etc/19-jobs.topology.json.gz

Mumak Workload MD5:
a7e887a501dc442dbd33ea20eb50e81c  /var/scratch/deruiter/workloads/workload-06h-00123l-5s.json.gz

Workload Model:
{
  "application_0": {
    "interarrivaltime": [
      "weibull",
      50,
      0.5
    ],
    "attempt_interarrivaltime": [
      "weibull",
      5,
      0.5
    ],
    "waittime": [
      "weibull",
      2,
      0.5
    ],
    "numtasks": [
      "weibull",
      200,
      0.5
    ],
    "mapreduceratio": [
      "normal",
      0.85,
      0.05
    ],
    "runtime": [
      "weibull",
      60,
      0.5
    ]
  },
  "application_1": {
    "interarrivaltime": [
      "weibull",
      20,
      0.5
    ],
    "attempt_interarrivaltime": [
      "weibull",
      1,
      0.5
    ],
    "waittime": [
      "weibull",
      2,
      0.5
    ],
    "numtasks": [
      "weibull",
      20,
      0.5
    ],
    "mapreduceratio": [
      "normal",
      0.9,
      0.05
    ],
    "runtime": [
      "weibull",
      6,
      0.5
    ]
  }
}
