drwxr-xr-x deruiter/deruiter 0 2012-01-19 03:49 local/deruiter/workload-01h-00123l-1s-fair-10898j/
drwxr-xr-x deruiter/deruiter 0 2012-01-19 03:49 local/deruiter/workload-01h-00123l-1s-fair-10898j/conf-hadoop/
-rw-r--r-- deruiter/deruiter 3426 2012-01-19 03:49 local/deruiter/workload-01h-00123l-1s-fair-10898j/conf-hadoop/capacity-scheduler.xml
-rw-r--r-- deruiter/deruiter 1335 2012-01-19 03:49 local/deruiter/workload-01h-00123l-1s-fair-10898j/conf-hadoop/configuration.xsl
-rw-r--r-- deruiter/deruiter  178 2012-01-19 03:49 local/deruiter/workload-01h-00123l-1s-fair-10898j/conf-hadoop/core-site.xml
-rw-r--r-- deruiter/deruiter  321 2012-01-19 03:49 local/deruiter/workload-01h-00123l-1s-fair-10898j/conf-hadoop/fair-scheduler.xml
-rw-r--r-- deruiter/deruiter 2430 2012-01-19 03:49 local/deruiter/workload-01h-00123l-1s-fair-10898j/conf-hadoop/hadoop-env.sh
-rw-r--r-- deruiter/deruiter 2301 2012-01-19 03:49 local/deruiter/workload-01h-00123l-1s-fair-10898j/conf-hadoop/hadoop-metrics.properties
-rw-r--r-- deruiter/deruiter 4644 2012-01-19 03:49 local/deruiter/workload-01h-00123l-1s-fair-10898j/conf-hadoop/hadoop-policy.xml
-rw-r--r-- deruiter/deruiter  178 2012-01-19 03:49 local/deruiter/workload-01h-00123l-1s-fair-10898j/conf-hadoop/hdfs-site.xml
-rw-r--r-- deruiter/deruiter 5096 2012-01-19 03:49 local/deruiter/workload-01h-00123l-1s-fair-10898j/conf-hadoop/log4j.properties
-rw-r--r-- deruiter/deruiter 4113 2012-01-19 03:49 local/deruiter/workload-01h-00123l-1s-fair-10898j/conf-hadoop/mapred-queues.xml
-rw-r--r-- deruiter/deruiter 1875 2012-01-19 03:49 local/deruiter/workload-01h-00123l-1s-fair-10898j/conf-hadoop/mapred-site.xml
-rw-r--r-- deruiter/deruiter   10 2012-01-19 03:49 local/deruiter/workload-01h-00123l-1s-fair-10898j/conf-hadoop/masters
-rw-r--r-- deruiter/deruiter   10 2012-01-19 03:49 local/deruiter/workload-01h-00123l-1s-fair-10898j/conf-hadoop/slaves
-rw-r--r-- deruiter/deruiter 1243 2012-01-19 03:49 local/deruiter/workload-01h-00123l-1s-fair-10898j/conf-hadoop/ssl-client.xml.example
-rw-r--r-- deruiter/deruiter 1195 2012-01-19 03:49 local/deruiter/workload-01h-00123l-1s-fair-10898j/conf-hadoop/ssl-server.xml.example
-rw-r--r-- deruiter/deruiter  250 2012-01-19 03:49 local/deruiter/workload-01h-00123l-1s-fair-10898j/conf-hadoop/taskcontroller.cfg
drwxr-xr-x deruiter/deruiter    0 2012-01-19 03:49 local/deruiter/workload-01h-00123l-1s-fair-10898j/conf-mumak/
-rw-r--r-- deruiter/deruiter 3429 2012-01-19 03:49 local/deruiter/workload-01h-00123l-1s-fair-10898j/conf-mumak/log4j.properties
-rw-r--r-- deruiter/deruiter 1875 2012-01-19 03:49 local/deruiter/workload-01h-00123l-1s-fair-10898j/conf-mumak/mumak.xml
-rw-r--r-- deruiter/deruiter  178 2012-01-19 03:49 local/deruiter/workload-01h-00123l-1s-fair-10898j/conf-mumak/capacity-scheduler.xml
-rw-r--r-- deruiter/deruiter  461 2012-01-19 03:49 local/deruiter/workload-01h-00123l-1s-fair-10898j/conf-mumak/fair-scheduler.xml
-rw-r--r-- deruiter/deruiter 6764 2012-01-19 03:49 local/deruiter/workload-01h-00123l-1s-fair-10898j/conf-mumak/mapred-queues.xml
drwxr-xr-x deruiter/deruiter    0 2012-01-19 03:49 local/deruiter/workload-01h-00123l-1s-fair-10898j/log/
drwxr-xr-x deruiter/deruiter    0 2012-01-19 03:49 local/deruiter/workload-01h-00123l-1s-fair-10898j/log/mumak/
-rw-r--r-- deruiter/deruiter 10726 2012-01-19 03:49 local/deruiter/workload-01h-00123l-1s-fair-10898j/log/mumak/mumak.log
-rw-r--r-- deruiter/deruiter  1772 2012-01-19 03:49 local/deruiter/workload-01h-00123l-1s-fair-10898j/log/mumak/mumak-jobs-summary.log
drwxr-xr-x deruiter/deruiter     0 2012-01-19 03:49 local/deruiter/workload-01h-00123l-1s-fair-10898j/log/mumak/jobtracker/
drwxr-x--- deruiter/deruiter     0 2012-01-19 03:49 local/deruiter/workload-01h-00123l-1s-fair-10898j/log/mumak/jobtracker/jobsInfo/
-rwxr-xr-x deruiter/deruiter  1413 2012-01-19 03:49 local/deruiter/workload-01h-00123l-1s-fair-10898j/log/mumak/jobtracker/jobsInfo/job_201201181030_0161.info
-rw-r--r-- deruiter/deruiter    20 2012-01-19 03:49 local/deruiter/workload-01h-00123l-1s-fair-10898j/log/mumak/jobtracker/jobsInfo/.job_201201181030_0161.info.crc
-rwxr-xr-x deruiter/deruiter  7640 2012-01-19 03:49 local/deruiter/workload-01h-00123l-1s-fair-10898j/log/mumak/jobtracker/jobsInfo/job_201201181118_0163.info
-rw-r--r-- deruiter/deruiter    68 2012-01-19 03:49 local/deruiter/workload-01h-00123l-1s-fair-10898j/log/mumak/jobtracker/jobsInfo/.job_201201181118_0163.info.crc
-rwxr-xr-x deruiter/deruiter  1246 2012-01-19 03:49 local/deruiter/workload-01h-00123l-1s-fair-10898j/log/mumak/jobtracker/jobsInfo/job_201201181148_0164.info
-rw-r--r-- deruiter/deruiter    20 2012-01-19 03:49 local/deruiter/workload-01h-00123l-1s-fair-10898j/log/mumak/jobtracker/jobsInfo/.job_201201181148_0164.info.crc
-rwxr-xr-x deruiter/deruiter 208607 2012-01-19 03:49 local/deruiter/workload-01h-00123l-1s-fair-10898j/log/mumak/jobtracker/jobsInfo/job_201201181107_0162.info
-rw-r--r-- deruiter/deruiter   1640 2012-01-19 03:49 local/deruiter/workload-01h-00123l-1s-fair-10898j/log/mumak/jobtracker/jobsInfo/.job_201201181107_0162.info.crc
drwxr-xr-x deruiter/deruiter      0 2012-01-19 03:49 local/deruiter/workload-01h-00123l-1s-fair-10898j/log/hadoop/
drwxr-x--- deruiter/deruiter      0 2012-01-19 03:49 local/deruiter/workload-01h-00123l-1s-fair-10898j/log/hadoop/history/
drwxr-x--- deruiter/deruiter      0 2012-01-19 03:49 local/deruiter/workload-01h-00123l-1s-fair-10898j/log/hadoop/history/done/
-rwxr----- deruiter/deruiter  16480 2012-01-19 03:49 local/deruiter/workload-01h-00123l-1s-fair-10898j/log/hadoop/history/done/job_201201181030_0161_application_0
-rw-r--r-- deruiter/deruiter    140 2012-01-19 03:49 local/deruiter/workload-01h-00123l-1s-fair-10898j/log/hadoop/history/done/.job_201201181030_0161_application_0.crc
-rwxr----- deruiter/deruiter  25284 2012-01-19 03:49 local/deruiter/workload-01h-00123l-1s-fair-10898j/log/hadoop/history/done/job_201201181030_0161_conf.xml
-rw-r--r-- deruiter/deruiter    208 2012-01-19 03:49 local/deruiter/workload-01h-00123l-1s-fair-10898j/log/hadoop/history/done/.job_201201181030_0161_conf.xml.crc
-rwxr----- deruiter/deruiter 105755 2012-01-19 03:49 local/deruiter/workload-01h-00123l-1s-fair-10898j/log/hadoop/history/done/job_201201181118_0163_application_1
-rw-r--r-- deruiter/deruiter    836 2012-01-19 03:49 local/deruiter/workload-01h-00123l-1s-fair-10898j/log/hadoop/history/done/.job_201201181118_0163_application_1.crc
-rwxr----- deruiter/deruiter  25286 2012-01-19 03:49 local/deruiter/workload-01h-00123l-1s-fair-10898j/log/hadoop/history/done/job_201201181118_0163_conf.xml
-rw-r--r-- deruiter/deruiter    208 2012-01-19 03:49 local/deruiter/workload-01h-00123l-1s-fair-10898j/log/hadoop/history/done/.job_201201181118_0163_conf.xml.crc
-rwxr----- deruiter/deruiter  14052 2012-01-19 03:49 local/deruiter/workload-01h-00123l-1s-fair-10898j/log/hadoop/history/done/job_201201181148_0164_application_1
-rw-r--r-- deruiter/deruiter    120 2012-01-19 03:49 local/deruiter/workload-01h-00123l-1s-fair-10898j/log/hadoop/history/done/.job_201201181148_0164_application_1.crc
-rwxr----- deruiter/deruiter  25284 2012-01-19 03:49 local/deruiter/workload-01h-00123l-1s-fair-10898j/log/hadoop/history/done/job_201201181148_0164_conf.xml
-rw-r--r-- deruiter/deruiter    208 2012-01-19 03:49 local/deruiter/workload-01h-00123l-1s-fair-10898j/log/hadoop/history/done/.job_201201181148_0164_conf.xml.crc
-rwxr-xr-x deruiter/deruiter      0 2012-01-19 03:49 local/deruiter/workload-01h-00123l-1s-fair-10898j/log/hadoop/history/done/job_201201181107_0162_application_0
-rw-r--r-- deruiter/deruiter      0 2012-01-19 03:49 local/deruiter/workload-01h-00123l-1s-fair-10898j/log/hadoop/history/done/.job_201201181107_0162_application_0.crc
-rwxr----- deruiter/deruiter 2858658 2012-01-19 03:49 local/deruiter/workload-01h-00123l-1s-fair-10898j/log/hadoop/history/job_201201181107_0162_application_0
-rw-r--r-- deruiter/deruiter   22344 2012-01-19 03:49 local/deruiter/workload-01h-00123l-1s-fair-10898j/log/hadoop/history/.job_201201181107_0162_application_0.crc
-rwxr----- deruiter/deruiter   25289 2012-01-19 03:49 local/deruiter/workload-01h-00123l-1s-fair-10898j/log/hadoop/history/job_201201181107_0162_conf.xml
-rw-r--r-- deruiter/deruiter     208 2012-01-19 03:49 local/deruiter/workload-01h-00123l-1s-fair-10898j/log/hadoop/history/.job_201201181107_0162_conf.xml.crc
-rw-r--r-- deruiter/deruiter   25289 2012-01-19 03:49 local/deruiter/workload-01h-00123l-1s-fair-10898j/log/hadoop/job_201201181107_0162_conf.xml
drwxr-xr-x deruiter/deruiter       0 2012-01-19 03:49 local/deruiter/workload-01h-00123l-1s-fair-10898j/tmp/
-rw-r--r-- deruiter/deruiter     147 2012-01-19 03:49 local/deruiter/workload-01h-00123l-1s-fair-10898j/mumak-time.txt
-rw-r--r-- deruiter/deruiter    1690 2012-01-19 03:49 local/deruiter/workload-01h-00123l-1s-fair-10898j/workload-01h-00123l-1s-fair-10898j-report.txt
-rw-r--r-- deruiter/deruiter     854 2012-01-19 03:49 local/deruiter/workload-01h-00123l-1s-fair-10898j/model.json
-rw-r--r-- deruiter/deruiter    5323 2012-01-19 03:49 local/deruiter/workload-01h-00123l-1s-fair-10898j/19-jobs.topology.json.gz
