START TIME:          Wed Jan 25 10:44:44 CET 2012
WORKLOAD GENERATED:  
END TIME:            Thu Jan 26 14:44:50 CET 2012

MUMAK TIME:
2043.88user 659.39system 28:00:05elapsed 2%CPU (0avgtext+0avgdata 21144960maxresident)k
74320inputs+2499904outputs (61major+24316001minor)pagefaults 0swaps

WORKLOAD_MODEL:      /home/deruiter/work/mumak-on-sge/etc/model.json
WORKLOAD_SEED:       None
WORKLOAD_LOAD:       100
WORKLOAD_START:      600
WORKLOAD_RUNTIME:    1
TOPOLOGY_FILE:       /home/deruiter/work/mumak-on-sge/etc/19-jobs.topology.json.gz
MUMAK_WORKLOAD_FILE: /var/scratch/deruiter/workloads/workload-24h-09888l-0s.json.gz
MUMAK_TOPOLOGY_FILE: /home/deruiter/work/mumak-on-sge/etc/19-jobs.topology.json.gz

Mumak Workload MD5:
51dc5233990ebed26a4f074a2b8b0165  /var/scratch/deruiter/workloads/workload-24h-09888l-0s.json.gz

Workload Model:
{
  "application_0": {
    "interarrivaltime": [
      "weibull",
      50,
      0.5
    ],
    "attempt_interarrivaltime": [
      "weibull",
      5,
      0.5
    ],
    "waittime": [
      "weibull",
      2,
      0.5
    ],
    "numtasks": [
      "weibull",
      200,
      0.5
    ],
    "mapreduceratio": [
      "normal",
      0.85,
      0.05
    ],
    "runtime": [
      "weibull",
      60,
      0.5
    ]
  },
  "application_1": {
    "interarrivaltime": [
      "weibull",
      20,
      0.5
    ],
    "attempt_interarrivaltime": [
      "weibull",
      1,
      0.5
    ],
    "waittime": [
      "weibull",
      2,
      0.5
    ],
    "numtasks": [
      "weibull",
      20,
      0.5
    ],
    "mapreduceratio": [
      "normal",
      0.9,
      0.05
    ],
    "runtime": [
      "weibull",
      6,
      0.5
    ]
  }
}
