START TIME:          Thu Jan 19 00:43:04 CET 2012
WORKLOAD GENERATED:  
END TIME:            Thu Jan 19 01:11:37 CET 2012

MUMAK TIME:
1687.27user 249.49system 28:32.70elapsed 113%CPU (0avgtext+0avgdata 17085344maxresident)k
9136inputs+1463472outputs (1major+14256034minor)pagefaults 0swaps

WORKLOAD_MODEL:      /home/deruiter/work/mumak-on-sge/etc/model.json
WORKLOAD_SEED:       None
WORKLOAD_LOAD:       100
WORKLOAD_START:      600
WORKLOAD_RUNTIME:    1
TOPOLOGY_FILE:       /home/deruiter/work/mumak-on-sge/etc/19-jobs.topology.json.gz
MUMAK_WORKLOAD_FILE: /var/scratch/deruiter/workloads/workload-01h-07416l-5s.json.gz
MUMAK_TOPOLOGY_FILE: /home/deruiter/work/mumak-on-sge/etc/19-jobs.topology.json.gz

Mumak Workload MD5:
647ac847d6421bb7c96037ac570a0c2a  /var/scratch/deruiter/workloads/workload-01h-07416l-5s.json.gz

Workload Model:
{
  "application_0": {
    "interarrivaltime": [
      "weibull",
      50,
      0.5
    ],
    "attempt_interarrivaltime": [
      "weibull",
      5,
      0.5
    ],
    "waittime": [
      "weibull",
      2,
      0.5
    ],
    "numtasks": [
      "weibull",
      200,
      0.5
    ],
    "mapreduceratio": [
      "normal",
      0.85,
      0.05
    ],
    "runtime": [
      "weibull",
      60,
      0.5
    ]
  },
  "application_1": {
    "interarrivaltime": [
      "weibull",
      20,
      0.5
    ],
    "attempt_interarrivaltime": [
      "weibull",
      1,
      0.5
    ],
    "waittime": [
      "weibull",
      2,
      0.5
    ],
    "numtasks": [
      "weibull",
      20,
      0.5
    ],
    "mapreduceratio": [
      "normal",
      0.9,
      0.05
    ],
    "runtime": [
      "weibull",
      6,
      0.5
    ]
  }
}
