#
# Generated On: 2012-02-05T18:11:25.994641
#           By: cwa.analyze.statistics
#      Version: 11.11.23
#       Author: Thomas A. de Ruiter <thomas@de-ruiter.cx>
#
#  Commandline: /home/af10028/bin/cwa analyze
#     Work Dir: /scratch/af10028/var/thesis-project/result/analyses/workload-06h-04944l-4s-fair
#

Time	Sum	Avg	StdDev	CoV	0.000000-Pct	0.010000-Pct	0.100000-Pct	1.000000-Pct	2.000000-Pct	5.000000-Pct	25.000000-Pct	50.000000-Pct	75.000000-Pct	95.000000-Pct	98.000000-Pct	99.000000-Pct	99.900000-Pct	99.990000-Pct	100.000000-Pct
1327074000	36070.0	340.283018868	555.311079781	1.6319094665	3.0	3.0	3.0	3.0	3.0	3.0	6.0	134.0	519.0	1327.0	1633.0	2123.0	4061.0	4061.0	4061.0
1327074600	42775.0	396.064814815	437.218679072	1.10390689281	2.0	2.0	2.0	3.0	3.0	3.0	5.0	239.0	654.0	1300.0	1431.0	1475.0	2215.0	2215.0	2215.0
1327075200	57626.0	351.37804878	457.543417504	1.30214001442	2.0	2.0	2.0	3.0	3.0	3.0	4.0	152.5	592.0	1230.0	1520.0	1738.0	2403.0	2403.0	2403.0
1327075800	28228.0	310.197802198	420.548219452	1.35574209898	3.0	3.0	3.0	3.0	3.0	3.0	4.0	109.0	510.0	1162.0	1800.0	1914.0	1914.0	1914.0	1914.0
1327076400	75405.0	364.275362319	433.167949358	1.18912227992	3.0	3.0	3.0	3.0	3.0	3.0	16.0	246.0	570.0	1139.0	1352.0	1767.0	3312.0	3312.0	3312.0
1327077000	67587.0	404.71257485	599.937959662	1.48238032852	2.0	2.0	2.0	2.0	3.0	3.0	4.0	228.0	554.0	1395.0	1765.0	2071.0	5458.0	5458.0	5458.0
1327077600	47567.0	363.106870229	447.154787379	1.23146881549	2.0	2.0	2.0	3.0	3.0	3.0	6.0	168.0	591.0	1318.0	1765.0	1817.0	1824.0	1824.0	1824.0
1327078200	52103.0	299.442528736	420.28083733	1.40354424305	2.0	2.0	2.0	2.0	3.0	3.0	3.0	140.0	431.0	1277.0	1694.0	1929.0	2030.0	2030.0	2030.0
1327078800	50850.0	325.961538462	475.6720595	1.4592889141	3.0	3.0	3.0	3.0	3.0	3.0	3.0	109.0	452.0	1442.0	1628.0	1999.0	2455.0	2455.0	2455.0
1327079400	57887.0	385.913333333	402.98240401	1.04423032117	3.0	3.0	3.0	3.0	3.0	3.0	26.0	273.0	585.0	1180.0	1597.0	1742.0	1800.0	1800.0	1800.0
1327080000	50833.0	388.038167939	553.512704386	1.42643881484	2.0	2.0	2.0	3.0	3.0	3.0	4.0	207.0	522.0	1491.0	2024.0	2269.0	3703.0	3703.0	3703.0
1327080600	40641.0	265.62745098	386.504525785	1.4550624356	2.0	2.0	2.0	2.0	2.0	3.0	3.0	73.0	378.0	981.0	1340.0	1916.0	2240.0	2240.0	2240.0
1327081200	48374.0	310.08974359	408.913657134	1.31869455726	2.0	2.0	2.0	3.0	3.0	3.0	9.0	140.0	499.0	1031.0	1221.0	2255.0	2417.0	2417.0	2417.0
1327081800	47716.0	322.405405405	400.097604381	1.2409767258	2.0	2.0	2.0	3.0	3.0	3.0	9.0	190.0	474.0	1259.0	1481.0	1652.0	1669.0	1669.0	1669.0
1327082400	48080.0	358.805970149	532.636787156	1.48447024707	3.0	3.0	3.0	3.0	3.0	3.0	4.0	128.0	574.0	1157.0	2166.0	2306.0	3472.0	3472.0	3472.0
1327083000	47827.0	308.561290323	478.563137333	1.55095001331	2.0	2.0	2.0	3.0	3.0	3.0	3.0	81.0	398.0	1286.0	1652.0	1778.0	3155.0	3155.0	3155.0
1327083600	49746.0	316.853503185	447.140140587	1.41118888096	2.0	2.0	2.0	2.0	2.0	3.0	4.0	113.0	552.0	1168.0	1766.0	2126.0	2352.0	2352.0	2352.0
1327084200	35846.0	280.046875	347.461771746	1.24072718807	2.0	2.0	2.0	2.0	2.0	3.0	4.0	95.5	466.0	1004.0	1128.0	1182.0	1571.0	1571.0	1571.0
1327084800	66305.0	306.967592593	409.662406521	1.33454610978	2.0	2.0	2.0	3.0	3.0	3.0	3.0	121.0	463.0	1189.0	1563.0	1752.0	1841.0	1841.0	1841.0
1327085400	41964.0	327.84375	419.370796739	1.27917886719	2.0	2.0	2.0	2.0	3.0	3.0	9.0	194.0	538.0	1178.0	1778.0	1952.0	2123.0	2123.0	2123.0
1327086000	67881.0	321.710900474	424.061672092	1.31814517776	2.0	2.0	2.0	2.0	3.0	3.0	3.0	126.0	470.0	1266.0	1382.0	1748.0	1872.0	1872.0	1872.0
1327086600	52835.0	343.084415584	389.271482317	1.13462303921	2.0	2.0	2.0	2.0	3.0	3.0	13.0	225.5	546.0	1064.0	1377.0	1746.0	2280.0	2280.0	2280.0
1327087200	51999.0	388.052238806	515.242760758	1.32776649439	2.0	2.0	2.0	2.0	2.0	3.0	4.0	143.5	650.0	1364.0	1979.0	2051.0	2858.0	2858.0	2858.0
1327087800	50041.0	307.0	459.706656333	1.49741581867	2.0	2.0	2.0	2.0	3.0	3.0	3.0	163.0	448.0	1160.0	1386.0	2003.0	3685.0	3685.0	3685.0
1327088400	43224.0	320.177777778	407.643040853	1.27317718201	2.0	2.0	2.0	2.0	2.0	3.0	4.0	130.0	527.0	1128.0	1616.0	1695.0	1929.0	1929.0	1929.0
1327089000	69800.0	356.12244898	448.810125241	1.26026911959	2.0	2.0	2.0	3.0	3.0	3.0	5.0	185.0	583.0	1353.0	1625.0	1835.0	2529.0	2529.0	2529.0
1327089600	71837.0	430.161676647	518.339730402	1.20498816734	2.0	2.0	2.0	2.0	3.0	3.0	3.0	276.0	606.0	1523.0	2008.0	2138.0	2462.0	2462.0	2462.0
1327090200	57225.0	376.480263158	496.902324544	1.3198628804	2.0	2.0	2.0	2.0	3.0	3.0	9.0	197.5	547.0	1278.0	1859.0	2618.0	2642.0	2642.0	2642.0
1327090800	21775.0	203.504672897	299.443646818	1.47143376393	2.0	2.0	2.0	2.0	2.0	3.0	4.0	87.0	274.0	937.0	1133.0	1233.0	1289.0	1289.0	1289.0
1327091400	66304.0	331.52	412.773898224	1.24509501154	2.0	2.0	2.0	2.0	2.0	3.0	4.0	193.0	461.0	1326.0	1520.0	1734.0	2441.0	2441.0	2441.0
1327092000	49540.0	332.483221477	406.151326545	1.22156939151	2.0	2.0	2.0	2.0	2.0	3.0	3.0	140.0	610.0	1053.0	1503.0	1544.0	2006.0	2006.0	2006.0
1327092600	67336.0	367.956284153	452.838008359	1.23068426295	2.0	2.0	2.0	2.0	3.0	3.0	9.0	193.0	582.0	1359.0	1676.0	2054.0	2313.0	2313.0	2313.0
1327093200	37914.0	351.055555556	445.207435288	1.26819652401	2.0	2.0	2.0	2.0	3.0	3.0	4.0	179.0	588.0	1244.0	1679.0	1908.0	2166.0	2166.0	2166.0
1327093800	45861.0	320.706293706	461.031419176	1.43755027021	2.0	2.0	2.0	3.0	3.0	3.0	4.0	126.0	500.0	1263.0	1805.0	2007.0	2987.0	2987.0	2987.0
1327094400	57901.0	368.796178344	478.238698834	1.29675611331	2.0	2.0	2.0	2.0	3.0	3.0	4.0	141.0	585.0	1464.0	1599.0	1684.0	1862.0	1862.0	1862.0
1327095000	54494.0	365.731543624	451.913164806	1.23564175058	2.0	2.0	2.0	3.0	3.0	3.0	9.0	201.0	564.0	1301.0	1524.0	1796.0	2533.0	2533.0	2533.0
1327095600	6611.0	347.947368421	650.407946658	1.86927106134	3.0	3.0	3.0	3.0	3.0	3.0	10.0	111.0	432.0	2821.0	2821.0	2821.0	2821.0	2821.0	2821.0
