#
# Generated On: 2012-02-05T18:12:53.593868
#           By: cwa.analyze.statistics
#      Version: 11.11.23
#       Author: Thomas A. de Ruiter <thomas@de-ruiter.cx>
#
#  Commandline: /home/af10028/bin/cwa analyze
#     Work Dir: /scratch/af10028/var/thesis-project/result/analyses/workload-06h-04944l-4s-fair
#

Time	Sum	Avg	StdDev	CoV	0.000000-Pct	0.010000-Pct	0.100000-Pct	1.000000-Pct	2.000000-Pct	5.000000-Pct	25.000000-Pct	50.000000-Pct	75.000000-Pct	95.000000-Pct	98.000000-Pct	99.000000-Pct	99.900000-Pct	99.990000-Pct	100.000000-Pct
1327074000	222682232.0	545.261895959	1419.39205014	2.60313816289	2.0	2.0	2.0	2.0	2.0	2.0	8.0	62.0	317.0	3341.0	5491.0	6900.0	12539.0	18221.0	18222.0
