#
# Generated On: 2012-02-05T22:46:42.334935
#           By: cwa.analyze.statistics
#      Version: 11.11.23
#       Author: Thomas A. de Ruiter <thomas@de-ruiter.cx>
#
#  Commandline: /home/af10028/bin/cwa analyze
#     Work Dir: /scratch/af10028/var/thesis-project/result/analyses/workload-24h-04944l-0s-fair
#

Time	Sum	Avg	StdDev	CoV	0.000000-Pct	0.010000-Pct	0.100000-Pct	1.000000-Pct	2.000000-Pct	5.000000-Pct	25.000000-Pct	50.000000-Pct	75.000000-Pct	95.000000-Pct	98.000000-Pct	99.000000-Pct	99.900000-Pct	99.990000-Pct	100.000000-Pct
1327423200	109394.0	160.166910688	538.920710511	3.36474436696	2.0	2.0	2.0	2.0	2.0	2.0	5.0	26.0	107.0	764.0	1322.0	2030.0	10241.0	10241.0	10241.0
1327423800	3566796.0	182.221109635	438.989206213	2.40910181642	2.0	2.0	2.0	2.0	2.0	2.0	6.0	38.0	158.0	845.0	1469.0	2183.0	4693.0	7341.0	13348.0
1327424400	1805351.0	190.056953364	446.408649175	2.34881513817	2.0	2.0	2.0	2.0	2.0	2.0	6.0	38.0	164.0	866.0	1667.0	2321.0	4639.0	6804.0	6804.0
1327425000	1927586.0	178.480185185	432.91428847	2.42555938644	2.0	2.0	2.0	2.0	2.0	2.0	6.0	35.0	158.0	824.0	1436.0	2030.0	5026.0	8055.0	9770.0
1327425600	2360724.0	155.218883556	415.380895909	2.67609769116	2.0	2.0	2.0	2.0	2.0	2.0	5.0	29.0	125.0	698.0	1295.0	1892.0	4822.0	7737.0	9441.0
1327426200	2310858.0	186.856796313	466.634938911	2.49728641462	2.0	2.0	2.0	2.0	2.0	2.0	6.0	38.0	164.0	857.0	1508.0	2216.0	5071.0	9057.0	11492.0
1327426800	1692063.0	161.179558011	390.552461961	2.42308929731	2.0	2.0	2.0	2.0	2.0	2.0	5.0	30.0	134.0	785.0	1400.0	1952.0	4120.0	6753.0	6828.0
1327427400	1720773.0	146.18749469	376.887742392	2.57811205528	2.0	2.0	2.0	2.0	2.0	2.0	5.0	27.0	119.0	665.0	1211.0	1745.0	4399.0	7724.0	7827.0
1327428000	2879486.0	163.005151429	397.58220231	2.43907753113	2.0	2.0	2.0	2.0	2.0	2.0	6.0	32.0	137.0	749.0	1379.0	2005.0	4432.0	6376.0	7709.0
1327428600	2359103.0	195.694981336	503.312126174	2.57192148076	2.0	2.0	2.0	2.0	2.0	2.0	6.0	39.0	164.0	893.0	1601.0	2291.0	5947.0	10955.0	11848.0
1327429200	2976098.0	189.971786033	472.271118822	2.48600662594	2.0	2.0	2.0	2.0	2.0	2.0	6.0	38.0	164.0	851.0	1598.0	2225.0	5671.0	7821.0	10044.0
1327429800	3693726.0	187.080935981	438.595510365	2.34441584369	2.0	2.0	2.0	2.0	2.0	2.0	6.0	38.0	170.0	881.0	1553.0	2096.0	4477.0	8802.0	13426.0
1327430400	2515474.0	166.213426721	426.556684173	2.56631905489	2.0	2.0	2.0	2.0	2.0	2.0	5.0	30.0	137.0	761.0	1424.0	2072.0	4879.0	8510.0	8586.0
1327431000	2181908.0	174.482846861	442.720517956	2.53732974857	2.0	2.0	2.0	2.0	2.0	2.0	6.0	32.0	149.0	809.0	1460.0	2065.0	5101.0	7467.0	12349.0
1327431600	2777532.0	166.848801586	457.879004381	2.74427505639	2.0	2.0	2.0	2.0	2.0	2.0	5.0	30.0	134.0	761.0	1430.0	1997.0	5062.0	9719.0	19727.0
1327432200	1414895.0	140.408355661	370.088003683	2.63579757729	2.0	2.0	2.0	2.0	2.0	2.0	5.0	24.0	110.0	647.0	1223.0	1835.0	4066.0	5853.0	9593.0
1327432800	1626743.0	150.318148217	414.065836459	2.75459644342	2.0	2.0	2.0	2.0	2.0	2.0	5.0	27.0	122.0	674.0	1292.0	1742.0	5230.0	8726.0	12227.0
1327433400	2474019.0	196.381886014	497.040801272	2.53099107744	2.0	2.0	2.0	2.0	2.0	2.0	8.0	41.0	173.0	884.0	1505.0	2219.0	6363.0	9783.0	11437.0
1327434000	2187957.0	154.593160461	405.795409608	2.62492472758	2.0	2.0	2.0	2.0	2.0	2.0	5.0	29.0	125.0	716.0	1313.0	1838.0	4417.0	9653.0	13693.0
1327434600	1672007.0	151.148707286	391.372173664	2.58931869607	2.0	2.0	2.0	2.0	2.0	2.0	5.0	29.0	125.0	680.0	1280.0	1805.0	4855.0	7137.0	7365.0
1327435200	3964429.0	190.625042073	461.631420697	2.42167249211	2.0	2.0	2.0	2.0	2.0	2.0	6.0	38.0	167.0	857.0	1550.0	2168.0	4981.0	8472.0	12769.0
1327435800	2718906.0	192.067391919	485.851025722	2.52958620862	2.0	2.0	2.0	2.0	2.0	2.0	6.0	38.0	161.0	890.0	1595.0	2276.0	5206.0	9386.0	17333.0
1327436400	2013136.0	147.937683715	399.338612387	2.69937045354	2.0	2.0	2.0	2.0	2.0	2.0	5.0	26.0	116.0	683.0	1280.0	1886.0	4408.0	8721.0	9044.0
1327437000	3372761.0	170.143822832	448.356826488	2.63516370459	2.0	2.0	2.0	2.0	2.0	2.0	6.0	33.0	141.0	764.0	1427.0	2045.0	5311.0	10841.0	10967.0
1327437600	1359707.0	164.852934045	430.999559371	2.61444882294	2.0	2.0	2.0	2.0	2.0	2.0	6.0	29.0	134.0	785.0	1412.0	2042.0	5179.0	11861.0	11861.0
1327438200	4176618.0	195.278567421	507.519391343	2.59895081189	2.0	2.0	2.0	2.0	2.0	2.0	6.0	39.0	170.0	866.0	1568.0	2219.0	5761.0	10166.0	23586.0
1327438800	1203714.0	156.692788336	410.564437096	2.62018719212	2.0	2.0	2.0	2.0	2.0	2.0	5.0	29.0	134.0	692.0	1304.0	1883.0	5232.0	9012.0	9012.0
1327439400	1662541.0	123.793075205	327.413459266	2.64484470334	2.0	2.0	2.0	2.0	2.0	2.0	5.0	23.0	99.0	569.0	1031.0	1490.0	3925.0	6726.0	7866.0
1327440000	2312541.0	161.332565927	429.837462337	2.66429446446	2.0	2.0	2.0	2.0	2.0	2.0	5.0	29.0	131.0	731.0	1334.0	2033.0	4546.0	9693.0	12403.0
1327440600	2762606.0	201.782630925	473.84079282	2.34827343982	2.0	2.0	2.0	2.0	2.0	2.0	8.0	44.0	182.0	938.0	1598.0	2255.0	5119.0	10391.0	12763.0
1327441200	1381359.0	145.728346872	374.095983349	2.5670776577	2.0	2.0	2.0	2.0	2.0	2.0	5.0	26.0	116.0	650.0	1283.0	1802.0	4417.0	6954.0	6954.0
1327441800	2786095.0	162.019946499	419.95832193	2.59201617458	2.0	2.0	2.0	2.0	2.0	2.0	5.0	30.0	135.0	743.0	1361.0	1925.0	4792.0	10961.0	11134.0
1327442400	3175287.0	195.126098445	470.853620653	2.4130735171	2.0	2.0	2.0	2.0	2.0	2.0	8.0	39.0	170.0	908.0	1598.0	2213.0	5374.0	9234.0	11324.0
1327443000	3111335.0	199.52129024	483.537238461	2.42348692653	2.0	2.0	2.0	2.0	2.0	2.0	8.0	41.0	176.0	890.0	1607.0	2276.0	5514.0	9797.0	12931.0
1327443600	1385809.0	136.991795176	384.955687446	2.81006382135	2.0	2.0	2.0	2.0	2.0	2.0	5.0	23.0	104.0	626.0	1235.0	1751.0	4249.0	9194.0	9459.0
1327444200	3050336.0	196.605607477	470.205294453	2.39161690497	2.0	2.0	2.0	2.0	2.0	2.0	6.0	39.0	173.0	938.0	1568.0	2243.0	5260.0	9254.0	9614.0
1327444800	3617755.0	194.168902963	456.939825063	2.35331105079	2.0	2.0	2.0	2.0	2.0	2.0	8.0	39.0	176.0	890.0	1553.0	2231.0	5002.0	9996.0	11468.0
1327445400	3899721.0	188.264989862	467.865806719	2.48514504509	2.0	2.0	2.0	2.0	2.0	2.0	6.0	35.0	158.0	863.0	1589.0	2252.0	5086.0	8663.0	14073.0
1327446000	3847977.0	188.238773114	451.970338416	2.40104804626	2.0	2.0	2.0	2.0	2.0	2.0	6.0	38.0	161.0	878.0	1583.0	2236.0	4654.0	7587.0	8595.0
1327446600	3141634.0	174.254478895	445.280135126	2.55534398857	2.0	2.0	2.0	2.0	2.0	2.0	6.0	35.0	149.0	788.0	1445.0	2048.0	5352.0	8939.0	9659.0
1327447200	2358393.0	173.717810843	421.484718526	2.42626082197	2.0	2.0	2.0	2.0	2.0	2.0	6.0	33.0	144.0	818.0	1475.0	2060.0	4504.0	7221.0	7302.0
1327447800	3906114.0	204.455064119	513.101422437	2.50960485937	2.0	2.0	2.0	2.0	2.0	2.0	8.0	41.0	177.0	926.0	1655.0	2456.0	6318.0	11024.0	11306.0
1327448400	3022881.0	195.630403831	484.427294362	2.47623725594	2.0	2.0	2.0	2.0	2.0	2.0	8.0	38.0	170.0	902.0	1601.0	2312.0	4999.0	11357.0	12940.0
1327449000	2452028.0	160.704417355	426.321394609	2.65282934736	2.0	2.0	2.0	2.0	2.0	2.0	6.0	30.0	128.0	728.0	1373.0	1985.0	4888.0	9260.0	10059.0
1327449600	1130208.0	153.853525728	406.556103134	2.64248804965	2.0	2.0	2.0	2.0	2.0	2.0	5.0	29.0	125.0	710.0	1283.0	1895.0	4615.0	12137.0	12137.0
1327450200	2982500.0	169.846241458	424.388470692	2.49866271428	2.0	2.0	2.0	2.0	2.0	2.0	6.0	33.0	143.0	767.0	1430.0	2015.0	4996.0	7536.0	8709.0
1327450800	1284020.0	152.261354204	380.522870693	2.49914282375	2.0	2.0	2.0	2.0	2.0	2.0	5.0	29.0	125.0	725.0	1274.0	1817.0	4213.0	7644.0	7644.0
1327451400	2056199.0	160.766145426	391.293979587	2.43393270735	2.0	2.0	2.0	2.0	2.0	2.0	5.0	29.0	128.0	779.0	1448.0	1904.0	3871.0	6735.0	6813.0
1327452000	2119318.0	174.673864667	451.039052315	2.58217823929	2.0	2.0	2.0	2.0	2.0	2.0	6.0	35.0	147.0	782.0	1418.0	2066.0	5341.0	7851.0	8682.0
1327452600	1532247.0	148.502326032	418.566804189	2.81858752905	2.0	2.0	2.0	2.0	2.0	2.0	5.0	27.0	119.0	653.0	1166.0	1802.0	5484.0	9293.0	10205.0
1327453200	1420634.0	148.245225921	387.523214368	2.61406876316	2.0	2.0	2.0	2.0	2.0	2.0	5.0	26.0	116.0	707.0	1310.0	1985.0	4165.0	10739.0	10739.0
1327453800	3006179.0	169.057417613	445.648147067	2.63607567984	2.0	2.0	2.0	2.0	2.0	2.0	6.0	32.0	140.0	776.0	1409.0	2000.0	4858.0	11924.0	13351.0
1327454400	1997852.0	154.644477127	407.243069101	2.63341489245	2.0	2.0	2.0	2.0	2.0	2.0	5.0	29.0	123.0	698.0	1271.0	1922.0	5146.0	6699.0	8487.0
1327455000	2865842.0	184.026327618	474.316494402	2.57743824234	2.0	2.0	2.0	2.0	2.0	2.0	6.0	35.0	155.0	860.0	1511.0	2045.0	4984.0	14520.0	16899.0
1327455600	1435563.0	142.247621879	392.946097116	2.76240890305	2.0	2.0	2.0	2.0	2.0	2.0	5.0	26.0	110.0	644.0	1208.0	1853.0	4555.0	7749.0	11539.0
1327456200	1911649.0	158.933239109	418.933489068	2.63590858285	2.0	2.0	2.0	2.0	2.0	2.0	5.0	30.0	131.0	713.0	1346.0	1982.0	4837.0	9683.0	10184.0
1327456800	1070988.0	133.473080758	370.619512986	2.77673603458	2.0	2.0	2.0	2.0	2.0	2.0	5.0	24.0	105.0	599.0	1118.0	1604.0	4477.0	9608.0	9608.0
1327457400	2197443.0	169.712928638	431.079365276	2.54005024094	2.0	2.0	2.0	2.0	2.0	2.0	6.0	32.0	147.0	791.0	1421.0	2000.0	4987.0	9608.0	11771.0
1327458000	3374057.0	198.930310713	515.153258339	2.589616718	2.0	2.0	2.0	2.0	2.0	2.0	8.0	41.0	170.0	896.0	1622.0	2177.0	6231.0	12271.0	14823.0
1327458600	1933572.0	147.792708094	393.702784564	2.66388504304	2.0	2.0	2.0	2.0	2.0	2.0	5.0	26.0	117.0	662.0	1232.0	1865.0	4540.0	7857.0	9881.0
1327459200	1332464.0	168.325416877	445.735009013	2.64805528055	2.0	2.0	2.0	2.0	2.0	2.0	5.0	29.0	131.0	785.0	1451.0	2141.0	5536.0	9788.0	9788.0
1327459800	2349288.0	171.455845862	434.487956962	2.53410990321	2.0	2.0	2.0	2.0	2.0	2.0	6.0	35.0	146.0	761.0	1433.0	2048.0	5056.0	8889.0	9815.0
1327460400	2756214.0	177.157346703	424.664867531	2.39710559813	2.0	2.0	2.0	2.0	2.0	2.0	6.0	35.0	155.0	842.0	1445.0	1976.0	4834.0	7884.0	8751.0
1327461000	1591233.0	156.78717115	398.983428405	2.54474537348	2.0	2.0	2.0	2.0	2.0	2.0	5.0	29.0	126.0	719.0	1325.0	2021.0	4570.0	7011.0	7110.0
1327461600	2954188.0	170.940168962	451.252711283	2.63982839155	2.0	2.0	2.0	2.0	2.0	2.0	6.0	32.0	137.0	761.0	1415.0	2186.0	5563.0	8831.0	10586.0
1327462200	4069548.0	176.377064101	474.928547145	2.6926888117	2.0	2.0	2.0	2.0	2.0	2.0	6.0	35.0	152.0	794.0	1409.0	2000.0	4948.0	13318.0	23346.0
1327462800	1597030.0	148.976679104	410.790664081	2.75741590261	2.0	2.0	2.0	2.0	2.0	2.0	5.0	26.0	117.0	677.0	1256.0	1838.0	4906.0	8547.0	12163.0
1327463400	1827383.0	145.445956702	371.925281759	2.55713730511	2.0	2.0	2.0	2.0	2.0	2.0	5.0	26.0	116.0	677.0	1244.0	1745.0	4156.0	7008.0	7218.0
1327464000	3323505.0	173.361066194	432.591562834	2.49532131021	2.0	2.0	2.0	2.0	2.0	2.0	6.0	35.0	146.0	794.0	1454.0	2075.0	5128.0	9404.0	9623.0
1327464600	3332528.0	182.794580659	455.836960784	2.49371157033	2.0	2.0	2.0	2.0	2.0	2.0	6.0	36.0	158.0	842.0	1487.0	2222.0	5128.0	9623.0	10163.0
1327465200	3021963.0	183.81770073	438.8567082	2.38745619414	2.0	2.0	2.0	2.0	2.0	2.0	6.0	38.0	158.0	839.0	1547.0	2180.0	4774.0	7725.0	8327.0
1327465800	2368189.0	165.088114326	400.152850451	2.42387437815	2.0	2.0	2.0	2.0	2.0	2.0	6.0	32.0	140.0	752.0	1397.0	1937.0	4513.0	7008.0	7047.0
1327466400	4121887.0	207.067567568	488.52691235	2.35926329791	2.0	2.0	2.0	2.0	2.0	2.0	8.0	44.0	185.0	935.0	1667.0	2261.0	5368.0	11101.0	12323.0
1327467000	3918613.0	209.059592403	488.943175127	2.33877417203	2.0	2.0	2.0	2.0	2.0	2.0	8.0	45.0	194.0	947.0	1661.0	2312.0	4837.0	12745.0	13092.0
1327467600	1946312.0	187.886089391	453.152272637	2.41184578436	2.0	2.0	2.0	2.0	2.0	2.0	6.0	38.0	164.0	860.0	1532.0	2177.0	5107.0	7020.0	10082.0
1327468200	2345361.0	158.620384147	415.581027003	2.61997239029	2.0	2.0	2.0	2.0	2.0	2.0	5.0	29.0	128.0	719.0	1352.0	1979.0	4789.0	8373.0	8472.0
1327468800	2752431.0	183.068240772	458.090802044	2.50229531957	2.0	2.0	2.0	2.0	2.0	2.0	6.0	35.0	161.0	836.0	1502.0	2195.0	5652.0	8295.0	8418.0
1327469400	2789031.0	190.885702553	451.171147482	2.36356700082	2.0	2.0	2.0	2.0	2.0	2.0	8.0	41.0	164.0	875.0	1529.0	2180.0	5284.0	7557.0	8547.0
1327470000	2233873.0	199.595514653	475.979975037	2.38472280233	2.0	2.0	2.0	2.0	2.0	2.0	8.0	39.0	170.0	923.0	1670.0	2261.0	5458.0	6732.0	7668.0
1327470600	3631138.0	186.174015587	469.319134112	2.52086271348	2.0	2.0	2.0	2.0	2.0	2.0	6.0	38.0	155.0	854.0	1568.0	2225.0	5251.0	7875.0	19414.0
1327471200	1108144.0	132.886916897	318.491078503	2.39670756114	2.0	2.0	2.0	2.0	2.0	2.0	5.0	26.0	113.0	620.0	1112.0	1607.0	3356.0	6333.0	6333.0
1327471800	890651.0	124.201784967	352.15045936	2.83530916607	2.0	2.0	2.0	2.0	2.0	2.0	5.0	21.0	98.0	560.0	1037.0	1532.0	4336.0	10747.0	10747.0
1327472400	2749377.0	201.066037736	461.08987105	2.29322602784	2.0	2.0	2.0	2.0	2.0	2.0	8.0	42.0	179.0	956.0	1664.0	2255.0	4495.0	7224.0	12935.0
1327473000	4050437.0	193.772999091	480.339306419	2.47887635879	2.0	2.0	2.0	2.0	2.0	2.0	6.0	38.0	167.0	890.0	1523.0	2237.0	5341.0	8964.0	13603.0
1327473600	2328064.0	171.724127757	429.886992211	2.50335813509	2.0	2.0	2.0	2.0	2.0	2.0	6.0	35.0	146.0	794.0	1442.0	1988.0	4438.0	12969.0	14524.0
1327474200	1927623.0	160.581722759	439.650793279	2.73786322456	2.0	2.0	2.0	2.0	2.0	2.0	5.0	29.0	131.0	743.0	1394.0	1937.0	4612.0	10025.0	16721.0
1327474800	3372591.0	190.187277956	458.758038034	2.41213840885	2.0	2.0	2.0	2.0	2.0	2.0	8.0	41.0	170.0	851.0	1541.0	2105.0	5083.0	7776.0	10155.0
1327475400	2924232.0	184.610606061	483.629930426	2.61972993181	2.0	2.0	2.0	2.0	2.0	2.0	6.0	35.0	152.0	842.0	1523.0	2258.0	5347.0	9470.0	13456.0
1327476000	3888254.0	198.623518594	484.500824516	2.43929232523	2.0	2.0	2.0	2.0	2.0	2.0	8.0	41.0	170.0	908.0	1652.0	2300.0	5587.0	8568.0	12167.0
1327476600	3775941.0	204.215305571	476.241220083	2.33205448902	2.0	2.0	2.0	2.0	2.0	2.0	8.0	42.0	185.0	953.0	1628.0	2270.0	5085.0	9333.0	11861.0
1327477200	927424.0	130.311086132	341.786750156	2.62285243951	2.0	2.0	2.0	2.0	2.0	2.0	5.0	23.0	108.0	596.0	1142.0	1529.0	3586.0	8259.0	8259.0
1327477800	2149580.0	167.165409441	424.719617574	2.54071472678	2.0	2.0	2.0	2.0	2.0	2.0	6.0	30.0	137.0	767.0	1442.0	2015.0	4873.0	8256.0	9695.0
1327478400	3409172.0	189.936598139	451.534387247	2.37729006242	2.0	2.0	2.0	2.0	2.0	2.0	6.0	38.0	168.0	872.0	1541.0	2168.0	5089.0	7779.0	11174.0
1327479000	3124633.0	195.20416068	479.11648213	2.45443785861	2.0	2.0	2.0	2.0	2.0	2.0	8.0	41.0	165.0	914.0	1565.0	2237.0	5598.0	9788.0	13918.0
1327479600	3194278.0	186.843589144	435.491824095	2.33078280123	2.0	2.0	2.0	2.0	2.0	2.0	6.0	38.0	164.0	863.0	1529.0	2135.0	4660.0	6870.0	7899.0
1327480200	3190903.0	197.738303278	507.543496494	2.56674345881	2.0	2.0	2.0	2.0	2.0	2.0	6.0	39.0	170.0	887.0	1631.0	2420.0	5526.0	10295.0	20774.0
1327480800	3575903.0	177.728777336	447.978502444	2.52057381567	2.0	2.0	2.0	2.0	2.0	2.0	6.0	35.0	149.0	821.0	1448.0	2090.0	4459.0	7140.0	19859.0
1327481400	2230843.0	172.279172137	488.99020295	2.83835937267	2.0	2.0	2.0	2.0	2.0	2.0	6.0	32.0	140.0	767.0	1481.0	2111.0	5560.0	12344.0	19344.0
1327482000	3474152.0	188.188722171	474.756798577	2.52276965962	2.0	2.0	2.0	2.0	2.0	2.0	6.0	36.0	158.0	854.0	1556.0	2276.0	5257.0	10109.0	14470.0
1327482600	3201339.0	204.401672839	516.145272335	2.52515189904	2.0	2.0	2.0	2.0	2.0	2.0	8.0	44.0	182.0	938.0	1643.0	2315.0	5518.0	14526.0	15145.0
1327483200	1023396.0	135.226744186	354.568039501	2.62202600259	2.0	2.0	2.0	2.0	2.0	2.0	5.0	26.0	107.0	629.0	1205.0	1751.0	4582.0	6582.0	6582.0
1327483800	2527682.0	168.669558254	412.382568691	2.44491402573	2.0	2.0	2.0	2.0	2.0	2.0	6.0	32.0	143.0	782.0	1403.0	1991.0	4705.0	8136.0	8955.0
1327484400	3631012.0	173.799157572	427.547241692	2.46000756082	2.0	2.0	2.0	2.0	2.0	2.0	6.0	33.0	146.0	815.0	1445.0	2039.0	4597.0	7953.0	11813.0
1327485000	4068440.0	198.489535054	478.428552126	2.41034647996	2.0	2.0	2.0	2.0	2.0	2.0	8.0	41.0	173.0	929.0	1571.0	2186.0	5311.0	9977.0	14590.0
1327485600	2489585.0	182.976995443	436.817850602	2.38728289064	2.0	2.0	2.0	2.0	2.0	2.0	6.0	38.0	158.0	845.0	1448.0	2057.0	4924.0	8064.0	8295.0
1327486200	3740632.0	203.771422346	466.884741783	2.29121795593	2.0	2.0	2.0	2.0	2.0	2.0	8.0	44.0	185.0	941.0	1667.0	2327.0	5017.0	7605.0	9980.0
1327486800	1031797.0	129.883811682	351.455558948	2.70592273508	2.0	2.0	2.0	2.0	2.0	2.0	5.0	26.0	107.0	575.0	1088.0	1679.0	4207.0	7776.0	7776.0
1327487400	2566030.0	171.422940744	424.269537114	2.47498692574	2.0	2.0	2.0	2.0	2.0	2.0	6.0	32.0	143.0	785.0	1430.0	2012.0	4579.0	7635.0	8826.0
1327488000	2176675.0	162.123864144	411.320224312	2.53707390015	2.0	2.0	2.0	2.0	2.0	2.0	5.0	29.0	128.0	776.0	1352.0	1922.0	4726.0	7140.0	7611.0
1327488600	2217852.0	162.25415173	409.65911733	2.52479898333	2.0	2.0	2.0	2.0	2.0	2.0	6.0	30.0	134.0	734.0	1394.0	2003.0	5113.0	7410.0	7479.0
1327489200	2857647.0	180.270439061	461.460709842	2.55982462929	2.0	2.0	2.0	2.0	2.0	2.0	6.0	35.0	152.0	818.0	1490.0	2138.0	5224.0	11141.0	15247.0
1327489800	3128942.0	179.886282626	468.042083579	2.60187756813	2.0	2.0	2.0	2.0	2.0	2.0	6.0	35.0	152.0	821.0	1514.0	2159.0	5035.0	11306.0	12958.0
1327490400	3300720.0	179.964015048	469.368387538	2.60812355966	2.0	2.0	2.0	2.0	2.0	2.0	6.0	35.0	152.0	806.0	1481.0	2180.0	5224.0	12530.0	14460.0
1327491000	2656089.0	178.344792856	449.317093999	2.51937321412	2.0	2.0	2.0	2.0	2.0	2.0	6.0	35.0	149.0	833.0	1466.0	2114.0	4666.0	10124.0	14074.0
1327491600	2684664.0	181.863162173	449.159604394	2.46976682373	2.0	2.0	2.0	2.0	2.0	2.0	6.0	35.0	152.0	863.0	1544.0	2159.0	4888.0	11336.0	11621.0
1327492200	3107983.0	185.584462889	445.600172119	2.40106399632	2.0	2.0	2.0	2.0	2.0	2.0	6.0	38.0	161.0	869.0	1568.0	2105.0	4909.0	10010.0	11554.0
1327492800	3266018.0	170.158278629	464.038380713	2.72709846652	2.0	2.0	2.0	2.0	2.0	2.0	6.0	32.0	137.0	779.0	1382.0	2063.0	5176.0	10071.0	17910.0
1327493400	3802172.0	202.771692176	468.909723884	2.31250091594	2.0	2.0	2.0	2.0	2.0	2.0	8.0	44.0	185.0	929.0	1604.0	2243.0	5449.0	10523.0	10766.0
1327494000	2307520.0	176.30806846	453.529225409	2.5723679544	2.0	2.0	2.0	2.0	2.0	2.0	6.0	35.0	149.0	791.0	1472.0	2159.0	5206.0	8697.0	13923.0
1327494600	1847701.0	198.59211092	482.969798203	2.43196870191	2.0	2.0	2.0	2.0	2.0	2.0	6.0	39.0	170.0	929.0	1643.0	2255.0	5718.0	8579.0	8579.0
1327495200	4095743.0	184.268817204	468.525467491	2.54261938943	2.0	2.0	2.0	2.0	2.0	2.0	6.0	36.0	158.0	833.0	1454.0	2138.0	5640.0	10388.0	12311.0
1327495800	2327068.0	180.350926141	455.411866325	2.52514293145	2.0	2.0	2.0	2.0	2.0	2.0	6.0	35.0	152.0	836.0	1508.0	2111.0	5533.0	8166.0	9686.0
1327496400	2072962.0	174.71234724	459.40766464	2.62950885783	2.0	2.0	2.0	2.0	2.0	2.0	5.0	32.0	146.0	800.0	1469.0	2111.0	5293.0	10615.0	15012.0
1327497000	1362147.0	154.00192199	423.816132936	2.75201846484	2.0	2.0	2.0	2.0	2.0	2.0	5.0	27.0	122.0	722.0	1259.0	1814.0	5419.0	11371.0	11371.0
1327497600	2248934.0	169.974605094	416.937065229	2.45293739614	2.0	2.0	2.0	2.0	2.0	2.0	5.0	32.0	143.0	797.0	1454.0	2027.0	4669.0	7047.0	10192.0
1327498200	3210407.0	185.830458439	458.018424949	2.46471126851	2.0	2.0	2.0	2.0	2.0	2.0	6.0	36.0	158.0	848.0	1505.0	2132.0	5347.0	8853.0	10300.0
1327498800	2799234.0	194.90558418	488.711237184	2.50742552728	2.0	2.0	2.0	2.0	2.0	2.0	6.0	38.0	164.0	881.0	1652.0	2381.0	5286.0	9495.0	9783.0
1327499400	1974504.0	160.881935957	398.715542209	2.47831143899	2.0	2.0	2.0	2.0	2.0	2.0	6.0	32.0	137.0	749.0	1328.0	1910.0	4096.0	8937.0	10163.0
1327500000	2661257.0	175.904355873	434.31253084	2.46902658371	2.0	2.0	2.0	2.0	2.0	2.0	6.0	35.0	149.0	821.0	1493.0	2039.0	4813.0	10505.0	10961.0
1327500600	2606808.0	186.801003225	448.981887178	2.40353038489	2.0	2.0	2.0	2.0	2.0	2.0	6.0	38.0	161.0	872.0	1556.0	2249.0	4522.0	10781.0	10901.0
1327501200	3163535.0	170.835673399	443.207144007	2.59434774476	2.0	2.0	2.0	2.0	2.0	2.0	6.0	32.0	137.0	803.0	1463.0	2041.0	5401.0	9810.0	9851.0
1327501800	1592107.0	138.012049237	369.975951763	2.68075109244	2.0	2.0	2.0	2.0	2.0	2.0	5.0	26.0	104.0	629.0	1238.0	1874.0	4330.0	6699.0	7923.0
1327502400	3102225.0	176.002779984	434.221112734	2.4671264441	2.0	2.0	2.0	2.0	2.0	2.0	6.0	33.0	149.0	815.0	1433.0	2018.0	4927.0	8525.0	10328.0
1327503000	1748646.0	159.170398689	416.00518569	2.61358386431	2.0	2.0	2.0	2.0	2.0	2.0	5.0	29.0	128.0	740.0	1388.0	1952.0	5038.0	7305.0	7893.0
1327503600	1741834.0	154.049173079	434.733752723	2.82204535107	2.0	2.0	2.0	2.0	2.0	2.0	5.0	27.0	122.0	704.0	1289.0	1901.0	5632.0	9890.0	12265.0
1327504200	2818605.0	205.004363954	494.272388218	2.41103349551	2.0	2.0	2.0	2.0	2.0	2.0	8.0	41.0	179.0	947.0	1622.0	2294.0	5509.0	10139.0	11308.0
1327504800	3891773.0	196.246936614	474.163815087	2.41615906606	2.0	2.0	2.0	2.0	2.0	2.0	8.0	41.0	173.0	902.0	1601.0	2210.0	5101.0	10895.0	15442.0
1327505400	3089403.0	179.825552969	460.139658956	2.55881131107	2.0	2.0	2.0	2.0	2.0	2.0	6.0	35.0	152.0	821.0	1445.0	2156.0	4915.0	13147.0	13726.0
1327506000	3303971.0	188.271183543	459.448438195	2.44035454364	2.0	2.0	2.0	2.0	2.0	2.0	8.0	38.0	161.0	869.0	1523.0	2237.0	5029.0	10802.0	14262.0
1327506600	3641337.0	195.392627173	476.416235578	2.43825083101	2.0	2.0	2.0	2.0	2.0	2.0	8.0	39.0	167.0	893.0	1634.0	2347.0	5293.0	8382.0	9225.0
1327507200	2231138.0	173.981441048	403.728052012	2.32052366954	2.0	2.0	2.0	2.0	2.0	2.0	6.0	36.0	156.0	806.0	1454.0	2078.0	4252.0	5754.0	7083.0
1327507800	3553399.0	200.06750746	456.801157782	2.28323511189	2.0	2.0	2.0	2.0	2.0	2.0	8.0	42.0	179.0	938.0	1592.0	2234.0	4803.0	8556.0	11408.0
1327508400	2543747.0	178.709217367	441.982548611	2.47319391313	2.0	2.0	2.0	2.0	2.0	2.0	6.0	35.0	150.0	842.0	1469.0	2105.0	4672.0	8931.0	12209.0
1327509000	2053964.0	154.189925681	437.912871979	2.84008744439	2.0	2.0	2.0	2.0	2.0	2.0	5.0	29.0	122.0	686.0	1349.0	1940.0	4927.0	12418.0	12781.0
1327509600	1333919.0	155.088826881	482.356856961	3.11019734086	2.0	2.0	2.0	2.0	2.0	2.0	5.0	26.0	125.0	695.0	1241.0	1868.0	5053.0	23638.0	23638.0
1327510200	0	0	0	0															
1327510800	0	0	0	0															
1327511400	0	0	0	0															
1327512000	0	0	0	0															
1327512600	0	0	0	0															
1327513200	0	0	0	0															
