#
# Generated On: 2012-02-05T18:40:26.957298
#           By: cwa.analyze.statistics
#      Version: 11.11.23
#       Author: Thomas A. de Ruiter <thomas@de-ruiter.cx>
#
#  Commandline: /home/af10028/bin/cwa analyze
#     Work Dir: /scratch/af10028/var/thesis-project/result/analyses/workload-06h-06180l-3s-default
#

Value	PDF	CDF
5.0	0.528341082204	0.528350075091
8.0	0.000116907526147	0.528466982617
11.0	0.000287772372054	0.528754754989
14.0	5.39573197601e-05	0.528808712309
17.0	1.79857732534e-05	0.528826698082
20.0	0.000314751031934	0.529141449114
23.0	0.000692452270254	0.529833901384
26.0	0.000611516290614	0.530445417675
29.0	0.000206836392414	0.530652254067
32.0	0.000656480723748	0.531308734791
38.0	0.000143886186027	0.531452620977
41.0	1.79857732534e-05	0.53147060675
44.0	0.000512594537721	0.531983201288
47.0	0.000206836392414	0.53219003768
50.0	8.99288662668e-06	0.532199030567
54.0	8.99288662668e-06	0.532208023453
56.0	9.89217528935e-05	0.532306945206
59.0	0.000512594537721	0.532819539744
62.0	0.000395687011574	0.533215226756
65.0	0.000476622991214	0.533691849747
68.0	0.00021582927904	0.533907679026
71.0	0.000638494950494	0.534546173976
74.0	0.00035072257844	0.534896896555
77.0	0.000908281549295	0.535805178104
80.0	0.00227520031655	0.538080378421
83.0	0.000728423816761	0.538808802237
86.0	0.000818352683028	0.53962715492
89.0	0.000206836392414	0.539833991313
92.0	1.79857732534e-05	0.539851977086
95.0	0.000287772372054	0.540139749458
98.0	0.000197843505787	0.540337592964
101.0	3.59715465067e-05	0.54037356451
104.0	0.000287772372054	0.540661336883
107.0	0.000674466497001	0.54133580338
110.0	0.00010791463952	0.541443718019
113.0	9.89217528935e-05	0.541542639772
116.0	0.000647487837121	0.542190127609
119.0	4.49644331334e-05	0.542235092042
122.0	4.49644331334e-05	0.542280056475
125.0	3.59715465067e-05	0.542316028022
128.0	0.000197843505787	0.542513871528
131.0	6.29502063867e-05	0.542576821734
134.0	0.000521587424347	0.543098409158
137.0	8.99288662668e-06	0.543107402045
140.0	8.09359796401e-05	0.543188338025
143.0	0.000305758145307	0.54349409617
146.0	0.000251800825547	0.543745896995
149.0	3.59715465067e-05	0.543781868542
152.0	0.000152879072654	0.543934747615
155.0	0.000179857732534	0.544114605347
158.0	9.89217528935e-05	0.5442135271
161.0	0.00151080495328	0.545724332053
164.0	0.00016187195928	0.545886204013
167.0	0.000116907526147	0.546003111539
170.0	0.00010791463952	0.546111026178
173.0	0.000197843505787	0.546308869684
176.0	6.29502063867e-05	0.54637181989
179.0	0.000170864845907	0.546542684736
182.0	0.000368708351694	0.546911393088
185.0	0.000476622991214	0.547388016079
188.0	8.09359796401e-05	0.547468952059
191.0	0.000179857732534	0.547648809791
194.0	0.00010791463952	0.547756724431
197.0	0.000710438043508	0.548467162474
200.0	0.000170864845907	0.54863802732
203.0	0.00035072257844	0.548988749899
206.0	0.000566551857481	0.549555301756
209.0	0.00010791463952	0.549663216396
212.0	0.000737416703388	0.550400633099
215.0	0.000863317116161	0.551263950215
218.0	0.0010791463952	0.552343096611
221.0	0.0014838262934	0.553826922904
224.0	0.00106116062195	0.554888083526
227.0	6.29502063867e-05	0.554951033732
230.0	0.000890295776041	0.555841329508
233.0	0.00214030701715	0.557981636526
236.0	0.00133094722075	0.559312583746
239.0	5.39573197601e-05	0.559366541066
242.0	3.59715465067e-05	0.559402512613
245.0	5.39573197601e-05	0.559456469932
248.0	8.99288662668e-06	0.559465462819
251.0	0.000125900412773	0.559591363232
254.0	0.00122303258123	0.560814395813
257.0	8.09359796401e-05	0.560895331793
260.0	3.59715465067e-05	0.560931303339
266.0	0.000530580310974	0.56146188365
269.0	0.000386694124947	0.561848577775
272.0	9.89217528935e-05	0.561947499528
275.0	0.000449644331334	0.562397143859
278.0	0.000125900412773	0.562523044272
281.0	0.000494608764467	0.563017653036
284.0	0.000539573197601	0.563557226234
287.0	0.000494608764467	0.564051834999
293.0	0.000710438043508	0.564762273042
296.0	0.000251800825547	0.565014073868
299.0	0.000197843505787	0.565211917373
302.0	7.19430930134e-05	0.565283860466
305.0	0.00035072257844	0.565634583045
308.0	3.59715465067e-05	0.565670554591
311.0	0.00035072257844	0.56602127717
317.0	2.697865988e-05	0.56604825583
320.0	0.000143886186027	0.566192142016
323.0	3.59715465067e-05	0.566228113562
326.0	0.000359715465067	0.566587829027
329.0	2.697865988e-05	0.566614807687
338.0	0.00016187195928	0.566776679646
341.0	0.000152879072654	0.566929558719
344.0	9.89217528935e-05	0.567028480472
347.0	8.99288662668e-06	0.567037473359
350.0	0.00010791463952	0.567145387998
353.0	0.000197843505787	0.567343231504
356.0	0.00132195433412	0.568665185838
359.0	0.00016187195928	0.568827057797
362.0	1.79857732534e-05	0.568845043571
368.0	0.00029676525868	0.569141808829
371.0	3.59715465067e-05	0.569177780376
374.0	8.09359796401e-05	0.569258716355
377.0	0.000710438043508	0.569969154399
380.0	0.000530580310974	0.57049973471
383.0	0.00138490454051	0.57188463925
386.0	0.000512594537721	0.572397233788
389.0	0.000224822165667	0.572622055954
392.0	0.000530580310974	0.573152636265
395.0	0.000917274435921	0.574069910701
398.0	0.000386694124947	0.574456604826
401.0	0.000872310002788	0.575328914828
404.0	0.000197843505787	0.575526758334
407.0	9.89217528935e-05	0.575625680087
413.0	8.09359796401e-05	0.575706616067
416.0	8.99288662668e-05	0.575796544933
419.0	0.000179857732534	0.575976402665
422.0	8.09359796401e-05	0.576057338645
425.0	4.49644331334e-05	0.576102303078
431.0	0.000278779485427	0.576381082564
434.0	0.00016187195928	0.576542954523
437.0	0.00016187195928	0.576704826482
440.0	0.000809359796401	0.577514186279
443.0	0.000530580310974	0.57804476659
446.0	2.697865988e-05	0.57807174525
449.0	0.00024280793892	0.578314553188
452.0	0.000152879072654	0.578467432261
455.0	5.39573197601e-05	0.578521389581
458.0	0.000683459383628	0.579204848964
461.0	8.09359796401e-05	0.579285784944
464.0	0.000368708351694	0.579654493296
467.0	0.000251800825547	0.579906294121
470.0	8.09359796401e-05	0.579987230101
473.0	0.000152879072654	0.580140109174
476.0	0.0001348932994	0.580275002473
479.0	0.000458637217961	0.580733639691
482.0	3.59715465067e-05	0.580769611238
485.0	5.39573197601e-05	0.580823568557
488.0	0.0002697865988	0.581093355156
491.0	0.00010791463952	0.581201269796
494.0	7.19430930134e-05	0.581273212889
497.0	8.09359796401e-05	0.581354148868
500.0	0.000503601651094	0.581857750519
503.0	2.697865988e-05	0.581884729179
506.0	8.99288662668e-06	0.581893722066
509.0	0.000116907526147	0.582010629592
512.0	0.000485615877841	0.58249624547
515.0	0.0001348932994	0.582631138769
518.0	0.000314751031934	0.582945889801
521.0	0.000305758145307	0.583251647946
524.0	0.00018885061916	0.583440498566
527.0	0.000116907526147	0.583557406092
530.0	0.000197843505787	0.583755249598
533.0	0.000287772372054	0.58404302197
536.0	0.00118706103472	0.585230083004
539.0	0.000179857732534	0.585409940737
542.0	9.89217528935e-05	0.58550886249
545.0	8.09359796401e-05	0.585589798469
548.0	0.000116907526147	0.585706705996
551.0	8.99288662668e-06	0.585715698882
554.0	0.000647487837121	0.586363186719
557.0	8.99288662668e-05	0.586453115586
560.0	0.00029676525868	0.586749880844
563.0	0.000260793712174	0.587010674556
566.0	5.39573197601e-05	0.587064631876
569.0	0.000251800825547	0.587316432702
572.0	0.000395687011574	0.587712119713
575.0	0.000251800825547	0.587963920539
578.0	6.29502063867e-05	0.588026870745
581.0	8.99288662668e-06	0.588035863632
584.0	2.697865988e-05	0.588062842292
587.0	0.000458637217961	0.58852147951
590.0	0.00018885061916	0.588710330129
593.0	0.000251800825547	0.588962130954
608.0	0.000287772372054	0.589249903326
611.0	0.000368708351694	0.589618611678
614.0	0.000611516290614	0.590230127969
617.0	0.0002697865988	0.590499914568
620.0	8.99288662668e-06	0.590508907454
623.0	7.19430930134e-05	0.590580850547
626.0	0.000818352683028	0.59139920323
629.0	0.000665473610374	0.592064676841
632.0	0.00037770123832	0.592442378079
635.0	0.000395687011574	0.592838065091
638.0	7.19430930134e-05	0.592910008184
641.0	0.000152879072654	0.593062887256
644.0	8.09359796401e-05	0.593143823236
647.0	0.000116907526147	0.593260730762
650.0	9.89217528935e-05	0.593359652515
653.0	8.99288662668e-05	0.593449581381
656.0	1.79857732534e-05	0.593467567154
659.0	0.000386694124947	0.593854261279
662.0	0.000179857732534	0.594034119012
665.0	0.000287772372054	0.594321891384
671.0	0.00021582927904	0.594537720663
674.0	0.000746409590014	0.595284130253
677.0	0.000152879072654	0.595437009326
680.0	0.000170864845907	0.595607874172
686.0	1.79857732534e-05	0.595625859945
689.0	1.79857732534e-05	0.595643845718
695.0	0.0001348932994	0.595778739017
698.0	8.99288662668e-05	0.595868667884
701.0	0.000233815052294	0.596102482936
704.0	0.000125900412773	0.596228383349
707.0	0.000467630104587	0.596696013453
710.0	5.39573197601e-05	0.596749970773
713.0	0.000206836392414	0.596956807166
716.0	0.00111511794171	0.598071925107
719.0	0.00133094722075	0.599402872328
722.0	0.00016187195928	0.599564744287
725.0	0.000638494950494	0.600203239238
728.0	0.000467630104587	0.600670869342
734.0	3.59715465067e-05	0.600706840889
740.0	0.000179857732534	0.600886698621
743.0	0.000305758145307	0.601192456767
746.0	0.000278779485427	0.601471236252
749.0	0.000233815052294	0.601705051304
752.0	0.000773388249894	0.602478439554
755.0	0.000422665671454	0.602901105226
758.0	7.19430930134e-05	0.602973048319
767.0	0.000224822165667	0.603197870484
770.0	0.000476622991214	0.603674493476
773.0	3.59715465067e-05	0.603710465022
776.0	0.000125900412773	0.603836365435
779.0	4.49644331334e-05	0.603881329868
782.0	9.89217528935e-05	0.603980251621
785.0	0.00021582927904	0.6041960809
788.0	0.00018885061916	0.604384931519
791.0	0.000197843505787	0.604582775025
794.0	4.49644331334e-05	0.604627739458
800.0	0.000233815052294	0.60486155451
803.0	0.000233815052294	0.605095369563
806.0	7.19430930134e-05	0.605167312656
809.0	8.09359796401e-05	0.605248248635
812.0	0.000755402476641	0.606003651112
815.0	8.99288662668e-06	0.606012643999
821.0	0.00021582927904	0.606228473278
824.0	0.0014478547469	0.607676328025
827.0	0.0001348932994	0.607811221324
830.0	0.000431658558081	0.608242879882
833.0	0.00037770123832	0.60862058112
836.0	0.000386694124947	0.609007275245
839.0	0.0012140396946	0.61022131494
842.0	0.000575544744107	0.610796859684
845.0	0.0002697865988	0.611066646283
848.0	0.000719430930134	0.611786077213
851.0	8.99288662668e-05	0.611876006079
857.0	8.09359796401e-05	0.611956942059
860.0	0.000314751031934	0.612271693091
863.0	0.000206836392414	0.612478529483
866.0	0.000557558970854	0.613036088454
869.0	0.000260793712174	0.613296882166
872.0	0.000116907526147	0.613413789692
875.0	0.000278779485427	0.613692569178
878.0	0.00214929990378	0.615841869082
881.0	0.00029676525868	0.61613863434
884.0	0.000332736805187	0.616471371145
887.0	0.000404679898201	0.616876051044
890.0	0.000962238869055	0.617838289913
902.0	0.000728423816761	0.618566713729
905.0	8.99288662668e-06	0.618575706616
908.0	0.000206836392414	0.618782543008
911.0	0.000701445156881	0.619483988165
914.0	0.000260793712174	0.619744781878
917.0	0.000395687011574	0.620140468889
920.0	0.000638494950494	0.62077896384
923.0	0.00016187195928	0.620940835799
926.0	7.19430930134e-05	0.621012778892
929.0	0.000755402476641	0.621768181369
932.0	1.79857732534e-05	0.621786167142
935.0	0.000368708351694	0.622154875493
938.0	0.000404679898201	0.622559555392
947.0	0.000143886186027	0.622703441578
950.0	0.000476622991214	0.623180064569
953.0	3.59715465067e-05	0.623216036115
956.0	8.09359796401e-05	0.623296972095
959.0	0.000512594537721	0.623809566633
962.0	0.00024280793892	0.624052374572
965.0	1.79857732534e-05	0.624070360345
968.0	0.00125001124111	0.625320371586
971.0	0.00037770123832	0.625698072824
980.0	3.59715465067e-05	0.625734044371
983.0	0.000566551857481	0.626300596228
986.0	1.79857732534e-05	0.626318582002
989.0	0.0001348932994	0.626453475301
998.0	3.59715465067e-05	0.626489446848
1001.0	4.49644331334e-05	0.626534411281
1004.0	0.000179857732534	0.626714269013
1007.0	0.00018885061916	0.626903119632
1010.0	0.000386694124947	0.627289813757
1013.0	0.000125900412773	0.62741571417
1016.0	1.79857732534e-05	0.627433699943
1019.0	0.000458637217961	0.627892337161
1022.0	0.000899288662668	0.628791625824
1025.0	0.000152879072654	0.628944504897
1028.0	0.00018885061916	0.629133355516
1031.0	5.39573197601e-05	0.629187312836
1034.0	3.59715465067e-05	0.629223284382
1037.0	0.000665473610374	0.629888757992
1040.0	0.000575544744107	0.630464302737
1043.0	0.000251800825547	0.630716103562
1046.0	0.000827345569654	0.631543449132
1049.0	0.000935260209175	0.632478709341
1052.0	0.00032374391856	0.632802453259
1055.0	0.00016187195928	0.632964325219
1070.0	0.000278779485427	0.633243104704
1073.0	0.000395687011574	0.633638791716
1076.0	0.000359715465067	0.633998507181
1079.0	0.000809359796401	0.634807866977
1091.0	0.000116907526147	0.634924774503
1094.0	3.59715465067e-05	0.63496074605
1103.0	7.19430930134e-05	0.635032689143
1106.0	9.89217528935e-05	0.635131610896
1109.0	0.00024280793892	0.635374418835
1112.0	0.000143886186027	0.635518305021
1115.0	0.00018885061916	0.63570715564
1118.0	0.00032374391856	0.636030899558
1121.0	0.000368708351694	0.63639960791
1124.0	0.0002697865988	0.636669394509
1127.0	0.000260793712174	0.636930188221
1133.0	0.00024280793892	0.63717299616
1136.0	0.000503601651094	0.637676597811
1139.0	0.000593530517361	0.638270128328
1142.0	0.000359715465067	0.638629843794
1145.0	0.00032374391856	0.638953587712
1148.0	0.00010791463952	0.639061502352
1151.0	0.000224822165667	0.639286324517
1154.0	0.00032374391856	0.639610068436
1157.0	0.000539573197601	0.640149641633
1163.0	0.00010791463952	0.640257556273
1181.0	3.59715465067e-05	0.640293527819
1184.0	2.697865988e-05	0.640320506479
1187.0	3.59715465067e-05	0.640356478026
1190.0	0.000278779485427	0.640635257511
1193.0	0.000125900412773	0.640761157924
1196.0	0.000125900412773	0.640887058337
1199.0	0.000908281549295	0.641795339886
1202.0	0.000116907526147	0.641912247412
1205.0	0.000395687011574	0.642307934424
1208.0	0.00113310371496	0.643441038139
1211.0	8.09359796401e-05	0.643521974118
1217.0	3.59715465067e-05	0.643557945665
1220.0	0.000413672784827	0.64397161845
1223.0	6.29502063867e-05	0.644034568656
1226.0	0.000818352683028	0.644852921339
1235.0	0.000314751031934	0.645167672371
1244.0	0.000404679898201	0.645572352269
1247.0	0.000593530517361	0.646165882787
1250.0	9.89217528935e-05	0.64626480454
1259.0	8.09359796401e-05	0.646345740519
1262.0	5.39573197601e-05	0.646399697839
1265.0	0.000647487837121	0.647047185676
1274.0	0.000143886186027	0.647191071862
1283.0	0.000476622991214	0.647667694853
1286.0	8.99288662668e-05	0.64775762372
1292.0	0.00010791463952	0.647865538359
1295.0	0.000260793712174	0.648126332071
1304.0	4.49644331334e-05	0.648171296504
1310.0	2.697865988e-05	0.648198275164
1319.0	1.79857732534e-05	0.648216260938
1322.0	0.00107015350857	0.649286414446
1325.0	4.49644331334e-05	0.649331378879
1328.0	0.000584537630734	0.64991591651
1331.0	2.697865988e-05	0.64994289517
1337.0	4.49644331334e-05	0.649987859603
1340.0	6.29502063867e-05	0.650050809809
1343.0	0.000611516290614	0.6506623261
1346.0	0.000467630104587	0.651129956205
1349.0	2.697865988e-05	0.651156934865
1352.0	0.0002697865988	0.651426721463
1355.0	0.00032374391856	0.651750465382
1358.0	0.000548566084227	0.652299031466
1361.0	0.000485615877841	0.652784647344
1364.0	0.00115108948821	0.653935736832
1370.0	0.000440651444707	0.654376388277
1373.0	0.000890295776041	0.655266684053
1379.0	3.59715465067e-05	0.655302655599
1382.0	0.000332736805187	0.655635392405
1397.0	8.09359796401e-05	0.655716328384
1403.0	0.000143886186027	0.65586021457
1406.0	8.09359796401e-05	0.65594115055
1409.0	0.00010791463952	0.656049065189
1412.0	0.000332736805187	0.656381801995
1415.0	8.99288662668e-06	0.656390794881
1418.0	0.000791374023148	0.657182168904
1421.0	3.59715465067e-05	0.657218140451
1427.0	0.000152879072654	0.657371019524
1430.0	0.000440651444707	0.657811670968
1433.0	2.697865988e-05	0.657838649628
1436.0	8.99288662668e-06	0.657847642515
1439.0	0.000413672784827	0.6582613153
1442.0	0.00316549609259	0.661426811392
1445.0	0.00329139650536	0.664718207898
1451.0	0.000899288662668	0.66561749656
1454.0	0.000368708351694	0.665986204912
1457.0	0.000710438043508	0.666696642955
1460.0	0.000116907526147	0.666813550482
1463.0	8.09359796401e-05	0.666894486461
1466.0	0.000971231755681	0.667865718217
1469.0	0.00037770123832	0.668243419455
1472.0	0.00136691876726	0.669610338222
1475.0	0.000755402476641	0.670365740699
1478.0	4.49644331334e-05	0.670410705132
1481.0	0.000863317116161	0.671274022248
1484.0	0.000314751031934	0.67158877328
1490.0	0.000746409590014	0.67233518287
1493.0	0.000845331342908	0.673180514213
1496.0	0.00151979783991	0.674700312053
1499.0	0.000251800825547	0.674952112879
1502.0	0.00233815052294	0.677290263402
1505.0	0.000305758145307	0.677596021547
1508.0	0.000899288662668	0.67849531021
1511.0	0.000260793712174	0.678756103922
1514.0	0.000467630104587	0.679223734026
1523.0	3.59715465067e-05	0.679259705573
1526.0	0.000521587424347	0.679781292997
1529.0	0.000170864845907	0.679952157843
1538.0	0.00010791463952	0.680060072483
1541.0	7.19430930134e-05	0.680132015576
1550.0	0.000458637217961	0.680590652794
1553.0	0.000233815052294	0.680824467846
1556.0	0.00176260577883	0.682587073625
1559.0	0.000611516290614	0.683198589915
1562.0	0.00016187195928	0.683360461875
1568.0	0.000359715465067	0.68372017734
1571.0	0.0001348932994	0.683855070639
1574.0	0.00037770123832	0.684232771877
1583.0	8.09359796401e-05	0.684313707857
1586.0	3.59715465067e-05	0.684349679404
1589.0	2.697865988e-05	0.684376658063
1595.0	0.000566551857481	0.684943209921
1598.0	2.697865988e-05	0.684970188581
1604.0	0.000260793712174	0.685230982293
1607.0	8.99288662668e-06	0.68523997518
1613.0	7.19430930134e-05	0.685311918273
1616.0	5.39573197601e-05	0.685365875592
1619.0	7.19430930134e-05	0.685437818685
1622.0	0.000503601651094	0.685941420337
1625.0	7.19430930134e-05	0.68601336343
1628.0	0.000287772372054	0.686301135802
1631.0	5.39573197601e-05	0.686355093121
1637.0	0.00035072257844	0.6867058157
1643.0	0.000440651444707	0.687146467144
1646.0	0.0001348932994	0.687281360444
1652.0	0.000125900412773	0.687407260857
1679.0	0.000125900412773	0.687533161269
1682.0	0.00016187195928	0.687695033229
1685.0	5.39573197601e-05	0.687748990548
1697.0	8.99288662668e-06	0.687757983435
1700.0	0.00010791463952	0.687865898075
1703.0	8.99288662668e-05	0.687955826941
1706.0	6.29502063867e-05	0.688018777147
1709.0	0.000638494950494	0.688657272098
1711.0	0.000872310002788	0.689529582101
1718.0	0.00035072257844	0.689880304679
1721.0	1.79857732534e-05	0.689898290452
1724.0	7.19430930134e-05	0.689970233545
1727.0	0.00176260577883	0.691732839324
1729.0	0.000512594537721	0.692245433862
1733.0	0.000476622991214	0.692722056853
1736.0	0.000440651444707	0.693162708298
1738.0	0.00139389742714	0.694556605725
1742.0	0.000674466497001	0.695231072222
1745.0	0.000368708351694	0.695599780574
1748.0	3.59715465067e-05	0.69563575212
1750.0	0.000458637217961	0.696094389338
1754.0	3.59715465067e-05	0.696130360885
1757.0	0.00010791463952	0.696238275524
1759.0	0.000521587424347	0.696759862948
1763.0	0.000224822165667	0.696984685114
1766.0	0.00124101835448	0.698225703469
1769.0	0.000683459383628	0.698909162852
1771.0	0.00313851743271	0.702047680285
1774.0	0.00118706103472	0.70323474132
1778.0	0.000386694124947	0.703621435445
1781.0	0.000539573197601	0.704161008642
1783.0	0.00010791463952	0.704268923282
1787.0	0.000656480723748	0.704925404005
1790.0	0.000233815052294	0.705159219058
1793.0	0.000773388249894	0.705932607308
1795.0	0.00110612505508	0.707038732363
1798.0	0.000224822165667	0.707263554528
1802.0	3.59715465067e-05	0.707299526075
1805.0	0.00010791463952	0.707407440714
1808.0	8.09359796401e-05	0.707488376694
1814.0	0.000197843505787	0.7076862202
1817.0	3.59715465067e-05	0.707722191746
1820.0	7.19430930134e-05	0.707794134839
1823.0	0.000251800825547	0.708045935665
1826.0	0.000116907526147	0.708162843191
1829.0	0.00187052041835	0.710033363609
1832.0	0.0001348932994	0.710168256909
1835.0	7.19430930134e-05	0.710240200002
1837.0	0.00139389742714	0.711634097429
1841.0	0.00116907526147	0.71280317269
1843.0	0.000755402476641	0.713558575167
1846.0	0.000764395363268	0.71432297053
1850.0	0.000197843505787	0.714520814036
1853.0	0.000152879072654	0.714673693109
1862.0	3.59715465067e-05	0.714709664655
1871.0	3.59715465067e-05	0.714745636202
1874.0	0.000332736805187	0.715078373007
1876.0	0.00173562711895	0.716814000126
1879.0	0.00118706103472	0.718001061161
1883.0	0.000485615877841	0.718486677038
1885.0	0.000476622991214	0.71896330003
1895.0	0.00010791463952	0.719071214669
1898.0	8.99288662668e-06	0.719080207556
1901.0	9.89217528935e-05	0.719179129309
1903.0	0.00116008237484	0.720339211684
1907.0	0.000755402476641	0.72109461416
1913.0	1.79857732534e-05	0.721112599933
1916.0	0.000260793712174	0.721373393646
1919.0	0.000143886186027	0.721517279832
1921.0	0.000584537630734	0.722101817462
1925.0	4.49644331334e-05	0.722146781896
1931.0	0.000125900412773	0.722272682308
1934.0	0.00021582927904	0.722488511587
1936.0	0.000251800825547	0.722740312413
1940.0	0.000116907526147	0.722857219939
1943.0	0.000170864845907	0.723028084785
1954.0	0.000755402476641	0.723783487262
1958.0	0.00037770123832	0.7241611885
1960.0	0.000494608764467	0.724655797264
1964.0	5.39573197601e-05	0.724709754584
1970.0	2.697865988e-05	0.724736733244
1972.0	0.00021582927904	0.724952562523
1976.0	0.000125900412773	0.725078462936
1987.0	0.000485615877841	0.725564078814
1990.0	0.000368708351694	0.725932787165
1994.0	1.79857732534e-05	0.725950772939
1996.0	0.0010791463952	0.727029919334
1999.0	0.00107015350857	0.728100072842
2002.0	8.99288662668e-06	0.728109065729
2009.0	0.000152879072654	0.728261944802
2011.0	0.000152879072654	0.728414823874
2014.0	0.0010791463952	0.72949397027
2017.0	0.00244606516246	0.731940035432
2020.0	4.49644331334e-05	0.731984999865
2024.0	0.000179857732534	0.732164857598
2027.0	0.000449644331334	0.732614501929
2036.0	5.39573197601e-05	0.732668459249
2038.0	8.99288662668e-06	0.732677452135
2042.0	0.000332736805187	0.733010188941
2044.0	0.00104317484869	0.734053363789
2050.0	0.000341729691814	0.734395093481
2065.0	0.000440651444707	0.734835744926
2069.0	4.49644331334e-05	0.734880709359
2071.0	0.00112411082833	0.736004820187
2074.0	0.000737416703388	0.736742236891
2078.0	8.09359796401e-05	0.73682317287
2095.0	0.00149281918003	0.73831599205
2098.0	0.000530580310974	0.738846572361
2101.0	0.000251800825547	0.739098373187
2104.0	0.000683459383628	0.73978183257
2114.0	8.99288662668e-06	0.739790825457
2116.0	0.000935260209175	0.740726085666
2119.0	0.000701445156881	0.741427530823
2123.0	0.00010791463952	0.741535445463
2132.0	0.000125900412773	0.741661345875
2134.0	0.000449644331334	0.742110990207
2137.0	7.19430930134e-05	0.7421829333
2140.0	0.000539573197601	0.742722506497
2144.0	4.49644331334e-05	0.74276747093
2147.0	0.000170864845907	0.742938335776
2152.0	0.000494608764467	0.743432944541
2155.0	0.00164569825268	0.745078642794
2158.0	0.000206836392414	0.745285479186
2162.0	2.697865988e-05	0.745312457846
2164.0	8.99288662668e-05	0.745402386712
2171.0	3.59715465067e-05	0.745438358259
2173.0	0.000521587424347	0.745959945683
2180.0	4.49644331334e-05	0.746004910116
2182.0	0.000827345569654	0.746832255686
2194.0	0.000746409590014	0.747578665276
2197.0	6.29502063867e-05	0.747641615482
2200.0	0.00207735681076	0.749718972293
2203.0	0.00142087608702	0.75113984838
2206.0	0.00378600526983	0.75492585365
2209.0	3.59715465067e-05	0.754961825196
2215.0	0.000494608764467	0.755456433961
2218.0	7.19430930134e-05	0.755528377054
2222.0	9.89217528935e-05	0.755627298807
2231.0	3.59715465067e-05	0.755663270353
2233.0	0.000125900412773	0.755789170766
2236.0	0.000575544744107	0.75636471551
2239.0	0.000512594537721	0.756877310048
2242.0	8.99288662668e-05	0.756967238914
2246.0	3.59715465067e-05	0.757003210461
2255.0	3.59715465067e-05	0.757039182007
2258.0	1.79857732534e-05	0.75705716778
2261.0	1.79857732534e-05	0.757075153554
2263.0	0.000503601651094	0.757578755205
2266.0	0.000152879072654	0.757731634277
2269.0	0.000629502063867	0.758361136341
2272.0	4.49644331334e-05	0.758406100774
2276.0	9.89217528935e-05	0.758505022527
2279.0	4.49644331334e-05	0.75854998696
2282.0	5.39573197601e-05	0.75860394428
2285.0	8.99288662668e-06	0.758612937167
2287.0	0.00313851743271	0.761751454599
2294.0	2.697865988e-05	0.761778433259
2296.0	0.00021582927904	0.761994262538
2300.0	0.000458637217961	0.762452899756
2302.0	0.000422665671454	0.762875565428
2305.0	0.00187951330498	0.764755078733
2308.0	0.00021582927904	0.764970908012
2312.0	1.79857732534e-05	0.764988893785
2321.0	8.99288662668e-06	0.764997886672
2323.0	0.00037770123832	0.76537558791
2326.0	8.09359796401e-05	0.76545652389
2329.0	0.000341729691814	0.765798253581
2383.0	0.000485615877841	0.766283869459
2387.0	5.39573197601e-05	0.766337826779
2389.0	7.19430930134e-05	0.766409769872
2392.0	0.000647487837121	0.767057257709
2399.0	0.000170864845907	0.767228122555
2401.0	0.00035072257844	0.767578845133
2404.0	0.00133094722075	0.768909792354
2419.0	0.00201440660438	0.770924198959
2423.0	8.99288662668e-06	0.770933191845
2426.0	8.99288662668e-05	0.771023120712
2428.0	0.000602523403987	0.771625644116
2431.0	0.000179857732534	0.771805501848
2438.0	2.697865988e-05	0.771832480508
2440.0	9.89217528935e-05	0.771931402261
2443.0	8.99288662668e-06	0.771940395147
2456.0	8.99288662668e-06	0.771949388034
2458.0	0.000341729691814	0.772291117726
2461.0	0.000593530517361	0.772884648243
2464.0	0.00120504680797	0.774089695051
2473.0	0.000413672784827	0.774503367836
2476.0	8.99288662668e-06	0.774512360723
2482.0	0.000233815052294	0.774746175775
2494.0	9.89217528935e-05	0.774845097528
2522.0	0.00010791463952	0.774953012167
2524.0	9.89217528935e-05	0.77505193392
2569.0	0.00139389742714	0.776445831347
2572.0	0.00142986897364	0.777875700321
2575.0	0.000656480723748	0.778532181045
2578.0	0.000152879072654	0.778685060117
2581.0	0.00105216773532	0.779737227853
2584.0	0.00032374391856	0.780060971771
2620.0	0.000404679898201	0.78046565167
2623.0	0.000179857732534	0.780645509402
2626.0	8.09359796401e-05	0.780726445382
2632.0	7.19430930134e-05	0.780798388475
2635.0	0.00010791463952	0.780906303114
2641.0	0.000152879072654	0.781059182187
2647.0	4.49644331334e-05	0.78110414662
2660.0	8.99288662668e-06	0.781113139507
2662.0	0.000404679898201	0.781517819405
2665.0	7.19430930134e-05	0.781589762498
2680.0	0.00119605392135	0.782785816419
2683.0	4.49644331334e-05	0.782830780852
2686.0	0.000116907526147	0.782947688378
2689.0	1.79857732534e-05	0.782965674152
2698.0	8.09359796401e-05	0.783046610131
2704.0	8.99288662668e-06	0.783055603018
2710.0	0.000503601651094	0.783559204669
2713.0	0.000206836392414	0.783766041062
2729.0	1.79857732534e-05	0.783784026835
2731.0	0.000494608764467	0.784278635599
2735.0	5.39573197601e-05	0.784332592919
2746.0	5.39573197601e-05	0.784386550239
2749.0	0.000467630104587	0.784854180343
2752.0	8.99288662668e-05	0.78494410921
2755.0	0.000368708351694	0.785312817561
2759.0	0.00016187195928	0.785474689521
2761.0	0.00189749907823	0.787372188599
2764.0	0.000233815052294	0.787606003651
2770.0	0.000431658558081	0.788037662209
2773.0	0.00010791463952	0.788145576849
2785.0	0.000467630104587	0.788613206953
2794.0	0.000116907526147	0.788730114479
2797.0	0.000998210415561	0.789728324895
2800.0	0.000233815052294	0.789962139947
2812.0	6.29502063867e-05	0.790025090154
2830.0	4.49644331334e-05	0.790070054587
2833.0	0.000287772372054	0.790357826959
2839.0	1.79857732534e-05	0.790375812732
2842.0	0.000503601651094	0.790879414383
2848.0	3.59715465067e-05	0.79091538593
2852.0	8.99288662668e-06	0.790924378816
2857.0	0.00021582927904	0.791140208095
2860.0	0.000386694124947	0.79152690222
2867.0	2.697865988e-05	0.79155388088
2869.0	8.99288662668e-06	0.791562873767
2872.0	7.19430930134e-05	0.79163481686
2879.0	8.99288662668e-06	0.791643809746
2881.0	0.000368708351694	0.792012518098
2884.0	0.00260793712174	0.79462045522
2896.0	0.00128598278761	0.795906438008
2900.0	1.79857732534e-05	0.795924423781
2902.0	0.000701445156881	0.796625868938
2905.0	0.00010791463952	0.796733783577
2908.0	0.000224822165667	0.796958605743
2911.0	3.59715465067e-05	0.796994577289
2914.0	8.09359796401e-05	0.797075513269
2917.0	0.000665473610374	0.797740986879
2920.0	0.000224822165667	0.797965809045
2923.0	0.00111511794171	0.799080926987
2935.0	0.00037770123832	0.799458628225
2938.0	4.49644331334e-05	0.799503592658
2959.0	0.000260793712174	0.79976438637
2962.0	0.000989217528935	0.800753603899
2980.0	0.00127698990099	0.8020305938
2983.0	0.000980224642308	0.803010818443
3005.0	2.697865988e-05	0.803037797102
3025.0	6.29502063867e-05	0.803100747309
3029.0	6.29502063867e-05	0.803163697515
3031.0	0.000656480723748	0.803820178239
3034.0	0.000359715465067	0.804179893704
3037.0	5.39573197601e-05	0.804233851024
3040.0	8.99288662668e-06	0.80424284391
3058.0	0.000197843505787	0.804440687416
3083.0	3.59715465067e-05	0.804476658963
3085.0	0.000251800825547	0.804728459788
3088.0	0.000116907526147	0.804845367314
3115.0	0.000440651444707	0.805286018759
3134.0	2.697865988e-05	0.805312997419
3136.0	0.000206836392414	0.805519833811
3139.0	5.39573197601e-05	0.805573791131
3142.0	0.000629502063867	0.806203293195
3145.0	1.79857732534e-05	0.806221278968
3149.0	8.99288662668e-06	0.806230271855
3151.0	0.000206836392414	0.806437108247
3154.0	0.000125900412773	0.80656300866
3157.0	3.59715465067e-05	0.806598980207
3160.0	0.000233815052294	0.806832795259
3163.0	0.0014478547469	0.808280650006
3166.0	0.000746409590014	0.809027059596
3199.0	0.000260793712174	0.809287853308
3202.0	0.00010791463952	0.809395767948
3214.0	1.79857732534e-05	0.809413753721
3217.0	0.00125001124111	0.810663764962
3220.0	0.00142087608702	0.812084641049
3223.0	0.00102518907544	0.813109830124
3226.0	3.59715465067e-05	0.813145801671
3229.0	0.000143886186027	0.813289687857
3235.0	0.000368708351694	0.813658396209
3238.0	0.000953245982428	0.814611642191
3241.0	0.00234714340956	0.816958785601
3244.0	8.99288662668e-06	0.816967778487
3247.0	3.59715465067e-05	0.817003750034
3250.0	2.697865988e-05	0.817030728694
3253.0	0.0001348932994	0.817165621993
3256.0	0.000116907526147	0.817282529519
3259.0	8.99288662668e-06	0.817291522406
3262.0	8.99288662668e-06	0.817300515292
3265.0	1.79857732534e-05	0.817318501066
3268.0	0.000206836392414	0.817525337458
3277.0	2.697865988e-05	0.817552316118
3280.0	0.000314751031934	0.81786706715
3283.0	4.49644331334e-05	0.817912031583
3292.0	0.000278779485427	0.818190811068
3295.0	6.29502063867e-05	0.818253761275
3298.0	0.000179857732534	0.818433619007
3301.0	0.000251800825547	0.818685419833
3304.0	0.000521587424347	0.819207007257
3307.0	1.79857732534e-05	0.819224993031
3310.0	6.29502063867e-05	0.819287943237
3313.0	0.000116907526147	0.819404850763
3322.0	0.000143886186027	0.819548736949
3325.0	4.49644331334e-05	0.819593701382
3349.0	5.39573197601e-05	0.819647658702
3373.0	8.99288662668e-05	0.819737587568
3376.0	0.0001348932994	0.819872480868
3379.0	0.000224822165667	0.820097303033
3382.0	0.000170864845907	0.820268167879
3385.0	0.000116907526147	0.820385075405
3389.0	8.99288662668e-06	0.820394068292
3391.0	7.19430930134e-05	0.820466011385
3394.0	8.99288662668e-06	0.820475004272
3400.0	2.697865988e-05	0.820501982932
3403.0	0.00016187195928	0.820663854891
3406.0	0.000152879072654	0.820816733963
3409.0	0.000305758145307	0.821122492109
3412.0	0.000656480723748	0.821778972832
3415.0	1.79857732534e-05	0.821796958606
3418.0	0.0001348932994	0.821931851905
3421.0	7.19430930134e-05	0.822003794998
3424.0	4.49644331334e-05	0.822048759431
3427.0	0.000359715465067	0.822408474896
3469.0	0.000251800825547	0.822660275722
3472.0	0.000440651444707	0.823100927167
3475.0	7.19430930134e-05	0.82317287026
3481.0	0.000197843505787	0.823370713765
3505.0	5.39573197601e-05	0.823424671085
3508.0	0.000143886186027	0.823568557271
3511.0	0.00035072257844	0.82391927985
3520.0	0.000890295776041	0.824809575626
3523.0	7.19430930134e-05	0.824881518719
3526.0	8.09359796401e-05	0.824962454698
3529.0	5.39573197601e-05	0.825016412018
3532.0	3.59715465067e-05	0.825052383565
3535.0	3.59715465067e-05	0.825088355111
3538.0	5.39573197601e-05	0.825142312431
3541.0	3.59715465067e-05	0.825178283977
3547.0	1.79857732534e-05	0.825196269751
3550.0	0.000710438043508	0.825906707794
3553.0	8.99288662668e-05	0.82599663666
3565.0	6.29502063867e-05	0.826059586867
3568.0	0.000449644331334	0.826509231198
3592.0	0.000881302889414	0.827390534088
3595.0	0.00018885061916	0.827579384707
3598.0	0.000431658558081	0.828011043265
3601.0	0.000125900412773	0.828136943678
3619.0	8.09359796401e-05	0.828217879657
3622.0	4.49644331334e-05	0.82826284409
3625.0	2.697865988e-05	0.82828982275
3628.0	0.000206836392414	0.828496659143
3631.0	8.99288662668e-06	0.828505652029
3646.0	3.59715465067e-05	0.828541623576
3649.0	0.000233815052294	0.828775438628
3658.0	0.000449644331334	0.829225082959
3661.0	0.000503601651094	0.82972868461
3664.0	0.000917274435921	0.830645959046
3667.0	0.000125900412773	0.830771859459
3685.0	0.000287772372054	0.831059631831
3688.0	3.59715465067e-05	0.831095603378
3694.0	3.59715465067e-05	0.831131574924
3697.0	0.00024280793892	0.831374382863
3703.0	3.59715465067e-05	0.83141035441
3706.0	0.000179857732534	0.831590212142
3709.0	0.000692452270254	0.832282664412
3712.0	2.697865988e-05	0.832309643072
3715.0	3.59715465067e-05	0.832345614619
3718.0	0.000512594537721	0.832858209157
3721.0	0.00029676525868	0.833154974415
3739.0	3.59715465067e-05	0.833190945962
3742.0	3.59715465067e-05	0.833226917508
3745.0	0.000143886186027	0.833370803694
3748.0	0.000152879072654	0.833523682767
3814.0	0.000152879072654	0.83367656184
3817.0	0.0001348932994	0.833811455139
3820.0	0.00114209660159	0.834953551741
3823.0	8.99288662668e-05	0.835043480607
3826.0	0.000260793712174	0.835304274319
3829.0	0.0002697865988	0.835574060918
3838.0	0.000953245982428	0.8365273069
3841.0	0.000170864845907	0.836698171746
3856.0	2.697865988e-05	0.836725150406
3859.0	0.000485615877841	0.837210766284
3883.0	0.000116907526147	0.83732767381
3886.0	0.0001348932994	0.837462567109
3889.0	1.79857732534e-05	0.837480552883
3892.0	0.000548566084227	0.838029118967
3894.0	3.59715465067e-05	0.838065090513
3931.0	3.59715465067e-05	0.83810106206
3934.0	0.000674466497001	0.838775528557
3937.0	0.00112411082833	0.839899639385
3940.0	0.000944253095801	0.840843892481
3955.0	7.19430930134e-05	0.840915835574
3957.0	0.000431658558081	0.841347494132
3959.0	8.09359796401e-05	0.841428430112
3961.0	0.000422665671454	0.841851095783
3973.0	7.19430930134e-05	0.841923038876
3976.0	0.000809359796401	0.842732398673
3978.0	0.000179857732534	0.842912256405
3982.0	7.19430930134e-05	0.842984199498
4000.0	8.99288662668e-06	0.842993192385
4003.0	0.00119605392135	0.844189246306
4006.0	0.00192447773811	0.846113724044
4011.0	0.000521587424347	0.846635311469
4013.0	4.49644331334e-05	0.846680275902
4015.0	0.00127698990099	0.847957265803
4021.0	0.000539573197601	0.848496839
4024.0	0.000260793712174	0.848757632713
4030.0	0.0001348932994	0.848892526012
4033.0	1.79857732534e-05	0.848910511785
4045.0	0.000593530517361	0.849504042303
4048.0	9.89217528935e-05	0.849602964055
4051.0	0.000125900412773	0.849728864468
4054.0	0.000494608764467	0.850223473233
4063.0	3.59715465067e-05	0.850259444779
4066.0	0.000305758145307	0.850565202924
4069.0	0.00018885061916	0.850754053544
4072.0	9.89217528935e-05	0.850852975297
4102.0	7.19430930134e-05	0.85092491839
4105.0	0.000314751031934	0.851239669421
4141.0	8.99288662668e-06	0.851248662308
4144.0	0.000125900412773	0.851374562721
4147.0	8.99288662668e-05	0.851464491587
4150.0	0.000935260209175	0.852399751796
4162.0	3.59715465067e-05	0.852435723343
4165.0	0.000449644331334	0.852885367674
4195.0	4.49644331334e-05	0.852930332107
4198.0	3.59715465067e-05	0.852966303654
4204.0	3.59715465067e-05	0.8530022752
4207.0	0.000152879072654	0.853155154273
4210.0	0.000233815052294	0.853388969325
4212.0	2.697865988e-05	0.853415947985
4237.0	8.99288662668e-06	0.853424940872
4240.0	0.000332736805187	0.853757677677
4246.0	3.59715465067e-05	0.853793649223
4249.0	0.00010791463952	0.853901563863
4252.0	8.99288662668e-06	0.85391055675
4267.0	0.000710438043508	0.854620994793
4270.0	0.000935260209175	0.855556255002
4273.0	0.00105216773532	0.856608422738
4281.0	0.000683459383628	0.857291882121
4283.0	1.79857732534e-05	0.857309867894
4297.0	8.09359796401e-05	0.857390803874
4300.0	0.000143886186027	0.85753469006
4305.0	0.000413672784827	0.857948362845
4307.0	8.99288662668e-06	0.857957355732
4327.0	0.000728423816761	0.858685779548
4329.0	0.00222124299679	0.860907022545
4331.0	4.49644331334e-05	0.860951986978
4367.0	1.79857732534e-05	0.860969972752
4369.0	0.00029676525868	0.86126673801
4375.0	4.49644331334e-05	0.861311702443
4380.0	0.000449644331334	0.861761346775
4384.0	0.00010791463952	0.861869261414
4387.0	0.00024280793892	0.862112069353
4390.0	0.000197843505787	0.862309912859
4402.0	2.697865988e-05	0.862336891519
4405.0	8.09359796401e-05	0.862417827498
4408.0	0.000197843505787	0.862615671004
4411.0	8.09359796401e-05	0.862696606984
4414.0	0.000467630104587	0.863164237088
4416.0	0.00154677649979	0.864711013588
4418.0	3.59715465067e-05	0.864746985135
4435.0	0.000971231755681	0.86571821689
4437.0	0.000557558970854	0.866275775861
4439.0	8.99288662668e-06	0.866284768748
4441.0	4.49644331334e-05	0.866329733181
4459.0	8.99288662668e-06	0.866338726068
4476.0	1.79857732534e-05	0.866356711841
4480.0	8.99288662668e-06	0.866365704728
4483.0	1.79857732534e-05	0.866383690501
4485.0	2.697865988e-05	0.866410669161
4498.0	4.49644331334e-05	0.866455633594
4501.0	0.000197843505787	0.8666534771
4504.0	3.59715465067e-05	0.866689448646
4522.0	3.59715465067e-05	0.866725420193
4525.0	0.000125900412773	0.866851320605
4543.0	3.59715465067e-05	0.866887292152
4546.0	0.00029676525868	0.867184057411
4548.0	1.79857732534e-05	0.867202043184
4552.0	8.09359796401e-05	0.867282979163
4554.0	7.19430930134e-05	0.867354922256
4561.0	4.49644331334e-05	0.86739988669
4563.0	0.0013129614475	0.868712848137
4565.0	2.697865988e-05	0.868739826797
4569.0	0.000422665671454	0.869162492468
4573.0	8.99288662668e-05	0.869252421335
4588.0	0.0002697865988	0.869522207934
4590.0	0.000566551857481	0.870088759791
4594.0	0.000305758145307	0.870394517936
4636.0	0.00018885061916	0.870583368555
4638.0	0.000980224642308	0.871563593198
4640.0	2.697865988e-05	0.871590571858
4642.0	0.000206836392414	0.87179740825
4651.0	8.99288662668e-06	0.871806401137
4653.0	0.00021582927904	0.872022230416
4657.0	0.000431658558081	0.872453888974
4679.0	3.59715465067e-05	0.87248986052
4681.0	0.000809359796401	0.873299220317
4687.0	8.99288662668e-05	0.873389149183
4690.0	6.29502063867e-05	0.873452099389
4699.0	1.79857732534e-05	0.873470085163
4702.0	3.59715465067e-05	0.873506056709
4705.0	5.39573197601e-05	0.873560014029
4711.0	2.697865988e-05	0.873586992689
4713.0	0.000575544744107	0.874162537433
4717.0	3.59715465067e-05	0.874198508979
4720.0	5.39573197601e-05	0.874252466299
4735.0	6.29502063867e-05	0.874315416506
4738.0	8.99288662668e-05	0.874405345372
4786.0	0.00029676525868	0.87470211063
4788.0	0.000503601651094	0.875205712282
4792.0	4.49644331334e-05	0.875250676715
4794.0	0.00106116062195	0.876311837337
4796.0	5.39573197601e-05	0.876365794656
4798.0	8.99288662668e-05	0.876455723523
4816.0	3.59715465067e-05	0.876491695069
4819.0	6.29502063867e-05	0.876554645276
4822.0	0.000152879072654	0.876707524348
4824.0	0.000845331342908	0.877552855691
4831.0	8.09359796401e-05	0.877633791671
4834.0	4.49644331334e-05	0.877678756104
4854.0	0.000386694124947	0.878065450229
4856.0	8.99288662668e-06	0.878074443115
4858.0	8.09359796401e-05	0.878155379095
4860.0	8.99288662668e-05	0.878245307961
4896.0	0.00160972670618	0.879855034668
4898.0	0.000368708351694	0.880223743019
4900.0	0.00351621867103	0.88373996169
4902.0	0.00018885061916	0.883928812309
4906.0	8.09359796401e-05	0.884009748289
4927.0	8.09359796401e-05	0.884090684269
4929.0	0.000962238869055	0.885052923138
4945.0	0.000476622991214	0.885529546129
4947.0	0.000197843505787	0.885727389635
4962.0	0.000116907526147	0.885844297161
4968.0	0.000233815052294	0.886078112213
4981.0	0.0002697865988	0.886347898812
4983.0	0.000368708351694	0.886716607164
5028.0	0.00118706103472	0.887903668198
5031.0	5.39573197601e-05	0.887957625518
5049.0	0.00016187195928	0.888119497477
5058.0	0.000386694124947	0.888506191602
5061.0	0.000197843505787	0.888704035108
5064.0	0.00032374391856	0.889027779027
5067.0	0.000287772372054	0.889315551399
5070.0	0.00151979783991	0.890835349239
5072.0	1.79857732534e-05	0.890853335012
5079.0	0.000656480723748	0.891509815736
5082.0	0.000251800825547	0.891761616561
5091.0	0.000224822165667	0.891986438727
5094.0	0.000755402476641	0.892741841204
5097.0	0.00016187195928	0.892903713163
5106.0	0.000395687011574	0.893299400174
5108.0	0.000152879072654	0.893452279247
5110.0	0.000872310002788	0.89432458925
5112.0	0.00016187195928	0.894486461209
5115.0	0.000845331342908	0.895331792552
5143.0	8.99288662668e-06	0.895340785439
5145.0	0.000854324229534	0.896195109668
5148.0	0.000152879072654	0.896347988741
5151.0	0.000593530517361	0.896941519258
5155.0	2.697865988e-05	0.896968497918
5157.0	6.29502063867e-05	0.897031448125
5211.0	0.000332736805187	0.89736418493
5213.0	0.000332736805187	0.897696921735
5215.0	0.00151080495328	0.899207726688
5230.0	3.59715465067e-05	0.899243698235
5232.0	0.000125900412773	0.899369598647
5256.0	0.000143886186027	0.899513484833
5269.0	2.697865988e-05	0.899540463493
5271.0	0.000278779485427	0.899819242979
5277.0	0.000116907526147	0.899936150505
5286.0	0.000206836392414	0.900142986897
5289.0	1.79857732534e-05	0.900160972671
5298.0	8.09359796401e-05	0.90024190865
5301.0	0.000206836392414	0.900448745043
5304.0	0.000125900412773	0.900574645455
5326.0	0.00016187195928	0.900736517415
5328.0	0.000665473610374	0.901401991025
5349.0	0.0002697865988	0.901671777624
5352.0	0.000908281549295	0.902580059173
5355.0	0.000566551857481	0.903146611031
5358.0	0.000260793712174	0.903407404743
5362.0	1.79857732534e-05	0.903425390516
5364.0	9.89217528935e-05	0.903524312269
5367.0	6.29502063867e-05	0.903587262475
5370.0	0.000359715465067	0.90394697794
5389.0	6.29502063867e-05	0.904009928147
5391.0	0.000116907526147	0.904126835673
5406.0	0.00284175217403	0.906968587847
5409.0	0.00141188320039	0.908380471047
5412.0	4.49644331334e-05	0.908425435481
5416.0	3.59715465067e-05	0.908461407027
5418.0	8.99288662668e-05	0.908551335893
5421.0	0.000224822165667	0.908776158059
5424.0	0.000233815052294	0.909009973111
5427.0	4.49644331334e-05	0.909054937544
5449.0	4.49644331334e-05	0.909099901978
5451.0	0.000278779485427	0.909378681463
5457.0	7.19430930134e-05	0.909450624556
5460.0	0.00021582927904	0.909666453835
5490.0	1.79857732534e-05	0.909684439608
5493.0	0.000116907526147	0.909801347134
5517.0	5.39573197601e-05	0.909855304454
5520.0	8.99288662668e-05	0.90994523332
5523.0	0.00024280793892	0.910188041259
5544.0	9.89217528935e-05	0.910286963012
5547.0	0.000395687011574	0.910682650024
5584.0	0.00010791463952	0.910790564663
5586.0	0.000773388249894	0.911563952913
5596.0	1.79857732534e-05	0.911581938686
5598.0	0.000170864845907	0.911752803532
5602.0	0.000116907526147	0.911869711059
5604.0	8.09359796401e-05	0.911950647038
5632.0	8.99288662668e-06	0.911959639925
5634.0	0.000179857732534	0.912139497657
5649.0	0.000395687011574	0.912535184669
5652.0	0.0001348932994	0.912670077968
5655.0	0.000674466497001	0.913344544465
5679.0	0.000395687011574	0.913740231477
5697.0	0.000233815052294	0.913974046529
5700.0	4.49644331334e-05	0.914019010962
5748.0	0.000692452270254	0.914711463233
5751.0	0.000332736805187	0.915044200038
5754.0	0.000485615877841	0.915529815916
5784.0	0.00018885061916	0.915718666535
5787.0	0.000836338456281	0.916555004991
5820.0	0.000890295776041	0.917445300767
5823.0	0.000800366909774	0.918245667677
5859.0	1.79857732534e-05	0.91826365345
5862.0	0.000152879072654	0.918416532523
5866.0	4.49644331334e-05	0.918461496956
5868.0	0.000152879072654	0.918614376029
5910.0	0.000962238869055	0.919576614898
5913.0	0.00111511794171	0.920691732839
5925.0	8.09359796401e-05	0.920772668819
5928.0	6.29502063867e-05	0.920835619025
5934.0	0.000584537630734	0.921420156656
5937.0	0.000755402476641	0.922175559133
5955.0	3.59715465067e-05	0.922211530679
5958.0	8.99288662668e-05	0.922301459545
5974.0	8.99288662668e-06	0.922310452432
5977.0	3.59715465067e-05	0.922346423979
5979.0	0.000521587424347	0.922868011403
5982.0	0.000764395363268	0.923632406766
5985.0	0.000449644331334	0.924082051098
5988.0	0.000224822165667	0.924306873263
5991.0	8.99288662668e-06	0.92431586615
5997.0	1.79857732534e-05	0.924333851923
6000.0	0.000593530517361	0.92492738244
6003.0	0.000359715465067	0.925287097906
6006.0	3.59715465067e-05	0.925323069452
6009.0	8.09359796401e-05	0.925404005432
6015.0	3.59715465067e-05	0.925439976978
6018.0	4.49644331334e-05	0.925484941411
6022.0	4.49644331334e-05	0.925529905844
6024.0	0.000530580310974	0.926060486155
6028.0	8.99288662668e-06	0.926069479042
6031.0	2.697865988e-05	0.926096457702
6033.0	0.000224822165667	0.926321279868
6036.0	1.79857732534e-05	0.926339265641
6039.0	0.000152879072654	0.926492144714
6042.0	0.000170864845907	0.926663009559
6048.0	0.000152879072654	0.926815888632
6051.0	7.19430930134e-05	0.926887831725
6054.0	0.000521587424347	0.927409419149
6057.0	0.000629502063867	0.928038921213
6060.0	0.000125900412773	0.928164821626
6063.0	0.000332736805187	0.928497558431
6066.0	0.00010791463952	0.928605473071
6079.0	8.99288662668e-06	0.928614465957
6081.0	0.000278779485427	0.928893245443
6084.0	0.0034712542379	0.932364499681
6087.0	0.000143886186027	0.932508385867
6106.0	0.0001348932994	0.932643279166
6108.0	0.000368708351694	0.933011987518
6117.0	0.00035072257844	0.933362710096
6135.0	1.79857732534e-05	0.93338069587
6138.0	0.00168166979919	0.935062365669
6141.0	0.0018885061916	0.93695087186
6144.0	0.000611516290614	0.937562388151
6159.0	3.59715465067e-05	0.937598359697
6162.0	0.000143886186027	0.937742245884
6165.0	8.99288662668e-06	0.93775123877
6168.0	4.49644331334e-05	0.937796203203
6172.0	2.697865988e-05	0.937823181863
6174.0	0.00010791463952	0.937931096503
6177.0	0.000629502063867	0.938560598567
6180.0	8.09359796401e-05	0.938641534546
6189.0	5.39573197601e-05	0.938695491866
6195.0	0.000593530517361	0.939289022383
6197.0	0.000710438043508	0.939999460427
6199.0	0.000341729691814	0.940341190119
6201.0	4.49644331334e-05	0.940386154552
6207.0	0.00029676525868	0.94068291981
6210.0	2.697865988e-05	0.94070989847
6216.0	8.09359796401e-05	0.94079083445
6241.0	5.39573197601e-05	0.94084479177
6243.0	0.0001348932994	0.940979685069
6286.0	8.99288662668e-06	0.940988677956
6288.0	0.00029676525868	0.941285443214
6291.0	0.000467630104587	0.941753073319
6309.0	4.49644331334e-05	0.941798037752
6312.0	1.79857732534e-05	0.941816023525
6363.0	0.000440651444707	0.94225667497
6365.0	0.000287772372054	0.942544447342
6378.0	6.29502063867e-05	0.942607397549
6387.0	0.0001348932994	0.942742290848
6390.0	0.00016187195928	0.942904162807
6393.0	0.000125900412773	0.94303006322
6399.0	0.000233815052294	0.943263878272
6402.0	1.79857732534e-05	0.943281864046
6417.0	3.59715465067e-05	0.943317835592
6421.0	1.79857732534e-05	0.943335821365
6453.0	6.29502063867e-05	0.943398771572
6456.0	0.000674466497001	0.944073238069
6468.0	2.697865988e-05	0.944100216729
6471.0	0.00010791463952	0.944208131368
6507.0	0.00107015350857	0.945278284877
6513.0	8.99288662668e-05	0.945368213743
6516.0	8.99288662668e-06	0.94537720663
6525.0	2.697865988e-05	0.945404185289
6528.0	0.000116907526147	0.945521092816
6579.0	1.79857732534e-05	0.945539078589
6582.0	3.59715465067e-05	0.945575050135
6600.0	2.697865988e-05	0.945602028795
6603.0	1.79857732534e-05	0.945620014568
6606.0	8.99288662668e-06	0.945629007455
6609.0	0.000152879072654	0.945781886528
6720.0	0.0001348932994	0.945916779827
6732.0	0.000404679898201	0.946321459725
6734.0	0.00119605392135	0.947517513647
6736.0	5.39573197601e-05	0.947571470966
6772.0	8.99288662668e-06	0.947580463853
6774.0	0.000179857732534	0.947760321586
6831.0	8.09359796401e-05	0.947841257565
6846.0	4.49644331334e-05	0.947886221998
6849.0	0.000116907526147	0.948003129525
6852.0	1.79857732534e-05	0.948021115298
6987.0	0.000431658558081	0.948452773856
6989.0	0.000782381136521	0.949235154992
7032.0	0.00029676525868	0.949531920251
7035.0	1.79857732534e-05	0.949549906024
7056.0	9.89217528935e-05	0.949648827777
7098.0	0.000647487837121	0.950296315614
7179.0	0.000341729691814	0.950638045306
7182.0	0.000602523403987	0.95124056871
7195.0	2.697865988e-05	0.95126754737
7197.0	0.000683459383628	0.951951006754
7200.0	0.00010791463952	0.952058921393
7322.0	5.39573197601e-05	0.952112878713
7326.0	9.89217528935e-05	0.952211800466
7331.0	0.000278779485427	0.952490579951
7333.0	1.79857732534e-05	0.952508565725
7335.0	0.00021582927904	0.952724395004
7395.0	3.59715465067e-05	0.95276036655
7397.0	0.000143886186027	0.952904252736
7399.0	1.79857732534e-05	0.952922238509
7422.0	0.00024280793892	0.953165046448
7424.0	0.000701445156881	0.953866491605
7426.0	9.89217528935e-05	0.953965413358
7428.0	0.000980224642308	0.954945638
7587.0	0.0002697865988	0.955215424599
7589.0	8.09359796401e-05	0.955296360579
7734.0	8.99288662668e-06	0.955305353465
7737.0	8.99288662668e-05	0.955395282332
7739.0	0.000395687011574	0.955790969343
7741.0	1.79857732534e-05	0.955808955117
7776.0	2.697865988e-05	0.955835933776
7788.0	1.79857732534e-05	0.95585391955
7790.0	6.29502063867e-05	0.955916869756
7792.0	2.697865988e-05	0.955943848416
7794.0	2.697865988e-05	0.955970827076
7809.0	1.79857732534e-05	0.955988812849
7812.0	3.59715465067e-05	0.956024784396
7826.0	7.19430930134e-05	0.956096727489
7829.0	5.39573197601e-05	0.956150684808
7832.0	0.0001348932994	0.956285578108
7835.0	0.000332736805187	0.956618314913
7838.0	8.99288662668e-05	0.956708243779
7841.0	0.000143886186027	0.956852129965
7845.0	8.99288662668e-06	0.956861122852
7853.0	0.0002697865988	0.957130909451
7856.0	6.29502063867e-05	0.957193859657
7860.0	5.39573197601e-05	0.957247816977
7862.0	3.59715465067e-05	0.957283788523
7865.0	7.19430930134e-05	0.957355731616
7899.0	0.000125900412773	0.957481632029
7902.0	4.49644331334e-05	0.957526596462
8000.0	0.000800366909774	0.958326963372
8002.0	1.79857732534e-05	0.958344949145
8060.0	6.29502063867e-05	0.958407899352
8063.0	0.00029676525868	0.95870466461
8094.0	1.79857732534e-05	0.958722650384
8096.0	0.000305758145307	0.959028408529
8098.0	5.39573197601e-05	0.959082365849
8100.0	4.49644331334e-05	0.959127330282
8105.0	0.000197843505787	0.959325173788
8108.0	7.19430930134e-05	0.959397116881
8145.0	1.79857732534e-05	0.959415102654
8147.0	0.000287772372054	0.959702875026
8149.0	8.99288662668e-06	0.959711867912
8180.0	0.0001348932994	0.959846761212
8183.0	0.000125900412773	0.959972661625
8186.0	8.09359796401e-05	0.960053597604
8196.0	7.19430930134e-05	0.960125540697
8198.0	8.09359796401e-05	0.960206476677
8203.0	2.697865988e-05	0.960233455337
8205.0	8.99288662668e-05	0.960323384203
8207.0	8.99288662668e-05	0.960413313069
8210.0	4.49644331334e-05	0.960458277502
8227.0	0.000314751031934	0.960773028534
8229.0	0.00139389742714	0.962166925962
8231.0	0.00037770123832	0.9625446272
8234.0	5.39573197601e-05	0.96259858452
8237.0	0.00016187195928	0.962760456479
8239.0	8.99288662668e-06	0.962769449366
8243.0	0.0001348932994	0.962904342665
8246.0	8.99288662668e-05	0.962994271531
8258.0	0.000305758145307	0.963300029677
8264.0	0.000530580310974	0.963830609987
8267.0	0.000314751031934	0.964145361019
8276.0	0.0001348932994	0.964280254319
8300.0	0.0001348932994	0.964415147618
8303.0	5.39573197601e-05	0.964469104938
8306.0	4.49644331334e-05	0.964514069371
8309.0	0.00010791463952	0.964621984011
8321.0	0.000305758145307	0.964927742156
8324.0	0.00016187195928	0.965089614115
8367.0	1.79857732534e-05	0.965107599888
8369.0	8.09359796401e-05	0.965188535868
8397.0	1.79857732534e-05	0.965206521641
8399.0	0.000674466497001	0.965880988138
8402.0	0.000233815052294	0.966114803191
8405.0	0.0002697865988	0.966384589789
8466.0	3.59715465067e-05	0.966420561336
8468.0	9.89217528935e-05	0.966519483089
8544.0	3.59715465067e-05	0.966555454635
8546.0	4.49644331334e-05	0.966600419069
8549.0	0.000143886186027	0.966744305255
8552.0	0.000143886186027	0.966888191441
8555.0	0.00187951330498	0.968767704746
8557.0	0.000575544744107	0.96934324949
8559.0	0.00035072257844	0.969693972068
8562.0	4.49644331334e-05	0.969738936501
8564.0	0.00021582927904	0.96995476578
8705.0	0.000152879072654	0.970107644853
8708.0	0.00016187195928	0.970269516812
8711.0	0.000179857732534	0.970449374545
8727.0	1.79857732534e-05	0.970467360318
8729.0	1.79857732534e-05	0.970485346091
8732.0	2.697865988e-05	0.970512324751
8735.0	0.000224822165667	0.970737146917
8738.0	4.49644331334e-05	0.97078211135
8774.0	0.000944253095801	0.971726364446
8776.0	1.79857732534e-05	0.971744350219
8880.0	2.697865988e-05	0.971771328879
8882.0	8.99288662668e-06	0.971780321765
8886.0	8.99288662668e-06	0.971789314652
9266.0	0.000458637217961	0.97224795187
9268.0	0.00111511794171	0.973363069812
9270.0	0.000584537630734	0.973947607443
9278.0	2.697865988e-05	0.973974586102
9280.0	0.000458637217961	0.97443322332
9282.0	0.00021582927904	0.974649052599
9284.0	8.99288662668e-06	0.974658045486
9290.0	0.000422665671454	0.975080711157
9293.0	0.000872310002788	0.97595302116
9330.0	1.79857732534e-05	0.975971006934
9332.0	0.000458637217961	0.976429644151
9334.0	0.000944253095801	0.977373897247
9336.0	0.000431658558081	0.977805555805
9350.0	8.09359796401e-05	0.977886491785
9353.0	3.59715465067e-05	0.977922463332
9383.0	3.59715465067e-05	0.977958434878
9386.0	0.000233815052294	0.97819224993
9425.0	0.000170864845907	0.978363114776
9428.0	3.59715465067e-05	0.978399086323
9464.0	8.09359796401e-05	0.978480022302
9466.0	0.000548566084227	0.979028588387
9468.0	0.000233815052294	0.979262403439
9470.0	2.697865988e-05	0.979289382099
9530.0	8.99288662668e-06	0.979298374985
9560.0	0.000251800825547	0.979550175811
9562.0	0.000179857732534	0.979730033543
9566.0	0.0001348932994	0.979864926843
9568.0	0.000368708351694	0.980233635195
9570.0	0.000125900412773	0.980359535607
9572.0	0.000953245982428	0.98131278159
9575.0	1.79857732534e-05	0.981330767363
9590.0	6.29502063867e-05	0.981393717569
9592.0	0.000260793712174	0.981654511282
9594.0	8.99288662668e-06	0.981663504168
9596.0	0.0002697865988	0.981933290767
9599.0	8.99288662668e-06	0.981942283654
9643.0	0.000143886186027	0.98208616984
9645.0	2.697865988e-05	0.9821131485
9647.0	1.79857732534e-05	0.982131134273
9734.0	0.000674466497001	0.98280560077
9737.0	0.000179857732534	0.982985458502
9742.0	8.09359796401e-05	0.983066394482
9744.0	3.59715465067e-05	0.983102366028
9746.0	0.000233815052294	0.983336181081
9749.0	8.99288662668e-05	0.983426109947
9751.0	0.000341729691814	0.983767839639
9753.0	4.49644331334e-05	0.983812804072
9755.0	0.000116907526147	0.983929711598
9758.0	4.49644331334e-05	0.983974676031
9805.0	9.89217528935e-05	0.984073597784
9807.0	2.697865988e-05	0.984100576444
9809.0	0.000116907526147	0.98421748397
9812.0	8.09359796401e-05	0.98429841995
9814.0	8.99288662668e-06	0.984307412836
9821.0	4.49644331334e-05	0.98435237727
9832.0	0.000116907526147	0.984469284796
9834.0	1.79857732534e-05	0.984487270569
9839.0	2.697865988e-05	0.984514249229
9842.0	6.29502063867e-05	0.984577199435
9845.0	1.79857732534e-05	0.984595185209
9858.0	7.19430930134e-05	0.984667128302
9860.0	0.00102518907544	0.985692317377
9862.0	0.000404679898201	0.986096997275
9864.0	2.697865988e-05	0.986123975935
9881.0	5.39573197601e-05	0.986177933255
9884.0	0.00018885061916	0.986366783874
9887.0	8.99288662668e-06	0.986375776761
9889.0	8.09359796401e-05	0.98645671274
9891.0	1.79857732534e-05	0.986474698513
9893.0	1.79857732534e-05	0.986492684287
9897.0	2.697865988e-05	0.986519662947
9899.0	1.79857732534e-05	0.98653764872
9905.0	3.59715465067e-05	0.986573620266
9907.0	0.000206836392414	0.986780456659
9909.0	1.79857732534e-05	0.986798442432
9914.0	0.000251800825547	0.987050243258
9916.0	0.000332736805187	0.987382980063
9918.0	1.79857732534e-05	0.987400965836
9923.0	0.000152879072654	0.987553844909
9925.0	0.000512594537721	0.988066439446
9927.0	8.09359796401e-05	0.988147375426
9929.0	1.79857732534e-05	0.988165361199
10030.0	0.000404679898201	0.988570041097
10032.0	8.09359796401e-05	0.988650977077
10034.0	4.49644331334e-05	0.98869594151
10037.0	0.000206836392414	0.988902777903
10039.0	0.000125900412773	0.989028678315
10169.0	4.49644331334e-05	0.989073642749
10172.0	2.697865988e-05	0.989100621408
10211.0	3.59715465067e-05	0.989136592955
10214.0	5.39573197601e-05	0.989190550275
10238.0	3.59715465067e-05	0.989226521821
10241.0	4.49644331334e-05	0.989271486254
10244.0	0.0001348932994	0.989406379554
10246.0	0.000170864845907	0.9895772444
10248.0	1.79857732534e-05	0.989595230173
10703.0	0.000179857732534	0.989775087905
10705.0	0.000278779485427	0.990053867391
10772.0	8.99288662668e-06	0.990062860278
10774.0	0.00010791463952	0.990170774917
10776.0	3.59715465067e-05	0.990206746464
10778.0	5.39573197601e-05	0.990260703783
10780.0	8.99288662668e-06	0.99026969667
10802.0	0.000341729691814	0.990611426362
10804.0	0.000530580310974	0.991142006673
11179.0	0.00412773496165	0.995269741634
11181.0	0.000305758145307	0.99557549978
11255.0	2.697865988e-05	0.99560247844
11257.0	0.000170864845907	0.995773343285
11899.0	0.000890295776041	0.996663639062
12382.0	0.00016187195928	0.996825511021
12385.0	0.00029676525868	0.997122276279
14523.0	2.697865988e-05	0.997149254939
14529.0	3.59715465067e-05	0.997185226486
14531.0	4.49644331334e-05	0.997230190919
14533.0	2.697865988e-05	0.997257169579
14547.0	3.59715465067e-05	0.997293141125
14549.0	0.000233815052294	0.997526956178
14551.0	0.000449644331334	0.997976600509
14553.0	7.19430930134e-05	0.998048543602
14583.0	8.99288662668e-05	0.998138472468
14585.0	2.697865988e-05	0.998165451128
14587.0	1.79857732534e-05	0.998183436901
14595.0	4.49644331334e-05	0.998228401335
14598.0	8.99288662668e-05	0.998318330201
14699.0	4.49644331334e-05	0.998363294634
14704.0	1.79857732534e-05	0.998381280407
14706.0	8.99288662668e-06	0.998390273294
15021.0	0.00152879072654	0.99991906402
15023.0	8.99288662668e-05	1.0
