#
# Generated On: 2012-02-06T00:26:12.886771
#           By: cwa.analyze.statistics
#      Version: 11.11.23
#       Author: Thomas A. de Ruiter <thomas@de-ruiter.cx>
#
#  Commandline: /home/af10028/bin/cwa analyze
#     Work Dir: /scratch/af10028/var/thesis-project/result/analyses/workload-96h-00123l-0s-fair
#

Time	Sum	Avg	StdDev	CoV	0.000000-Pct	0.010000-Pct	0.100000-Pct	1.000000-Pct	2.000000-Pct	5.000000-Pct	25.000000-Pct	50.000000-Pct	75.000000-Pct	95.000000-Pct	98.000000-Pct	99.000000-Pct	99.900000-Pct	99.990000-Pct	100.000000-Pct
1327593000	41717266.0	4578.27765584	3435.53066677	0.750398059058	5.0	5.0	5.0	53.0	152.0	335.0	1517.0	4636.0	6418.0	11444.0	14599.0	14599.0	14600.0	14601.0	14601.0
1327679400	21465769.0	3770.55489197	3041.00317811	0.806513435086	5.0	5.0	5.0	24.0	98.0	299.0	926.0	3238.0	6204.0	9155.0	12037.0	12038.0	12038.0	12038.0	12038.0
1327765800	52604596.0	5514.10859539	4224.12506344	0.76605764837	5.0	5.0	5.0	50.0	191.0	374.0	1790.0	4645.0	7109.0	14446.0	14446.0	14446.0	14446.0	14447.0	14447.0
1327852200	33346181.0	4080.54099364	3077.44989866	0.754176934739	5.0	5.0	5.0	20.0	86.0	251.0	1319.0	3883.0	5827.0	9422.0	12331.0	12332.0	12332.0	12332.0	12332.0
1327938600	5.0	5.0	0.0	0.0	5.0	5.0	5.0	5.0	5.0	5.0	5.0	5.0	5.0	5.0	5.0	5.0	5.0	5.0	5.0
