#
# Generated On: 2012-02-05T16:49:22.089850
#           By: cwa.analyze.statistics
#      Version: 11.11.23
#       Author: Thomas A. de Ruiter <thomas@de-ruiter.cx>
#
#  Commandline: /home/af10028/bin/cwa analyze
#     Work Dir: /scratch/af10028/var/thesis-project/result/analyses/workload-01h-04944l-4s-fair
#

Time	Sum	Avg	StdDev	CoV	0.000000-Pct	0.010000-Pct	0.100000-Pct	1.000000-Pct	2.000000-Pct	5.000000-Pct	25.000000-Pct	50.000000-Pct	75.000000-Pct	95.000000-Pct	98.000000-Pct	99.000000-Pct	99.900000-Pct	99.990000-Pct	100.000000-Pct
1326907200	1770882.0	3011.70408163	1814.84823893	0.602598459124	5.0	5.0	5.0	53.0	116.0	288.0	1085.0	3994.0	4093.0	5251.0	5251.0	5251.0	5251.0	5251.0	5251.0
1326907800	15764529.0	5244.35429142	3114.04586893	0.593790140003	5.0	5.0	5.0	137.0	263.0	623.0	3232.0	5209.0	9443.0	9444.0	10058.0	10058.0	10059.0	10059.0	10059.0
1326908400	12231176.0	4429.98044187	2240.45220129	0.505747650739	5.0	5.0	5.0	221.0	383.0	620.0	2285.0	4582.0	6489.0	6657.0	6658.0	6658.0	6658.0	6658.0	6658.0
1326909000	910338.0	1294.93314367	1993.11857955	1.53916716805	5.0	5.0	5.0	6.0	6.0	83.0	533.0	818.0	1301.0	3199.0	6562.0	9467.0	17286.0	17286.0	17286.0
1326909600	1547260.0	2113.7431694	1994.69049391	0.943676849104	5.0	5.0	5.0	6.0	57.0	212.0	794.0	1259.0	3037.0	6570.0	8007.0	8460.0	9077.0	9077.0	9077.0
1326910200	1074787.0	1630.93626707	2104.76037425	1.29052276091	5.0	5.0	5.0	5.0	23.0	101.0	536.0	782.0	1517.0	6966.0	8448.0	9479.0	16065.0	16065.0	16065.0
1326910800	1517073.0	1806.03928571	1908.93878615	1.0569752282	5.0	5.0	5.0	5.0	5.0	6.0	452.0	1047.5	2845.0	5892.0	6696.0	7303.0	14958.0	14958.0	14958.0
1326911400	3469212.0	3194.48618785	2219.00631128	0.694636376804	5.0	5.0	5.0	5.0	5.0	44.0	1502.0	3018.0	4372.0	6784.0	7206.0	14532.0	14806.0	14871.0	14871.0
1326912000	2713084.0	2540.34082397	1860.59593046	0.732419804816	5.0	5.0	5.0	5.0	5.0	5.0	965.0	2469.0	3754.0	5995.0	6417.0	6645.0	6891.0	6972.0	6972.0
1326912600	2406027.0	2573.29090909	1639.19062942	0.63700167891	5.0	5.0	5.0	5.0	5.0	6.0	1289.0	2405.0	3598.0	5583.0	5917.0	6045.0	6408.0	6408.0	6408.0
1326913200	2606666.0	2570.6765286	1619.99470095	0.630182243049	5.0	5.0	5.0	5.0	5.0	209.0	1277.0	2387.0	3943.0	5308.0	5506.0	5731.0	5733.0	5773.0	5773.0
1326913800	1635482.0	2415.77843427	1714.2411223	0.709601964313	5.0	5.0	5.0	5.0	5.0	6.0	752.0	2186.0	4240.0	4465.0	4696.0	4735.0	4780.0	4780.0	4780.0
1326914400	912617.0	3933.69396552	57.4832658334	0.0146130498044	3832.0	3832.0	3832.0	3832.0	3832.0	3832.0	3922.0	3949.0	3949.0	4084.0	4087.0	4087.0	4171.0	4171.0	4171.0
