#
# Generated On: 2012-02-05T16:49:22.047835
#           By: cwa.analyze.statistics
#      Version: 11.11.23
#       Author: Thomas A. de Ruiter <thomas@de-ruiter.cx>
#
#  Commandline: /home/af10028/bin/cwa analyze
#     Work Dir: /scratch/af10028/var/thesis-project/result/analyses/workload-01h-04944l-4s-fair
#

Time	Sum	Avg	StdDev	CoV	0.000000-Pct	0.010000-Pct	0.100000-Pct	1.000000-Pct	2.000000-Pct	5.000000-Pct	25.000000-Pct	50.000000-Pct	75.000000-Pct	95.000000-Pct	98.000000-Pct	99.000000-Pct	99.900000-Pct	99.990000-Pct	100.000000-Pct
1326907200	276056.0	126.922298851	277.278185604	2.18462940015	2.0	2.0	2.0	2.0	2.0	2.0	5.0	20.0	93.0	728.0	1091.0	1349.0	1628.0	1628.0	1628.0
1326907800	732950.0	154.598186037	387.802270168	2.50845291339	2.0	2.0	2.0	2.0	2.0	2.0	5.0	21.0	96.0	1010.0	1409.0	1409.0	4051.0	4054.0	4054.0
1326908400	752162.0	155.34118133	330.367700715	2.12672324162	2.0	2.0	2.0	2.0	2.0	2.0	5.0	20.0	101.0	1295.0	1340.0	1424.0	1469.0	2198.0	2198.0
1326909000	867500.0	134.956440572	308.418908956	2.2853218983	2.0	2.0	2.0	2.0	2.0	2.0	3.0	20.0	86.0	797.0	1265.0	1511.0	2180.0	2402.0	2402.0
1326909600	514754.0	129.988383838	296.381181701	2.28005897873	2.0	2.0	2.0	2.0	2.0	2.0	3.0	20.0	86.0	797.0	1223.0	1640.0	1892.0	1907.0	1907.0
1326910200	557799.0	115.12879257	229.660476985	1.99481356365	2.0	2.0	2.0	2.0	2.0	2.0	3.0	20.0	89.0	644.0	968.0	1127.0	1328.0	1346.0	1346.0
1326910800	420219.0	142.640529532	293.829402198	2.0599292723	2.0	2.0	2.0	2.0	2.0	2.0	3.0	21.0	111.0	776.0	1223.0	1541.0	1580.0	1763.0	1763.0
1326911400	0	0	0	0															
1326912000	0	0	0	0															
1326912600	0	0	0	0															
1326913200	0	0	0	0															
1326913800	0	0	0	0															
1326914400	0	0	0	0															
