#
# Generated On: 2012-02-05T17:26:13.729370
#           By: cwa.analyze.statistics
#      Version: 11.11.23
#       Author: Thomas A. de Ruiter <thomas@de-ruiter.cx>
#
#  Commandline: /home/af10028/bin/cwa analyze
#     Work Dir: /scratch/af10028/var/thesis-project/result/analyses/workload-06h-00123l-2s-default
#

Value	PDF	CDF
2.0	0.267222884386	0.267461263409
5.0	0.0858164481526	0.353277711561
8.0	0.0486293206198	0.401907032181
11.0	0.0355184743743	0.437425506555
14.0	0.0317044100119	0.469129916567
17.0	0.0262216924911	0.495351609058
20.0	0.0245530393325	0.519904648391
23.0	0.0233611442193	0.54326579261
26.0	0.0159713945173	0.559237187128
29.0	0.0152562574493	0.574493444577
32.0	0.0162097735399	0.590703218117
35.0	0.0150178784267	0.605721096544
38.0	0.0131108462455	0.618831942789
41.0	0.0104886769964	0.629320619785
44.0	0.0119189511323	0.641239570918
47.0	0.00929678188319	0.650536352801
50.0	0.0102502979738	0.660786650775
53.0	0.0112038140644	0.671990464839
56.0	0.00834326579261	0.680333730632
59.0	0.00786650774732	0.688200238379
62.0	0.0061978545888	0.694398092968
65.0	0.00643623361144	0.700834326579
68.0	0.00858164481526	0.709415971395
71.0	0.00715137067938	0.716567342074
74.0	0.00548271752086	0.722050059595
77.0	0.0061978545888	0.728247914184
80.0	0.00405244338498	0.732300357569
83.0	0.0061978545888	0.738498212157
86.0	0.00357568533969	0.742073897497
89.0	0.00476758045292	0.74684147795
92.0	0.00476758045292	0.751609058403
95.0	0.00476758045292	0.756376638856
98.0	0.00500595947557	0.761382598331
101.0	0.00357568533969	0.764958283671
104.0	0.0030989272944	0.768057210965
107.0	0.00214541120381	0.770202622169
110.0	0.00333730631704	0.773539928486
113.0	0.00214541120381	0.77568533969
116.0	0.00214541120381	0.777830750894
119.0	0.00262216924911	0.780452920143
122.0	0.00333730631704	0.78379022646
125.0	0.0030989272944	0.786889153754
128.0	0.00238379022646	0.789272943981
131.0	0.00143027413588	0.790703218117
134.0	0.00262216924911	0.793325387366
137.0	0.00190703218117	0.795232419547
140.0	0.00214541120381	0.797377830751
143.0	0.00190703218117	0.799284862932
146.0	0.00214541120381	0.801430274136
149.0	0.0030989272944	0.80452920143
152.0	0.00238379022646	0.806912991657
155.0	0.0030989272944	0.810011918951
158.0	0.00166865315852	0.81168057211
161.0	0.00286054827175	0.814541120381
164.0	0.00286054827175	0.817401668653
167.0	0.00214541120381	0.819547079857
170.0	0.00119189511323	0.82073897497
173.0	0.00238379022646	0.823122765197
176.0	0.00119189511323	0.82431466031
179.0	0.000715137067938	0.825029797378
182.0	0.000953516090584	0.825983313468
185.0	0.00214541120381	0.828128724672
188.0	0.00119189511323	0.829320619785
191.0	0.00262216924911	0.831942789035
194.0	0.00119189511323	0.833134684148
197.0	0.000476758045292	0.833611442193
200.0	0.00190703218117	0.835518474374
203.0	0.00286054827175	0.838379022646
206.0	0.00214541120381	0.84052443385
209.0	0.00357568533969	0.84410011919
212.0	0.000715137067938	0.844815256257
215.0	0.00190703218117	0.846722288439
218.0	0.00214541120381	0.848867699642
221.0	0.00166865315852	0.850536352801
224.0	0.00190703218117	0.852443384982
227.0	0.00119189511323	0.853635280095
230.0	0.000953516090584	0.854588796186
233.0	0.000953516090584	0.855542312277
236.0	0.000476758045292	0.856019070322
239.0	0.000476758045292	0.856495828367
242.0	0.000953516090584	0.857449344458
245.0	0.00166865315852	0.859117997616
248.0	0.000238379022646	0.859356376639
251.0	0.000953516090584	0.860309892729
257.0	0.00452920143027	0.86483909416
260.0	0.00286054827175	0.867699642431
263.0	0.000953516090584	0.868653158522
266.0	0.000953516090584	0.869606674613
269.0	0.000476758045292	0.870083432658
272.0	0.000715137067938	0.870798569726
275.0	0.000953516090584	0.871752085816
278.0	0.00119189511323	0.87294398093
281.0	0.000238379022646	0.873182359952
284.0	0.00143027413588	0.874612634088
287.0	0.000715137067938	0.875327771156
290.0	0.00119189511323	0.876519666269
293.0	0.00119189511323	0.877711561383
296.0	0.000715137067938	0.878426698451
299.0	0.000476758045292	0.878903456496
302.0	0.000238379022646	0.879141835518
305.0	0.000476758045292	0.879618593564
308.0	0.000715137067938	0.880333730632
311.0	0.000715137067938	0.8810488677
314.0	0.000953516090584	0.88200238379
317.0	0.000476758045292	0.882479141836
320.0	0.000715137067938	0.883194278903
323.0	0.00143027413588	0.884624553039
326.0	0.00143027413588	0.886054827175
329.0	0.000238379022646	0.886293206198
332.0	0.000715137067938	0.887008343266
335.0	0.000476758045292	0.887485101311
338.0	0.000238379022646	0.887723480334
344.0	0.000238379022646	0.887961859356
347.0	0.000715137067938	0.888676996424
350.0	0.000238379022646	0.888915375447
353.0	0.000238379022646	0.88915375447
356.0	0.00119189511323	0.890345649583
359.0	0.000476758045292	0.890822407628
362.0	0.00190703218117	0.892729439809
365.0	0.000715137067938	0.893444576877
374.0	0.000476758045292	0.893921334923
377.0	0.000476758045292	0.894398092968
383.0	0.000238379022646	0.89463647199
392.0	0.000715137067938	0.895351609058
395.0	0.000953516090584	0.896305125149
398.0	0.000476758045292	0.896781883194
401.0	0.00143027413588	0.89821215733
410.0	0.000476758045292	0.898688915375
413.0	0.000238379022646	0.898927294398
420.0	0.000238379022646	0.899165673421
422.0	0.00119189511323	0.900357568534
425.0	0.000953516090584	0.901311084625
437.0	0.000238379022646	0.901549463647
443.0	0.000476758045292	0.902026221692
452.0	0.000238379022646	0.902264600715
458.0	0.000238379022646	0.902502979738
461.0	0.000238379022646	0.90274135876
467.0	0.000238379022646	0.902979737783
479.0	0.000476758045292	0.903456495828
488.0	0.000476758045292	0.903933253874
494.0	0.000715137067938	0.904648390942
497.0	0.000953516090584	0.905601907032
500.0	0.000238379022646	0.905840286055
503.0	0.000715137067938	0.906555423123
506.0	0.000238379022646	0.906793802145
509.0	0.000476758045292	0.907270560191
518.0	0.000238379022646	0.907508939213
545.0	0.000238379022646	0.907747318236
551.0	0.000715137067938	0.908462455304
554.0	0.000476758045292	0.908939213349
557.0	0.000476758045292	0.909415971395
560.0	0.000715137067938	0.910131108462
563.0	0.000715137067938	0.91084624553
569.0	0.000238379022646	0.911084624553
572.0	0.00143027413588	0.912514898689
575.0	0.00119189511323	0.913706793802
581.0	0.000238379022646	0.913945172825
587.0	0.000476758045292	0.91442193087
590.0	0.00214541120381	0.916567342074
596.0	0.000238379022646	0.916805721097
608.0	0.000715137067938	0.917520858164
611.0	0.00190703218117	0.919427890346
629.0	0.000238379022646	0.919666269368
635.0	0.000238379022646	0.919904648391
638.0	0.000238379022646	0.920143027414
641.0	0.000238379022646	0.920381406436
644.0	0.000238379022646	0.920619785459
656.0	0.00381406436234	0.924433849821
659.0	0.00119189511323	0.925625744934
662.0	0.000238379022646	0.925864123957
674.0	0.000238379022646	0.92610250298
677.0	0.000238379022646	0.926340882002
680.0	0.00119189511323	0.927532777116
686.0	0.000238379022646	0.927771156138
692.0	0.00476758045292	0.932538736591
695.0	0.000476758045292	0.933015494636
698.0	0.000238379022646	0.933253873659
701.0	0.000953516090584	0.93420738975
704.0	0.00357568533969	0.937783075089
713.0	0.00190703218117	0.939690107271
716.0	0.000238379022646	0.939928486293
725.0	0.000238379022646	0.940166865316
728.0	0.000476758045292	0.940643623361
734.0	0.000238379022646	0.940882002384
749.0	0.000238379022646	0.941120381406
779.0	0.000238379022646	0.941358760429
800.0	0.00119189511323	0.942550655542
803.0	0.00357568533969	0.946126340882
812.0	0.000238379022646	0.946364719905
815.0	0.000238379022646	0.946603098927
818.0	0.000476758045292	0.947079856973
839.0	0.00286054827175	0.949940405244
842.0	0.00262216924911	0.952562574493
845.0	0.000238379022646	0.952800953516
851.0	0.00143027413588	0.954231227652
854.0	0.000715137067938	0.95494636472
857.0	0.000238379022646	0.955184743743
860.0	0.000476758045292	0.955661501788
917.0	0.000715137067938	0.956376638856
953.0	0.000238379022646	0.956615017878
968.0	0.000238379022646	0.956853396901
1019.0	0.00524433849821	0.962097735399
1022.0	0.00286054827175	0.964958283671
1028.0	0.00166865315852	0.96662693683
1031.0	0.00143027413588	0.968057210965
1073.0	0.00381406436234	0.971871275328
1076.0	0.00166865315852	0.973539928486
1151.0	0.000238379022646	0.973778307509
1154.0	0.00643623361144	0.98021454112
1241.0	0.00190703218117	0.982121573302
1244.0	0.000715137067938	0.982836710369
1373.0	0.0116805721097	0.994517282479
1376.0	0.00286054827175	0.997377830751
1481.0	0.000476758045292	0.997854588796
1484.0	0.000715137067938	0.998569725864
1697.0	0.000238379022646	0.998808104887
1700.0	0.00143027413588	1.0
