#
# Generated On: 2012-02-05T16:51:46.044771
#           By: cwa.analyze.jobs_per_executableid
#      Version: 11.3.16
#       Author: Thomas A. de Ruiter <thomas@de-ruiter.cx>
#
#  Commandline: /home/af10028/bin/cwa analyze
#     Work Dir: /scratch/af10028/var/thesis-project/result/analyses/workload-01h-06180l-2s-default
#

Time	ID_-1
0	23770
600	24131
1200	32696
1800	28442
2400	32317
3000	29857
3600	17747
4200	8918
4800	8647
5400	7649
6000	7872
6600	6785
7200	6774
7800	5762
8400	4415
9000	4044
9600	3400
10200	2752
10800	2343
11400	2145
12000	1840
12600	1840
13200	1620
13800	1601
14400	1558
15000	1385
15600	1385
16200	1385
16800	995
17400	273
