#
# Generated On: 2012-02-05T17:12:39.178663
#           By: cwa.analyze.statistics
#      Version: 11.11.23
#       Author: Thomas A. de Ruiter <thomas@de-ruiter.cx>
#
#  Commandline: /home/af10028/bin/cwa analyze
#     Work Dir: /scratch/af10028/var/thesis-project/result/analyses/workload-01h-09888l-4s-default
#

Time	Sum	Avg	StdDev	CoV	0.000000-Pct	0.010000-Pct	0.100000-Pct	1.000000-Pct	2.000000-Pct	5.000000-Pct	25.000000-Pct	50.000000-Pct	75.000000-Pct	95.000000-Pct	98.000000-Pct	99.000000-Pct	99.900000-Pct	99.990000-Pct	100.000000-Pct
1326924600	4350571.0	97.3499888118	239.700562026	2.46225567103	2.0	2.0	2.0	2.0	2.0	2.0	3.0	17.0	71.0	530.0	1010.0	1226.0	2099.0	4057.0	5452.0
1326928200	1428990.0	57.0136450686	129.033072768	2.26319633858	2.0	2.0	2.0	2.0	2.0	2.0	3.0	12.0	53.0	257.0	437.0	605.0	1349.0	2462.0	3721.0
1326931800	24516.0	5.93320425944	22.5657412011	3.80329754622	5.0	5.0	5.0	5.0	5.0	5.0	5.0	5.0	6.0	6.0	6.0	6.0	6.0	1031.0	1031.0
