#
# Generated On: 2012-02-05T17:12:06.781864
#           By: cwa.analyze.statistics
#      Version: 11.11.23
#       Author: Thomas A. de Ruiter <thomas@de-ruiter.cx>
#
#  Commandline: /home/af10028/bin/cwa analyze
#     Work Dir: /scratch/af10028/var/thesis-project/result/analyses/workload-01h-09888l-4s-default
#

Time	Sum	Avg	StdDev	CoV	0.000000-Pct	0.010000-Pct	0.100000-Pct	1.000000-Pct	2.000000-Pct	5.000000-Pct	25.000000-Pct	50.000000-Pct	75.000000-Pct	95.000000-Pct	98.000000-Pct	99.000000-Pct	99.900000-Pct	99.990000-Pct	100.000000-Pct
all	5822062.0	3300.48866213	2503.818762	0.75862062207	2.0	2.0	2.0	3.0	3.0	29.0	942.0	3453.5	5500.0	6759.0	6798.0	6823.0	6837.0	6837.0	6837.0
