#
# Generated On: 2012-02-05T23:43:22.158360
#           By: cwa.analyze.statistics
#      Version: 11.11.23
#       Author: Thomas A. de Ruiter <thomas@de-ruiter.cx>
#
#  Commandline: /home/af10028/bin/cwa analyze
#     Work Dir: /scratch/af10028/var/thesis-project/result/analyses/workload-24h-08652l-0s-default
#

Time	Sum	Avg	StdDev	CoV	0.000000-Pct	0.010000-Pct	0.100000-Pct	1.000000-Pct	2.000000-Pct	5.000000-Pct	25.000000-Pct	50.000000-Pct	75.000000-Pct	95.000000-Pct	98.000000-Pct	99.000000-Pct	99.900000-Pct	99.990000-Pct	100.000000-Pct
1327462800	1985555.0	193.712682927	460.505267781	2.37725925233	2.0	2.0	2.0	2.0	2.0	2.0	6.0	41.0	170.0	905.0	1544.0	2240.0	5409.0	7338.0	10241.0
1327463400	3202080.0	164.453803092	411.23768367	2.50062738556	2.0	2.0	2.0	2.0	2.0	2.0	6.0	32.0	138.0	758.0	1370.0	2030.0	4516.0	7239.0	13348.0
1327464000	3969347.0	147.94986768	395.264822229	2.6716132189	2.0	2.0	2.0	2.0	2.0	2.0	5.0	27.0	119.0	680.0	1238.0	1775.0	4843.0	8631.0	11006.0
1327464600	4286204.0	196.308692864	474.973774098	2.41952491847	2.0	2.0	2.0	2.0	2.0	2.0	8.0	41.0	173.0	908.0	1607.0	2291.0	5242.0	9293.0	17435.0
1327465200	3870836.0	172.083044367	448.494932403	2.60627032751	2.0	2.0	2.0	2.0	2.0	2.0	6.0	33.0	143.0	782.0	1451.0	2081.0	5263.0	9947.0	12041.0
1327465800	3896584.0	176.164564402	448.559636593	2.54625348813	2.0	2.0	2.0	2.0	2.0	2.0	6.0	35.0	146.0	827.0	1436.0	2057.0	5371.0	8985.0	10698.0
1327466400	3780259.0	207.558282545	489.772427363	2.35968625948	2.0	2.0	2.0	2.0	2.0	2.0	8.0	44.0	188.0	950.0	1616.0	2225.0	5113.0	12205.0	14884.0
1327467000	3628782.0	187.776558862	453.388408103	2.41451015426	2.0	2.0	2.0	2.0	2.0	2.0	6.0	39.0	167.0	857.0	1523.0	2105.0	5062.0	11995.0	12808.0
1327467600	3650686.0	172.242793112	430.204828451	2.49766518923	2.0	2.0	2.0	2.0	2.0	2.0	6.0	35.0	152.0	791.0	1403.0	2000.0	4522.0	8930.0	14293.0
1327468200	3950984.0	214.389494818	515.229808427	2.40324186064	2.0	2.0	2.0	2.0	2.0	2.0	8.0	45.0	191.0	1004.0	1712.0	2384.0	5284.0	12335.0	19727.0
1327468800	3637657.0	175.825656146	453.849643223	2.58124811345	2.0	2.0	2.0	2.0	2.0	2.0	6.0	33.0	146.0	815.0	1505.0	2132.0	4804.0	10589.0	13915.0
1327469400	3738522.0	184.919721027	465.377967024	2.51664865402	2.0	2.0	2.0	2.0	2.0	2.0	6.0	38.0	155.0	836.0	1535.0	2219.0	5224.0	8912.0	10570.0
1327470000	3464818.0	137.70042127	387.591648759	2.81474555549	2.0	2.0	2.0	2.0	2.0	2.0	5.0	26.0	107.0	605.0	1148.0	1796.0	4822.0	7455.0	9491.0
1327470600	3932992.0	190.801533013	467.784740985	2.45168229834	2.0	2.0	2.0	2.0	2.0	2.0	6.0	38.0	167.0	866.0	1553.0	2258.0	5115.0	9074.0	14232.0
1327471200	3792370.0	187.444147885	461.47832883	2.46195111471	2.0	2.0	2.0	2.0	2.0	2.0	6.0	38.0	161.0	854.0	1520.0	2168.0	5038.0	8505.0	10879.0
1327471800	3391665.0	150.186644821	425.060525748	2.83021520491	2.0	2.0	2.0	2.0	2.0	2.0	5.0	27.0	119.0	671.0	1298.0	1844.0	5398.0	12088.0	13765.0
1327472400	3775118.0	168.246635172	416.345820211	2.47461602893	2.0	2.0	2.0	2.0	2.0	2.0	6.0	32.0	143.0	770.0	1424.0	1976.0	4822.0	7776.0	10766.0
1327473000	3791549.0	191.473033027	497.567682544	2.59863059919	2.0	2.0	2.0	2.0	2.0	2.0	8.0	41.0	167.0	848.0	1517.0	2126.0	5698.0	11426.0	23587.0
1327473600	3875015.0	211.668487464	513.080672637	2.42398232625	2.0	2.0	2.0	2.0	2.0	2.0	8.0	45.0	188.0	980.0	1670.0	2291.0	5629.0	10565.0	14857.0
1327474200	3470602.0	153.750143977	394.172123097	2.56371872507	2.0	2.0	2.0	2.0	2.0	2.0	5.0	29.0	125.0	719.0	1313.0	1853.0	4249.0	9702.0	10460.0
1327474800	3635602.0	154.825057491	410.319984664	2.6502169049	2.0	2.0	2.0	2.0	2.0	2.0	5.0	29.0	125.0	716.0	1295.0	1889.0	4609.0	8417.0	12709.0
1327475400	3780965.0	187.77140445	448.980593034	2.39110206557	2.0	2.0	2.0	2.0	2.0	2.0	6.0	38.0	161.0	863.0	1553.0	2129.0	4882.0	7587.0	9767.0
1327476000	3763366.0	179.43005626	455.465819895	2.53840314933	2.0	2.0	2.0	2.0	2.0	2.0	6.0	33.0	152.0	845.0	1502.0	2084.0	5632.0	9194.0	9614.0
1327476600	3412216.0	169.181218702	411.909350107	2.43472267943	2.0	2.0	2.0	2.0	2.0	2.0	6.0	32.0	144.0	800.0	1406.0	1973.0	4480.0	9254.0	9470.0
1327477200	3853350.0	190.854383358	493.273791147	2.58455573546	2.0	2.0	2.0	2.0	2.0	2.0	6.0	38.0	159.0	857.0	1622.0	2321.0	5488.0	9873.0	19496.0
1327477800	3731609.0	184.605174631	452.130828575	2.44917743762	2.0	2.0	2.0	2.0	2.0	2.0	6.0	38.0	161.0	836.0	1499.0	2198.0	4822.0	7875.0	9429.0
1327478400	3871274.0	217.291984733	498.748222843	2.29529047496	2.0	2.0	2.0	2.0	2.0	2.0	9.0	47.0	195.0	1022.0	1745.0	2342.0	5116.0	9011.0	16804.0
1327479000	3654224.0	217.345149587	498.307335225	2.29270050964	2.0	2.0	2.0	2.0	2.0	2.0	8.0	50.0	200.0	986.0	1754.0	2482.0	5520.0	8832.0	9998.0
1327479600	3367239.0	148.775637344	379.662583489	2.5519136753	2.0	2.0	2.0	2.0	2.0	2.0	5.0	29.0	122.0	680.0	1247.0	1793.0	4210.0	8484.0	8609.0
1327480200	3835650.0	197.591695858	474.118786223	2.39948740843	2.0	2.0	2.0	2.0	2.0	2.0	8.0	41.0	173.0	911.0	1619.0	2168.0	5290.0	10748.0	13182.0
1327480800	3606593.0	172.316913521	450.763487724	2.61589810607	2.0	2.0	2.0	2.0	2.0	2.0	6.0	35.0	140.0	797.0	1463.0	2096.0	5029.0	9863.0	14508.0
1327481400	3620927.0	169.439728591	432.952665994	2.55520160232	2.0	2.0	2.0	2.0	2.0	2.0	6.0	32.0	141.0	779.0	1433.0	2036.0	4918.0	9083.0	11498.0
1327482000	3719003.0	158.417234623	429.91066552	2.71378721225	2.0	2.0	2.0	2.0	2.0	2.0	5.0	29.0	128.0	716.0	1307.0	1928.0	4831.0	8703.0	14554.0
1327482600	3647057.0	182.088821209	445.967611598	2.4491762242	2.0	2.0	2.0	2.0	2.0	2.0	6.0	38.0	158.0	836.0	1448.0	2033.0	4684.0	8900.0	12484.0
1327483200	3712020.0	156.269259914	413.101171249	2.6435216464	2.0	2.0	2.0	2.0	2.0	2.0	5.0	29.0	125.0	704.0	1298.0	1928.0	4813.0	9098.0	10403.0
1327483800	3714673.0	154.745802958	385.968745356	2.49421139688	2.0	2.0	2.0	2.0	2.0	2.0	5.0	29.0	129.0	719.0	1277.0	1886.0	4345.0	7006.0	9231.0
1327484400	3853634.0	190.246544234	499.984533691	2.62808733638	2.0	2.0	2.0	2.0	2.0	2.0	6.0	36.0	161.0	854.0	1553.0	2276.0	5614.0	11960.0	16902.0
1327485000	3799578.0	215.787028623	489.178381722	2.26694989427	2.0	2.0	2.0	2.0	2.0	2.0	9.0	50.0	203.0	971.0	1679.0	2350.0	4582.0	10580.0	13711.0
1327485600	3611459.0	180.095696405	442.390089278	2.45641677236	2.0	2.0	2.0	2.0	2.0	2.0	6.0	35.0	152.0	848.0	1532.0	2141.0	4666.0	7980.0	10986.0
1327486200	3735563.0	182.596685893	469.145370186	2.56929838508	2.0	2.0	2.0	2.0	2.0	2.0	6.0	36.0	152.0	824.0	1538.0	2105.0	5362.0	7974.0	14763.0
1327486800	3727976.0	194.79444038	482.369146815	2.47629832696	2.0	2.0	2.0	2.0	2.0	2.0	6.0	39.0	164.0	893.0	1625.0	2329.0	5416.0	8886.0	11824.0
1327487400	3723596.0	187.388455538	460.308301125	2.45643895085	2.0	2.0	2.0	2.0	2.0	2.0	6.0	36.0	161.0	881.0	1574.0	2174.0	5287.0	9159.0	9815.0
1327488000	3544705.0	175.506510868	439.038352544	2.50155022952	2.0	2.0	2.0	2.0	2.0	2.0	6.0	33.0	143.0	824.0	1487.0	2162.0	4879.0	7101.0	11032.0
1327488600	3604672.0	167.979495783	428.547044602	2.55118663504	2.0	2.0	2.0	2.0	2.0	2.0	6.0	33.0	140.0	755.0	1427.0	2006.0	5073.0	7980.0	9521.0
1327489200	3717626.0	177.038239916	447.896431519	2.5299417331	2.0	2.0	2.0	2.0	2.0	2.0	6.0	35.0	149.0	806.0	1484.0	2081.0	5086.0	9140.0	12163.0
1327489800	3946004.0	199.192529026	487.337167318	2.44656348158	2.0	2.0	2.0	2.0	2.0	2.0	8.0	39.0	173.0	926.0	1592.0	2315.0	5341.0	11339.0	12785.0
1327490400	3573629.0	204.265733067	474.798781856	2.32441719288	2.0	2.0	2.0	2.0	2.0	2.0	8.0	42.0	182.0	944.0	1643.0	2345.0	4870.0	9623.0	10079.0
1327491000	3632105.0	170.705691592	443.307606525	2.59691169281	2.0	2.0	2.0	2.0	2.0	2.0	6.0	32.0	140.0	779.0	1400.0	2036.0	5653.0	9185.0	9809.0
1327491600	3507523.0	167.81603751	412.166447173	2.4560611327	2.0	2.0	2.0	2.0	2.0	2.0	6.0	32.0	143.0	773.0	1418.0	2036.0	4477.0	7725.0	9704.0
1327492200	3808163.0	178.5857719	440.27479791	2.46534084561	2.0	2.0	2.0	2.0	2.0	2.0	6.0	35.0	152.0	824.0	1496.0	2099.0	5013.0	9851.0	10610.0
1327492800	3677139.0	205.507125692	467.251663632	2.27365188462	2.0	2.0	2.0	2.0	2.0	2.0	8.0	45.0	191.0	938.0	1631.0	2312.0	5041.0	7200.0	9404.0
1327493400	3831164.0	186.931641864	478.685980211	2.5607541636	2.0	2.0	2.0	2.0	2.0	2.0	6.0	36.0	158.0	854.0	1556.0	2270.0	5533.0	8550.0	16536.0
1327494000	3587207.0	175.242159257	457.60523661	2.61127367152	2.0	2.0	2.0	2.0	2.0	2.0	6.0	33.0	143.0	782.0	1514.0	2195.0	5542.0	8921.0	10562.0
1327494600	3699978.0	183.430568638	447.8870755	2.44172538321	2.0	2.0	2.0	2.0	2.0	2.0	6.0	38.0	158.0	842.0	1514.0	2174.0	5086.0	7896.0	12185.0
1327495200	3588146.0	154.968731105	400.431450214	2.58394998371	2.0	2.0	2.0	2.0	2.0	2.0	5.0	29.0	125.0	713.0	1298.0	1892.0	4429.0	6984.0	10982.0
1327495800	3604193.0	156.127052198	399.498612745	2.5588045577	2.0	2.0	2.0	2.0	2.0	2.0	5.0	29.0	129.0	704.0	1304.0	1934.0	4267.0	6870.0	10745.0
1327496400	3792963.0	182.7581671	452.537635062	2.4761554695	2.0	2.0	2.0	2.0	2.0	2.0	6.0	35.0	159.0	842.0	1463.0	2045.0	5173.0	9122.0	13603.0
1327497000	3779827.0	196.968577384	491.172930414	2.49366135928	2.0	2.0	2.0	2.0	2.0	2.0	8.0	39.0	170.0	896.0	1613.0	2276.0	5404.0	12787.0	16214.0
1327497600	3550576.0	172.157486424	428.87441479	2.49117493348	2.0	2.0	2.0	2.0	2.0	2.0	6.0	33.0	147.0	797.0	1415.0	1946.0	4483.0	10023.0	13363.0
1327498200	3801865.0	174.301531267	432.071423704	2.47887336711	2.0	2.0	2.0	2.0	2.0	2.0	6.0	35.0	143.0	809.0	1460.0	2147.0	4653.0	6447.0	10826.0
1327498800	3276745.0	151.883980718	390.847833146	2.57333150803	2.0	2.0	2.0	2.0	2.0	2.0	5.0	29.0	125.0	698.0	1268.0	1763.0	4765.0	7203.0	13157.0
1327499400	3935379.0	177.870237288	459.046394221	2.58079373604	2.0	2.0	2.0	2.0	2.0	2.0	6.0	35.0	149.0	824.0	1502.0	2171.0	5284.0	10415.0	11947.0
1327500000	3752506.0	158.916952526	426.982371763	2.68682708154	2.0	2.0	2.0	2.0	2.0	2.0	5.0	29.0	128.0	722.0	1355.0	2006.0	4999.0	9764.0	10691.0
1327500600	3741471.0	171.242207881	436.819093727	2.55088449939	2.0	2.0	2.0	2.0	2.0	2.0	6.0	33.0	143.0	782.0	1415.0	2090.0	4801.0	9600.0	13917.0
1327501200	3822983.0	179.955893429	470.000813768	2.61175560751	2.0	2.0	2.0	2.0	2.0	2.0	6.0	35.0	149.0	836.0	1472.0	2144.0	5463.0	10547.0	15313.0
1327501800	3537391.0	164.959475844	410.055466951	2.48579516183	2.0	2.0	2.0	2.0	2.0	2.0	6.0	32.0	137.0	764.0	1379.0	2006.0	4495.0	7233.0	8286.0
1327502400	3697854.0	197.97911982	459.225156174	2.3195635812	2.0	2.0	2.0	2.0	2.0	2.0	8.0	44.0	180.0	899.0	1574.0	2210.0	4645.0	10315.0	12779.0
1327503000	3847368.0	201.316937889	505.032642955	2.50864456936	2.0	2.0	2.0	2.0	2.0	2.0	8.0	41.0	176.0	899.0	1643.0	2354.0	5308.0	11779.0	19562.0
1327503600	3766341.0	172.974235327	439.22980792	2.53927879543	2.0	2.0	2.0	2.0	2.0	2.0	6.0	32.0	143.0	809.0	1454.0	2105.0	4933.0	7194.0	11983.0
1327504200	3672231.0	179.133219512	445.639761219	2.48775610929	2.0	2.0	2.0	2.0	2.0	2.0	6.0	35.0	152.0	815.0	1535.0	2099.0	4966.0	8448.0	13089.0
1327504800	3623112.0	170.195039459	437.582675433	2.57106597715	2.0	2.0	2.0	2.0	2.0	2.0	6.0	32.0	146.0	782.0	1430.0	1985.0	4807.0	8613.0	12148.0
1327505400	3613411.0	177.484699641	417.489799674	2.35225797219	2.0	2.0	2.0	2.0	2.0	2.0	6.0	36.0	155.0	827.0	1478.0	2012.0	4594.0	7296.0	7950.0
1327506000	3732917.0	194.180035372	465.875884317	2.39919558889	2.0	2.0	2.0	2.0	2.0	2.0	8.0	41.0	173.0	878.0	1556.0	2228.0	5182.0	10301.0	10433.0
1327506600	3697463.0	205.895032854	460.638601155	2.23724970325	2.0	2.0	2.0	2.0	2.0	2.0	8.0	45.0	188.0	944.0	1655.0	2273.0	4945.0	6956.0	7341.0
1327507200	3701676.0	204.931406743	473.715124359	2.31157894189	2.0	2.0	2.0	2.0	2.0	2.0	8.0	44.0	191.0	935.0	1634.0	2273.0	4924.0	8099.0	12331.0
1327507800	3316620.0	191.86740715	473.151185358	2.46603210199	2.0	2.0	2.0	2.0	2.0	2.0	6.0	38.0	170.0	884.0	1583.0	2219.0	5026.0	9221.0	15789.0
1327508400	3676199.0	203.262136459	467.844164724	2.30167887081	2.0	2.0	2.0	2.0	2.0	2.0	8.0	44.0	185.0	947.0	1643.0	2246.0	5263.0	9348.0	9557.0
1327509000	3345411.0	149.508893457	383.076957318	2.5622352521	2.0	2.0	2.0	2.0	2.0	2.0	5.0	29.0	122.0	671.0	1292.0	1883.0	4348.0	6990.0	9134.0
1327509600	3972285.0	187.752753226	462.589475417	2.46382259365	2.0	2.0	2.0	2.0	2.0	2.0	6.0	36.0	159.0	881.0	1565.0	2201.0	4897.0	9725.0	12062.0
1327510200	2970395.0	151.011438739	395.201406928	2.61702961198	2.0	2.0	2.0	2.0	2.0	2.0	5.0	29.0	122.0	695.0	1259.0	1802.0	4945.0	8328.0	11966.0
1327510800	3388915.0	168.493760255	443.604559763	2.63276550475	2.0	2.0	2.0	2.0	2.0	2.0	6.0	32.0	143.0	770.0	1403.0	1952.0	4888.0	11335.0	14691.0
1327511400	3820859.0	176.385329148	447.152842124	2.53509089608	2.0	2.0	2.0	2.0	2.0	2.0	6.0	35.0	146.0	815.0	1463.0	2096.0	5212.0	8199.0	9084.0
1327512000	3654665.0	170.770758376	440.220841315	2.5778467315	2.0	2.0	2.0	2.0	2.0	2.0	6.0	32.0	143.0	782.0	1457.0	1982.0	5116.0	10767.0	12541.0
1327512600	3498891.0	161.663863605	410.827389497	2.54124440884	2.0	2.0	2.0	2.0	2.0	2.0	5.0	30.0	131.0	743.0	1382.0	2039.0	4792.0	6879.0	8409.0
1327513200	3560108.0	155.612728385	410.010130551	2.63481101325	2.0	2.0	2.0	2.0	2.0	2.0	5.0	29.0	125.0	707.0	1325.0	2018.0	4891.0	8355.0	9725.0
1327513800	3719867.0	190.713509357	458.49862663	2.40412243567	2.0	2.0	2.0	2.0	2.0	2.0	8.0	38.0	167.0	863.0	1571.0	2257.0	5026.0	7488.0	10535.0
1327514400	2961270.0	219.158525755	497.899537464	2.27186935005	2.0	2.0	2.0	2.0	2.0	2.0	8.0	47.0	197.0	1025.0	1775.0	2513.0	5046.0	7778.0	8385.0
1327515000	3081095.0	175.151782161	417.274180774	2.38235760793	2.0	2.0	2.0	2.0	2.0	2.0	6.0	35.0	147.0	830.0	1487.0	2060.0	4810.0	7023.0	7137.0
1327515600	3176658.0	173.815824032	433.871872887	2.49615865129	2.0	2.0	2.0	2.0	2.0	2.0	6.0	32.0	140.0	809.0	1508.0	2090.0	4972.0	7755.0	7758.0
1327516200	2496208.0	190.40488177	443.174524232	2.32753761412	2.0	2.0	2.0	2.0	2.0	2.0	8.0	41.0	170.0	887.0	1553.0	2246.0	4612.0	7030.0	7228.0
1327516800	2476098.0	151.073703478	387.573285165	2.56545829117	2.0	2.0	2.0	2.0	2.0	2.0	5.0	29.0	125.0	701.0	1265.0	1898.0	4336.0	7293.0	7440.0
1327517400	3578763.0	165.194008493	411.577747836	2.49148108694	2.0	2.0	2.0	2.0	2.0	2.0	6.0	32.0	134.0	770.0	1367.0	1973.0	4849.0	6594.0	7509.0
1327518000	3310486.0	167.356857591	422.346992172	2.52363122882	2.0	2.0	2.0	2.0	2.0	2.0	6.0	30.0	137.0	758.0	1460.0	2063.0	4738.0	6687.0	6705.0
1327518600	2599895.0	141.668210549	361.439083891	2.55130690569	2.0	2.0	2.0	2.0	2.0	2.0	5.0	27.0	119.0	647.0	1193.0	1724.0	4321.0	6373.0	6451.0
1327519200	3072446.0	154.650727337	378.303297566	2.44617858629	2.0	2.0	2.0	2.0	2.0	2.0	5.0	29.0	131.0	719.0	1346.0	1871.0	4261.0	5716.0	5964.0
1327519800	2298385.0	150.545948778	372.04047415	2.47127522971	2.0	2.0	2.0	2.0	2.0	2.0	5.0	27.0	125.0	701.0	1319.0	1886.0	4342.0	5545.0	5856.0
1327520400	5964.0	54.2181818182	147.630855146	2.72290309626	2.0	2.0	2.0	2.0	2.0	2.0	2.0	3.0	21.0	236.0	701.0	818.0	908.0	908.0	908.0
1327521000	12641.0	54.9608695652	128.442919676	2.33698849185	2.0	2.0	2.0	2.0	2.0	2.0	3.0	9.0	44.0	263.0	401.0	671.0	1196.0	1196.0	1196.0
1327521600	2222.0	24.6888888889	58.7272584614	2.37869183687	2.0	2.0	2.0	2.0	2.0	2.0	2.0	3.0	12.0	140.0	272.0	389.0	389.0	389.0	389.0
1327522200	22990.0	48.1970649895	127.004064944	2.63509956409	2.0	2.0	2.0	2.0	2.0	2.0	3.0	8.0	44.0	218.0	386.0	710.0	1655.0	1655.0	1655.0
1327522800	10002.0	45.6712328767	131.968204552	2.88952577454	2.0	2.0	2.0	2.0	2.0	2.0	2.0	3.0	23.0	281.0	512.0	554.0	1397.0	1397.0	1397.0
1327523400	25528.0	43.1216216216	118.345841263	2.74446639093	2.0	2.0	2.0	2.0	2.0	2.0	3.0	6.0	29.0	197.0	365.0	656.0	1358.0	1358.0	1358.0
1327524000	18602.0	54.0755813953	129.136671728	2.38807736128	2.0	2.0	2.0	2.0	2.0	2.0	3.0	8.0	41.0	278.0	500.0	665.0	1031.0	1031.0	1031.0
1327524600	8862.0	47.6451612903	115.196015806	2.41779044684	2.0	2.0	2.0	2.0	2.0	2.0	2.0	3.0	38.0	284.0	389.0	464.0	1079.0	1079.0	1079.0
1327525200	5051.0	28.217877095	72.7749533557	2.57903715119	2.0	2.0	2.0	2.0	2.0	2.0	2.0	3.0	15.0	188.0	320.0	386.0	509.0	509.0	509.0
1327525800	101.0	3.25806451613	3.38592913822	1.03924557708	2.0	2.0	2.0	2.0	2.0	2.0	2.0	3.0	3.0	5.0	21.0	21.0	21.0	21.0	21.0
