#
# Generated On: 2012-02-05T23:38:15.093349
#           By: cwa.analyze.statistics
#      Version: 11.11.23
#       Author: Thomas A. de Ruiter <thomas@de-ruiter.cx>
#
#  Commandline: /home/af10028/bin/cwa analyze
#     Work Dir: /scratch/af10028/var/thesis-project/result/analyses/workload-24h-08652l-0s-default
#

Time	Sum	Avg	StdDev	CoV	0.000000-Pct	0.010000-Pct	0.100000-Pct	1.000000-Pct	2.000000-Pct	5.000000-Pct	25.000000-Pct	50.000000-Pct	75.000000-Pct	95.000000-Pct	98.000000-Pct	99.000000-Pct	99.900000-Pct	99.990000-Pct	100.000000-Pct
1327462800	166482528.0	8525.76063912	3878.08784	0.454867079215	2.0	2.0	3.0	54.0	420.0	1273.0	6309.0	8816.0	10806.0	14880.0	15309.0	15495.0	15666.0	15689.0	15693.0
