#
# Generated On: 2012-02-05T16:49:55.616273
#           By: cwa.analyze.statistics
#      Version: 11.11.23
#       Author: Thomas A. de Ruiter <thomas@de-ruiter.cx>
#
#  Commandline: /home/af10028/bin/cwa analyze
#     Work Dir: /scratch/af10028/var/thesis-project/result/analyses/workload-01h-04944l-5s-default
#

Value	PDF	CDF
5.0	0.291881001372	0.291923868313
8.0	0.000128600823045	0.292052469136
11.0	0.00017146776406	0.2922239369
14.0	0.000128600823045	0.292352537723
17.0	0.00017146776406	0.292524005487
23.0	4.28669410151e-05	0.292566872428
26.0	0.000128600823045	0.292695473251
29.0	4.28669410151e-05	0.292738340192
32.0	0.00017146776406	0.292909807956
35.0	0.000128600823045	0.293038408779
38.0	0.000300068587106	0.293338477366
44.0	4.28669410151e-05	0.293381344307
47.0	0.000214334705075	0.293595679012
50.0	0.000128600823045	0.293724279835
53.0	0.000771604938272	0.294495884774
56.0	0.00017146776406	0.294667352538
63.0	8.57338820302e-05	0.29475308642
65.0	0.000128600823045	0.294881687243
69.0	4.28669410151e-05	0.294924554184
71.0	4.28669410151e-05	0.294967421125
74.0	8.57338820302e-05	0.295053155007
77.0	0.000471536351166	0.295524691358
80.0	4.28669410151e-05	0.295567558299
83.0	0.000128600823045	0.295696159122
89.0	0.000128600823045	0.295824759945
98.0	0.0014146090535	0.297239368999
101.0	0.000257201646091	0.297496570645
107.0	0.000300068587106	0.297796639232
119.0	0.000557270233196	0.298353909465
122.0	4.28669410151e-05	0.298396776406
128.0	4.28669410151e-05	0.298439643347
131.0	0.000300068587106	0.298739711934
134.0	0.000300068587106	0.299039780521
140.0	0.000128600823045	0.299168381344
143.0	4.28669410151e-05	0.299211248285
146.0	4.28669410151e-05	0.299254115226
149.0	0.000214334705075	0.299468449931
152.0	0.000342935528121	0.29981138546
155.0	4.28669410151e-05	0.299854252401
161.0	0.000728737997257	0.300582990398
164.0	0.00017146776406	0.300754458162
168.0	4.28669410151e-05	0.300797325103
170.0	0.000257201646091	0.301054526749
176.0	0.000300068587106	0.301354595336
179.0	0.000943072702332	0.302297668038
182.0	0.00162894375857	0.303926611797
188.0	0.000128600823045	0.30405521262
192.0	4.28669410151e-05	0.304098079561
194.0	0.000300068587106	0.304398148148
200.0	4.28669410151e-05	0.304441015089
203.0	0.000214334705075	0.304655349794
206.0	0.00017146776406	0.304826817558
212.0	0.00017146776406	0.304998285322
216.0	4.28669410151e-05	0.305041152263
218.0	0.000643004115226	0.305684156379
221.0	0.00265775034294	0.308341906722
227.0	8.57338820302e-05	0.308427640604
230.0	0.000471536351166	0.308899176955
236.0	0.00317215363512	0.31207133059
239.0	0.000128600823045	0.312199931413
242.0	0.000943072702332	0.313143004115
245.0	0.00017146776406	0.313314471879
248.0	0.000600137174211	0.313914609053
251.0	0.00261488340192	0.316529492455
254.0	8.57338820302e-05	0.316615226337
257.0	0.00017146776406	0.316786694102
260.0	0.000943072702332	0.317729766804
263.0	0.00017146776406	0.317901234568
269.0	8.57338820302e-05	0.31798696845
272.0	0.000557270233196	0.318544238683
275.0	0.00248628257888	0.321030521262
278.0	0.000128600823045	0.321159122085
281.0	0.000771604938272	0.321930727023
284.0	0.00222908093278	0.324159807956
290.0	8.57338820302e-05	0.324245541838
293.0	4.28669410151e-05	0.324288408779
302.0	0.000300068587106	0.324588477366
305.0	0.000771604938272	0.325360082305
308.0	0.000128600823045	0.325488683128
311.0	0.000557270233196	0.326045953361
314.0	8.57338820302e-05	0.326131687243
317.0	0.000471536351166	0.326603223594
320.0	0.000600137174211	0.327203360768
323.0	0.00214334705075	0.329346707819
332.0	0.00017146776406	0.329518175583
335.0	0.000471536351166	0.329989711934
341.0	4.28669410151e-05	0.330032578875
344.0	0.000214334705075	0.33024691358
347.0	0.000985939643347	0.331232853224
350.0	0.00291495198903	0.334147805213
353.0	8.57338820302e-05	0.334233539095
360.0	8.57338820302e-05	0.334319272977
362.0	0.00342935528121	0.337748628258
365.0	0.000857338820302	0.338605967078
368.0	8.57338820302e-05	0.33869170096
371.0	0.000300068587106	0.338991769547
374.0	0.00017146776406	0.339163237311
387.0	4.28669410151e-05	0.339206104252
389.0	8.57338820302e-05	0.339291838134
398.0	0.00017146776406	0.339463305898
401.0	0.000214334705075	0.339677640604
407.0	0.00124314128944	0.340920781893
410.0	0.000685871056241	0.341606652949
413.0	0.00132887517147	0.342935528121
416.0	0.00175754458162	0.344693072702
419.0	0.00111454046639	0.345807613169
422.0	0.000385802469136	0.346193415638
425.0	0.000128600823045	0.346322016461
428.0	8.57338820302e-05	0.346407750343
431.0	0.000428669410151	0.346836419753
434.0	4.28669410151e-05	0.346879286694
440.0	0.00017146776406	0.347050754458
443.0	0.000342935528121	0.347393689986
446.0	0.000514403292181	0.347908093278
449.0	0.000214334705075	0.348122427984
452.0	8.57338820302e-05	0.348208161866
455.0	0.000214334705075	0.348422496571
458.0	0.000128600823045	0.348551097394
461.0	0.00137174211248	0.349922839506
464.0	0.000214334705075	0.350137174211
467.0	0.000214334705075	0.350351508916
470.0	0.000600137174211	0.350951646091
476.0	0.000471536351166	0.351423182442
479.0	8.57338820302e-05	0.351508916324
482.0	0.000385802469136	0.351894718793
485.0	0.0014146090535	0.353309327846
488.0	0.00017146776406	0.35348079561
491.0	0.00107167352538	0.354552469136
494.0	0.00192901234568	0.356481481481
497.0	0.00321502057613	0.359696502058
500.0	0.00111454046639	0.360811042524
503.0	0.000128600823045	0.360939643347
509.0	0.00201474622771	0.362954389575
512.0	0.00128600823045	0.364240397805
515.0	0.00128600823045	0.365526406036
518.0	0.000257201646091	0.365783607682
521.0	0.00407235939643	0.369855967078
524.0	0.00111454046639	0.370970507545
530.0	0.000128600823045	0.371099108368
542.0	0.000128600823045	0.371227709191
545.0	0.000557270233196	0.371784979424
548.0	0.00231481481481	0.374099794239
551.0	0.000214334705075	0.374314128944
554.0	0.000300068587106	0.374614197531
557.0	0.00158607681756	0.376200274348
560.0	0.000728737997257	0.376929012346
563.0	0.000557270233196	0.377486282579
566.0	8.57338820302e-05	0.377572016461
569.0	0.00218621399177	0.379758230453
572.0	4.28669410151e-05	0.379801097394
575.0	0.000128600823045	0.379929698217
578.0	0.000300068587106	0.380229766804
581.0	0.000428669410151	0.380658436214
590.0	0.000471536351166	0.381129972565
593.0	0.000943072702332	0.382073045267
596.0	0.000643004115226	0.382716049383
599.0	0.00274348422497	0.385459533608
602.0	0.00120027434842	0.386659807956
605.0	0.000814471879287	0.387474279835
611.0	0.000257201646091	0.387731481481
614.0	0.000128600823045	0.387860082305
617.0	4.28669410151e-05	0.387902949246
626.0	0.000385802469136	0.388288751715
629.0	0.000428669410151	0.388717421125
632.0	0.000300068587106	0.389017489712
635.0	0.000771604938272	0.38978909465
638.0	0.000342935528121	0.390132030178
641.0	0.00111454046639	0.391246570645
644.0	0.00201474622771	0.393261316872
647.0	0.00124314128944	0.394504458162
650.0	0.00167181069959	0.396176268861
653.0	0.000428669410151	0.396604938272
656.0	0.000128600823045	0.396733539095
659.0	0.00270061728395	0.399434156379
662.0	4.28669410151e-05	0.39947702332
665.0	0.000385802469136	0.399862825789
668.0	0.000857338820302	0.400720164609
671.0	0.000985939643347	0.401706104252
674.0	0.00338648834019	0.405092592593
683.0	8.57338820302e-05	0.405178326475
686.0	0.000643004115226	0.40582133059
689.0	0.00017146776406	0.405992798354
692.0	0.00192901234568	0.4079218107
698.0	0.000900205761317	0.408822016461
713.0	0.000257201646091	0.409079218107
716.0	0.000428669410151	0.409507887517
719.0	0.000385802469136	0.409893689986
725.0	0.000214334705075	0.410108024691
734.0	8.57338820302e-05	0.410193758573
737.0	0.000128600823045	0.410322359396
743.0	0.000471536351166	0.410793895748
746.0	0.000342935528121	0.411136831276
749.0	0.000814471879287	0.411951303155
755.0	0.00107167352538	0.41302297668
764.0	8.57338820302e-05	0.413108710562
767.0	0.00017146776406	0.413280178326
770.0	0.000385802469136	0.413665980796
779.0	0.000600137174211	0.41426611797
782.0	0.000857338820302	0.41512345679
785.0	0.000214334705075	0.415337791495
791.0	0.00145747599451	0.41679526749
794.0	8.57338820302e-05	0.416881001372
797.0	0.00017146776406	0.417052469136
809.0	4.28669410151e-05	0.417095336077
821.0	0.000428669410151	0.417524005487
827.0	8.57338820302e-05	0.417609739369
851.0	0.0036865569273	0.421296296296
857.0	0.000857338820302	0.422153635117
860.0	0.00017146776406	0.422325102881
863.0	0.00192901234568	0.424254115226
866.0	0.00150034293553	0.425754458162
869.0	0.0014146090535	0.427169067215
875.0	0.0039866255144	0.43115569273
878.0	0.00360082304527	0.434756515775
881.0	0.000300068587106	0.435056584362
884.0	0.00235768175583	0.437414266118
887.0	0.00184327846365	0.439257544582
890.0	0.000471536351166	0.439729080933
893.0	0.000214334705075	0.439943415638
896.0	8.57338820302e-05	0.44002914952
899.0	0.000257201646091	0.440286351166
902.0	4.28669410151e-05	0.440329218107
905.0	0.000728737997257	0.441057956104
908.0	4.28669410151e-05	0.441100823045
911.0	8.57338820302e-05	0.441186556927
917.0	0.000214334705075	0.441400891632
920.0	0.000128600823045	0.441529492455
929.0	0.000557270233196	0.442086762689
938.0	0.00197187928669	0.444058641975
941.0	0.000857338820302	0.444915980796
944.0	0.000214334705075	0.445130315501
950.0	0.000214334705075	0.445344650206
959.0	0.000128600823045	0.445473251029
968.0	0.000257201646091	0.445730452675
971.0	0.000257201646091	0.445987654321
974.0	4.28669410151e-05	0.446030521262
977.0	0.00102880658436	0.447059327846
980.0	0.000214334705075	0.447273662551
983.0	0.000814471879287	0.448088134431
989.0	0.000300068587106	0.448388203018
995.0	0.0039866255144	0.452374828532
1001.0	8.57338820302e-05	0.452460562414
1007.0	0.000214334705075	0.452674897119
1010.0	0.000300068587106	0.452974965706
1013.0	0.00111454046639	0.454089506173
1016.0	0.000428669410151	0.454518175583
1025.0	0.00257201646091	0.457090192044
1028.0	0.00128600823045	0.458376200274
1031.0	0.000257201646091	0.45863340192
1034.0	0.00180041152263	0.460433813443
1046.0	8.57338820302e-05	0.460519547325
1055.0	4.28669410151e-05	0.460562414266
1058.0	0.000514403292181	0.461076817558
1067.0	4.28669410151e-05	0.461119684499
1070.0	0.00154320987654	0.462662894376
1076.0	0.000600137174211	0.46326303155
1079.0	0.00240054869684	0.465663580247
1082.0	0.00167181069959	0.467335390947
1085.0	0.000428669410151	0.467764060357
1103.0	0.000943072702332	0.468707133059
1106.0	0.000557270233196	0.469264403292
1115.0	0.000214334705075	0.469478737997
1118.0	0.0031292866941	0.472608024691
1121.0	0.00527263374486	0.477880658436
1124.0	0.000300068587106	0.478180727023
1127.0	0.000342935528121	0.478523662551
1130.0	0.000128600823045	0.478652263374
1136.0	0.000643004115226	0.47929526749
1151.0	0.000385802469136	0.479681069959
1154.0	4.28669410151e-05	0.4797239369
1157.0	0.000514403292181	0.480238340192
1187.0	8.57338820302e-05	0.480324074074
1208.0	0.00347222222222	0.483796296296
1232.0	0.00111454046639	0.484910836763
1241.0	0.000900205761317	0.485811042524
1247.0	0.000385802469136	0.486196844993
1250.0	0.000643004115226	0.486839849108
1274.0	0.00154320987654	0.488383058985
1283.0	4.28669410151e-05	0.488425925926
1286.0	4.28669410151e-05	0.488468792867
1298.0	0.00017146776406	0.488640260631
1301.0	0.000128600823045	0.488768861454
1304.0	0.00201474622771	0.490783607682
1313.0	0.000385802469136	0.491169410151
1322.0	0.000471536351166	0.491640946502
1337.0	0.000300068587106	0.491941015089
1340.0	0.000814471879287	0.492755486968
1379.0	8.57338820302e-05	0.49284122085
1397.0	0.000128600823045	0.492969821674
1400.0	0.000128600823045	0.493098422497
1421.0	0.000685871056241	0.493784293553
1430.0	0.00197187928669	0.49575617284
1433.0	0.000857338820302	0.49661351166
1442.0	0.00132887517147	0.497942386831
1445.0	0.000514403292181	0.498456790123
1451.0	0.00124314128944	0.499699931413
1463.0	0.00261488340192	0.502314814815
1466.0	0.000385802469136	0.502700617284
1469.0	0.000257201646091	0.50295781893
1472.0	0.00017146776406	0.503129286694
1475.0	0.000814471879287	0.503943758573
1478.0	0.000943072702332	0.504886831276
1481.0	0.000257201646091	0.505144032922
1490.0	0.00017146776406	0.505315500686
1493.0	0.000214334705075	0.505529835391
1514.0	0.000385802469136	0.50591563786
1517.0	8.57338820302e-05	0.506001371742
1529.0	0.00630144032922	0.512302812071
1532.0	0.00990226337449	0.522205075446
1535.0	0.00210048010974	0.524305555556
1538.0	0.00145747599451	0.52576303155
1556.0	0.000342935528121	0.526105967078
1559.0	0.000257201646091	0.526363168724
1562.0	0.00017146776406	0.526534636488
1568.0	0.000128600823045	0.526663237311
1571.0	0.000385802469136	0.527049039781
1574.0	0.000342935528121	0.527391975309
1580.0	0.000300068587106	0.527692043896
1583.0	8.57338820302e-05	0.527777777778
1601.0	4.28669410151e-05	0.527820644719
1604.0	0.00222908093278	0.530049725652
1607.0	0.00017146776406	0.530221193416
1610.0	8.57338820302e-05	0.530306927298
1613.0	0.002829218107	0.533136145405
1616.0	8.57338820302e-05	0.533221879287
1649.0	0.000128600823045	0.53335048011
1652.0	8.57338820302e-05	0.533436213992
1658.0	0.000385802469136	0.533822016461
1661.0	0.000385802469136	0.53420781893
1667.0	0.000342935528121	0.534550754458
1673.0	0.000728737997257	0.535279492455
1679.0	4.28669410151e-05	0.535322359396
1682.0	4.28669410151e-05	0.535365226337
1691.0	0.000128600823045	0.53549382716
1694.0	0.00385802469136	0.539351851852
1697.0	4.28669410151e-05	0.539394718793
1700.0	0.00201474622771	0.541409465021
1703.0	0.00128600823045	0.542695473251
1748.0	0.00017146776406	0.542866941015
1751.0	0.00111454046639	0.543981481481
1754.0	8.57338820302e-05	0.544067215364
1772.0	0.00017146776406	0.544238683128
1775.0	0.00167181069959	0.545910493827
1777.0	0.00402949245542	0.549939986283
1784.0	0.00017146776406	0.550111454047
1787.0	0.00137174211248	0.551483196159
1835.0	0.000900205761317	0.55238340192
1838.0	4.28669410151e-05	0.552426268861
1886.0	0.000214334705075	0.552640603567
1889.0	0.000643004115226	0.553283607682
1898.0	0.000514403292181	0.553798010974
1955.0	0.00017146776406	0.553969478738
1958.0	0.000300068587106	0.554269547325
1961.0	0.000471536351166	0.554741083676
1964.0	8.57338820302e-05	0.554826817558
1982.0	4.28669410151e-05	0.554869684499
1985.0	0.000128600823045	0.554998285322
1987.0	0.000557270233196	0.555555555556
1994.0	0.000600137174211	0.55615569273
2045.0	0.000128600823045	0.556284293553
2048.0	0.000643004115226	0.556927297668
2051.0	0.000471536351166	0.557398834019
2066.0	0.000471536351166	0.55787037037
2068.0	0.000385802469136	0.55825617284
2075.0	4.28669410151e-05	0.558299039781
2078.0	8.57338820302e-05	0.558384773663
2081.0	4.28669410151e-05	0.558427640604
2123.0	0.000600137174211	0.559027777778
2137.0	0.00017146776406	0.559199245542
2170.0	0.00145747599451	0.560656721536
2179.0	8.57338820302e-05	0.560742455418
2189.0	4.28669410151e-05	0.560785322359
2222.0	4.28669410151e-05	0.5608281893
2225.0	8.57338820302e-05	0.560913923182
2269.0	0.00210048010974	0.563014403292
2272.0	0.000514403292181	0.563528806584
2276.0	0.000214334705075	0.563743141289
2285.0	4.28669410151e-05	0.56378600823
2287.0	0.000214334705075	0.564000342936
2291.0	8.57338820302e-05	0.564086076818
2294.0	4.28669410151e-05	0.564128943759
2365.0	0.000643004115226	0.564771947874
2386.0	0.00124314128944	0.566015089163
2389.0	0.00145747599451	0.567472565158
2414.0	0.000771604938272	0.568244170096
2422.0	0.000600137174211	0.56884430727
2425.0	0.000728737997257	0.569573045267
2429.0	0.000128600823045	0.569701646091
2431.0	0.000900205761317	0.570601851852
2447.0	0.000342935528121	0.57094478738
2449.0	0.000857338820302	0.5718021262
2452.0	0.0022719478738	0.574074074074
2461.0	0.000428669410151	0.574502743484
2464.0	0.000557270233196	0.575060013717
2474.0	4.28669410151e-05	0.575102880658
2476.0	0.000600137174211	0.575703017833
2479.0	0.00201474622771	0.57771776406
2482.0	0.00904492455418	0.586762688615
2486.0	8.57338820302e-05	0.586848422497
2491.0	0.00295781893004	0.589806241427
2494.0	0.0017146776406	0.591520919067
2497.0	0.000728737997257	0.592249657064
2500.0	0.000557270233196	0.592806927298
2509.0	0.00180041152263	0.59460733882
2512.0	0.000428669410151	0.59503600823
2515.0	0.000342935528121	0.595378943759
2524.0	0.000385802469136	0.595764746228
2527.0	0.000771604938272	0.596536351166
2531.0	8.57338820302e-05	0.596622085048
2533.0	0.000685871056241	0.597307956104
2543.0	0.000128600823045	0.597436556927
2545.0	0.000471536351166	0.597908093278
2558.0	4.28669410151e-05	0.597950960219
2560.0	0.000257201646091	0.598208161866
2584.0	0.00364368998628	0.601851851852
2651.0	8.57338820302e-05	0.601937585734
2653.0	0.000342935528121	0.602280521262
2677.0	0.000342935528121	0.60262345679
2680.0	8.57338820302e-05	0.602709190672
2701.0	0.00102880658436	0.603737997257
2710.0	0.000643004115226	0.604381001372
2809.0	0.00222908093278	0.606610082305
2812.0	0.000428669410151	0.607038751715
2819.0	4.28669410151e-05	0.607081618656
2824.0	0.0017146776406	0.608796296296
2827.0	0.000814471879287	0.609610768176
2881.0	0.00111454046639	0.610725308642
2884.0	0.000128600823045	0.610853909465
2887.0	0.000128600823045	0.610982510288
2965.0	0.000685871056241	0.611668381344
2968.0	0.00175754458162	0.613425925926
2971.0	0.00167181069959	0.615097736626
2995.0	0.00017146776406	0.61526920439
3007.0	0.00570130315501	0.620970507545
3010.0	0.0031292866941	0.624099794239
3013.0	0.000342935528121	0.624442729767
3016.0	0.00210048010974	0.626543209877
3028.0	0.00124314128944	0.627786351166
3031.0	0.00175754458162	0.629543895748
3091.0	4.28669410151e-05	0.629586762689
3097.0	0.000128600823045	0.629715363512
3100.0	0.000300068587106	0.630015432099
3103.0	0.00278635116598	0.632801783265
3106.0	0.000300068587106	0.633101851852
3109.0	0.000514403292181	0.633616255144
3112.0	0.000214334705075	0.633830589849
3139.0	8.57338820302e-05	0.633916323731
3143.0	4.28669410151e-05	0.633959190672
3145.0	0.000471536351166	0.634430727023
3160.0	0.00017146776406	0.634602194787
3166.0	0.000728737997257	0.635330932785
3169.0	0.000214334705075	0.63554526749
3172.0	0.00120027434842	0.636745541838
3263.0	4.28669410151e-05	0.636788408779
3265.0	0.00518689986283	0.641975308642
3268.0	0.0045438957476	0.64651920439
3277.0	0.000300068587106	0.646819272977
3280.0	4.28669410151e-05	0.646862139918
3310.0	0.0054012345679	0.652263374486
3313.0	0.00162894375857	0.653892318244
3316.0	0.000857338820302	0.654749657064
3361.0	0.000257201646091	0.655006858711
3373.0	0.000643004115226	0.655649862826
3388.0	0.000257201646091	0.655907064472
3391.0	0.000300068587106	0.656207133059
3403.0	0.000428669410151	0.656635802469
3406.0	0.000814471879287	0.657450274348
3409.0	0.000771604938272	0.658221879287
3413.0	0.000128600823045	0.65835048011
3415.0	0.000300068587106	0.658650548697
3418.0	4.28669410151e-05	0.658693415638
3421.0	0.000214334705075	0.658907750343
3424.0	0.00535836762689	0.66426611797
3427.0	0.00175754458162	0.666023662551
3433.0	0.000385802469136	0.666409465021
3436.0	0.000128600823045	0.666538065844
3442.0	8.57338820302e-05	0.666623799726
3445.0	0.000471536351166	0.667095336077
3457.0	0.000428669410151	0.667524005487
3460.0	0.000685871056241	0.668209876543
3463.0	0.000557270233196	0.668767146776
3466.0	0.000771604938272	0.669538751715
3470.0	8.57338820302e-05	0.669624485597
3472.0	0.000471536351166	0.670096021948
3481.0	0.00017146776406	0.670267489712
3538.0	0.000514403292181	0.670781893004
3559.0	0.000300068587106	0.671081961591
3562.0	0.000300068587106	0.671382030178
3583.0	0.00175754458162	0.67313957476
3586.0	0.000814471879287	0.673954046639
3601.0	0.00248628257888	0.676440329218
3676.0	0.000728737997257	0.677169067215
3787.0	0.000428669410151	0.677597736626
3793.0	8.57338820302e-05	0.677683470508
3796.0	0.000342935528121	0.678026406036
3799.0	8.57338820302e-05	0.678112139918
3802.0	0.000385802469136	0.678497942387
3847.0	0.00128600823045	0.679783950617
3850.0	0.000428669410151	0.680212620027
3853.0	0.000300068587106	0.680512688615
4003.0	0.000985939643347	0.681498628258
4039.0	0.000471536351166	0.681970164609
4042.0	0.000428669410151	0.682398834019
4072.0	0.000385802469136	0.682784636488
4075.0	0.000643004115226	0.683427640604
4077.0	0.00300068587106	0.686428326475
4079.0	0.000300068587106	0.686728395062
4099.0	0.000985939643347	0.687714334705
4126.0	0.00244341563786	0.690157750343
4129.0	0.00300068587106	0.693158436214
4153.0	0.00162894375857	0.694787379973
4156.0	0.00192901234568	0.696716392318
4162.0	0.000600137174211	0.697316529492
4165.0	4.28669410151e-05	0.697359396433
4183.0	0.00017146776406	0.697530864198
4186.0	0.000814471879287	0.698345336077
4198.0	0.000342935528121	0.698688271605
4207.0	0.00017146776406	0.698859739369
4210.0	0.000600137174211	0.699459876543
4228.0	0.00218621399177	0.701646090535
4231.0	0.00162894375857	0.703275034294
4234.0	0.00617283950617	0.7094478738
4240.0	0.000257201646091	0.709705075446
4246.0	0.00351508916324	0.713220164609
4282.0	0.000428669410151	0.713648834019
4353.0	0.00248628257888	0.716135116598
4355.0	0.000128600823045	0.716263717421
4360.0	0.00394375857339	0.720207475995
4389.0	0.000385802469136	0.720593278464
4402.0	4.28669410151e-05	0.720636145405
4405.0	0.000257201646091	0.720893347051
4408.0	0.000257201646091	0.721150548697
4417.0	0.000557270233196	0.72170781893
4462.0	0.00102880658436	0.722736625514
4465.0	0.00291495198903	0.725651577503
4509.0	0.00240054869684	0.7280521262
4511.0	4.28669410151e-05	0.728094993141
4527.0	0.000428669410151	0.728523662551
4530.0	0.00364368998628	0.732167352538
4532.0	4.28669410151e-05	0.732210219479
4567.0	0.000128600823045	0.732338820302
4569.0	0.000257201646091	0.732596021948
4579.0	0.000128600823045	0.732724622771
4582.0	4.28669410151e-05	0.732767489712
4594.0	0.00017146776406	0.732938957476
4597.0	0.000385802469136	0.733324759945
4648.0	0.000300068587106	0.733624828532
4656.0	0.00231481481481	0.735939643347
4677.0	0.00017146776406	0.736111111111
4680.0	0.00115740740741	0.737268518519
4683.0	0.00167181069959	0.738940329218
4686.0	0.00154320987654	0.740483539095
4786.0	0.000385802469136	0.740869341564
4789.0	0.000128600823045	0.740997942387
4792.0	0.000428669410151	0.741426611797
4798.0	4.28669410151e-05	0.741469478738
4801.0	0.000300068587106	0.741769547325
4804.0	4.28669410151e-05	0.741812414266
4813.0	0.000514403292181	0.742326817558
4816.0	0.000128600823045	0.742455418381
4822.0	0.000514403292181	0.742969821674
4825.0	0.000385802469136	0.743355624143
4828.0	0.000128600823045	0.743484224966
4830.0	0.000685871056241	0.744170096022
4832.0	8.57338820302e-05	0.744255829904
4855.0	8.57338820302e-05	0.744341563786
4864.0	0.000471536351166	0.744813100137
4867.0	0.000257201646091	0.745070301783
4876.0	0.000685871056241	0.74575617284
4936.0	0.000128600823045	0.745884773663
4938.0	0.000214334705075	0.746099108368
4941.0	8.57338820302e-05	0.74618484225
4969.0	8.57338820302e-05	0.746270576132
4971.0	0.00531550068587	0.751586076818
5007.0	0.000857338820302	0.752443415638
5010.0	0.000643004115226	0.753086419753
5032.0	0.00017146776406	0.753257887517
5035.0	0.000900205761317	0.754158093278
5037.0	0.00167181069959	0.755829903978
5040.0	0.00115740740741	0.756987311385
5059.0	0.000814471879287	0.757801783265
5061.0	0.00154320987654	0.759344993141
5080.0	0.00017146776406	0.759516460905
5082.0	0.00120027434842	0.760716735254
5086.0	0.000128600823045	0.760845336077
5103.0	0.000643004115226	0.761488340192
5106.0	0.000985939643347	0.762474279835
5119.0	8.57338820302e-05	0.762560013717
5122.0	0.000300068587106	0.762860082305
5124.0	0.000300068587106	0.763160150892
5127.0	0.00180041152263	0.764960562414
5131.0	0.00017146776406	0.765132030178
5161.0	0.00017146776406	0.765303497942
5163.0	0.000985939643347	0.766289437586
5184.0	0.00017146776406	0.76646090535
5187.0	0.000471536351166	0.766932441701
5206.0	0.00017146776406	0.767103909465
5208.0	0.00137174211248	0.768475651578
5215.0	8.57338820302e-05	0.76856138546
5217.0	0.00115740740741	0.769718792867
5220.0	0.00145747599451	0.771176268861
5224.0	4.28669410151e-05	0.771219135802
5226.0	0.000600137174211	0.771819272977
5229.0	0.00394375857339	0.77576303155
5232.0	0.00317215363512	0.778935185185
5370.0	0.000771604938272	0.779706790123
5373.0	0.00205761316872	0.781764403292
5469.0	0.00210048010974	0.783864883402
5476.0	0.0014146090535	0.785279492455
5478.0	0.00827331961591	0.793552812071
5676.0	0.00128600823045	0.794838820302
5679.0	0.000214334705075	0.795053155007
5773.0	0.000857338820302	0.795910493827
5775.0	0.011488340192	0.807398834019
5805.0	0.00334362139918	0.810742455418
5808.0	0.00394375857339	0.814686213992
5925.0	0.00017146776406	0.814857681756
5940.0	8.57338820302e-05	0.814943415638
5955.0	0.000257201646091	0.815200617284
5991.0	0.000385802469136	0.815586419753
5994.0	0.000385802469136	0.815972222222
6033.0	0.00381515775034	0.819787379973
6120.0	0.00317215363512	0.822959533608
6123.0	8.57338820302e-05	0.82304526749
6135.0	0.00017146776406	0.823216735254
6138.0	0.000471536351166	0.823688271605
6141.0	0.00017146776406	0.823859739369
6144.0	0.000514403292181	0.824374142661
6174.0	0.00017146776406	0.824545610425
6177.0	0.000342935528121	0.824888545953
6180.0	0.000600137174211	0.825488683128
6183.0	0.00017146776406	0.825660150892
6195.0	0.000685871056241	0.826346021948
6201.0	0.00111454046639	0.827460562414
6204.0	0.000600137174211	0.828060699588
6210.0	0.000214334705075	0.828275034294
6213.0	0.00017146776406	0.828446502058
6217.0	0.000214334705075	0.828660836763
6219.0	0.000685871056241	0.829346707819
6229.0	4.28669410151e-05	0.82938957476
6231.0	0.000257201646091	0.829646776406
6240.0	0.000214334705075	0.829861111111
6243.0	0.000128600823045	0.829989711934
6252.0	0.000728737997257	0.830718449931
6255.0	0.00411522633745	0.834833676269
6288.0	0.000428669410151	0.835262345679
6291.0	0.00265775034294	0.837920096022
6294.0	0.000214334705075	0.838134430727
6297.0	0.000514403292181	0.838648834019
6300.0	0.000428669410151	0.839077503429
6303.0	0.000300068587106	0.839377572016
6333.0	0.000600137174211	0.839977709191
6336.0	4.28669410151e-05	0.840020576132
6342.0	0.00017146776406	0.840192043896
6345.0	4.28669410151e-05	0.840234910837
6361.0	4.28669410151e-05	0.840277777778
6363.0	0.00132887517147	0.841606652949
6369.0	0.000342935528121	0.841949588477
6381.0	0.000300068587106	0.842249657064
6384.0	0.000214334705075	0.84246399177
6420.0	0.000385802469136	0.842849794239
6423.0	0.000214334705075	0.843064128944
6426.0	0.000257201646091	0.84332133059
6444.0	0.0068158436214	0.850137174211
6447.0	0.0022719478738	0.852409122085
6465.0	0.00150034293553	0.853909465021
6468.0	0.00240054869684	0.856310013717
6471.0	0.00124314128944	0.857553155007
6474.0	0.000514403292181	0.858067558299
6477.0	0.000128600823045	0.858196159122
6480.0	4.28669410151e-05	0.858239026063
6585.0	0.000300068587106	0.85853909465
6588.0	0.000514403292181	0.859053497942
6621.0	0.000471536351166	0.859525034294
6624.0	0.00137174211248	0.860896776406
6634.0	8.57338820302e-05	0.860982510288
6636.0	0.000342935528121	0.861325445816
6639.0	0.000257201646091	0.861582647462
6642.0	0.00197187928669	0.863554526749
6649.0	0.000128600823045	0.863683127572
6651.0	0.00548696844993	0.869170096022
6654.0	0.00184327846365	0.871013374486
6657.0	0.000128600823045	0.871141975309
6660.0	0.000214334705075	0.871356310014
6663.0	0.000257201646091	0.87161351166
6666.0	0.00925925925926	0.880872770919
6669.0	0.000257201646091	0.881129972565
6714.0	0.00017146776406	0.881301440329
6717.0	0.00017146776406	0.881472908093
6723.0	0.000128600823045	0.881601508916
6726.0	0.00587277091907	0.887474279835
6728.0	0.00218621399177	0.889660493827
6741.0	0.000428669410151	0.890089163237
6744.0	0.000257201646091	0.890346364883
6762.0	0.000857338820302	0.891203703704
6765.0	0.000771604938272	0.891975308642
6789.0	0.00017146776406	0.892146776406
6792.0	0.000128600823045	0.892275377229
6801.0	8.57338820302e-05	0.892361111111
6804.0	0.000428669410151	0.892789780521
6807.0	0.00531550068587	0.898105281207
6810.0	0.00492969821674	0.903034979424
6813.0	0.000128600823045	0.903163580247
6843.0	0.00017146776406	0.903335048011
6846.0	0.000300068587106	0.903635116598
6867.0	0.000128600823045	0.903763717421
6869.0	0.000214334705075	0.903978052126
6912.0	0.000385802469136	0.904363854595
6914.0	0.000728737997257	0.905092592593
6918.0	0.00137174211248	0.906464334705
6966.0	0.000257201646091	0.906721536351
6969.0	0.000300068587106	0.907021604938
7050.0	4.28669410151e-05	0.907064471879
7149.0	0.0090877914952	0.916152263374
7151.0	0.00124314128944	0.917395404664
7206.0	0.00184327846365	0.919238683128
7209.0	0.00115740740741	0.920396090535
7263.0	0.000771604938272	0.921167695473
7389.0	0.00201474622771	0.923182441701
7391.0	0.000214334705075	0.923396776406
7410.0	0.00102880658436	0.92442558299
7412.0	0.0165466392318	0.940972222222
7414.0	0.000257201646091	0.941229423868
7868.0	0.00518689986283	0.946416323731
7870.0	4.28669410151e-05	0.946459190672
7872.0	0.000342935528121	0.9468021262
8123.0	0.00205761316872	0.948859739369
8125.0	4.28669410151e-05	0.94890260631
8421.0	0.000943072702332	0.949845679012
8423.0	0.00180041152263	0.951646090535
8439.0	4.28669410151e-05	0.951688957476
8441.0	0.000943072702332	0.952632030178
9602.0	0.0076731824417	0.96030521262
9604.0	0.0100737311385	0.970378943759
9606.0	0.00132887517147	0.97170781893
9641.0	0.00017146776406	0.971879286694
9644.0	0.000685871056241	0.97256515775
9692.0	0.000257201646091	0.972822359396
9695.0	0.000214334705075	0.973036694102
9698.0	0.00017146776406	0.973208161866
9701.0	8.57338820302e-05	0.973293895748
9779.0	0.000428669410151	0.973722565158
9781.0	0.000257201646091	0.973979766804
9783.0	8.57338820302e-05	0.974065500686
9785.0	0.00128600823045	0.975351508916
9794.0	0.00158607681756	0.976937585734
9797.0	0.000385802469136	0.977323388203
9812.0	0.000214334705075	0.977537722908
9818.0	8.57338820302e-05	0.97762345679
9821.0	0.000128600823045	0.977752057613
9824.0	0.000300068587106	0.9780521262
9842.0	0.000471536351166	0.978523662551
9845.0	4.28669410151e-05	0.978566529492
9866.0	0.000471536351166	0.979038065844
9869.0	0.000385802469136	0.979423868313
9890.0	0.000600137174211	0.980024005487
9893.0	0.000814471879287	0.980838477366
9896.0	8.57338820302e-05	0.980924211248
9899.0	0.000814471879287	0.981738683128
9929.0	0.000300068587106	0.982038751715
9932.0	0.000385802469136	0.982424554184
9935.0	0.000514403292181	0.982938957476
9941.0	0.00017146776406	0.98311042524
9943.0	0.000514403292181	0.983624828532
9945.0	8.57338820302e-05	0.983710562414
9947.0	0.000257201646091	0.98396776406
10121.0	0.00120027434842	0.985168038409
10124.0	0.000514403292181	0.985682441701
13614.0	0.0124742798354	0.998156721536
13616.0	0.00188614540466	1.0
