#
# Generated On: 2012-02-05T16:49:55.844128
#           By: cwa.analyze.statistics
#      Version: 11.11.23
#       Author: Thomas A. de Ruiter <thomas@de-ruiter.cx>
#
#  Commandline: /home/af10028/bin/cwa analyze
#     Work Dir: /scratch/af10028/var/thesis-project/result/analyses/workload-01h-04944l-5s-default
#

Time	Sum	Avg	StdDev	CoV	0.000000-Pct	0.010000-Pct	0.100000-Pct	1.000000-Pct	2.000000-Pct	5.000000-Pct	25.000000-Pct	50.000000-Pct	75.000000-Pct	95.000000-Pct	98.000000-Pct	99.000000-Pct	99.900000-Pct	99.990000-Pct	100.000000-Pct
1326928200	59670231.0	677.347276773	1798.25084781	2.6548432532	2.0	2.0	2.0	2.0	2.0	2.0	12.0	72.0	332.0	5106.0	7389.0	9605.0	13615.0	13617.0	14314.0
1326931800	15678077.0	714.035478435	1466.160494	2.05334404001	2.0	2.0	2.0	2.0	2.0	2.0	11.0	104.0	662.0	3406.0	6643.0	6810.0	10121.0	10124.0	10124.0
1326935400	9710526.0	2250.41158749	2124.90097263	0.944227706811	5.0	5.0	5.0	5.0	5.0	5.0	6.0	1532.0	4234.0	5233.0	6652.0	6654.0	6666.0	6667.0	6667.0
