#
# Generated On: 2012-02-05T16:53:28.541096
#           By: cwa.analyze.jobs_per_executableid
#      Version: 11.3.16
#       Author: Thomas A. de Ruiter <thomas@de-ruiter.cx>
#
#  Commandline: /home/af10028/bin/cwa analyze
#     Work Dir: /scratch/af10028/var/thesis-project/result/analyses/workload-01h-06180l-4s-default
#

Time	ID_-1
0	280
600	298
1200	374
1800	397
2400	475
3000	609
3600	531
4200	490
4800	405
5400	389
6000	356
6600	263
7200	92
7800	46
8400	31
9000	25
9600	19
10200	17
10800	12
11400	9
12000	8
12600	6
13200	3
