#
# Generated On: 2012-02-05T16:54:45.605995
#           By: cwa.analyze.statistics
#      Version: 11.11.23
#       Author: Thomas A. de Ruiter <thomas@de-ruiter.cx>
#
#  Commandline: /home/af10028/bin/cwa analyze
#     Work Dir: /scratch/af10028/var/thesis-project/result/analyses/workload-01h-06180l-5s-default
#

Value	PDF	CDF
2.0	0.17163395241	0.171639820438
5.0	0.104351142798	0.275990963237
8.0	0.0389754423026	0.314966405539
11.0	0.0309773200716	0.345943725611
14.0	0.0255259220139	0.371469647625
17.0	0.0218760085673	0.393345656192
20.0	0.0192764721415	0.412622128334
23.0	0.0176392923158	0.43026142065
26.0	0.0155502743303	0.44581169498
29.0	0.0138544142241	0.459666109204
32.0	0.0137487897192	0.473414898923
35.0	0.0123698031277	0.485784702051
38.0	0.0117712642666	0.497555966318
41.0	0.010386409647	0.507942375965
44.0	0.00988762726286	0.517830003227
47.0	0.00973505853358	0.527565061761
50.0	0.0088548543262	0.536419916087
53.0	0.00870228559693	0.545122201684
56.0	0.00771058885661	0.552832790541
59.0	0.00738784731391	0.560220637855
62.0	0.00740545139806	0.567626089253
65.0	0.00685972478948	0.574485814042
68.0	0.00646656691019	0.580952380952
71.0	0.00657219141507	0.587524572367
74.0	0.00587389607722	0.593398468445
77.0	0.00591497227357	0.599313440718
80.0	0.00578587565649	0.605099316375
83.0	0.0053340374967	0.610433353871
86.0	0.00504063609424	0.615473989966
89.0	0.00491153947716	0.620385529443
92.0	0.00482938708447	0.625214916527
95.0	0.00458879793445	0.629803714462
98.0	0.0045829299064	0.634386644368
101.0	0.00430713258809	0.638693776956
104.0	0.00407827949418	0.64277205645
107.0	0.00408414752223	0.646856203973
110.0	0.00403133526978	0.650887539242
113.0	0.00390810668075	0.654795645923
116.0	0.00372619781123	0.658521843734
119.0	0.00356189302585	0.66208373676
122.0	0.00338585218437	0.665469588945
125.0	0.00343866443682	0.668908253381
128.0	0.00325088753924	0.672159140921
131.0	0.00312179092216	0.675280931843
134.0	0.0031980752868	0.67847900713
137.0	0.00315699909046	0.68163600622
140.0	0.00285772965995	0.68449373588
143.0	0.00305137458557	0.687545110466
146.0	0.00272276501482	0.69026787548
149.0	0.0028166534636	0.693084528944
152.0	0.00278731332336	0.695871842267
155.0	0.00280491740751	0.698676759675
158.0	0.002505647977	0.701182407652
161.0	0.00262300853798	0.70380541619
164.0	0.0024821758648	0.706287592055
167.0	0.00259953642578	0.70888712848
170.0	0.00231787107942	0.71120499956
173.0	0.00229439896723	0.713499398527
176.0	0.00231200305137	0.715811401578
179.0	0.00235307924772	0.718164480826
182.0	0.00203620573306	0.720200686559
185.0	0.00215356629405	0.722354252853
188.0	0.00229439896723	0.724648651821
191.0	0.00200686559282	0.726655517413
194.0	0.00198339348062	0.728638910894
197.0	0.00203620573306	0.730675116627
200.0	0.00204207376111	0.732717190388
203.0	0.00186016489159	0.73457735528
206.0	0.00178388052695	0.736361235807
209.0	0.00193058122818	0.738291817035
212.0	0.00169586010621	0.739987677141
215.0	0.00172520024646	0.741712877388
218.0	0.00163717982572	0.743350057213
221.0	0.0017780124989	0.745128069712
224.0	0.00172520024646	0.746853269959
227.0	0.00161957574157	0.7484728457
230.0	0.00161957574157	0.750092421442
233.0	0.00158436757328	0.751676789015
236.0	0.00149634715254	0.753173136168
239.0	0.00153155532083	0.754704691488
242.0	0.00154915940498	0.756253850893
245.0	0.00154329137693	0.75779714227
248.0	0.00137898659156	0.759176128862
251.0	0.0014200627879	0.76059619165
254.0	0.00129096617082	0.761887157821
257.0	0.00144940292815	0.763336560749
260.0	0.00133791039521	0.764674471144
263.0	0.00131443828301	0.765988909427
266.0	0.00134964645131	0.767338555878
269.0	0.00120294575008	0.768541501628
272.0	0.00126162603057	0.769803127659
275.0	0.00195405334037	0.771757180999
278.0	0.00136138250741	0.773118563507
281.0	0.00137311856351	0.77449168207
284.0	0.00112666138544	0.775618343456
287.0	0.00120881377813	0.776827157234
290.0	0.00121468180618	0.77804183904
293.0	0.00173693630256	0.779778775343
296.0	0.00109145321715	0.78087022856
299.0	0.00115013349764	0.782020362057
302.0	0.00110905730129	0.783129419359
305.0	0.00100930082446	0.784138720183
308.0	0.00113252941349	0.785271249597
311.0	0.00104450899275	0.786315758589
314.0	0.000956488572015	0.787272247161
317.0	0.00110905730129	0.788381304463
320.0	0.00100343279641	0.789384737259
323.0	0.00110318927324	0.790487926532
326.0	0.00103277293665	0.791520699469
329.0	0.000956488572015	0.792477188041
332.0	0.00100930082446	0.793486488865
335.0	0.000962356600065	0.794448845465
338.0	0.000968224628114	0.795417070094
341.0	0.000974092656163	0.79639116275
344.0	0.000933016459819	0.79732417921
347.0	0.000886072235425	0.798210251445
350.0	0.000827391954934	0.7990376434
353.0	0.00092128040372	0.799958923804
356.0	0.000868468151278	0.800827391955
359.0	0.0010973212452	0.8019247132
362.0	0.000827391954934	0.802752105155
365.0	0.000962356600065	0.803714461755
368.0	0.000909544347622	0.804624006103
371.0	0.00092128040372	0.805545286506
374.0	0.00078044773054	0.806325734237
377.0	0.000680691253704	0.807006425491
380.0	0.000739371534196	0.807745797025
383.0	0.00071003139395	0.808455828419
386.0	0.000774579702491	0.809230408121
389.0	0.000809787870786	0.810040195992
392.0	0.000745239562245	0.810785435554
395.0	0.000798051814688	0.811583487369
398.0	0.000821523926884	0.812405011296
401.0	0.000792183786639	0.813197195083
404.0	0.000815655898835	0.814012850981
407.0	0.000668955197606	0.814681806179
410.0	0.000751107590294	0.815432913769
413.0	0.000774579702491	0.816207493472
416.0	0.00063961505736	0.816847108529
419.0	0.000674823225655	0.817521931755
422.0	0.000651351113458	0.818173282868
425.0	0.000592670832967	0.818765953701
428.0	0.00078044773054	0.819546401432
431.0	0.000733503506147	0.820279904938
434.0	0.000627879001262	0.820907783939
437.0	0.00078044773054	0.82168823167
440.0	0.000616142945163	0.822304374615
443.0	0.000733503506147	0.823037878121
446.0	0.000610274917114	0.823648153038
449.0	0.000598538861016	0.824246691899
452.0	0.000557462664672	0.824804154564
455.0	0.000616142945163	0.825420297509
458.0	0.000622010973212	0.826042308482
461.0	0.000586802804917	0.826629111287
464.0	0.00119707772203	0.827826189009
467.0	0.000575066748819	0.828401255758
470.0	0.000516386468327	0.828917642226
473.0	0.00063961505736	0.829557257284
476.0	0.000557462664672	0.830114719948
479.0	0.000492914356131	0.830607634304
482.0	0.000610274917114	0.831217909222
485.0	0.00056919872077	0.831787107942
488.0	0.000604406889065	0.832391514831
491.0	0.000686559281753	0.833078074113
494.0	0.000539858580524	0.833617932694
497.0	0.000533990552475	0.834151923246
500.0	0.000475310271983	0.834627233518
503.0	0.000551594636622	0.835178828155
506.0	0.00042836604759	0.835607194202
509.0	0.000516386468327	0.836123580671
512.0	0.000434234075639	0.836557814746
515.0	0.000510518440278	0.837068333187
518.0	0.000387289851245	0.837455623038
521.0	0.000469442243934	0.837925065282
524.0	0.000445970131737	0.838371035414
527.0	0.000445970131737	0.838817005545
530.0	0.000463574215885	0.839280579761
533.0	0.000422498019541	0.839703077781
536.0	0.000393157879295	0.84009623566
539.0	0.000451838159786	0.84054807382
542.0	0.000469442243934	0.841017516064
545.0	0.000399025907344	0.841416541971
548.0	0.000416629991491	0.841833171963
551.0	0.000363817739049	0.842196989702
554.0	0.000445970131737	0.842642959833
557.0	0.000357949711	0.843000909544
560.0	0.000416629991491	0.843417539536
563.0	0.000522254496376	0.843939794032
566.0	0.000457706187836	0.84439750022
569.0	0.000440102103688	0.844837602324
572.0	0.000445970131737	0.845283572455
575.0	0.000393157879295	0.845676730335
578.0	0.000575066748819	0.846251797084
581.0	0.000404893935393	0.846656691019
584.0	0.000451838159786	0.847108529179
587.0	0.000328609570754	0.84743713875
590.0	0.000357949711	0.847795088461
593.0	0.000369685767098	0.848164774228
596.0	0.000322741542705	0.84848751577
599.0	0.000416629991491	0.848904145762
602.0	0.000551594636622	0.849455740398
605.0	0.000357949711	0.849813690109
608.0	0.000393157879295	0.850206847989
611.0	0.000346213654901	0.850553061644
614.0	0.00042836604759	0.850981427691
617.0	0.000293401402459	0.851274829094
620.0	0.000633747029311	0.851908576123
623.0	0.000475310271983	0.852383886395
626.0	0.000316873514655	0.85270075991
629.0	0.000334477598803	0.853035237508
632.0	0.000369685767098	0.853404923276
635.0	0.000416629991491	0.853821553267
638.0	0.000328609570754	0.854150162838
641.0	0.000399025907344	0.854549188745
644.0	0.000357949711	0.854907138456
647.0	0.000422498019541	0.855329636476
650.0	0.000393157879295	0.855722794355
653.0	0.00028166534636	0.856004459701
656.0	0.000293401402459	0.856297861104
659.0	0.000528122524426	0.856825983628
662.0	0.000311005486606	0.857136989115
665.0	0.000311005486606	0.857447994601
668.0	0.000369685767098	0.857817680369
671.0	0.000475310271983	0.85829299064
674.0	0.000363817739049	0.85865680838
677.0	0.000334477598803	0.858991285978
680.0	0.000293401402459	0.859284687381
683.0	0.000305137458557	0.859589824839
686.0	0.000264061262213	0.859853886102
689.0	0.000328609570754	0.860182495672
692.0	0.000269929290262	0.860452424963
695.0	0.000252325206114	0.860704750169
698.0	0.000316873514655	0.861021623683
701.0	0.00160783968547	0.862629463369
704.0	0.000305137458557	0.862934600827
707.0	0.000293401402459	0.86322800223
710.0	0.000275797318311	0.863503799548
713.0	0.000440102103688	0.863943901652
716.0	0.000246457178065	0.86419035883
719.0	0.000234721121967	0.864425079952
722.0	0.000328609570754	0.864753689523
725.0	0.000516386468327	0.865270075991
728.0	0.00042836604759	0.865698442039
731.0	0.000510518440278	0.866208960479
734.0	0.000246457178065	0.866455417657
737.0	0.000222985065869	0.866678402723
740.0	0.000264061262213	0.866942463985
743.0	0.000269929290262	0.867212393275
746.0	0.000387289851245	0.867599683126
749.0	0.000246457178065	0.867846140305
752.0	0.000228853093918	0.868074993398
755.0	0.000393157879295	0.868468151278
758.0	0.000269929290262	0.868738080568
761.0	0.000222985065869	0.868961065634
764.0	0.000234721121967	0.869195786756
767.0	0.000269929290262	0.869465716046
770.0	0.000228853093918	0.86969456914
773.0	0.000264061262213	0.869958630402
776.0	0.000234721121967	0.870193351524
779.0	0.000258193234164	0.870451544758
782.0	0.000275797318311	0.870727342077
785.0	0.000252325206114	0.870979667283
788.0	0.000217117037819	0.871196784321
791.0	0.000275797318311	0.871472581639
794.0	0.000228853093918	0.871701434733
797.0	0.000258193234164	0.871959627967
800.0	0.000516386468327	0.872476014435
803.0	0.000727635478098	0.873203649913
806.0	0.000252325206114	0.87345597512
809.0	0.000299269430508	0.87375524455
812.0	0.000252325206114	0.874007569756
815.0	0.000252325206114	0.874259894962
818.0	0.000240589150016	0.874500484112
821.0	0.000181908869524	0.874682392982
824.0	0.000334477598803	0.875016870581
827.0	0.000264061262213	0.875280931843
830.0	0.000252325206114	0.875533257049
833.0	0.000240589150016	0.875773846199
836.0	0.000258193234164	0.876032039433
839.0	0.00028753337441	0.876319572808
842.0	0.000440102103688	0.876759674911
845.0	0.00021124900977	0.876970923921
848.0	0.000217117037819	0.877188040959
851.0	0.000176040841475	0.8773640818
854.0	0.000134964645131	0.877499046445
857.0	0.000217117037819	0.877716163483
860.0	0.000170172813426	0.877886336297
863.0	0.00028166534636	0.878168001643
866.0	0.000193644925623	0.878361646569
869.0	0.000158436757328	0.878520083326
872.0	0.00021124900977	0.878731332336
875.0	0.000134964645131	0.878866296981
878.0	0.000410761963442	0.879277058944
881.0	0.000481178300032	0.879758237244
884.0	0.000592670832967	0.880350908077
887.0	0.000809787870786	0.881160695948
890.0	0.000146700701229	0.881307396649
893.0	0.000187776897574	0.881495173547
896.0	0.000164304785377	0.881659478332
899.0	0.000176040841475	0.881835519174
902.0	0.000222985065869	0.88205850424
905.0	0.00035208168295	0.882410585923
908.0	0.000181908869524	0.882592494792
911.0	0.000158436757328	0.882750931549
914.0	0.000164304785377	0.882915236335
917.0	0.00014083267318	0.883056069008
920.0	0.000228853093918	0.883284922102
923.0	0.000264061262213	0.883548983364
926.0	0.000181908869524	0.883730892234
929.0	0.000170172813426	0.883901065047
932.0	0.000123228589033	0.884024293636
935.0	0.000152568729279	0.884176862365
938.0	0.000158436757328	0.884335299123
941.0	0.000228853093918	0.884564152217
944.0	0.000199512953672	0.88476366517
947.0	0.000557462664672	0.885321127835
950.0	0.000228853093918	0.885549980929
953.0	0.00021124900977	0.885761229939
956.0	0.000269929290262	0.886031159229
959.0	0.000152568729279	0.886183727958
962.0	0.00035208168295	0.886535809641
965.0	0.000316873514655	0.886852683156
968.0	0.000193644925623	0.887046328081
971.0	0.000217117037819	0.887263445119
974.0	0.00014083267318	0.887404277792
977.0	0.000129096617082	0.88753337441
980.0	0.000199512953672	0.887732887363
983.0	0.000357949711	0.888090837074
986.0	9.9756476836e-05	0.888190593551
989.0	0.000181908869524	0.888372502421
992.0	0.000181908869524	0.88855441129
995.0	9.9756476836e-05	0.888654167767
998.0	0.000158436757328	0.888812604524
1001.0	0.00014083267318	0.888953437197
1004.0	0.000164304785377	0.889117741983
1007.0	0.000134964645131	0.889252706628
1010.0	0.000170172813426	0.889422879441
1013.0	0.000117360560983	0.889540240002
1016.0	0.000176040841475	0.889716280844
1019.0	0.00021124900977	0.889927529854
1022.0	0.000164304785377	0.890091834639
1025.0	0.000123228589033	0.890215063228
1028.0	0.000123228589033	0.890338291817
1031.0	0.00014083267318	0.89047912449
1034.0	0.000105624504885	0.890584748995
1037.0	0.000164304785377	0.89074905378
1040.0	0.000146700701229	0.890895754482
1043.0	0.000152568729279	0.891048323211
1046.0	0.00014083267318	0.891189155884
1049.0	0.000134964645131	0.891324120529
1052.0	0.000217117037819	0.891541237567
1055.0	0.00161957574157	0.893160813309
1058.0	0.00028753337441	0.893448346683
1061.0	0.000123228589033	0.893571575272
1064.0	0.000146700701229	0.893718275973
1067.0	0.000123228589033	0.893841504562
1070.0	0.000123228589033	0.893964733151
1073.0	0.00014083267318	0.894105565825
1076.0	0.000152568729279	0.894258134554
1079.0	0.000117360560983	0.894375495115
1082.0	0.00221811460259	0.896593609717
1085.0	0.0010503770208	0.897643986738
1088.0	7.62843646393e-05	0.897720271103
1091.0	8.80204207376e-05	0.897808291524
1094.0	0.000134964645131	0.897943256169
1097.0	0.000117360560983	0.89806061673
1100.0	8.80204207376e-05	0.89814863715
1103.0	0.000117360560983	0.898265997711
1106.0	0.000123228589033	0.898389226301
1109.0	0.000158436757328	0.898547663058
1112.0	7.04163365901e-05	0.898618079394
1115.0	9.9756476836e-05	0.898717835871
1118.0	0.000152568729279	0.898870404601
1121.0	0.000217117037819	0.899087521638
1124.0	0.000111492532934	0.899199014171
1127.0	0.000117360560983	0.899316374732
1130.0	9.38884487868e-05	0.899410263181
1133.0	0.000134964645131	0.899545227826
1136.0	0.000111492532934	0.899656720359
1139.0	7.62843646393e-05	0.899733004724
1142.0	0.000105624504885	0.899838629229
1145.0	0.000264061262213	0.900102690491
1148.0	0.00014083267318	0.900243523164
1151.0	0.00014083267318	0.900384355837
1154.0	0.000146700701229	0.900531056538
1157.0	0.000164304785377	0.900695361324
1160.0	8.21523926884e-05	0.900777513717
1163.0	0.000111492532934	0.900889006249
1166.0	0.000146700701229	0.901035706951
1169.0	5.86802804917e-05	0.901094387231
1172.0	0.000123228589033	0.90121761582
1175.0	0.000105624504885	0.901323240325
1178.0	0.000146700701229	0.901469941026
1181.0	0.000152568729279	0.901622509756
1184.0	8.21523926884e-05	0.901704662148
1187.0	0.000117360560983	0.901822022709
1190.0	0.000234721121967	0.902056743831
1193.0	0.000322741542705	0.902379485374
1196.0	0.000123228589033	0.902502713963
1199.0	8.80204207376e-05	0.902590734384
1202.0	0.000399025907344	0.902989760291
1205.0	7.04163365901e-05	0.903060176628
1208.0	9.38884487868e-05	0.903154065076
1211.0	0.000111492532934	0.903265557609
1214.0	4.69442243934e-05	0.903312501834
1217.0	7.62843646393e-05	0.903388786198
1220.0	0.000152568729279	0.903541354928
1223.0	0.00035208168295	0.903893436611
1226.0	0.00071003139395	0.904603468005
1229.0	0.000152568729279	0.904756036734
1232.0	0.000129096617082	0.904885133351
1235.0	0.000205380981721	0.905090514333
1238.0	9.38884487868e-05	0.905184402781
1241.0	0.000111492532934	0.905295895314
1244.0	0.000123228589033	0.905419123903
1247.0	0.000340345626852	0.90575946953
1250.0	8.80204207376e-05	0.905847489951
1253.0	0.00035208168295	0.906199571634
1256.0	0.000111492532934	0.906311064167
1259.0	0.000111492532934	0.9064225567
1262.0	0.000117360560983	0.906539917261
1265.0	9.9756476836e-05	0.906639673738
1268.0	8.21523926884e-05	0.90672182613
1271.0	6.45483085409e-05	0.906786374439
1274.0	9.38884487868e-05	0.906880262888
1277.0	7.04163365901e-05	0.906950679224
1280.0	8.21523926884e-05	0.907032831617
1283.0	0.000111492532934	0.90714432415
1286.0	0.000111492532934	0.907255816683
1289.0	7.62843646393e-05	0.907332101047
1292.0	0.000105624504885	0.907437725552
1295.0	7.62843646393e-05	0.907514009917
1298.0	0.000105624504885	0.907619634422
1301.0	8.21523926884e-05	0.907701786815
1304.0	8.21523926884e-05	0.907783939207
1307.0	7.62843646393e-05	0.907860223572
1310.0	0.000222985065869	0.908083208638
1313.0	0.000152568729279	0.908235777367
1316.0	9.9756476836e-05	0.908335533844
1319.0	0.000117360560983	0.908452894405
1322.0	0.000176040841475	0.908628935246
1325.0	0.000105624504885	0.908734559751
1328.0	7.04163365901e-05	0.908804976088
1331.0	6.45483085409e-05	0.908869524396
1334.0	6.45483085409e-05	0.908934072705
1337.0	9.38884487868e-05	0.909027961154
1340.0	5.86802804917e-05	0.909086641434
1343.0	7.04163365901e-05	0.909157057771
1346.0	3.5208168295e-05	0.909192265939
1349.0	8.80204207376e-05	0.90928028636
1352.0	8.21523926884e-05	0.909362438752
1355.0	6.45483085409e-05	0.909426987061
1358.0	0.000117360560983	0.909544347622
1361.0	9.38884487868e-05	0.909638236071
1364.0	5.86802804917e-05	0.909696916351
1367.0	0.000129096617082	0.909826012968
1370.0	0.000275797318311	0.910101810287
1373.0	0.000176040841475	0.910277851128
1376.0	0.000269929290262	0.910547780418
1379.0	0.000123228589033	0.910671009007
1382.0	0.000105624504885	0.910776633512
1385.0	8.21523926884e-05	0.910858785905
1388.0	7.04163365901e-05	0.910929202242
1391.0	8.21523926884e-05	0.911011354634
1394.0	0.000123228589033	0.911134583223
1397.0	5.28122524426e-05	0.911187395476
1400.0	1.76040841475e-05	0.91120499956
1403.0	7.62843646393e-05	0.911281283925
1406.0	2.93401402459e-05	0.911310624065
1409.0	8.21523926884e-05	0.911392776457
1412.0	5.86802804917e-05	0.911451456738
1415.0	6.45483085409e-05	0.911516005047
1418.0	8.80204207376e-05	0.911604025467
1421.0	6.45483085409e-05	0.911668573776
1424.0	0.000134964645131	0.911803538421
1427.0	4.69442243934e-05	0.911850482645
1430.0	5.86802804917e-05	0.911909162926
1433.0	7.62843646393e-05	0.91198544729
1436.0	7.62843646393e-05	0.912061731655
1439.0	5.86802804917e-05	0.912120411936
1442.0	5.28122524426e-05	0.912173224188
1445.0	7.62843646393e-05	0.912249508553
1448.0	5.86802804917e-05	0.912308188833
1451.0	8.80204207376e-05	0.912396209254
1454.0	7.62843646393e-05	0.912472493619
1457.0	8.21523926884e-05	0.912554646011
1460.0	4.69442243934e-05	0.912601590236
1463.0	3.5208168295e-05	0.912636798404
1466.0	0.00014083267318	0.912777631077
1469.0	8.21523926884e-05	0.91285978347
1472.0	1.76040841475e-05	0.912877387554
1475.0	7.62843646393e-05	0.912953671919
1478.0	0.000129096617082	0.913082768536
1481.0	0.000123228589033	0.913205997125
1484.0	6.45483085409e-05	0.913270545433
1487.0	8.21523926884e-05	0.913352697826
1490.0	7.04163365901e-05	0.913423114162
1493.0	7.04163365901e-05	0.913493530499
1496.0	0.000187776897574	0.913681307397
1499.0	0.000193644925623	0.913874952322
1502.0	8.21523926884e-05	0.913957104715
1505.0	6.45483085409e-05	0.914021653024
1508.0	4.69442243934e-05	0.914068597248
1511.0	7.04163365901e-05	0.914139013584
1514.0	2.93401402459e-05	0.914168353725
1517.0	6.45483085409e-05	0.914232902033
1520.0	5.86802804917e-05	0.914291582314
1523.0	8.21523926884e-05	0.914373734706
1526.0	7.62843646393e-05	0.914450019071
1529.0	8.21523926884e-05	0.914532171464
1532.0	6.45483085409e-05	0.914596719772
1535.0	4.10761963442e-05	0.914637795969
1538.0	4.10761963442e-05	0.914678872165
1541.0	5.86802804917e-05	0.914737552446
1544.0	9.9756476836e-05	0.914837308922
1547.0	4.10761963442e-05	0.914878385119
1550.0	7.04163365901e-05	0.914948801455
1553.0	4.69442243934e-05	0.91499574568
1556.0	2.34721121967e-05	0.915019217792
1559.0	7.04163365901e-05	0.915089634128
1562.0	6.45483085409e-05	0.915154182437
1565.0	0.000117360560983	0.915271542998
1568.0	8.80204207376e-05	0.915359563419
1571.0	4.10761963442e-05	0.915400639615
1574.0	5.28122524426e-05	0.915453451867
1577.0	2.93401402459e-05	0.915482792008
1580.0	5.86802804917e-05	0.915541472288
1583.0	8.80204207376e-05	0.915629492709
1586.0	4.69442243934e-05	0.915676436933
1589.0	4.10761963442e-05	0.91571751313
1592.0	8.21523926884e-05	0.915799665522
1595.0	0.000181908869524	0.915981574392
1598.0	8.21523926884e-05	0.916063726785
1601.0	4.69442243934e-05	0.916110671009
1604.0	0.000164304785377	0.916274975794
1607.0	5.28122524426e-05	0.916327788047
1610.0	6.45483085409e-05	0.916392336355
1613.0	7.62843646393e-05	0.91646862072
1616.0	7.04163365901e-05	0.916539037057
1619.0	3.5208168295e-05	0.916574245225
1622.0	7.04163365901e-05	0.916644661561
1625.0	2.93401402459e-05	0.916674001702
1628.0	5.86802804917e-05	0.916732681982
1631.0	5.86802804917e-05	0.916791362263
1634.0	4.10761963442e-05	0.916832438459
1637.0	4.69442243934e-05	0.916879382683
1640.0	4.69442243934e-05	0.916926326908
1643.0	2.93401402459e-05	0.916955667048
1646.0	4.69442243934e-05	0.917002611272
1649.0	0.000123228589033	0.917125839862
1652.0	6.45483085409e-05	0.91719038817
1655.0	3.5208168295e-05	0.917225596338
1658.0	7.62843646393e-05	0.917301880703
1661.0	0.000487046328081	0.917788927031
1664.0	5.28122524426e-05	0.917841739284
1667.0	0.000129096617082	0.917970835901
1670.0	5.28122524426e-05	0.918023648153
1673.0	3.5208168295e-05	0.918058856321
1676.0	3.5208168295e-05	0.91809406449
1679.0	2.34721121967e-05	0.918117536602
1682.0	0.000381421823196	0.918498958425
1685.0	3.5208168295e-05	0.918534166593
1688.0	3.5208168295e-05	0.918569374762
1691.0	4.69442243934e-05	0.918616318986
1694.0	4.10761963442e-05	0.918657395182
1697.0	4.69442243934e-05	0.918704339407
1700.0	5.86802804917e-05	0.918763019687
1703.0	1.76040841475e-05	0.918780623771
1706.0	2.34721121967e-05	0.918804095884
1709.0	7.62843646393e-05	0.918880380248
1712.0	5.28122524426e-05	0.918933192501
1715.0	3.5208168295e-05	0.918968400669
1718.0	7.62843646393e-05	0.919044685034
1721.0	5.86802804917e-05	0.919103365314
1724.0	0.000164304785377	0.919267670099
1726.0	0.000762843646393	0.920030513746
1730.0	2.93401402459e-05	0.920059853886
1733.0	2.93401402459e-05	0.920089194026
1736.0	0.000217117037819	0.920306311064
1738.0	4.10761963442e-05	0.920347387261
1742.0	2.93401402459e-05	0.920376727401
1745.0	3.5208168295e-05	0.920411935569
1748.0	5.28122524426e-05	0.920464747821
1751.0	0.000123228589033	0.920587976411
1754.0	7.62843646393e-05	0.920664260775
1757.0	0.000528122524426	0.9211923833
1760.0	8.21523926884e-05	0.921274535692
1763.0	0.000246457178065	0.92152099287
1766.0	0.000316873514655	0.921837866385
1769.0	0.000123228589033	0.921961094974
1772.0	4.10761963442e-05	0.92200217117
1775.0	5.86802804917e-05	0.922060851451
1778.0	4.10761963442e-05	0.922101927647
1781.0	4.10761963442e-05	0.922143003844
1784.0	1.17360560983e-05	0.9221547399
1787.0	2.93401402459e-05	0.92218408004
1790.0	4.10761963442e-05	0.922225156236
1793.0	6.45483085409e-05	0.922289704545
1796.0	1.76040841475e-05	0.922307308629
1799.0	8.21523926884e-05	0.922389461022
1802.0	0.000117360560983	0.922506821583
1805.0	5.28122524426e-05	0.922559633835
1808.0	2.34721121967e-05	0.922583105947
1811.0	2.34721121967e-05	0.922606578059
1814.0	4.69442243934e-05	0.922653522284
1816.0	4.10761963442e-05	0.92269459848
1820.0	4.69442243934e-05	0.922741542705
1823.0	4.10761963442e-05	0.922782618901
1826.0	0.000217117037819	0.922999735939
1829.0	0.000134964645131	0.923134700584
1831.0	8.21523926884e-05	0.923216852977
1835.0	2.34721121967e-05	0.923240325089
1838.0	2.93401402459e-05	0.923269665229
1841.0	4.10761963442e-05	0.923310741425
1844.0	4.10761963442e-05	0.923351817622
1847.0	4.69442243934e-05	0.923398761846
1850.0	2.93401402459e-05	0.923428101986
1853.0	3.5208168295e-05	0.923463310155
1856.0	0.000205380981721	0.923668691136
1859.0	2.34721121967e-05	0.923692163249
1862.0	5.86802804917e-05	0.923750843529
1865.0	5.28122524426e-05	0.923803655781
1868.0	2.34721121967e-05	0.923827127894
1871.0	4.10761963442e-05	0.92386820409
1874.0	3.5208168295e-05	0.923903412258
1877.0	5.28122524426e-05	0.923956224511
1880.0	0.000311005486606	0.924267229997
1883.0	4.10761963442e-05	0.924308306194
1886.0	5.86802804917e-05	0.924366986474
1889.0	4.10761963442e-05	0.924408062671
1892.0	4.69442243934e-05	0.924455006895
1895.0	0.000129096617082	0.924584103512
1897.0	2.34721121967e-05	0.924607575624
1901.0	1.17360560983e-05	0.92461931168
1904.0	2.93401402459e-05	0.924648651821
1907.0	2.34721121967e-05	0.924672123933
1910.0	4.69442243934e-05	0.924719068157
1913.0	7.04163365901e-05	0.924789484494
1916.0	1.17360560983e-05	0.92480122055
1919.0	0.000252325206114	0.925053545756
1921.0	0.000252325206114	0.925305870962
1925.0	1.17360560983e-05	0.925317607018
1928.0	2.93401402459e-05	0.925346947158
1931.0	4.69442243934e-05	0.925393891383
1934.0	5.28122524426e-05	0.925446703635
1937.0	1.76040841475e-05	0.925464307719
1940.0	3.5208168295e-05	0.925499515888
1943.0	2.34721121967e-05	0.925522988
1946.0	2.34721121967e-05	0.925546460112
1949.0	7.04163365901e-05	0.925616876449
1952.0	0.000158436757328	0.925775313206
1955.0	6.45483085409e-05	0.925839861515
1958.0	2.93401402459e-05	0.925869201655
1961.0	2.34721121967e-05	0.925892673767
1964.0	2.93401402459e-05	0.925922013907
1967.0	4.69442243934e-05	0.925968958132
1970.0	9.38884487868e-05	0.92606284658
1973.0	2.34721121967e-05	0.926086318693
1976.0	5.28122524426e-05	0.926139130945
1979.0	0.00014083267318	0.926279963618
1982.0	4.10761963442e-05	0.926321039815
1985.0	4.10761963442e-05	0.926362116011
1988.0	2.34721121967e-05	0.926385588123
1991.0	3.5208168295e-05	0.926420796291
1994.0	2.34721121967e-05	0.926444268404
1997.0	1.17360560983e-05	0.92645600446
2000.0	1.76040841475e-05	0.926473608544
2003.0	1.17360560983e-05	0.9264853446
2006.0	1.76040841475e-05	0.926502948684
2009.0	2.93401402459e-05	0.926532288824
2012.0	2.93401402459e-05	0.926561628965
2015.0	5.28122524426e-05	0.926614441217
2018.0	5.86802804917e-06	0.926620309245
2021.0	3.5208168295e-05	0.926655517413
2024.0	3.5208168295e-05	0.926690725582
2027.0	1.17360560983e-05	0.926702461638
2030.0	5.28122524426e-05	0.92675527389
2032.0	1.76040841475e-05	0.926772877974
2036.0	1.76040841475e-05	0.926790482059
2039.0	2.34721121967e-05	0.926813954171
2042.0	4.69442243934e-05	0.926860898395
2045.0	5.28122524426e-05	0.926913710648
2048.0	2.93401402459e-05	0.926943050788
2051.0	3.5208168295e-05	0.926978258956
2054.0	1.76040841475e-05	0.92699586304
2057.0	1.76040841475e-05	0.927013467124
2060.0	3.5208168295e-05	0.927048675293
2063.0	0.000105624504885	0.927154299798
2066.0	6.45483085409e-05	0.927218848106
2069.0	1.17360560983e-05	0.927230584162
2072.0	2.93401402459e-05	0.927259924302
2075.0	3.5208168295e-05	0.927295132471
2078.0	5.86802804917e-05	0.927353812751
2080.0	0.000217117037819	0.927570929789
2084.0	2.93401402459e-05	0.927600269929
2087.0	1.17360560983e-05	0.927612005985
2090.0	3.5208168295e-05	0.927647214154
2093.0	4.69442243934e-05	0.927694158378
2096.0	2.93401402459e-05	0.927723498518
2099.0	5.28122524426e-05	0.927776310771
2102.0	1.76040841475e-05	0.927793914855
2105.0	4.10761963442e-05	0.927834991051
2108.0	5.28122524426e-05	0.927887803304
2111.0	1.17360560983e-05	0.92789953936
2113.0	2.34721121967e-05	0.927923011472
2117.0	2.93401402459e-05	0.927952351612
2120.0	1.76040841475e-05	0.927969955696
2123.0	2.93401402459e-05	0.927999295837
2126.0	2.93401402459e-05	0.928028635977
2128.0	4.69442243934e-05	0.928075580201
2131.0	9.9756476836e-05	0.928175336678
2135.0	5.86802804917e-06	0.928181204706
2138.0	4.10761963442e-05	0.928222280903
2140.0	5.28122524426e-05	0.928275093155
2144.0	3.5208168295e-05	0.928310301323
2147.0	2.34721121967e-05	0.928333773435
2150.0	2.34721121967e-05	0.928357245548
2152.0	5.86802804917e-05	0.928415925828
2156.0	0.000152568729279	0.928568494557
2159.0	3.5208168295e-05	0.928603702726
2162.0	5.86802804917e-06	0.928609570754
2165.0	1.76040841475e-05	0.928627174838
2168.0	2.93401402459e-05	0.928656514978
2171.0	3.5208168295e-05	0.928691723146
2174.0	2.93401402459e-05	0.928721063287
2177.0	2.34721121967e-05	0.928744535399
2180.0	4.10761963442e-05	0.928785611595
2183.0	1.76040841475e-05	0.928803215679
2186.0	1.76040841475e-05	0.928820819764
2192.0	2.34721121967e-05	0.928844291876
2195.0	4.10761963442e-05	0.928885368072
2198.0	1.76040841475e-05	0.928902972156
2200.0	0.000258193234164	0.92916116539
2204.0	2.34721121967e-05	0.929184637503
2206.0	4.69442243934e-05	0.929231581727
2209.0	5.28122524426e-05	0.929284393979
2213.0	2.34721121967e-05	0.929307866092
2216.0	5.86802804917e-05	0.929366546372
2219.0	4.69442243934e-05	0.929413490596
2222.0	1.76040841475e-05	0.929431094681
2224.0	3.5208168295e-05	0.929466302849
2228.0	1.76040841475e-05	0.929483906933
2231.0	3.5208168295e-05	0.929519115101
2234.0	1.76040841475e-05	0.929536719186
2237.0	1.17360560983e-05	0.929548455242
2240.0	1.17360560983e-05	0.929560191298
2243.0	2.93401402459e-05	0.929589531438
2245.0	0.000340345626852	0.929929877065
2248.0	2.93401402459e-05	0.929959217205
2251.0	1.17360560983e-05	0.929970953261
2255.0	2.93401402459e-05	0.930000293401
2257.0	0.000105624504885	0.930105917906
2260.0	7.04163365901e-05	0.930176334243
2263.0	0.000117360560983	0.930293694804
2267.0	2.34721121967e-05	0.930317166916
2270.0	1.76040841475e-05	0.930334771
2272.0	0.000117360560983	0.930452131561
2275.0	8.80204207376e-05	0.930540151982
2278.0	9.9756476836e-05	0.930639908459
2282.0	1.17360560983e-05	0.930651644515
2284.0	8.21523926884e-05	0.930733796908
2288.0	2.34721121967e-05	0.93075726902
2291.0	2.93401402459e-05	0.93078660916
2294.0	1.76040841475e-05	0.930804213244
2297.0	4.10761963442e-05	0.93084528944
2299.0	6.45483085409e-05	0.930909837749
2303.0	4.10761963442e-05	0.930950913945
2305.0	2.34721121967e-05	0.930974386058
2308.0	2.93401402459e-05	0.931003726198
2312.0	3.5208168295e-05	0.931038934366
2315.0	2.34721121967e-05	0.931062406478
2321.0	1.76040841475e-05	0.931080010562
2324.0	5.86802804917e-06	0.93108587859
2326.0	6.45483085409e-05	0.931150426899
2329.0	0.00014083267318	0.931291259572
2332.0	1.17360560983e-05	0.931302995628
2335.0	4.10761963442e-05	0.931344071825
2339.0	1.17360560983e-05	0.931355807881
2341.0	2.93401402459e-05	0.931385148021
2345.0	1.17360560983e-05	0.931396884077
2347.0	2.34721121967e-05	0.931420356189
2351.0	1.17360560983e-05	0.931432092245
2353.0	8.80204207376e-05	0.931520112666
2356.0	0.000123228589033	0.931643341255
2359.0	0.000563330692721	0.932206671948
2362.0	0.00035208168295	0.932558753631
2365.0	3.5208168295e-05	0.932593961799
2368.0	2.34721121967e-05	0.932617433911
2372.0	2.93401402459e-05	0.932646774052
2374.0	0.000129096617082	0.932775870669
2377.0	7.04163365901e-05	0.932846287005
2381.0	1.76040841475e-05	0.932863891089
2384.0	5.86802804917e-06	0.932869759117
2386.0	1.17360560983e-05	0.932881495174
2390.0	2.93401402459e-05	0.932910835314
2392.0	0.000158436757328	0.933069272071
2396.0	1.76040841475e-05	0.933086876155
2398.0	4.69442243934e-05	0.93313382038
2401.0	0.000105624504885	0.933239444885
2404.0	5.86802804917e-05	0.933298125165
2408.0	3.5208168295e-05	0.933333333333
2411.0	1.76040841475e-05	0.933350937417
2413.0	5.86802804917e-06	0.933356805446
2416.0	4.10761963442e-05	0.933397881642
2419.0	1.76040841475e-05	0.933415485726
2423.0	2.34721121967e-05	0.933438957838
2429.0	1.17360560983e-05	0.933450693894
2431.0	2.93401402459e-05	0.933480034035
2438.0	1.76040841475e-05	0.933497638119
2440.0	1.76040841475e-05	0.933515242203
2443.0	0.000170172813426	0.933685415016
2447.0	1.17360560983e-05	0.933697151072
2449.0	1.17360560983e-05	0.933708887128
2456.0	1.76040841475e-05	0.933726491213
2458.0	5.28122524426e-05	0.933779303465
2462.0	1.17360560983e-05	0.933791039521
2465.0	3.5208168295e-05	0.933826247689
2468.0	1.17360560983e-05	0.933837983746
2470.0	4.69442243934e-05	0.93388492797
2473.0	0.000205380981721	0.934090308952
2476.0	4.69442243934e-05	0.934137253176
2479.0	1.17360560983e-05	0.934148989232
2483.0	5.86802804917e-06	0.93415485726
2486.0	1.17360560983e-05	0.934166593316
2492.0	1.76040841475e-05	0.9341841974
2494.0	0.000170172813426	0.934354370214
2497.0	4.69442243934e-05	0.934401314438
2500.0	1.17360560983e-05	0.934413050494
2504.0	1.17360560983e-05	0.93442478655
2506.0	0.000146700701229	0.934571487252
2509.0	0.000181908869524	0.934753396121
2513.0	0.00028753337441	0.935040929496
2515.0	9.38884487868e-05	0.935134817944
2518.0	1.17360560983e-05	0.935146554001
2521.0	4.10761963442e-05	0.935187630197
2527.0	4.10761963442e-05	0.935228706393
2530.0	3.5208168295e-05	0.935263914562
2534.0	1.17360560983e-05	0.935275650618
2536.0	1.76040841475e-05	0.935293254702
2540.0	1.17360560983e-05	0.935304990758
2543.0	1.17360560983e-05	0.935316726814
2545.0	1.17360560983e-05	0.93532846287
2548.0	0.000158436757328	0.935486899627
2551.0	1.76040841475e-05	0.935504503712
2555.0	5.86802804917e-06	0.93551037174
2558.0	1.76040841475e-05	0.935527975824
2561.0	2.34721121967e-05	0.935551447936
2563.0	2.93401402459e-05	0.935580788076
2566.0	1.76040841475e-05	0.93559839216
2569.0	2.34721121967e-05	0.935621864273
2572.0	4.10761963442e-05	0.935662940469
2575.0	1.76040841475e-05	0.935680544553
2578.0	1.76040841475e-05	0.935698148637
2581.0	5.86802804917e-06	0.935704016665
2584.0	1.17360560983e-05	0.935715752721
2587.0	1.17360560983e-05	0.935727488777
2590.0	1.17360560983e-05	0.935739224833
2597.0	5.86802804917e-06	0.935745092862
2600.0	5.86802804917e-06	0.93575096089
2603.0	1.17360560983e-05	0.935762696946
2608.0	1.17360560983e-05	0.935774433002
2611.0	2.93401402459e-05	0.935803773142
2614.0	1.76040841475e-05	0.935821377226
2617.0	1.76040841475e-05	0.93583898131
2621.0	5.86802804917e-06	0.935844849338
2624.0	1.17360560983e-05	0.935856585394
2626.0	2.34721121967e-05	0.935880057507
2629.0	1.76040841475e-05	0.935897661591
2632.0	1.17360560983e-05	0.935909397647
2636.0	5.86802804917e-06	0.935915265675
2638.0	2.34721121967e-05	0.935938737787
2641.0	2.34721121967e-05	0.935962209899
2644.0	1.17360560983e-05	0.935973945955
2647.0	1.17360560983e-05	0.935985682012
2653.0	0.00101516885251	0.937000850864
2656.0	0.000117360560983	0.937118211425
2660.0	2.93401402459e-05	0.937147551565
2663.0	1.76040841475e-05	0.937165155649
2665.0	0.00028166534636	0.937446820996
2668.0	1.76040841475e-05	0.93746442508
2671.0	1.76040841475e-05	0.937482029164
2674.0	1.17360560983e-05	0.93749376522
2678.0	1.17360560983e-05	0.937505501276
2680.0	1.76040841475e-05	0.93752310536
2683.0	1.17360560983e-05	0.937534841417
2686.0	2.34721121967e-05	0.937558313529
2689.0	0.000158436757328	0.937716750286
2698.0	5.86802804917e-06	0.937722618314
2701.0	3.5208168295e-05	0.937757826482
2704.0	0.000129096617082	0.937886923099
2707.0	2.34721121967e-05	0.937910395212
2711.0	5.86802804917e-06	0.93791626324
2714.0	3.5208168295e-05	0.937951471408
2716.0	9.9756476836e-05	0.938051227885
2719.0	3.5208168295e-05	0.938086436053
2722.0	2.34721121967e-05	0.938109908165
2725.0	1.17360560983e-05	0.938121644221
2728.0	1.17360560983e-05	0.938133380278
2731.0	1.17360560983e-05	0.938145116334
2734.0	5.86802804917e-06	0.938150984362
2738.0	1.17360560983e-05	0.938162720418
2740.0	1.17360560983e-05	0.938174456474
2746.0	5.86802804917e-06	0.938180324502
2750.0	1.76040841475e-05	0.938197928586
2752.0	0.000117360560983	0.938315289147
2755.0	4.69442243934e-05	0.938362233371
2758.0	5.86802804917e-06	0.9383681014
2762.0	1.76040841475e-05	0.938385705484
2764.0	2.34721121967e-05	0.938409177596
2767.0	1.76040841475e-05	0.93842678168
2770.0	1.17360560983e-05	0.938438517736
2773.0	1.17360560983e-05	0.938450253792
2776.0	1.76040841475e-05	0.938467857876
2780.0	1.17360560983e-05	0.938479593932
2785.0	1.17360560983e-05	0.938491329989
2789.0	1.17360560983e-05	0.938503066045
2791.0	0.000117360560983	0.938620426606
2794.0	2.34721121967e-05	0.938643898718
2797.0	1.76040841475e-05	0.938661502802
2800.0	1.17360560983e-05	0.938673238858
2803.0	1.17360560983e-05	0.938684974914
2806.0	1.17360560983e-05	0.93869671097
2810.0	5.86802804917e-06	0.938702578998
2812.0	0.000117360560983	0.938819939559
2815.0	0.000152568729279	0.938972508289
2819.0	1.17360560983e-05	0.938984244345
2821.0	0.000123228589033	0.939107472934
2824.0	2.93401402459e-05	0.939136813074
2828.0	5.86802804917e-06	0.939142681102
2831.0	1.17360560983e-05	0.939154417158
2834.0	1.17360560983e-05	0.939166153214
2836.0	5.86802804917e-06	0.939172021242
2840.0	1.76040841475e-05	0.939189625326
2842.0	1.17360560983e-05	0.939201361383
2846.0	5.86802804917e-06	0.939207229411
2849.0	4.69442243934e-05	0.939254173635
2851.0	0.000193644925623	0.939447818561
2854.0	5.86802804917e-05	0.939506498841
2857.0	9.9756476836e-05	0.939606255318
2860.0	1.76040841475e-05	0.939623859402
2864.0	5.86802804917e-06	0.93962972743
2867.0	1.17360560983e-05	0.939641463486
2869.0	3.5208168295e-05	0.939676671654
2872.0	1.76040841475e-05	0.939694275739
2875.0	3.5208168295e-05	0.939729483907
2881.0	5.86802804917e-06	0.939735351935
2884.0	2.93401402459e-05	0.939764692075
2887.0	2.34721121967e-05	0.939788164187
2890.0	1.17360560983e-05	0.939799900244
2893.0	0.000117360560983	0.939917260805
2896.0	1.76040841475e-05	0.939934864889
2900.0	5.86802804917e-06	0.939940732917
2902.0	1.17360560983e-05	0.939952468973
2905.0	1.76040841475e-05	0.939970073057
2908.0	0.000305137458557	0.940275210516
2911.0	2.93401402459e-05	0.940304550656
2914.0	2.93401402459e-05	0.940333890796
2917.0	0.000381421823196	0.940715312619
2920.0	3.5208168295e-05	0.940750520787
2924.0	5.86802804917e-06	0.940756388816
2926.0	1.17360560983e-05	0.940768124872
2930.0	2.34721121967e-05	0.940791596984
2935.0	3.5208168295e-05	0.940826805152
2941.0	1.17360560983e-05	0.940838541208
2944.0	0.000234721121967	0.94107326233
2948.0	5.86802804917e-06	0.941079130358
2951.0	1.17360560983e-05	0.941090866414
2953.0	1.17360560983e-05	0.94110260247
2956.0	1.76040841475e-05	0.941120206555
2959.0	1.76040841475e-05	0.941137810639
2963.0	5.86802804917e-06	0.941143678667
2966.0	5.86802804917e-06	0.941149546695
2971.0	1.17360560983e-05	0.941161282751
2975.0	5.86802804917e-06	0.941167150779
2977.0	5.86802804917e-06	0.941173018807
2981.0	5.86802804917e-06	0.941178886835
2984.0	1.76040841475e-05	0.941196490919
2987.0	5.86802804917e-06	0.941202358947
2990.0	1.17360560983e-05	0.941214095003
2992.0	1.76040841475e-05	0.941231699088
2995.0	0.000105624504885	0.941337323592
2999.0	5.86802804917e-06	0.94134319162
3001.0	5.86802804917e-06	0.941349059649
3005.0	5.86802804917e-06	0.941354927677
3007.0	1.76040841475e-05	0.941372531761
3010.0	1.17360560983e-05	0.941384267817
3013.0	5.86802804917e-06	0.941390135845
3016.0	2.34721121967e-05	0.941413607957
3020.0	5.86802804917e-06	0.941419475985
3034.0	1.76040841475e-05	0.941437080069
3037.0	1.17360560983e-05	0.941448816125
3044.0	5.86802804917e-06	0.941454684153
3046.0	1.76040841475e-05	0.941472288238
3050.0	5.86802804917e-06	0.941478156266
3052.0	5.86802804917e-06	0.941484024294
3058.0	5.86802804917e-06	0.941489892322
3064.0	5.86802804917e-06	0.94149576035
3070.0	5.86802804917e-06	0.941501628378
3073.0	5.86802804917e-06	0.941507496406
3076.0	1.76040841475e-05	0.94152510049
3079.0	1.17360560983e-05	0.941536836546
3086.0	1.17360560983e-05	0.941548572602
3089.0	1.76040841475e-05	0.941566176686
3091.0	5.86802804917e-06	0.941572044714
3095.0	5.86802804917e-06	0.941577912742
3097.0	1.17360560983e-05	0.941589648799
3101.0	5.86802804917e-06	0.941595516827
3104.0	5.86802804917e-06	0.941601384855
3109.0	5.86802804917e-06	0.941607252883
3113.0	1.17360560983e-05	0.941618988939
3115.0	1.17360560983e-05	0.941630724995
3119.0	5.86802804917e-06	0.941636593023
3121.0	2.34721121967e-05	0.941660065135
3127.0	1.17360560983e-05	0.941671801191
3130.0	1.76040841475e-05	0.941689405275
3133.0	2.93401402459e-05	0.941718745416
3137.0	5.86802804917e-06	0.941724613444
3139.0	1.76040841475e-05	0.941742217528
3142.0	5.86802804917e-05	0.941800897808
3145.0	5.86802804917e-06	0.941806765836
3148.0	4.69442243934e-05	0.941853710061
3154.0	5.86802804917e-06	0.941859578089
3158.0	1.76040841475e-05	0.941877182173
3160.0	1.17360560983e-05	0.941888918229
3163.0	2.34721121967e-05	0.941912390341
3167.0	5.86802804917e-06	0.941918258369
3169.0	1.17360560983e-05	0.941929994425
3172.0	1.17360560983e-05	0.941941730481
3176.0	5.86802804917e-06	0.94194759851
3178.0	5.86802804917e-06	0.941953466538
3181.0	0.000164304785377	0.942117771323
3184.0	0.000592670832967	0.942710442156
3187.0	5.86802804917e-06	0.942716310184
3196.0	2.34721121967e-05	0.942739782296
3199.0	9.38884487868e-05	0.942833670745
3202.0	5.86802804917e-06	0.942839538773
3206.0	5.86802804917e-06	0.942845406801
3214.0	1.76040841475e-05	0.942863010885
3217.0	5.86802804917e-06	0.942868878913
3220.0	3.5208168295e-05	0.942904087082
3223.0	0.000123228589033	0.943027315671
3226.0	0.00150808320864	0.944535398879
3229.0	0.00071003139395	0.945245430273
3232.0	5.86802804917e-06	0.945251298301
3235.0	0.000105624504885	0.945356922806
3238.0	1.76040841475e-05	0.94537452689
3241.0	0.000129096617082	0.945503623507
3244.0	0.000193644925623	0.945697268433
3247.0	9.9756476836e-05	0.94579702491
3250.0	2.34721121967e-05	0.945820497022
3254.0	1.76040841475e-05	0.945838101106
3256.0	5.86802804917e-06	0.945843969134
3259.0	5.86802804917e-06	0.945849837162
3263.0	5.86802804917e-06	0.94585570519
3265.0	0.000134964645131	0.945990669835
3268.0	5.28122524426e-05	0.946043482088
3271.0	1.17360560983e-05	0.946055218144
3274.0	5.86802804917e-06	0.946061086172
3280.0	1.76040841475e-05	0.946078690256
3286.0	5.86802804917e-06	0.946084558284
3289.0	0.000199512953672	0.946284071238
3292.0	2.93401402459e-05	0.946313411378
3295.0	0.000381421823196	0.946694833201
3304.0	5.86802804917e-06	0.946700701229
3307.0	1.17360560983e-05	0.946712437285
3310.0	5.86802804917e-06	0.946718305313
3313.0	4.10761963442e-05	0.94675938151
3316.0	0.000692427309803	0.94745180882
3319.0	5.86802804917e-06	0.947457676848
3322.0	4.10761963442e-05	0.947498753044
3325.0	1.17360560983e-05	0.9475104891
3328.0	2.34721121967e-05	0.947533961212
3331.0	0.000111492532934	0.947645453745
3334.0	5.86802804917e-06	0.947651321773
3340.0	1.17360560983e-05	0.947663057829
3349.0	1.17360560983e-05	0.947674793886
3352.0	3.5208168295e-05	0.947710002054
3355.0	0.000416629991491	0.948126632045
3358.0	0.000481178300032	0.948607810345
3361.0	5.86802804917e-06	0.948613678373
3364.0	5.86802804917e-06	0.948619546401
3370.0	5.86802804917e-06	0.948625414429
3376.0	2.93401402459e-05	0.94865475457
3379.0	5.86802804917e-05	0.94871343485
3382.0	1.17360560983e-05	0.948725170906
3388.0	1.17360560983e-05	0.948736906962
3391.0	0.000457706187836	0.94919461315
3394.0	0.00028166534636	0.949476278497
3397.0	1.17360560983e-05	0.949488014553
3404.0	5.86802804917e-06	0.949493882581
3406.0	5.86802804917e-06	0.949499750609
3413.0	5.86802804917e-06	0.949505618637
3415.0	1.17360560983e-05	0.949517354693
3418.0	3.5208168295e-05	0.949552562861
3421.0	4.10761963442e-05	0.949593639058
3427.0	5.86802804917e-06	0.949599507086
3430.0	5.86802804917e-06	0.949605375114
3434.0	5.86802804917e-06	0.949611243142
3436.0	2.93401402459e-05	0.949640583282
3442.0	5.86802804917e-06	0.94964645131
3449.0	5.86802804917e-06	0.949652319338
3457.0	5.86802804917e-06	0.949658187366
3463.0	1.76040841475e-05	0.94967579145
3466.0	5.28122524426e-05	0.949728603703
3469.0	0.000217117037819	0.949945720741
3472.0	3.5208168295e-05	0.949980928909
3475.0	1.76040841475e-05	0.949998532993
3478.0	1.17360560983e-05	0.950010269049
3482.0	1.17360560983e-05	0.950022005105
3487.0	1.76040841475e-05	0.950039609189
3490.0	1.17360560983e-05	0.950051345245
3493.0	5.86802804917e-06	0.950057213273
3496.0	1.17360560983e-05	0.95006894933
3499.0	3.5208168295e-05	0.950104157498
3502.0	8.21523926884e-05	0.950186309891
3508.0	1.76040841475e-05	0.950203913975
3511.0	1.17360560983e-05	0.950215650031
3514.0	5.86802804917e-06	0.950221518059
3517.0	2.34721121967e-05	0.950244990171
3523.0	1.17360560983e-05	0.950256726227
3526.0	5.86802804917e-06	0.950262594255
3529.0	5.86802804917e-06	0.950268462283
3532.0	1.17360560983e-05	0.950280198339
3535.0	1.17360560983e-05	0.950291934395
3538.0	1.17360560983e-05	0.950303670452
3544.0	5.86802804917e-06	0.95030953848
3547.0	1.17360560983e-05	0.950321274536
3550.0	1.17360560983e-05	0.950333010592
3556.0	5.86802804917e-06	0.95033887862
3559.0	1.76040841475e-05	0.950356482704
3562.0	1.76040841475e-05	0.950374086788
3565.0	5.86802804917e-06	0.950379954816
3571.0	5.86802804917e-06	0.950385822844
3583.0	1.17360560983e-05	0.9503975589
3587.0	5.86802804917e-06	0.950403426928
3595.0	1.76040841475e-05	0.950421031013
3598.0	0.000146700701229	0.950567731714
3601.0	0.000328609570754	0.950896341285
3604.0	5.86802804917e-06	0.950902209313
3610.0	5.28122524426e-05	0.950955021565
3613.0	0.000123228589033	0.951078250154
3616.0	7.04163365901e-05	0.951148666491
3622.0	2.93401402459e-05	0.951178006631
3625.0	5.86802804917e-05	0.951236686911
3631.0	5.86802804917e-06	0.951242554939
3634.0	5.86802804917e-06	0.951248422967
3637.0	5.86802804917e-06	0.951254290996
3643.0	5.86802804917e-06	0.951260159024
3646.0	5.86802804917e-06	0.951266027052
3655.0	1.17360560983e-05	0.951277763108
3661.0	0.000293401402459	0.95157116451
3664.0	0.000469442243934	0.952040606754
3670.0	5.86802804917e-06	0.952046474782
3676.0	0.000170172813426	0.952216647596
3688.0	5.86802804917e-06	0.952222515624
3700.0	0.000187776897574	0.952410292521
3703.0	2.34721121967e-05	0.952433764633
3706.0	5.86802804917e-06	0.952439632661
3710.0	5.86802804917e-06	0.952445500689
3715.0	5.86802804917e-06	0.952451368718
3718.0	1.17360560983e-05	0.952463104774
3724.0	5.86802804917e-06	0.952468972802
3733.0	5.86802804917e-06	0.95247484083
3739.0	5.86802804917e-06	0.952480708858
3745.0	5.86802804917e-06	0.952486576886
3748.0	5.86802804917e-06	0.952492444914
3757.0	1.17360560983e-05	0.95250418097
3770.0	5.86802804917e-06	0.952510048998
3775.0	5.86802804917e-06	0.952515917026
3781.0	5.86802804917e-06	0.952521785054
3784.0	5.86802804917e-06	0.952527653082
3788.0	5.86802804917e-06	0.95253352111
3796.0	5.86802804917e-06	0.952539389138
3805.0	5.86802804917e-06	0.952545257166
3810.0	1.17360560983e-05	0.952556993222
3814.0	0.000105624504885	0.952662617727
3817.0	1.76040841475e-05	0.952680221811
3826.0	5.86802804917e-06	0.95268608984
3830.0	5.86802804917e-06	0.952691957868
3832.0	5.86802804917e-06	0.952697825896
3835.0	0.000129096617082	0.952826922513
3838.0	1.17360560983e-05	0.952838658569
3844.0	5.86802804917e-06	0.952844526597
3847.0	1.17360560983e-05	0.952856262653
3853.0	1.17360560983e-05	0.952867998709
3856.0	3.5208168295e-05	0.952903206877
3859.0	5.86802804917e-06	0.952909074905
3868.0	5.86802804917e-06	0.952914942933
3871.0	5.86802804917e-06	0.952920810961
3874.0	5.86802804917e-06	0.95292667899
3877.0	7.04163365901e-05	0.952997095326
3880.0	0.000129096617082	0.953126191943
3883.0	0.00014083267318	0.953267024616
3886.0	8.21523926884e-05	0.953349177009
3895.0	5.28122524426e-05	0.953401989262
3898.0	7.04163365901e-05	0.953472405598
3916.0	5.86802804917e-06	0.953478273626
3919.0	0.000123228589033	0.953601502215
3932.0	5.86802804917e-06	0.953607370243
3934.0	4.10761963442e-05	0.95364844644
3937.0	2.93401402459e-05	0.95367778658
3940.0	0.000445970131737	0.954123756712
3952.0	1.17360560983e-05	0.954135492768
3955.0	0.000234721121967	0.95437021389
3958.0	5.28122524426e-05	0.954423026142
3961.0	0.000164304785377	0.954587330927
3967.0	2.34721121967e-05	0.95461080304
3970.0	4.69442243934e-05	0.954657747264
3976.0	1.17360560983e-05	0.95466948332
3979.0	1.17360560983e-05	0.954681219376
3982.0	6.45483085409e-05	0.954745767685
3985.0	8.80204207376e-05	0.954833788106
3988.0	5.86802804917e-06	0.954839656134
3991.0	7.62843646393e-05	0.954915940498
4003.0	5.86802804917e-06	0.954921808526
4006.0	1.17360560983e-05	0.954933544582
4012.0	3.5208168295e-05	0.954968752751
4015.0	0.000152568729279	0.95512132148
4021.0	5.86802804917e-06	0.955127189508
4024.0	4.10761963442e-05	0.955168265704
4027.0	0.000387289851245	0.955555555556
4030.0	0.000745239562245	0.956300795118
4033.0	0.000545726608573	0.956846521726
4039.0	5.86802804917e-06	0.956852389754
4042.0	7.04163365901e-05	0.956922806091
4045.0	0.000123228589033	0.95704603468
4048.0	5.86802804917e-06	0.957051902708
4051.0	7.62843646393e-05	0.957128187073
4054.0	8.80204207376e-05	0.957216207493
4057.0	0.000117360560983	0.957333568054
4060.0	7.62843646393e-05	0.957409852419
4063.0	0.000545726608573	0.957955579028
4066.0	0.000170172813426	0.958125751841
4069.0	1.17360560983e-05	0.958137487897
4087.0	5.86802804917e-06	0.958143355925
4090.0	5.86802804917e-06	0.958149223953
4093.0	9.38884487868e-05	0.958243112402
4096.0	3.5208168295e-05	0.95827832057
4099.0	0.000111492532934	0.958389813103
4102.0	2.93401402459e-05	0.958419153244
4114.0	5.86802804917e-06	0.958425021272
4121.0	5.86802804917e-06	0.9584308893
4126.0	0.000487046328081	0.958917935628
4129.0	0.00205380981721	0.960971745445
4132.0	9.9756476836e-05	0.961071501922
4135.0	5.86802804917e-06	0.96107736995
4141.0	1.17360560983e-05	0.961089106006
4144.0	5.86802804917e-06	0.961094974034
4148.0	5.86802804917e-06	0.961100842062
4150.0	5.86802804917e-06	0.96110671009
4153.0	0.000751107590294	0.96185781768
4156.0	2.34721121967e-05	0.961881289793
4159.0	5.86802804917e-05	0.961939970073
4162.0	0.000340345626852	0.9622803157
4165.0	3.5208168295e-05	0.962315523868
4168.0	5.86802804917e-05	0.962374204149
4171.0	2.34721121967e-05	0.962397676261
4174.0	5.86802804917e-05	0.962456356541
4180.0	1.76040841475e-05	0.962473960626
4189.0	0.000105624504885	0.96257958513
4192.0	2.93401402459e-05	0.962608925271
4195.0	1.17360560983e-05	0.962620661327
4201.0	0.000181908869524	0.962802570196
4204.0	0.000416629991491	0.963219200188
4207.0	5.86802804917e-06	0.963225068216
4213.0	5.86802804917e-06	0.963230936244
4219.0	5.86802804917e-06	0.963236804272
4225.0	1.76040841475e-05	0.963254408356
4234.0	5.86802804917e-06	0.963260276384
4240.0	1.17360560983e-05	0.96327201244
4242.0	0.00163717982572	0.964909192266
4244.0	8.80204207376e-05	0.964997212687
4249.0	5.86802804917e-06	0.965003080715
4261.0	5.86802804917e-06	0.965008948743
4264.0	5.86802804917e-06	0.965014816771
4270.0	5.86802804917e-06	0.965020684799
4279.0	5.86802804917e-06	0.965026552827
4291.0	5.86802804917e-06	0.965032420855
4303.0	5.86802804917e-06	0.965038288883
4312.0	5.86802804917e-06	0.965044156911
4315.0	0.00021124900977	0.965255405921
4318.0	5.86802804917e-06	0.965261273949
4327.0	2.34721121967e-05	0.965284746061
4330.0	0.000123228589033	0.96540797465
4333.0	1.17360560983e-05	0.965419710706
4339.0	0.000469442243934	0.96588915295
4341.0	1.17360560983e-05	0.965900889006
4345.0	5.86802804917e-06	0.965906757034
4348.0	5.86802804917e-06	0.965912625062
4354.0	5.86802804917e-06	0.96591849309
4366.0	1.17360560983e-05	0.965930229146
4369.0	9.38884487868e-05	0.966024117595
4372.0	1.17360560983e-05	0.966035853651
4378.0	5.86802804917e-06	0.966041721679
4387.0	5.86802804917e-06	0.966047589707
4393.0	5.86802804917e-06	0.966053457736
4399.0	1.17360560983e-05	0.966065193792
4402.0	3.5208168295e-05	0.96610040196
4405.0	5.28122524426e-05	0.966153214212
4408.0	7.62843646393e-05	0.966229498577
4411.0	3.5208168295e-05	0.966264706745
4413.0	9.9756476836e-05	0.966364463222
4415.0	5.86802804917e-06	0.96637033125
4438.0	5.86802804917e-06	0.966376199278
4441.0	3.5208168295e-05	0.966411407447
4444.0	5.86802804917e-06	0.966417275475
4447.0	2.93401402459e-05	0.966446615615
4450.0	8.80204207376e-05	0.966534636036
4453.0	1.17360560983e-05	0.966546372092
4468.0	5.86802804917e-06	0.96655224012
4474.0	2.34721121967e-05	0.966575712232
4477.0	0.000445970131737	0.967021682364
4479.0	1.17360560983e-05	0.96703341842
4486.0	0.000340345626852	0.967373764047
4489.0	3.5208168295e-05	0.967408972215
4492.0	2.93401402459e-05	0.967438312355
4501.0	5.86802804917e-06	0.967444180383
4504.0	1.76040841475e-05	0.967461784467
4507.0	5.86802804917e-06	0.967467652495
4522.0	2.34721121967e-05	0.967491124608
4525.0	2.34721121967e-05	0.96751459672
4534.0	5.86802804917e-06	0.967520464748
4540.0	5.86802804917e-06	0.967526332776
4552.0	5.86802804917e-06	0.967532200804
4570.0	1.17360560983e-05	0.96754393686
4573.0	0.00021124900977	0.96775518587
4576.0	1.76040841475e-05	0.967772789954
4579.0	5.28122524426e-05	0.967825602206
4581.0	1.17360560983e-05	0.967837338262
4588.0	5.86802804917e-06	0.967843206291
4594.0	5.86802804917e-06	0.967849074319
4606.0	5.86802804917e-06	0.967854942347
4609.0	5.86802804917e-06	0.967860810375
4612.0	5.86802804917e-06	0.967866678403
4618.0	5.86802804917e-06	0.967872546431
4621.0	5.86802804917e-06	0.967878414459
4624.0	1.17360560983e-05	0.967890150515
4627.0	5.86802804917e-06	0.967896018543
4633.0	5.86802804917e-06	0.967901886571
4645.0	5.86802804917e-06	0.967907754599
4648.0	2.93401402459e-05	0.967937094739
4663.0	5.86802804917e-06	0.967942962767
4669.0	5.86802804917e-06	0.967948830795
4672.0	5.86802804917e-06	0.967954698823
4690.0	5.86802804917e-06	0.967960566852
4693.0	1.76040841475e-05	0.967978170936
4708.0	0.000111492532934	0.968089663469
4726.0	7.62843646393e-05	0.968165947833
4729.0	5.28122524426e-05	0.968218760086
4732.0	0.000134964645131	0.968353724731
4734.0	5.86802804917e-06	0.968359592759
4738.0	1.17360560983e-05	0.968371328815
4741.0	1.76040841475e-05	0.968388932899
4743.0	0.000117360560983	0.96850629346
4747.0	1.17360560983e-05	0.968518029516
4752.0	2.34721121967e-05	0.968541501628
4756.0	5.86802804917e-06	0.968547369656
4762.0	5.86802804917e-06	0.968553237684
4777.0	1.17360560983e-05	0.968564973741
4780.0	4.10761963442e-05	0.968606049937
4782.0	1.17360560983e-05	0.968617785993
4786.0	1.76040841475e-05	0.968635390077
4789.0	3.5208168295e-05	0.968670598245
4807.0	1.17360560983e-05	0.968682334302
4810.0	3.5208168295e-05	0.96871754247
4812.0	0.000181908869524	0.968899451339
4816.0	1.76040841475e-05	0.968917055424
4818.0	0.000105624504885	0.969022679928
4825.0	2.34721121967e-05	0.969046152041
4828.0	3.5208168295e-05	0.969081360209
4831.0	5.86802804917e-06	0.969087228237
4837.0	2.34721121967e-05	0.969110700349
4839.0	0.000123228589033	0.969233928938
4843.0	5.86802804917e-06	0.969239796966
4855.0	5.86802804917e-06	0.969245664994
4858.0	5.86802804917e-06	0.969251533022
4872.0	5.86802804917e-06	0.96925740105
4881.0	5.86802804917e-06	0.969263269078
4900.0	5.86802804917e-06	0.969269137106
4902.0	3.5208168295e-05	0.969304345275
4906.0	1.76040841475e-05	0.969321949359
4930.0	5.86802804917e-06	0.969327817387
4932.0	3.5208168295e-05	0.969363025555
4939.0	1.76040841475e-05	0.969380629639
4954.0	3.5208168295e-05	0.969415837808
4956.0	0.000181908869524	0.969597746677
4960.0	5.86802804917e-06	0.969603614705
4963.0	5.86802804917e-06	0.969609482733
4981.0	5.86802804917e-06	0.969615350761
4987.0	5.86802804917e-06	0.969621218789
4990.0	5.86802804917e-06	0.969627086817
4993.0	1.17360560983e-05	0.969638822874
4995.0	5.86802804917e-06	0.969644690902
5011.0	5.86802804917e-06	0.96965055893
5014.0	5.86802804917e-06	0.969656426958
5023.0	1.17360560983e-05	0.969668163014
5043.0	5.86802804917e-06	0.969674031042
5046.0	5.86802804917e-06	0.96967989907
5052.0	5.86802804917e-06	0.969685767098
5056.0	5.86802804917e-06	0.969691635126
5059.0	1.76040841475e-05	0.96970923921
5061.0	0.000158436757328	0.969867675967
5063.0	1.17360560983e-05	0.969879412024
5065.0	1.76040841475e-05	0.969897016108
5067.0	2.34721121967e-05	0.96992048822
5071.0	5.86802804917e-06	0.969926356248
5074.0	4.10761963442e-05	0.969967432444
5086.0	5.86802804917e-06	0.969973300472
5097.0	1.17360560983e-05	0.969985036528
5107.0	5.86802804917e-06	0.969990904557
5110.0	5.86802804917e-06	0.969996772585
5113.0	5.86802804917e-06	0.970002640613
5122.0	5.86802804917e-06	0.970008508641
5130.0	1.17360560983e-05	0.970020244697
5134.0	5.86802804917e-06	0.970026112725
5143.0	5.86802804917e-06	0.970031980753
5149.0	5.86802804917e-06	0.970037848781
5152.0	5.86802804917e-06	0.970043716809
5155.0	4.69442243934e-05	0.970090661033
5164.0	5.86802804917e-06	0.970096529061
5167.0	5.86802804917e-06	0.970102397089
5178.0	5.86802804917e-06	0.970108265118
5203.0	2.93401402459e-05	0.970137605258
5205.0	0.000158436757328	0.970296042015
5212.0	5.86802804917e-06	0.970301910043
5221.0	1.17360560983e-05	0.970313646099
5236.0	5.86802804917e-06	0.970319514127
5242.0	5.86802804917e-06	0.970325382155
5250.0	5.86802804917e-06	0.970331250183
5272.0	5.86802804917e-06	0.970337118211
5281.0	5.86802804917e-06	0.970342986239
5290.0	1.17360560983e-05	0.970354722296
5301.0	0.000563330692721	0.970918052988
5304.0	5.86802804917e-06	0.970923921016
5326.0	5.86802804917e-06	0.970929789044
5328.0	5.86802804917e-06	0.970935657072
5353.0	5.86802804917e-06	0.9709415251
5355.0	9.9756476836e-05	0.971041281577
5358.0	9.38884487868e-05	0.971135170026
5362.0	5.86802804917e-06	0.971141038054
5374.0	5.86802804917e-06	0.971146906082
5380.0	1.17360560983e-05	0.971158642138
5392.0	5.86802804917e-06	0.971164510166
5403.0	1.17360560983e-05	0.971176246222
5410.0	1.17360560983e-05	0.971187982279
5412.0	0.000357949711	0.97154593199
5422.0	5.86802804917e-06	0.971551800018
5428.0	5.86802804917e-06	0.971557668046
5446.0	1.17360560983e-05	0.971569404102
5458.0	5.86802804917e-06	0.97157527213
5470.0	5.86802804917e-06	0.971581140158
5473.0	5.28122524426e-05	0.97163395241
5475.0	0.000105624504885	0.971739576915
5487.0	1.76040841475e-05	0.971757180999
5490.0	4.69442243934e-05	0.971804125224
5493.0	0.00014083267318	0.971944957897
5497.0	5.86802804917e-06	0.971950825925
5502.0	3.5208168295e-05	0.971986034093
5505.0	2.93401402459e-05	0.972015374233
5509.0	5.86802804917e-06	0.972021242262
5518.0	5.86802804917e-06	0.97202711029
5520.0	4.10761963442e-05	0.972068186486
5524.0	5.86802804917e-06	0.972074054514
5544.0	0.000164304785377	0.972238359299
5548.0	5.86802804917e-06	0.972244227327
5550.0	8.21523926884e-05	0.97232637972
5553.0	0.000481178300032	0.97280755802
5557.0	5.86802804917e-06	0.972813426048
5566.0	1.17360560983e-05	0.972825162104
5568.0	3.5208168295e-05	0.972860370273
5596.0	5.86802804917e-06	0.972866238301
5604.0	0.000111492532934	0.972977730834
5607.0	4.10761963442e-05	0.97301880703
5616.0	0.000164304785377	0.973183111815
5619.0	5.28122524426e-05	0.973235924068
5622.0	0.000181908869524	0.973417832937
5629.0	5.86802804917e-06	0.973423700965
5638.0	1.76040841475e-05	0.973441305049
5640.0	5.86802804917e-05	0.97349998533
5646.0	1.17360560983e-05	0.973511721386
5662.0	1.17360560983e-05	0.973523457442
5664.0	5.86802804917e-06	0.97352932547
5670.0	5.86802804917e-06	0.973535193498
5686.0	5.86802804917e-06	0.973541061526
5692.0	1.17360560983e-05	0.973552797582
5694.0	5.86802804917e-05	0.973611477863
5697.0	0.000187776897574	0.97379925476
5700.0	5.86802804917e-06	0.973805122788
5727.0	0.000222985065869	0.974028107854
5743.0	5.86802804917e-06	0.974033975882
5754.0	0.000228853093918	0.974262828976
5757.0	0.000316873514655	0.974579702491
5760.0	2.34721121967e-05	0.974603174603
5763.0	5.86802804917e-05	0.974661854884
5781.0	5.86802804917e-06	0.974667722912
5809.0	5.86802804917e-06	0.97467359094
5811.0	5.86802804917e-06	0.974679458968
5832.0	5.86802804917e-06	0.974685326996
5862.0	5.86802804917e-06	0.974691195024
5868.0	9.9756476836e-05	0.974790951501
5871.0	4.69442243934e-05	0.974837895725
5877.0	0.00178388052695	0.976621776252
5880.0	5.86802804917e-06	0.97662764428
5889.0	5.86802804917e-06	0.976633512308
5899.0	5.86802804917e-06	0.976639380336
5928.0	5.86802804917e-06	0.976645248364
5946.0	0.000328609570754	0.976973857935
5949.0	0.00230613502333	0.979279992958
5952.0	2.93401402459e-05	0.979309333099
5976.0	4.69442243934e-05	0.979356277323
5991.0	2.34721121967e-05	0.979379749435
5994.0	7.04163365901e-05	0.979450165772
5997.0	5.86802804917e-06	0.9794560338
6009.0	1.17360560983e-05	0.979467769856
6012.0	5.28122524426e-05	0.979520582108
6015.0	5.28122524426e-05	0.979573394361
6019.0	5.86802804917e-06	0.979579262389
6021.0	0.00134377842326	0.980923040812
6024.0	7.04163365901e-05	0.980993457149
6030.0	2.93401402459e-05	0.981022797289
6049.0	5.86802804917e-06	0.981028665317
6078.0	1.17360560983e-05	0.981040401373
6081.0	0.000328609570754	0.981369010944
6169.0	5.86802804917e-06	0.981374878972
6175.0	5.86802804917e-06	0.981380747
6180.0	0.0021007540416	0.983481501042
6183.0	1.17360560983e-05	0.983493237098
6210.0	5.86802804917e-06	0.983499105126
6222.0	5.86802804917e-06	0.983504973154
6231.0	0.000410761963442	0.983915735117
6270.0	8.21523926884e-05	0.98399788751
6273.0	0.000176040841475	0.984173928351
6339.0	5.86802804917e-06	0.984179796379
6433.0	5.86802804917e-06	0.984185664407
6438.0	5.86802804917e-06	0.984191532436
6594.0	4.10761963442e-05	0.984232608632
6597.0	5.86802804917e-05	0.984291288912
6601.0	1.17360560983e-05	0.984303024968
6603.0	1.17360560983e-05	0.984314761025
6612.0	5.86802804917e-05	0.984373441305
6615.0	2.93401402459e-05	0.984402781445
6640.0	1.17360560983e-05	0.984414517501
6642.0	0.000293401402459	0.984707918904
6738.0	2.93401402459e-05	0.984737259044
6747.0	5.86802804917e-06	0.984743127072
6750.0	5.86802804917e-06	0.9847489951
6753.0	5.86802804917e-06	0.984754863128
6769.0	1.17360560983e-05	0.984766599184
6771.0	0.00254672417334	0.987313323358
6852.0	5.86802804917e-06	0.987319191386
6867.0	1.76040841475e-05	0.98733679547
6869.0	0.000393157879295	0.987729953349
6871.0	5.86802804917e-05	0.98778863363
6891.0	2.93401402459e-05	0.98781797377
6894.0	0.000105624504885	0.987923598275
6900.0	7.04163365901e-05	0.987994014611
6903.0	0.000228853093918	0.988222867705
6912.0	2.93401402459e-05	0.988252207846
6915.0	0.000176040841475	0.988428248687
6939.0	1.76040841475e-05	0.988445852771
6942.0	0.000117360560983	0.988563213332
6954.0	5.86802804917e-06	0.98856908136
6981.0	5.86802804917e-06	0.988574949388
6990.0	5.86802804917e-06	0.988580817416
7005.0	1.76040841475e-05	0.9885984215
7008.0	0.000504650412229	0.989103071913
7011.0	3.5208168295e-05	0.989138280081
7054.0	5.86802804917e-06	0.989144148109
7056.0	4.10761963442e-05	0.989185224305
7059.0	5.86802804917e-05	0.989243904586
7092.0	5.86802804917e-06	0.989249772614
7107.0	4.10761963442e-05	0.98929084881
7109.0	1.17360560983e-05	0.989302584866
7116.0	1.76040841475e-05	0.989320188951
7119.0	1.76040841475e-05	0.989337793035
7125.0	0.000152568729279	0.989490361764
7191.0	1.17360560983e-05	0.98950209782
7193.0	0.00042836604759	0.989930463868
7195.0	2.34721121967e-05	0.98995393598
7230.0	5.86802804917e-06	0.989959804008
7283.0	0.000533990552475	0.99049379456
7285.0	1.17360560983e-05	0.990505530616
7287.0	5.86802804917e-06	0.990511398644
7305.0	5.86802804917e-06	0.990517266673
7320.0	5.86802804917e-06	0.990523134701
7389.0	5.86802804917e-06	0.990529002729
7512.0	0.000176040841475	0.99070504357
7514.0	0.000311005486606	0.991016049057
7667.0	1.17360560983e-05	0.991027785113
7670.0	2.34721121967e-05	0.991051257225
7680.0	4.10761963442e-05	0.991092333421
7686.0	1.17360560983e-05	0.991104069477
7688.0	7.04163365901e-05	0.991174485814
7690.0	5.86802804917e-06	0.991180353842
7709.0	1.17360560983e-05	0.991192089898
7713.0	1.76040841475e-05	0.991209693982
7716.0	1.17360560983e-05	0.991221430038
7718.0	4.69442243934e-05	0.991268374263
7721.0	2.34721121967e-05	0.991291846375
7734.0	2.93401402459e-05	0.991321186515
7737.0	6.45483085409e-05	0.991385734824
7740.0	5.86802804917e-06	0.991391602852
7742.0	3.5208168295e-05	0.99142681102
7746.0	2.93401402459e-05	0.99145615116
7758.0	4.10761963442e-05	0.991497227357
7764.0	5.86802804917e-06	0.991503095385
7788.0	1.76040841475e-05	0.991520699469
7790.0	1.17360560983e-05	0.991532435525
7803.0	5.86802804917e-06	0.991538303553
7806.0	5.86802804917e-06	0.991544171581
7814.0	4.10761963442e-05	0.991585247777
7824.0	5.86802804917e-06	0.991591115806
7829.0	0.00014083267318	0.991731948479
7831.0	5.28122524426e-05	0.991784760731
7833.0	0.000844996039081	0.99262975677
7835.0	0.000199512953672	0.992829269724
7864.0	5.86802804917e-06	0.992835137752
7878.0	5.86802804917e-06	0.99284100578
8058.0	5.86802804917e-06	0.992846873808
8073.0	1.17360560983e-05	0.992858609864
8109.0	1.17360560983e-05	0.99287034592
8223.0	5.86802804917e-06	0.992876213948
8247.0	5.86802804917e-06	0.992882081976
8304.0	4.10761963442e-05	0.992923158173
8306.0	0.000117360560983	0.993040518734
8493.0	5.86802804917e-06	0.993046386762
8540.0	0.000416629991491	0.993463016753
8543.0	2.34721121967e-05	0.993486488865
8559.0	5.86802804917e-06	0.993492356893
8562.0	0.000123228589033	0.993615585482
8564.0	8.80204207376e-05	0.993703605903
8595.0	2.34721121967e-05	0.993727078015
8597.0	0.000404893935393	0.994131971951
8599.0	5.86802804917e-06	0.994137839979
8607.0	2.34721121967e-05	0.994161312091
8609.0	0.00035208168295	0.994513393774
8612.0	0.000422498019541	0.994935891794
8837.0	0.000170172813426	0.995106064607
8840.0	7.62843646393e-05	0.995182348972
9033.0	0.000217117037819	0.995399466009
9035.0	0.000434234075639	0.995833700085
9038.0	2.34721121967e-05	0.995857172197
9041.0	0.000105624504885	0.995962796702
9053.0	0.000164304785377	0.996127101488
9056.0	0.000123228589033	0.996250330077
9302.0	5.86802804917e-06	0.996256198105
9437.0	5.86802804917e-06	0.996262066133
9539.0	5.86802804917e-06	0.996267934161
9633.0	5.86802804917e-06	0.996273802189
9635.0	2.34721121967e-05	0.996297274301
9644.0	3.5208168295e-05	0.996332482469
9647.0	8.80204207376e-05	0.99642050289
9650.0	1.17360560983e-05	0.996432238946
9662.0	2.34721121967e-05	0.996455711058
9665.0	2.34721121967e-05	0.99647918317
9692.0	2.34721121967e-05	0.996502655283
9695.0	1.76040841475e-05	0.996520259367
9713.0	5.86802804917e-06	0.996526127395
9722.0	1.17360560983e-05	0.996537863451
9725.0	9.9756476836e-05	0.996637619928
9728.0	2.34721121967e-05	0.99666109204
9734.0	1.76040841475e-05	0.996678696124
9737.0	1.76040841475e-05	0.996696300208
9743.0	5.86802804917e-06	0.996702168236
9746.0	9.9756476836e-05	0.996801924713
9764.0	2.93401402459e-05	0.996831264853
9767.0	0.000152568729279	0.996983833583
9770.0	2.93401402459e-05	0.997013173723
9803.0	1.17360560983e-05	0.997024909779
9824.0	6.45483085409e-05	0.997089458088
9827.0	0.000158436757328	0.997247894845
10038.0	5.86802804917e-06	0.997253762873
10340.0	5.86802804917e-06	0.997259630901
10378.0	5.86802804917e-06	0.997265498929
12035.0	5.86802804917e-06	0.997271366957
12119.0	1.17360560983e-05	0.997283103013
12121.0	0.00228853093918	0.999571633952
12123.0	5.86802804917e-06	0.99957750198
12163.0	0.00035208168295	0.999929583663
12165.0	7.04163365901e-05	1.0
12790.0	5.86802804917e-06	1.0
