#
# Generated On: 2012-02-05T16:54:46.103547
#           By: cwa.analyze.statistics
#      Version: 11.11.23
#       Author: Thomas A. de Ruiter <thomas@de-ruiter.cx>
#
#  Commandline: /home/af10028/bin/cwa analyze
#     Work Dir: /scratch/af10028/var/thesis-project/result/analyses/workload-01h-06180l-5s-default
#

Time	Sum	Avg	StdDev	CoV	0.000000-Pct	0.010000-Pct	0.100000-Pct	1.000000-Pct	2.000000-Pct	5.000000-Pct	25.000000-Pct	50.000000-Pct	75.000000-Pct	95.000000-Pct	98.000000-Pct	99.000000-Pct	99.900000-Pct	99.990000-Pct	100.000000-Pct
1326928800	512487.0	152.935541629	383.807838299	2.50960525074	2.0	2.0	2.0	2.0	2.0	2.0	3.0	18.0	95.0	806.0	1466.0	1952.0	3472.0	3472.0	3472.0
1326929400	1002156.0	141.908241291	322.539008583	2.27287017053	2.0	2.0	2.0	2.0	2.0	2.0	3.0	20.0	92.0	890.0	1145.0	1856.0	2081.0	2081.0	2081.0
1326930000	664088.0	59.5220937528	133.141702565	2.23684508005	2.0	2.0	2.0	2.0	2.0	2.0	3.0	14.0	57.0	272.0	458.0	620.0	1349.0	2702.0	2930.0
1326930600	256572.0	58.8467889908	130.03681309	2.20975205819	2.0	2.0	2.0	2.0	2.0	2.0	3.0	14.0	57.0	260.0	437.0	611.0	1466.0	2126.0	2126.0
1326931200	531517.0	59.9297553275	134.596512432	2.24590458774	2.0	2.0	2.0	2.0	2.0	2.0	3.0	14.0	57.0	257.0	446.0	656.0	1541.0	2905.0	2905.0
1326931800	311490.0	58.265993266	136.830538989	2.34837735219	2.0	2.0	2.0	2.0	2.0	2.0	3.0	14.0	56.0	260.0	431.0	578.0	1343.0	4995.0	4995.0
1326932400	615727.0	55.3015088917	120.273044415	2.17486008656	2.0	2.0	2.0	2.0	2.0	2.0	3.0	11.0	50.0	251.0	437.0	614.0	1157.0	1895.0	2639.0
1326933000	2572.0	5.41473684211	0.493195988348	0.0910840180658	5.0	5.0	5.0	5.0	5.0	5.0	5.0	5.0	6.0	6.0	6.0	6.0	6.0	6.0	6.0
1326933600	478.0	5.37078651685	0.485752052162	0.0904433737289	5.0	5.0	5.0	5.0	5.0	5.0	5.0	5.0	6.0	6.0	6.0	6.0	6.0	6.0	6.0
1326934200	0	0	0	0															
1326934800	853.0	5.50322580645	0.501610310127	0.0911484150876	5.0	5.0	5.0	5.0	5.0	5.0	5.0	6.0	6.0	6.0	6.0	6.0	6.0	6.0	6.0
1326935400	5768.0	5.44150943396	0.496801464275	0.0912984660423	5.0	5.0	5.0	5.0	5.0	5.0	5.0	5.0	6.0	6.0	6.0	6.0	6.0	6.0	6.0
1326936000	6433.0	8.45335085414	47.9436702638	5.671558071	5.0	5.0	5.0	5.0	5.0	5.0	5.0	5.0	6.0	6.0	6.0	6.0	770.0	770.0	770.0
1326936600	7397.0	5.43098384728	0.495395760304	0.0912165777389	5.0	5.0	5.0	5.0	5.0	5.0	5.0	5.0	6.0	6.0	6.0	6.0	6.0	6.0	6.0
