#
# Generated On: 2012-02-05T19:26:33.973872
#           By: cwa.analyze.statistics
#      Version: 11.11.23
#       Author: Thomas A. de Ruiter <thomas@de-ruiter.cx>
#
#  Commandline: /home/af10028/bin/cwa analyze
#     Work Dir: /scratch/af10028/var/thesis-project/result/analyses/workload-06h-07416l-4s-default
#

Time	Sum	Avg	StdDev	CoV	0.000000-Pct	0.010000-Pct	0.100000-Pct	1.000000-Pct	2.000000-Pct	5.000000-Pct	25.000000-Pct	50.000000-Pct	75.000000-Pct	95.000000-Pct	98.000000-Pct	99.000000-Pct	99.900000-Pct	99.990000-Pct	100.000000-Pct
1327090800	59681211.0	478.920933107	1473.02442881	3.07571527362	2.0	2.0	2.0	2.0	2.0	2.0	6.0	41.0	212.0	2765.0	5449.0	9446.0	12280.0	12340.0	12872.0
1327094400	40912227.0	315.075410669	1046.62942694	3.3218378569	2.0	2.0	2.0	2.0	2.0	2.0	6.0	38.0	173.0	1307.0	3284.0	6081.0	10031.0	10148.0	22074.0
1327098000	45281068.0	319.727362594	1031.05729561	3.22480155358	2.0	2.0	2.0	2.0	2.0	2.0	6.0	32.0	173.0	1544.0	3274.0	5251.0	9902.0	17996.0	17998.0
1327101600	42043201.0	297.421465913	983.248690641	3.30591031022	2.0	2.0	2.0	2.0	2.0	2.0	6.0	32.0	158.0	1259.0	3442.0	7395.0	7919.0	9854.0	26565.0
1327105200	38284947.0	280.936826734	815.944947465	2.90437162315	2.0	2.0	2.0	2.0	2.0	2.0	6.0	32.0	173.0	1319.0	3259.0	4438.0	9650.0	9651.0	14047.0
1327108800	53954064.0	363.932358873	1448.75670638	3.98084059045	2.0	2.0	2.0	2.0	2.0	2.0	5.0	30.0	182.0	1817.0	3622.0	4342.0	20822.0	20840.0	22363.0
1327112400	35955334.0	536.150636724	1492.07532538	2.7829405081	2.0	2.0	2.0	2.0	2.0	2.0	6.0	32.0	200.0	3517.0	6936.0	8568.0	8721.0	16077.0	16077.0
1327116000	12623511.0	726.867680083	1478.98541608	2.03473817396	5.0	5.0	5.0	5.0	5.0	5.0	5.0	6.0	182.0	4792.0	5755.0	6333.0	6337.0	6339.0	6339.0
1327119600	1565753.0	401.16653856	1058.38530728	2.63826916144	5.0	5.0	5.0	5.0	5.0	5.0	5.0	6.0	6.0	3163.0	4480.0	4483.0	4483.0	4484.0	4484.0
