#
# Generated On: 2012-02-05T16:48:27.851788
#           By: cwa.analyze.statistics
#      Version: 11.11.23
#       Author: Thomas A. de Ruiter <thomas@de-ruiter.cx>
#
#  Commandline: /home/af10028/bin/cwa analyze
#     Work Dir: /scratch/af10028/var/thesis-project/result/analyses/workload-01h-04944l-3s-fair
#

Value	PDF	CDF
2.0	0.198481561822	0.199566160521
4.0	0.0618221258134	0.261388286334
6.0	0.0151843817787	0.276572668113
9.0	0.0227765726681	0.299349240781
11.0	0.0227765726681	0.322125813449
13.0	0.00976138828633	0.331887201735
15.0	0.00976138828633	0.341648590022
17.0	0.00867678958785	0.35032537961
19.0	0.00976138828633	0.360086767896
21.0	0.00542299349241	0.365509761388
24.0	0.00542299349241	0.370932754881
26.0	0.00325379609544	0.374186550976
28.0	0.00325379609544	0.377440347072
30.0	0.00433839479393	0.381778741866
33.0	0.00325379609544	0.385032537961
35.0	0.00542299349241	0.390455531453
37.0	0.00433839479393	0.394793926247
39.0	0.00108459869848	0.395878524946
41.0	0.00542299349241	0.401301518438
45.0	0.00325379609544	0.404555314534
48.0	0.00325379609544	0.407809110629
51.0	0.00542299349241	0.413232104121
53.0	0.00216919739696	0.415401301518
55.0	0.00108459869848	0.416485900217
57.0	0.00108459869848	0.417570498915
59.0	0.00433839479393	0.421908893709
61.0	0.00108459869848	0.422993492408
66.0	0.00542299349241	0.4284164859
70.0	0.00216919739696	0.430585683297
72.0	0.00433839479393	0.434924078091
75.0	0.00325379609544	0.438177874187
80.0	0.00325379609544	0.441431670282
82.0	0.00325379609544	0.444685466377
86.0	0.00216919739696	0.446854663774
90.0	0.00216919739696	0.449023861171
92.0	0.00108459869848	0.45010845987
95.0	0.00108459869848	0.451193058568
97.0	0.00325379609544	0.454446854664
99.0	0.00325379609544	0.457700650759
101.0	0.00325379609544	0.460954446855
104.0	0.00433839479393	0.465292841649
107.0	0.00108459869848	0.466377440347
109.0	0.00325379609544	0.469631236443
112.0	0.00433839479393	0.473969631236
114.0	0.00542299349241	0.479392624729
116.0	0.00216919739696	0.481561822126
118.0	0.00108459869848	0.482646420824
120.0	0.00325379609544	0.48590021692
123.0	0.00325379609544	0.489154013015
127.0	0.00216919739696	0.491323210412
129.0	0.00325379609544	0.494577006508
131.0	0.00433839479393	0.498915401302
134.0	0.00216919739696	0.501084598698
136.0	0.00216919739696	0.503253796095
139.0	0.00325379609544	0.506507592191
141.0	0.00108459869848	0.507592190889
143.0	0.00325379609544	0.510845986985
145.0	0.00216919739696	0.513015184382
147.0	0.00433839479393	0.517353579176
149.0	0.00433839479393	0.52169197397
152.0	0.00108459869848	0.522776572668
155.0	0.00108459869848	0.523861171367
157.0	0.00108459869848	0.524945770065
159.0	0.00108459869848	0.526030368764
164.0	0.00433839479393	0.530368763557
166.0	0.00216919739696	0.532537960954
169.0	0.00108459869848	0.533622559653
173.0	0.00216919739696	0.53579175705
175.0	0.00108459869848	0.536876355748
177.0	0.00325379609544	0.540130151844
179.0	0.00433839479393	0.544468546638
183.0	0.00325379609544	0.547722342733
187.0	0.00108459869848	0.548806941432
189.0	0.00216919739696	0.550976138829
191.0	0.00325379609544	0.554229934924
194.0	0.00216919739696	0.556399132321
196.0	0.00216919739696	0.558568329718
200.0	0.00108459869848	0.559652928416
206.0	0.00216919739696	0.561822125813
208.0	0.00216919739696	0.56399132321
211.0	0.00216919739696	0.566160520607
213.0	0.00216919739696	0.568329718004
215.0	0.00108459869848	0.569414316703
217.0	0.00325379609544	0.572668112798
219.0	0.00325379609544	0.575921908894
221.0	0.00108459869848	0.577006507592
223.0	0.00216919739696	0.579175704989
226.0	0.00108459869848	0.580260303688
229.0	0.00108459869848	0.581344902386
231.0	0.00325379609544	0.584598698482
233.0	0.00433839479393	0.588937093275
235.0	0.00216919739696	0.591106290672
238.0	0.00216919739696	0.593275488069
241.0	0.00542299349241	0.598698481562
243.0	0.00108459869848	0.59978308026
245.0	0.00325379609544	0.603036876356
247.0	0.00216919739696	0.605206073753
249.0	0.00108459869848	0.606290672451
252.0	0.00108459869848	0.60737527115
255.0	0.00325379609544	0.610629067245
257.0	0.00216919739696	0.612798264642
260.0	0.00325379609544	0.616052060738
266.0	0.00216919739696	0.618221258134
271.0	0.00108459869848	0.619305856833
273.0	0.00108459869848	0.620390455531
275.0	0.00108459869848	0.62147505423
277.0	0.00216919739696	0.623644251627
281.0	0.00325379609544	0.626898047722
285.0	0.00108459869848	0.627982646421
287.0	0.00108459869848	0.629067245119
289.0	0.00216919739696	0.631236442516
298.0	0.00108459869848	0.632321041215
300.0	0.00216919739696	0.634490238612
303.0	0.00108459869848	0.63557483731
305.0	0.00108459869848	0.636659436009
307.0	0.00216919739696	0.638828633406
309.0	0.00108459869848	0.639913232104
314.0	0.00216919739696	0.642082429501
318.0	0.00108459869848	0.6431670282
320.0	0.00216919739696	0.645336225597
322.0	0.00216919739696	0.647505422993
324.0	0.00108459869848	0.648590021692
326.0	0.00216919739696	0.650759219089
331.0	0.00325379609544	0.654013015184
335.0	0.00108459869848	0.655097613883
340.0	0.00108459869848	0.656182212581
342.0	0.00433839479393	0.660520607375
344.0	0.00216919739696	0.662689804772
347.0	0.00542299349241	0.668112798265
350.0	0.00325379609544	0.67136659436
352.0	0.00216919739696	0.673535791757
356.0	0.00216919739696	0.675704989154
360.0	0.00325379609544	0.678958785249
362.0	0.00216919739696	0.681127982646
369.0	0.00108459869848	0.682212581345
373.0	0.00108459869848	0.683297180043
376.0	0.00325379609544	0.686550976139
379.0	0.00216919739696	0.688720173536
384.0	0.00216919739696	0.690889370933
386.0	0.00325379609544	0.694143167028
388.0	0.00325379609544	0.697396963124
392.0	0.00216919739696	0.699566160521
395.0	0.00108459869848	0.700650759219
398.0	0.00216919739696	0.702819956616
403.0	0.00325379609544	0.706073752711
405.0	0.00325379609544	0.709327548807
407.0	0.00216919739696	0.711496746204
410.0	0.00108459869848	0.712581344902
415.0	0.00216919739696	0.714750542299
418.0	0.00108459869848	0.715835140998
421.0	0.00433839479393	0.720173535792
429.0	0.00325379609544	0.723427331887
433.0	0.00108459869848	0.724511930586
435.0	0.00108459869848	0.725596529284
438.0	0.00108459869848	0.726681127983
441.0	0.00325379609544	0.729934924078
443.0	0.00108459869848	0.731019522777
446.0	0.00216919739696	0.733188720174
448.0	0.00108459869848	0.734273318872
451.0	0.00216919739696	0.736442516269
453.0	0.00325379609544	0.739696312364
458.0	0.00108459869848	0.740780911063
461.0	0.00216919739696	0.74295010846
466.0	0.00216919739696	0.745119305857
468.0	0.00216919739696	0.747288503254
470.0	0.00108459869848	0.748373101952
472.0	0.00216919739696	0.750542299349
474.0	0.00325379609544	0.753796095445
476.0	0.00216919739696	0.755965292842
478.0	0.00108459869848	0.75704989154
486.0	0.00325379609544	0.760303687636
488.0	0.00108459869848	0.761388286334
492.0	0.00108459869848	0.762472885033
494.0	0.00216919739696	0.76464208243
499.0	0.00108459869848	0.765726681128
501.0	0.00216919739696	0.767895878525
506.0	0.00108459869848	0.768980477223
508.0	0.00433839479393	0.773318872017
510.0	0.00433839479393	0.777657266811
515.0	0.00216919739696	0.779826464208
519.0	0.00108459869848	0.780911062907
521.0	0.00108459869848	0.781995661605
526.0	0.00433839479393	0.786334056399
528.0	0.00108459869848	0.787418655098
534.0	0.00108459869848	0.788503253796
537.0	0.00108459869848	0.789587852495
539.0	0.00216919739696	0.791757049892
544.0	0.00108459869848	0.79284164859
546.0	0.00108459869848	0.793926247289
549.0	0.00108459869848	0.795010845987
551.0	0.00216919739696	0.797180043384
555.0	0.00216919739696	0.799349240781
559.0	0.00108459869848	0.800433839479
562.0	0.00216919739696	0.802603036876
564.0	0.00216919739696	0.804772234273
567.0	0.00108459869848	0.805856832972
570.0	0.00325379609544	0.809110629067
572.0	0.00216919739696	0.811279826464
578.0	0.00108459869848	0.812364425163
580.0	0.00216919739696	0.81453362256
582.0	0.00108459869848	0.815618221258
585.0	0.00108459869848	0.816702819957
589.0	0.00108459869848	0.817787418655
592.0	0.00108459869848	0.818872017354
596.0	0.00216919739696	0.821041214751
598.0	0.00216919739696	0.823210412148
612.0	0.00108459869848	0.824295010846
618.0	0.00108459869848	0.825379609544
621.0	0.00108459869848	0.826464208243
627.0	0.00108459869848	0.827548806941
632.0	0.00216919739696	0.829718004338
635.0	0.00216919739696	0.831887201735
641.0	0.00108459869848	0.832971800434
652.0	0.00216919739696	0.835140997831
656.0	0.00108459869848	0.836225596529
658.0	0.00108459869848	0.837310195228
669.0	0.00325379609544	0.840563991323
673.0	0.00216919739696	0.84273318872
678.0	0.00108459869848	0.843817787419
681.0	0.00108459869848	0.844902386117
684.0	0.00325379609544	0.848156182213
689.0	0.00108459869848	0.849240780911
691.0	0.00108459869848	0.85032537961
700.0	0.00325379609544	0.853579175705
705.0	0.00108459869848	0.854663774403
711.0	0.00108459869848	0.855748373102
720.0	0.00108459869848	0.8568329718
722.0	0.00108459869848	0.857917570499
725.0	0.00108459869848	0.859002169197
734.0	0.00216919739696	0.861171366594
737.0	0.00108459869848	0.862255965293
746.0	0.00216919739696	0.86442516269
748.0	0.00216919739696	0.866594360087
752.0	0.00325379609544	0.869848156182
756.0	0.00108459869848	0.870932754881
759.0	0.00108459869848	0.872017353579
774.0	0.00108459869848	0.873101952278
777.0	0.00108459869848	0.874186550976
785.0	0.00216919739696	0.876355748373
791.0	0.00108459869848	0.877440347072
794.0	0.00108459869848	0.87852494577
804.0	0.00216919739696	0.880694143167
812.0	0.00108459869848	0.881778741866
815.0	0.00108459869848	0.882863340564
817.0	0.00216919739696	0.885032537961
821.0	0.00108459869848	0.886117136659
823.0	0.00108459869848	0.887201735358
830.0	0.00108459869848	0.888286334056
832.0	0.00216919739696	0.890455531453
835.0	0.00108459869848	0.891540130152
837.0	0.00216919739696	0.893709327549
850.0	0.00216919739696	0.895878524946
854.0	0.00108459869848	0.896963123644
860.0	0.00108459869848	0.898047722343
866.0	0.00108459869848	0.899132321041
868.0	0.00108459869848	0.90021691974
879.0	0.00108459869848	0.901301518438
884.0	0.00108459869848	0.902386117137
893.0	0.00108459869848	0.903470715835
895.0	0.00216919739696	0.905639913232
904.0	0.00108459869848	0.906724511931
909.0	0.00216919739696	0.908893709328
912.0	0.00108459869848	0.909978308026
915.0	0.00108459869848	0.911062906725
917.0	0.00108459869848	0.912147505423
926.0	0.00108459869848	0.913232104121
928.0	0.00108459869848	0.91431670282
941.0	0.00108459869848	0.915401301518
943.0	0.00325379609544	0.918655097614
950.0	0.00108459869848	0.919739696312
955.0	0.00216919739696	0.921908893709
961.0	0.00108459869848	0.922993492408
972.0	0.00108459869848	0.924078091106
980.0	0.00108459869848	0.925162689805
988.0	0.00108459869848	0.926247288503
990.0	0.00108459869848	0.927331887202
993.0	0.00325379609544	0.930585683297
1011.0	0.00216919739696	0.932754880694
1017.0	0.00108459869848	0.933839479393
1022.0	0.00108459869848	0.934924078091
1030.0	0.00325379609544	0.938177874187
1043.0	0.00108459869848	0.939262472885
1047.0	0.00108459869848	0.940347071584
1057.0	0.00108459869848	0.941431670282
1068.0	0.00108459869848	0.94251626898
1075.0	0.00216919739696	0.944685466377
1079.0	0.00108459869848	0.945770065076
1087.0	0.00108459869848	0.946854663774
1112.0	0.00108459869848	0.947939262473
1121.0	0.00216919739696	0.95010845987
1130.0	0.00108459869848	0.951193058568
1134.0	0.00108459869848	0.952277657267
1141.0	0.00108459869848	0.953362255965
1147.0	0.00108459869848	0.954446854664
1160.0	0.00108459869848	0.955531453362
1199.0	0.00108459869848	0.956616052061
1212.0	0.00108459869848	0.957700650759
1215.0	0.00216919739696	0.959869848156
1240.0	0.00216919739696	0.962039045553
1243.0	0.00108459869848	0.963123644252
1255.0	0.00108459869848	0.96420824295
1269.0	0.00108459869848	0.965292841649
1271.0	0.00108459869848	0.966377440347
1275.0	0.00216919739696	0.968546637744
1278.0	0.00108459869848	0.969631236443
1287.0	0.00108459869848	0.970715835141
1298.0	0.00108459869848	0.971800433839
1304.0	0.00108459869848	0.972885032538
1345.0	0.00108459869848	0.973969631236
1349.0	0.00216919739696	0.976138828633
1367.0	0.00108459869848	0.977223427332
1375.0	0.00108459869848	0.97830802603
1440.0	0.00108459869848	0.979392624729
1473.0	0.00108459869848	0.980477223427
1475.0	0.00108459869848	0.981561822126
1535.0	0.00108459869848	0.982646420824
1546.0	0.00108459869848	0.983731019523
1554.0	0.00108459869848	0.984815618221
1593.0	0.00108459869848	0.98590021692
1644.0	0.00108459869848	0.986984815618
1688.0	0.00108459869848	0.988069414317
1724.0	0.00108459869848	0.989154013015
1782.0	0.00108459869848	0.990238611714
1848.0	0.00108459869848	0.991323210412
1911.0	0.00108459869848	0.992407809111
1913.0	0.00108459869848	0.993492407809
1931.0	0.00108459869848	0.994577006508
2116.0	0.00108459869848	0.995661605206
2184.0	0.00108459869848	0.996746203905
2304.0	0.00108459869848	0.997830802603
2557.0	0.00108459869848	0.998915401302
2687.0	0.00108459869848	1.0
3156.0	0.00108459869848	1.0
