#
# Generated On: 2012-02-05T16:48:27.772019
#           By: cwa.analyze.jobs_per_executableid
#      Version: 11.3.16
#       Author: Thomas A. de Ruiter <thomas@de-ruiter.cx>
#
#  Commandline: /home/af10028/bin/cwa analyze
#     Work Dir: /scratch/af10028/var/thesis-project/result/analyses/workload-01h-04944l-3s-fair
#

Time	ID_-1
0	1272
3600	105
7200	13
10800	6
14400	3
