#
# Generated On: 2012-02-05T16:48:42.867208
#           By: cwa.analyze.statistics
#      Version: 11.11.23
#       Author: Thomas A. de Ruiter <thomas@de-ruiter.cx>
#
#  Commandline: /home/af10028/bin/cwa analyze
#     Work Dir: /scratch/af10028/var/thesis-project/result/analyses/workload-01h-04944l-3s-fair
#

Time	Sum	Avg	StdDev	CoV	0.000000-Pct	0.010000-Pct	0.100000-Pct	1.000000-Pct	2.000000-Pct	5.000000-Pct	25.000000-Pct	50.000000-Pct	75.000000-Pct	95.000000-Pct	98.000000-Pct	99.000000-Pct	99.900000-Pct	99.990000-Pct	100.000000-Pct
1326956400	5286628.0	154.2505179	365.971947822	2.37258164707	2.0	2.0	2.0	2.0	2.0	2.0	3.0	20.0	101.0	896.0	1334.0	1904.0	3113.0	3148.0	3149.0
1326960000	220125.0	177.663438257	409.368299219	2.30417863819	2.0	2.0	2.0	2.0	2.0	2.0	3.0	20.0	89.0	1652.0	1847.0	1850.0	1883.0	1901.0	1901.0
