#
# Generated On: 2012-02-05T17:10:39.524074
#           By: cwa.analyze.statistics
#      Version: 11.11.23
#       Author: Thomas A. de Ruiter <thomas@de-ruiter.cx>
#
#  Commandline: /home/af10028/bin/cwa analyze
#     Work Dir: /scratch/af10028/var/thesis-project/result/analyses/workload-01h-09888l-2s-fair
#

Time	Sum	Avg	StdDev	CoV	0.000000-Pct	0.010000-Pct	0.100000-Pct	1.000000-Pct	2.000000-Pct	5.000000-Pct	25.000000-Pct	50.000000-Pct	75.000000-Pct	95.000000-Pct	98.000000-Pct	99.000000-Pct	99.900000-Pct	99.990000-Pct	100.000000-Pct
1326952800	33931535.0	2275.75687458	2735.38989335	1.20196929817	5.0	5.0	5.0	5.0	5.0	6.0	470.0	1022.0	3119.0	8367.0	9782.0	11009.0	14320.0	18779.0	18955.0
1326956400	24909855.0	2484.27794954	2924.13522443	1.17705638573	5.0	5.0	5.0	5.0	5.0	5.0	6.0	1580.0	3862.0	8231.0	10682.0	12883.0	17609.0	18221.0	18368.0
1326960000	18955829.0	2370.36751282	2489.5316846	1.05027244557	5.0	5.0	5.0	5.0	5.0	5.0	231.0	1757.0	3571.0	7491.0	9053.0	10051.0	14466.0	14766.0	14766.0
1326963600	9407697.0	2737.97933644	2416.1911842	0.882472395624	5.0	5.0	5.0	5.0	5.0	5.0	305.0	1718.0	5071.0	6339.0	7368.0	7431.0	7509.0	7557.0	7557.0
