#
# Generated On: 2012-02-05T17:10:02.140453
#           By: cwa.analyze.statistics
#      Version: 11.11.23
#       Author: Thomas A. de Ruiter <thomas@de-ruiter.cx>
#
#  Commandline: /home/af10028/bin/cwa analyze
#     Work Dir: /scratch/af10028/var/thesis-project/result/analyses/workload-01h-09888l-2s-fair
#

Time	Sum	Avg	StdDev	CoV	0.000000-Pct	0.010000-Pct	0.100000-Pct	1.000000-Pct	2.000000-Pct	5.000000-Pct	25.000000-Pct	50.000000-Pct	75.000000-Pct	95.000000-Pct	98.000000-Pct	99.000000-Pct	99.900000-Pct	99.990000-Pct	100.000000-Pct
1326952800	111193.0	328.973372781	404.172557532	1.22858745106	3.0	3.0	3.0	3.0	3.0	3.0	8.0	168.5	557.0	1203.0	1497.0	1593.0	1749.0	1749.0	1749.0
1326953400	138971.0	326.223004695	419.413421801	1.28566476234	3.0	3.0	3.0	3.0	3.0	3.0	9.0	173.5	479.0	1243.0	1534.0	1734.0	2996.0	2996.0	2996.0
1326954000	81473.0	279.017123288	345.300720148	1.23756103597	3.0	3.0	3.0	3.0	3.0	3.0	6.0	163.5	447.0	933.0	1367.0	1831.0	2039.0	2039.0	2039.0
1326954600	140167.0	330.58254717	460.291405054	1.39236450622	2.0	2.0	2.0	3.0	3.0	3.0	4.0	151.5	531.0	1257.0	1586.0	2028.0	3524.0	3524.0	3524.0
1326955200	106255.0	319.084084084	428.495728443	1.34289282925	3.0	3.0	3.0	3.0	3.0	3.0	9.0	150.0	479.0	1146.0	1533.0	1746.0	3210.0	3210.0	3210.0
1326955800	126852.0	311.675675676	410.019509296	1.31553259139	2.0	2.0	2.0	3.0	3.0	3.0	4.0	159.0	488.0	1133.0	1607.0	1712.0	1992.0	1992.0	1992.0
1326956400	4689.0	203.869565217	272.959255093	1.338891633	3.0	3.0	3.0	3.0	3.0	3.0	3.0	99.0	288.0	822.0	937.0	937.0	937.0	937.0	937.0
