#
# Generated On: 2012-02-05T16:53:20.947855
#           By: cwa.analyze.statistics
#      Version: 11.11.23
#       Author: Thomas A. de Ruiter <thomas@de-ruiter.cx>
#
#  Commandline: /home/af10028/bin/cwa analyze
#     Work Dir: /scratch/af10028/var/thesis-project/result/analyses/workload-01h-06180l-3s-fair
#

Time	Sum	Avg	StdDev	CoV	0.000000-Pct	0.010000-Pct	0.100000-Pct	1.000000-Pct	2.000000-Pct	5.000000-Pct	25.000000-Pct	50.000000-Pct	75.000000-Pct	95.000000-Pct	98.000000-Pct	99.000000-Pct	99.900000-Pct	99.990000-Pct	100.000000-Pct
1326956400	1108308.0	293.358390683	823.789653913	2.80813394154	2.0	2.0	2.0	2.0	2.0	2.0	5.0	24.0	128.0	1463.0	3332.0	5553.0	5554.0	5554.0	5554.0
1326957000	17136798.0	877.415288516	2539.65369228	2.89447166641	2.0	2.0	2.0	2.0	2.0	2.0	8.0	47.0	299.0	5167.0	13992.0	13993.0	13994.0	13995.0	13995.0
1326957600	15268372.0	708.574902543	1651.20142002	2.33031315969	2.0	2.0	2.0	2.0	2.0	2.0	9.0	59.0	350.0	5224.0	6807.0	8453.0	9134.0	9134.0	9134.0
1326958200	10457651.0	412.091697206	1268.05033165	3.07710720755	2.0	2.0	2.0	2.0	2.0	2.0	6.0	41.0	203.0	1808.0	5355.0	8678.0	9800.0	9801.0	9803.0
1326958800	4428119.0	195.277782678	459.974777759	2.35548955673	2.0	2.0	2.0	2.0	2.0	2.0	6.0	38.0	176.0	917.0	1460.0	2129.0	5053.0	11504.0	12948.0
1326959400	5274481.0	248.304349873	689.851765032	2.77825082559	2.0	2.0	2.0	2.0	2.0	2.0	6.0	38.0	185.0	1172.0	2033.0	3157.0	8534.0	12251.0	12278.0
1326960000	4835239.0	285.113450086	770.128529904	2.70113012793	2.0	2.0	2.0	2.0	2.0	2.0	6.0	44.0	218.0	1304.0	2555.0	3833.0	8403.0	10674.0	11231.0
1326960600	4353767.0	3227.40326168	2478.36321211	0.767912470543	5.0	5.0	5.0	5.0	5.0	6.0	1394.0	2747.0	4675.0	7890.0	10181.0	10472.0	11084.0	11159.0	11159.0
1326961200	3518487.0	3416.00679612	2442.90703194	0.715135296195	5.0	5.0	5.0	5.0	5.0	6.0	1628.0	2878.5	4453.0	9294.0	9849.0	10223.0	10548.0	10600.0	10600.0
1326961800	2107717.0	3303.63166144	2400.80996616	0.726718415429	5.0	5.0	5.0	5.0	5.0	380.0	1502.0	2611.5	4693.0	8937.0	9260.0	9704.0	9924.0	9924.0	9924.0
1326962400	3364434.0	3201.17411989	2482.87418685	0.775613601094	5.0	5.0	5.0	5.0	5.0	95.0	1229.0	2767.0	4783.0	8435.0	8912.0	9131.0	9392.0	9395.0	9395.0
1326963000	2273465.0	2441.96025779	2544.60819037	1.04203505453	5.0	5.0	5.0	5.0	5.0	5.0	314.0	1538.0	3700.0	7758.0	8376.0	8496.0	8754.0	8754.0	8754.0
1326963600	3597304.0	2654.83690037	2532.22982244	0.953817472588	5.0	5.0	5.0	5.0	5.0	5.0	668.0	1691.0	4429.0	7224.0	7365.0	8124.0	8171.0	8172.0	8172.0
1326964200	1353135.0	3570.27704485	2764.4703416	0.774301351652	206.0	206.0	206.0	206.0	206.0	206.0	308.0	5437.0	5647.0	6750.0	6810.0	6855.0	6858.0	6858.0	6858.0
