#
# Generated On: 2012-02-05T20:00:12.820124
#           By: cwa.analyze.statistics
#      Version: 11.11.23
#       Author: Thomas A. de Ruiter <thomas@de-ruiter.cx>
#
#  Commandline: /home/af10028/bin/cwa analyze
#     Work Dir: /scratch/af10028/var/thesis-project/result/analyses/workload-06h-08652l-3s-default
#

Time	Sum	Avg	StdDev	CoV	0.000000-Pct	0.010000-Pct	0.100000-Pct	1.000000-Pct	2.000000-Pct	5.000000-Pct	25.000000-Pct	50.000000-Pct	75.000000-Pct	95.000000-Pct	98.000000-Pct	99.000000-Pct	99.900000-Pct	99.990000-Pct	100.000000-Pct
1327098600	72772317.0	5984.07343146	3198.71120906	0.534537426002	2.0	2.0	2.0	3.0	27.0	311.0	3566.0	6609.0	8984.0	9907.0	10130.0	10766.0	16147.0	24634.0	25197.0
