#
# Generated On: 2012-02-05T20:01:24.285241
#           By: cwa.analyze.jobs_per_executableid
#      Version: 11.3.16
#       Author: Thomas A. de Ruiter <thomas@de-ruiter.cx>
#
#  Commandline: /home/af10028/bin/cwa analyze
#     Work Dir: /scratch/af10028/var/thesis-project/result/analyses/workload-06h-08652l-3s-default
#

Time	ID_-1
0	24545
600	31657
1200	30404
1800	32932
2400	32004
3000	31205
3600	30442
4200	29339
4800	29995
5400	32667
6000	31157
6600	30552
7200	34718
7800	28199
8400	29372
9000	32311
9600	30838
10200	32806
10800	32167
11400	37119
12000	32905
12600	31746
13200	30232
13800	29284
14400	31460
15000	29933
15600	32881
16200	32255
16800	29910
17400	37238
18000	31106
18600	33527
19200	32045
19800	33973
20400	30914
21000	32316
21600	30802
22200	27615
22800	30819
23400	35880
24000	35944
24600	31667
25200	28861
25800	9338
26400	9362
27000	7862
27600	11620
28200	8709
28800	9129
29400	10915
30000	12007
30600	4382
31200	3808
31800	2943
32400	2623
33000	2273
33600	2066
34200	1819
34800	1141
35400	1061
36000	1029
36600	915
37200	893
37800	553
38400	286
39000	286
39600	286
40200	286
