#
# Generated On: 2012-02-06T00:22:52.092576
#           By: cwa.analyze.statistics
#      Version: 11.11.23
#       Author: Thomas A. de Ruiter <thomas@de-ruiter.cx>
#
#  Commandline: /home/af10028/bin/cwa analyze
#     Work Dir: /scratch/af10028/var/thesis-project/result/analyses/workload-24h-11124l-0s-default
#

Time	Sum	Avg	StdDev	CoV	0.000000-Pct	0.010000-Pct	0.100000-Pct	1.000000-Pct	2.000000-Pct	5.000000-Pct	25.000000-Pct	50.000000-Pct	75.000000-Pct	95.000000-Pct	98.000000-Pct	99.000000-Pct	99.900000-Pct	99.990000-Pct	100.000000-Pct
1327549800	240289.0	1013.87763713	1845.96786135	1.82070083583	2.0	2.0	2.0	2.0	2.0	3.0	12.0	248.0	1053.0	5108.0	6683.0	7349.0	13354.0	13354.0	13354.0
1327550400	364980.0	800.394736842	1446.47374252	1.80720046739	2.0	2.0	2.0	2.0	3.0	3.0	75.0	348.0	820.0	3556.0	6735.0	7709.0	11485.0	11485.0	11485.0
1327551000	947018.0	1944.59548255	1769.94283888	0.910185616888	2.0	2.0	2.0	3.0	3.0	14.0	614.0	1619.0	2871.0	5261.0	7214.0	8782.0	12286.0	12286.0	12286.0
1327551600	1443535.0	3243.8988764	2018.73098934	0.622316251602	236.0	236.0	236.0	253.0	276.0	307.0	458.0	3717.0	4229.0	6252.0	7824.0	9511.0	13053.0	13053.0	13053.0
1327552200	1894078.0	3913.38429752	2197.53943735	0.561544502221	385.0	385.0	385.0	404.0	414.0	427.0	908.0	4894.0	5033.0	5541.0	7201.0	9499.0	16698.0	16698.0	16698.0
1327552800	2176239.0	4741.26143791	2177.70576195	0.459309361121	955.0	955.0	955.0	959.0	1032.0	1050.0	1639.0	5743.0	5814.0	6060.0	8432.0	9616.0	13573.0	13573.0	13573.0
1327553400	2376994.0	4688.35108481	2092.53798918	0.446327067092	1329.0	1329.0	1329.0	1333.0	1339.0	1351.0	1505.0	5758.0	5819.0	5865.0	7239.0	9385.0	13889.0	13889.0	13889.0
1327554000	2459422.0	5346.56956522	2281.68617215	0.426757034453	1584.0	1584.0	1584.0	1586.0	1600.0	1619.0	1964.0	6198.5	6901.0	7184.0	8364.0	9620.0	12619.0	12619.0	12619.0
1327554600	2750631.0	6058.65859031	2138.41276786	0.352951521527	2078.0	2078.0	2078.0	2090.0	2104.0	2217.0	6989.0	7145.5	7211.0	7237.0	8144.0	8425.0	13480.0	13480.0	13480.0
1327555200	3285842.0	6493.75889328	2471.95236368	0.380665867689	2200.0	2200.0	2200.0	2210.0	2215.0	2230.0	3326.0	7132.5	8335.0	8970.0	8997.0	9924.0	13221.0	13221.0	13221.0
1327555800	3466921.0	7487.95032397	2723.27161671	0.363687190605	2821.0	2821.0	2821.0	2846.0	2855.0	2882.0	3170.0	8768.0	8940.0	9436.0	11421.0	13072.0	14376.0	14376.0	14376.0
1327556400	3958759.0	8700.56923077	2930.24283156	0.33678748526	3139.0	3139.0	3139.0	3144.0	3184.0	3208.0	9534.0	10248.0	10358.0	10485.0	10523.0	11916.0	14595.0	14595.0	14595.0
1327557000	4539123.0	8613.13662239	2940.56853423	0.34140507264	3635.0	3635.0	3635.0	3647.0	3653.0	3661.0	4026.0	10328.0	10419.0	10506.0	10521.0	12132.0	13455.0	13455.0	13455.0
1327557600	4157510.0	8940.88172043	2604.25142568	0.291274564087	4020.0	4020.0	4020.0	4027.0	4030.0	4186.0	10221.0	10364.0	10419.0	10514.0	10533.0	11036.0	13589.0	13589.0	13589.0
1327558200	4351015.0	8861.53767821	2326.25649789	0.262511607169	4537.0	4537.0	4537.0	4613.0	4647.0	4756.0	9939.0	10096.0	10162.0	10239.0	10942.0	11457.0	13840.0	13840.0	13840.0
1327558800	4819696.0	9395.11890838	2206.42701297	0.234848226455	4973.0	4973.0	4973.0	4996.0	5021.0	5195.0	10162.0	10537.0	10598.0	10796.0	11389.0	12190.0	12548.0	12548.0	12548.0
1327559400	3871169.0	9653.78802993	2280.84765876	0.236264526597	5677.0	5677.0	5677.0	5679.0	5684.0	5759.0	6190.0	10721.0	11278.0	11446.0	11549.0	11777.0	12531.0	12531.0	12531.0
1327560000	3753400.0	9982.44680851	2061.68948903	0.20653147756	6182.0	6182.0	6182.0	6182.0	6185.0	6196.0	10934.0	11077.5	11149.0	11284.0	11419.0	11511.0	11644.0	11644.0	11644.0
1327560600	802959.0	6581.63114754	115.812130627	0.0175962657327	6428.0	6428.0	6428.0	6428.0	6431.0	6463.0	6488.0	6573.0	6652.0	6672.0	6742.0	6963.0	7449.0	7449.0	7449.0
1327561200	669589.0	6974.88541667	257.539199665	0.0369237893213	6626.0	6626.0	6626.0	6626.0	6634.0	6637.0	6821.0	6982.0	7203.0	7333.0	7366.0	8075.0	8075.0	8075.0	8075.0
1327561800	665756.0	7397.28888889	99.5247408058	0.0134542184712	7258.0	7258.0	7258.0	7258.0	7259.0	7261.0	7347.0	7422.5	7442.0	7465.0	7469.0	8095.0	8095.0	8095.0	8095.0
1327562400	917835.0	7712.89915966	236.745389766	0.0306947342193	7425.0	7425.0	7425.0	7425.0	7428.0	7432.0	7551.0	7639.0	7902.0	7992.0	8000.0	8398.0	9037.0	9037.0	9037.0
1327563000	883709.0	8182.49074074	113.1820546	0.0138322251973	7990.0	7990.0	7990.0	7990.0	7995.0	8003.0	8089.0	8225.5	8260.0	8281.0	8448.0	8486.0	8687.0	8687.0	8687.0
1327563600	310587.0	8173.34210526	38.3717775763	0.0046947475197	8118.0	8118.0	8118.0	8118.0	8118.0	8118.0	8124.0	8189.5	8205.0	8220.0	8226.0	8226.0	8226.0	8226.0	8226.0
