#
# Generated On: 2012-02-05T19:20:43.580487
#           By: cwa.analyze.jobs_per_executableid
#      Version: 11.3.16
#       Author: Thomas A. de Ruiter <thomas@de-ruiter.cx>
#
#  Commandline: /home/af10028/bin/cwa analyze
#     Work Dir: /scratch/af10028/var/thesis-project/result/analyses/workload-06h-07416l-3s-fair
#

Time	ID_-1
0	1637
3600	1991
7200	1910
10800	1857
14400	2065
18000	1870
21600	226
25200	54
28800	7
